{
    "create_promotion_rule": {
        "url": "https://admin.staging.shopee.vn/shipment/promotion/promotions/",
        "payload": {
            "description": "TWQA_WelcomePackage",
            "status": 1,
            "start_time": 0,
            "end_time": 0,
            "priority": 100,
            "channels": {
                "50012": {}
            },
            "discount_rule_flag": 66576,
            "discount_flag": 2,
            "discount_delta": 0,
            "rebate_rule_flag": 0,
            "rebate_flag": 0,
            "rebate_delta": 0,
            "buyer_scope_type": 1,
            "seller_scope_type": 1,
            "extra_data": {
                "percentage_discount_cap": 0,
                "percentage_rebate_cap": 0,
                "min_order_total": 0,
                "buyer_location_group_id": 0,
                "buyer_user_tag": {},
                "seller_location_group_id": 0,
                "seller_user_tag": {},
                "entity_permission_group": 0,
                "discount_rounding_factor": 0,
                "rebate_rounding_factor": 0,
                "buyer_list_entity_permission_group": 0,
                "payment_type": 0
            }
        },
        "headers": {
            "content-type": "application/json",
            "user-agent": "Mozilla/5.0 (Windows NT 10.0; Win64; x64) AppleWebKit/537.36 (KHTML, like Gecko) Chrome/79.0.3945.130 Safari/537.36",
            "referer": "https://admin.staging.shopee.vn/shipment/promotion/",
            "x-csrftoken": "",
            "x-requested-with": "XMLHttpRequest"
        },
        "response_status": 200,
        "response_text": {
            "message": "success",
            "code": 0,
            "user_message": "success"
        }
    }
}