shop_id,product_id
455290,100199039
455290,100199042
455290,100199043
455290,100199045
455290,100199047
455290,100199048
455290,100199049
455290,100199050
455290,100199105
455290,100199107
453656,100271213
453656,100271055
453656,100271054
453656,100270429
453656,100267899
453656,100267247
453656,100267220
453656,100267219
453656,100267217
453656,100199551
453656,100199054
