{
	"offset_hybrid_content":{
		"api_command": "search.feedserver.feed_search_hashtag",
		"req":{
			"header":{
						"requestid":"mall_api.sg2.vFHlbD8AJrH5GuLUDVxeF.7jpUB4c5b7boV7LrwrR2IZ_mesos-agent-sg2-test-35.shopeemobile.com",
						"country":"ID",
						"sessionid":"rxok8ht7uax65g04ufnv93lnwhja3i35",
						"source":"mall",
						"platform":128
					},
			"keyword":"test",
			"offset":"Te123測",
			"limit":100,
			"sorttype":1
			},
		"response_text":{}
		},

	"offset_null":{
		"api_command": "search.feedserver.feed_search_hashtag",
		"req":{
			"header":{
						"requestid":"mall_api.sg2.vFHlbD8AJrH5GuLUDVxeF.7jpUB4c5b7boV7LrwrR2IZ_mesos-agent-sg2-test-35.shopeemobile.com",
						"country":"ID",
						"sessionid":"rxok8ht7uax65g04ufnv93lnwhja3i35",
						"source":"mall",
						"platform":128
					},
			"keyword":"test",
			"offset":"",
			"limit":100,
			"sorttype":1
			},
		"response_text":{}
		},
		
	"offset_eng":{
		"api_command": "search.feedserver.feed_search_hashtag",
		"req":{
			"header":{
						"requestid":"mall_api.sg2.vFHlbD8AJrH5GuLUDVxeF.7jpUB4c5b7boV7LrwrR2IZ_mesos-agent-sg2-test-35.shopeemobile.com",
						"country":"ID",
						"sessionid":"rxok8ht7uax65g04ufnv93lnwhja3i35",
						"source":"mall",
						"platform":128
					},
			"keyword":"test",
			"offset":"test",
			"limit":100,
			"sorttype":1
			},
		"response_text":{}
		},
		
	"offset_over100":{
		"api_command": "search.feedserver.feed_search_hashtag",
		"req":{
			"header":{
						"requestid":"mall_api.sg2.vFHlbD8AJrH5GuLUDVxeF.7jpUB4c5b7boV7LrwrR2IZ_mesos-agent-sg2-test-35.shopeemobile.com",
						"country":"ID",
						"sessionid":"rxok8ht7uax65g04ufnv93lnwhja3i35",
						"source":"mall",
						"platform":128
					},
			"keyword":"test",
			"offset":150,
			"limit":100,
			"sorttype":1
			},
		"response_text":{}
		},
		
	"offset_space":{
		"api_command": "search.feedserver.feed_search_hashtag",
		"req":{
			"header":{
						"requestid":"mall_api.sg2.vFHlbD8AJrH5GuLUDVxeF.7jpUB4c5b7boV7LrwrR2IZ_mesos-agent-sg2-test-35.shopeemobile.com",
						"country":"ID",
						"sessionid":"rxok8ht7uax65g04ufnv93lnwhja3i35",
						"source":"mall",
						"platform":128
					},
			"keyword":"test",
			"offset":" ",
			"limit":100,
			"sorttype":1
			},
		"response_text":{}
		},
		
	"offset_spec_char":{
		"api_command": "search.feedserver.feed_search_hashtag",
		"req":{
			"header":{
						"requestid":"mall_api.sg2.vFHlbD8AJrH5GuLUDVxeF.7jpUB4c5b7boV7LrwrR2IZ_mesos-agent-sg2-test-35.shopeemobile.com",
						"country":"ID",
						"sessionid":"rxok8ht7uax65g04ufnv93lnwhja3i35",
						"source":"mall",
						"platform":128
					},
			"keyword":"test",
			"offset":"%",
			"limit":100,
			"sorttype":1
			},
		"response_text":{}
		},
		
	"offset_emoji":{
		"api_command": "search.feedserver.feed_search_hashtag",
		"req":{
			"header":{
						"requestid":"mall_api.sg2.vFHlbD8AJrH5GuLUDVxeF.7jpUB4c5b7boV7LrwrR2IZ_mesos-agent-sg2-test-35.shopeemobile.com",
						"country":"ID",
						"sessionid":"rxok8ht7uax65g04ufnv93lnwhja3i35",
						"source":"mall",
						"platform":128
					},
			"keyword":"test",
			"offset":"😁",
			"limit":100,
			"sorttype":1
			},
		"response_text":{}
		},
		
	"offset_diff_langue":{
		"api_command": "search.feedserver.feed_search_hashtag",
		"req":{
			"header":{
						"requestid":"mall_api.sg2.vFHlbD8AJrH5GuLUDVxeF.7jpUB4c5b7boV7LrwrR2IZ_mesos-agent-sg2-test-35.shopeemobile.com",
						"country":"ID",
						"sessionid":"rxok8ht7uax65g04ufnv93lnwhja3i35",
						"source":"mall",
						"platform":128
					},
			"keyword":"test",
			"offset":"ทดสอบ",
			"limit":100,
			"sorttype":1
			},
		"response_text":{}
		}
}