{
	"limit_hybrid_content":{
		"api_command": "search.feedserver.feed_search_hashtag",
		"req":{
			"header":{
						"requestid":"mall_api.sg2.vFHlbD8AJrH5GuLUDVxeF.7jpUB4c5b7boV7LrwrR2IZ_mesos-agent-sg2-test-35.shopeemobile.com",
						"country":"ID",
						"sessionid":"rxok8ht7uax65g04ufnv93lnwhja3i35",
						"source":"mall",
						"platform":128
					},
			"keyword":"test",
			"offset":0,
			"limit":"Te123測",
			"sorttype":1
			},
		"response_text":{}
		},

	"limit_eng":{
		"api_command": "search.feedserver.feed_search_hashtag",
		"req":{
			"header":{
						"requestid":"mall_api.sg2.vFHlbD8AJrH5GuLUDVxeF.7jpUB4c5b7boV7LrwrR2IZ_mesos-agent-sg2-test-35.shopeemobile.com",
						"country":"ID",
						"sessionid":"rxok8ht7uax65g04ufnv93lnwhja3i35",
						"source":"mall",
						"platform":128
					},
			"keyword":"test",
			"offset":0,
			"limit":"Test",
			"sorttype":1
			},
		"response_text":{}
		},

	"limit_equal100":{
		"api_command": "search.feedserver.feed_search_hashtag",
		"req":{
			"header":{
						"requestid":"mall_api.sg2.vFHlbD8AJrH5GuLUDVxeF.7jpUB4c5b7boV7LrwrR2IZ_mesos-agent-sg2-test-35.shopeemobile.com",
						"country":"ID",
						"sessionid":"rxok8ht7uax65g04ufnv93lnwhja3i35",
						"source":"mall",
						"platform":128
					},
			"keyword":"test",
			"offset":0,
			"limit":100,
			"sorttype":1
			},
		"response_text":{"header": {"requestid": "mall_api.sg2.vFHlbD8AJrH5GuLUDVxeF.7jpUB4c5b7boV7LrwrR2IZ_mesos-agent-sg2-test-35.shopeemobile.com"}, "hashtags": [{"hashtag_id": 688887797400064883}, {"hashtag_id": -3745896170116891701}, {"hashtag_id": -4988389339044455158}], "total_count": 3}
		},

	"limit_space":{
		"api_command": "search.feedserver.feed_search_hashtag",
		"req":{
			"header":{
						"requestid":"mall_api.sg2.vFHlbD8AJrH5GuLUDVxeF.7jpUB4c5b7boV7LrwrR2IZ_mesos-agent-sg2-test-35.shopeemobile.com",
						"country":"ID",
						"sessionid":"rxok8ht7uax65g04ufnv93lnwhja3i35",
						"source":"mall",
						"platform":128
					},
			"keyword":"test",
			"offset":0,
			"limit":" ",
			"sorttype":1
			},
		"response_text":{}
		},

	"limit_spec_char":{
		"api_command": "search.feedserver.feed_search_hashtag",
		"req":{
			"header":{
						"requestid":"mall_api.sg2.vFHlbD8AJrH5GuLUDVxeF.7jpUB4c5b7boV7LrwrR2IZ_mesos-agent-sg2-test-35.shopeemobile.com",
						"country":"ID",
						"sessionid":"rxok8ht7uax65g04ufnv93lnwhja3i35",
						"source":"mall",
						"platform":128
					},
			"keyword":"test",
			"offset":0,
			"limit":"%",
			"sorttype":1
			},
		"response_text":{}
		},

	"limit_emoji":{
		"api_command": "search.feedserver.feed_search_hashtag",
		"req":{
			"header":{
						"requestid":"mall_api.sg2.vFHlbD8AJrH5GuLUDVxeF.7jpUB4c5b7boV7LrwrR2IZ_mesos-agent-sg2-test-35.shopeemobile.com",
						"country":"ID",
						"sessionid":"rxok8ht7uax65g04ufnv93lnwhja3i35",
						"source":"mall",
						"platform":128
					},
			"keyword":"test",
			"offset":0,
			"limit":"😁",
			"sorttype":1
			},
		"response_text":{}
		},

	"limit_diff_langue":{
		"api_command": "search.feedserver.feed_search_hashtag",
		"req":{
			"header":{
						"requestid":"mall_api.sg2.vFHlbD8AJrH5GuLUDVxeF.7jpUB4c5b7boV7LrwrR2IZ_mesos-agent-sg2-test-35.shopeemobile.com",
						"country":"ID",
						"sessionid":"rxok8ht7uax65g04ufnv93lnwhja3i35",
						"source":"mall",
						"platform":128
					},
			"keyword":"test",
			"offset":0,
			"limit":"ทดสอบ",
			"sorttype":1
			},
		"response_text":{}
		}
}