{
	"not_in_country":{
		"api_command": "search.feedserver.feed_search_hashtag",
		"req":{
			"header":{
						"requestid":"mall_api.sg2.vFHlbD8AJrH5GuLUDVxeF.7jpUB4c5b7boV7LrwrR2IZ_mesos-agent-sg2-test-35.shopeemobile.com",
						"country":"US",
						"sessionid":"rxok8ht7uax65g04ufnv93lnwhja3i35",
						"source":"mall",
						"platform":128
					},
			"keyword":"test",
			"offset":0,
			"limit":100,
			"sorttype":1
			},
		"response_text":{"header": {"errcode": 10001}}
		}
}