{
    "add_to_cart_info": {
        "url": "https://staging.shopee.vn/api/v4/cart/add_to_cart",
        "headers": {
            "x-csrftoken": "2AzWm32UZWjVkDvuVpf8rTRD9piUKqKu",
            "referer": "https://staging.shopee.vn/",
            "cookie": "",
            "Content-Type": "application/json"
        },
        "payload": {
            "checkout": true,
            "client_source": 1,
            "donot_add_quantity": false,
            "itemid": 100978122,
            "modelid": 6517727,
            "quantity": 1,
            "shopid": 200689112,
            "source": "{'refer_urls':[]}",
            "update_checkout_only": false
        },
        "response_status": 200
    },
    "cart_checkout": {
        "url": "https://staging.shopee.vn/api/v4/cart/checkout",
        "headers": {
            "x-csrftoken": "2AzWm32UZWjVkDvuVpf8rTRD9piUKqKu",
            "referer": "https://staging.shopee.vn/",
            "cookie": "",
            "Content-Type": "application/json"
        },
        "payload": {
            "selected_shop_order_ids": [
                {
                    "shopid": 200689112,
                    "item_briefs": [
                        {
                            "itemid": 100978122,
                            "modelid": 6517727,
                            "item_group_id": null,
                            "applied_promotion_id": 0,
                            "offerid": null,
                            "price": 2345600000,
                            "quantity": 1,
                            "is_add_on_sub_item": null,
                            "add_on_deal_id": null,
                            "status": 1,
                            "cart_item_change_time": 1625212271
                        }
                    ],
                    "shop_vouchers": []
                }
            ],
            "platform_vouchers": [],
            "free_shipping_voucher_info": {
                "free_shipping_voucher_id": 0
            },
            "use_coins": false,
            "support_problematic_groups": true,
            "version": 1
        },
        "response_status": 200
    },
    "checkout_get": {
        "url": "https://staging.shopee.vn/api/v4/checkout/get",
        "headers": {
            "x-csrftoken": "2AzWm32UZWjVkDvuVpf8rTRD9piUKqKu",
            "referer": "https://staging.shopee.vn/checkout-page",
            "cookie": "",
            "Content-Type": "application/json",
            "x-api-source": "pc"
        },
        "payload": {
            "timestamp": 1625212308,
            "shoporders": [
                {
                    "shop": {
                        "shopid": 200689112
                    },
                    "items": [
                        {
                            "itemid": 100978122,
                            "modelid": 6517727,
                            "add_on_deal_id": 0,
                            "is_add_on_sub_item": false,
                            "item_group_id": 0,
                            "quantity": 1
                        }
                    ],
                    "logistics": {
                        "recommended_channelids": null
                    },
                    "buyer_address_data": {
                        "tax_address": "",
                        "address_type": 0,
                        "addressid": 17253
                    },
                    "selected_logistic_channelid": 50018,
                    "shipping_id": 1,
                    "selected_preferred_delivery_time_option_id": 0,
                    "selected_preferred_delivery_time_slot_id": null
                }
            ],
            "selected_payment_channel_data": {
                "payment_channelid": 59000,
                "version": 1
            },
            "promotion_data": {
                "use_coins": false,
                "free_shipping_voucher_info": {
                    "free_shipping_voucher_id": 0,
                    "disabled_reason": null,
                    "banner_info": {
                        "msg": "",
                        "learn_more_msg": ""
                    },
                    "free_shipping_voucher_code": ""
                },
                "platform_vouchers": [],
                "shop_vouchers": [],
                "check_shop_voucher_entrances": true,
                "auto_apply_shop_voucher": false
            },
            "fsv_selection_infos": [],
            "device_info": {
                "device_id": "",
                "device_fingerprint": "",
                "tongdun_blackbox": "",
                "buyer_payment_info": {}
            },
            "cart_type": 0,
            "client_id": 0,
            "tax_info": {
                "tax_id": ""
            },
            "shipping_orders": [
                {
                    "sync": true,
                    "logistics": {
                        "recommended_channelids": []
                    },
                    "buyer_address_data": {
                        "tax_address": "",
                        "address_type": 0,
                        "addressid": 17253
                    },
                    "selected_logistic_channelid": 50018,
                    "shipping_id": 1,
                    "shoporder_indexes": [
                        0
                    ],
                    "buyer_ic_number": "",
                    "selected_preferred_delivery_time_option_id": 0,
                    "selected_preferred_delivery_time_slot_id": null
                }
            ],
            "order_update_info": {},
            "checkout_price_data": {
                "shipping_subtotal": 3001400000,
                "shipping_discount_subtotal": 0,
                "shipping_subtotal_before_discount": 3001400000,
                "bundle_deals_discount": null,
                "group_buy_discount": 0,
                "merchandise_subtotal": 2345600000,
                "tax_payable": 0,
                "buyer_txn_fee": 0,
                "credit_card_promotion": null,
                "promocode_applied": null,
                "shopee_coins_redeemed": null,
                "total_payable": 5347000000,
                "tax_exemption": 0
            }
        },
        "response_status": 200
    },
    "place_order": {
        "url": "https://staging.shopee.vn/api/v4/checkout/place_order",
        "headers": {
            "x-csrftoken": "2AzWm32UZWjVkDvuVpf8rTRD9piUKqKu",
            "referer": "https://staging.shopee.vn/",
            "cookie": "",
            "Content-Type": "application/json"
        },
        "payload": {},
        "response_status": 200
    },
    "get_csrftoken": {
        "url": "https://admin.staging.shopee.vn/",
        "response_status": 200,
        "cookies": {
            "sessionid": ""
        }
    },
    "upload_mass_cancellation": {
        "headers": {
            "referer": "https://admin.staging.shopee.vn/order/mass_cancellation/logistics/",
            "user-agent": "Mozilla/5.0 (Windows NT 10.0; Win64; x64) AppleWebKit/537.36 (KHTML, like Gecko) Chrome/79.0.3945.130 Safari/537.36",
            "x-csrftoken": ""
        },
        "files": [],
        "payload": {
            "selection_action": ""
        },
        "response_status": 200,
        "response_text": {
            "code": 0,
            "message": "success",
            "user_message": "success"
        },
        "url": "https://admin.staging.shopee.vn/universal_mass_edit/upload/"
    }
}