{
    "get_csrftoken": {
        "url": "https://admin.staging.shopee.vn/",
        "response_status": 200,
        "cookies": {
            "sessionid": ""
        }
    },
    "modify_auto_cancel_order_settings": {
        "headers": {
            "referer": "https://admin.staging.shopee.vn/system/auto_cancel_settings/",
            "user-agent": "Mozilla/5.0 (Windows NT 10.0; Win64; x64) AppleWebKit/537.36 (KHTML, like Gecko) Chrome/79.0.3945.130 Safari/537.36",
            "x-csrftoken": ""
        },
        "payload": {
            "cb_d2": "0",
            "non_cb_d2": "0",
            "cb_d3": "1",
            "cvs_non_cb_d3": "",
            "non_cb_d3": "1",
            "cb_tws": "1"
        },
        "response_status": 200,
        "response_text": {
            "code": 0,
            "message": "success",
            "user_message": "success"
        },
        "url": "https://admin.staging.shopee.vn/system/auto_cancel_settings/update_settings/"
    }
}