{
    "add_to_cart_info": {
        "url": "https://staging.shopee.vn/api/v4/cart/add_to_cart",
        "headers": {
            "x-csrftoken": "2AzWm32UZWjVkDvuVpf8rTRD9piUKqKu",
            "referer": "https://staging.shopee.vn/",
            "cookie": "",
            "Content-Type": "application/json"
        },
        "payload": {
            "checkout": true,
            "client_source": 1,
            "donot_add_quantity": false,
            "itemid": 100978122,
            "modelid": 6517727,
            "quantity": 1,
            "shopid": 200689112,
            "source": "{'refer_urls':[]}",
            "update_checkout_only": false
        },
        "response_status": 200
    },
    "cart_checkout": {
        "url": "https://staging.shopee.vn/api/v4/cart/checkout",
        "headers": {
            "x-csrftoken": "2AzWm32UZWjVkDvuVpf8rTRD9piUKqKu",
            "referer": "https://staging.shopee.vn/",
            "cookie": "",
            "Content-Type": "application/json"
        },
        "payload": {
            "selected_shop_order_ids": [
                {
                    "shopid": 200689112,
                    "item_briefs": [
                        {
                            "itemid": 100978122,
                            "modelid": 6517727,
                            "item_group_id": null,
                            "applied_promotion_id": 0,
                            "offerid": null,
                            "price": 2345600000,
                            "quantity": 1,
                            "is_add_on_sub_item": null,
                            "add_on_deal_id": null,
                            "status": 1,
                            "cart_item_change_time": 1623321515
                        }
                    ],
                    "shop_vouchers": []
                }
            ],
            "platform_vouchers": [],
            "free_shipping_voucher_info": {
                "free_shipping_voucher_id": 0
            },
            "use_coins": false,
            "support_problematic_groups": true
        },
        "response_status": 200
    },
    "checkout_get": {
        "url": "https://staging.shopee.vn/api/v4/checkout/get",
        "headers": {
            "x-csrftoken": "2AzWm32UZWjVkDvuVpf8rTRD9piUKqKu",
            "referer": "https://staging.shopee.vn/checkout-page",
            "cookie": "",
            "Content-Type": "application/json",
            "x-api-source": "pc"
        },
        "payload": {
            "timestamp": 1623321527,
            "shoporders": [
                {
                    "shop": {
                        "shopid": 200689112
                    },
                    "items": [
                        {
                            "itemid": 100978122,
                            "modelid": 6517727,
                            "add_on_deal_id": 0,
                            "is_add_on_sub_item": false,
                            "item_group_id": 0,
                            "quantity": 1
                        }
                    ],
                    "logistics": {
                        "recommended_channelids": null
                    },
                    "buyer_address_data": {
                        "addressid": 16023,
                        "address_type": 0,
                        "tax_address": ""
                    },
                    "selected_logistic_channelid": 50018,
                    "shipping_id": 1,
                    "selected_preferred_delivery_time_option_id": 0,
                    "selected_preferred_delivery_time_slot_id": null
                }
            ],
            "selected_payment_channel_data": {
                "channel_id": 5000102,
                "channel_item_option_info": {
                    "channel_item_id": 3150,
                    "credit_card_data": {
                        "card_number": "400000xxxxxx0002",
                        "expiry_date": "12-2030",
                        "bank_name": "Citibank",
                        "bank_id": 6945
                    }
                },
                "version": 2
            },
            "promotion_data": {
                "use_coins": false,
                "free_shipping_voucher_info": {
                    "free_shipping_voucher_id": 0,
                    "free_shipping_voucher_code": "",
                    "disabled_reason": null,
                    "banner_info": {
                        "msg": "",
                        "learn_more_msg": ""
                    }
                },
                "platform_vouchers": [],
                "shop_vouchers": [],
                "check_shop_voucher_entrances": true,
                "auto_apply_shop_voucher": false
            },
            "fsv_selection_infos": [],
            "device_info": {
                "device_id": "",
                "device_fingerprint": "",
                "tongdun_blackbox": "",
                "buyer_payment_info": {}
            },
            "cart_type": 0,
            "client_id": 0,
            "tax_info": {
                "tax_id": ""
            },
            "shipping_orders": [
                {
                    "sync": true,
                    "logistics": {
                        "recommended_channelids": []
                    },
                    "buyer_address_data": {
                        "addressid": 16023,
                        "address_type": 0,
                        "tax_address": ""
                    },
                    "selected_logistic_channelid": 50018,
                    "shipping_id": 1,
                    "shoporder_indexes": [
                        0
                    ],
                    "buyer_ic_number": "",
                    "selected_preferred_delivery_time_option_id": 0,
                    "selected_preferred_delivery_time_slot_id": null
                }
            ],
            "order_update_info": {},
            "checkout_price_data": {
                "merchandise_subtotal": 2345600000,
                "total_payable": 5347000000,
                "shipping_subtotal": 3001400000,
                "shipping_subtotal_before_discount": 3001400000,
                "shipping_discount_subtotal": 0,
                "tax_payable": 0,
                "tax_exemption": 0,
                "promocode_applied": null,
                "credit_card_promotion": null,
                "shopee_coins_redeemed": null,
                "group_buy_discount": 0,
                "bundle_deals_discount": null,
                "buyer_txn_fee": 0
            }
        },
        "response_status": 200
    },
    "place_order": {
        "url": "https://staging.shopee.vn/api/v4/checkout/place_order",
        "headers": {
            "x-csrftoken": "2AzWm32UZWjVkDvuVpf8rTRD9piUKqKu",
            "referer": "https://staging.shopee.vn/",
            "cookie": "",
            "Content-Type": "application/json"
        },
        "payload": {},
        "response_status": 200
    },
    "get_ship_by_date": {
        "url": "https://admin.staging.shopee.vn/system/tools/order_id/",
        "response_status": 200,
        "cookies": {
            "sessionid": ""
        }
    },
    "init_forder": {
        "url": "https://oms.staging.shopee.vn/api/forder/init",
        "headers": {
            "request-id": "1606966763218289190",
            "user-agent": "Mozilla/5.0 (Windows NT 10.0; Win64; x64) AppleWebKit/537.36 (KHTML, like Gecko) Chrome/79.0.3945.130 Safari/537.36",
            "content-type": "application/json",
            "jwt-token": "eyJhbGciOiJIUzI1NiIsIm9wdHIiOiJ3c2EiLCJ0eXAiOiJKV1QifQ.eyJleHAiOjE4OTkxODQ5NzF9.pxUYCkWb6z-DVKutfUC-rzy17WLlpt_SuR1h6z6iGes",
            "cache-control": "no-cache"
        },
        "response_text": {
            "header": {
                "retcode": 0
            }
        },
        "payload": {
            "shipping_traceno": "",
            "user_id": 100690864,
			"ofg_id": 0,
            "order_id": 0,
            "country": "VN",
            "pickup_time": 0,
            "channel_id": 50018,
            "shop_id": 200689112,
            "seller_realname": "wu ta lu",
            "shipping_proof": ""
        },
        "response_status": 200
    },
    "get_forder_id": {
        "url": "https://oms.staging.shopee.vn/api/forder/get",
        "headers": {
            "request-id": "1606966763218289190",
            "user-agent": "Mozilla/5.0 (Windows NT 10.0; Win64; x64) AppleWebKit/537.36 (KHTML, like Gecko) Chrome/79.0.3945.130 Safari/537.36",
            "content-type": "application/x-www-form-urlencoded",
            "jwt-token": "eyJhbGciOiJIUzI1NiIsIm9wdHIiOiJ3c2EiLCJ0eXAiOiJKV1QifQ.eyJleHAiOjE4OTkxODQ5NzF9.pxUYCkWb6z-DVKutfUC-rzy17WLlpt_SuR1h6z6iGes",
            "cache-control": "no-cache"
        },
        "payload": {
            "order_id": 0,
            "country": "VN",
            "shop_id": 200689112,
            "tracking_level": 1
        },
        "response_status": 200
    },
    "pickup_done": {
        "url": "https://oms.staging.shopee.vn/api/sls/update_forder_logistic_log",
        "headers": {
            "request-id": "1606966763218289190",
            "user-agent": "Mozilla/5.0 (Windows NT 10.0; Win64; x64) AppleWebKit/537.36 (KHTML, like Gecko) Chrome/79.0.3945.130 Safari/537.36",
            "content-type": "application/x-www-form-urlencoded",
            "jwt-token": "eyJhbGciOiJIUzI1NiIsIm9wdHIiOiJ3c2EiLCJ0eXAiOiJKV1QifQ.eyJleHAiOjE4OTkxODQ5NzF9.pxUYCkWb6z-DVKutfUC-rzy17WLlpt_SuR1h6z6iGes",
            "cache-control": "no-cache"
        },
        "response_text": {
            "header": {
                "retcode": 0
            }
        },
        "payload": {
            "status": 25,
            "channel_description": "ChannelDescription_DOMESTIC_DROPOFF",
            "system_time": "",
            "description": "Description_DOMESTIC_DROPOFF",
            "country": "VN",
            "ignore_status_priority": false,
            "flag": 1,
            "extra_data": "{}",
            "channel_status": "DOMESTIC_DROPOFF",
            "forder_id": 0
        },
        "response_status": 200
    },
    "lost_parcel": {
        "url": "https://oms.staging.shopee.vn/api/sls/update_forder_logistic_log",
        "headers": {
            "request-id": "1606966763218289190",
            "user-agent": "Mozilla/5.0 (Windows NT 10.0; Win64; x64) AppleWebKit/537.36 (KHTML, like Gecko) Chrome/79.0.3945.130 Safari/537.36",
            "content-type": "application/x-www-form-urlencoded",
            "jwt-token": "eyJhbGciOiJIUzI1NiIsIm9wdHIiOiJ3c2EiLCJ0eXAiOiJKV1QifQ.eyJleHAiOjE4OTkxODQ5NzF9.pxUYCkWb6z-DVKutfUC-rzy17WLlpt_SuR1h6z6iGes",
            "cache-control": "no-cache"
        },
        "response_text": {
            "header": {
                "retcode": 0
            }
        },
        "payload": {
            "forder_id": 0,
            "flag": 1,
            "status": 17,
            "description": "Description_PARCEL_LOST",
            "channel_status": "PARCEL_LOST",
            "channel_description": "ChannelDescription_PARCEL_LOST",
            "system_time": "",
            "extra_data": "{}",
            "ignore_status_priority": false,
            "is_arrived_tws": false,
            "country": "VN"
        },
        "response_status": 200
    }
}