{
    "add_to_cart_info": {
        "url": "https://staging.shopee.vn/api/v4/cart/add_to_cart",
        "headers": {
            "x-csrftoken": "2AzWm32UZWjVkDvuVpf8rTRD9piUKqKu",
            "referer": "https://staging.shopee.vn/",
            "cookie": "",
            "Content-Type": "application/json"
        },
        "payload": {
            "checkout": true,
            "client_source": 1,
            "donot_add_quantity": false,
            "itemid": 100978122,
            "modelid": 6517727,
            "quantity": 1,
            "shopid": 200689112,
            "source": "{'refer_urls':[]}",
            "update_checkout_only": false
        },
        "response_status": 200
    },
    "cart_checkout": {
        "url": "https://staging.shopee.vn/api/v4/cart/checkout",
        "headers": {
            "x-csrftoken": "2AzWm32UZWjVkDvuVpf8rTRD9piUKqKu",
            "referer": "https://staging.shopee.vn/",
            "cookie": "",
            "Content-Type": "application/json"
        },
        "payload": {
            "selected_shop_order_ids": [
                {
                    "shopid": 200689112,
                    "item_briefs": [
                        {
                            "itemid": 100978122,
                            "modelid": 6517727,
                            "item_group_id": null,
                            "applied_promotion_id": 0,
                            "offerid": null,
                            "price": 2345600000,
                            "quantity": 1,
                            "is_add_on_sub_item": null,
                            "add_on_deal_id": null,
                            "status": 1,
                            "cart_item_change_time": 1655693352,
                            "membership_offer_id": null
                        }
                    ],
                    "shop_vouchers": []
                }
            ],
            "platform_vouchers": [],
            "free_shipping_voucher_info": null,
            "use_coins": false,
            "sz_device_fingerprint": "/8Y0D6nlf5XfaTN31g+MKw==|IRi7cMtUls0KHVka2n9kygvNidthHx0FYoJ1R5jXfuC0fY3rgJ8P4VyrR5q21W06MbkLO7zwhkgWSRjRybLNJNRZ58Y=|qpupi/SomY5r53uU|05|3",
            "support_problematic_groups": true,
            "version": 3
        },
        "response_status": 200
    },
    "checkout_get": {
        "url": "https://staging.shopee.vn/api/v4/checkout/get",
        "headers": {
            "x-csrftoken": "2AzWm32UZWjVkDvuVpf8rTRD9piUKqKu",
            "referer": "https://staging.shopee.vn/checkout-page",
            "cookie": "",
            "Content-Type": "application/json",
            "x-api-source": "pc"
        },
        "payload": {
            "_cft": [
                7275
            ],
            "shoporders": [
                {
                    "shop": {
                        "shopid": 200689112
                    },
                    "items": [
                        {
                            "itemid": 100978122,
                            "modelid": 6517727,
                            "quantity": 1,
                            "add_on_deal_id": null,
                            "is_add_on_sub_item": null,
                            "item_group_id": null,
                            "insurances": []
                        }
                    ]
                }
            ],
            "selected_payment_channel_data": {},
            "promotion_data": {
                "use_coins": false,
                "free_shipping_voucher_info": {
                    "free_shipping_voucher_id": 0,
                    "disabled_reason": "",
                    "description": ""
                },
                "platform_vouchers": [],
                "shop_vouchers": [],
                "check_shop_voucher_entrances": true,
                "auto_apply_shop_voucher": false
            },
            "device_info": {
                "device_id": "",
                "device_fingerprint": "",
                "tongdun_blackbox": "",
                "buyer_payment_info": {}
            },
            "tax_info": {
                "tax_id": ""
            }
        },
        "response_status": 200
    },
    "place_order": {
        "url": "https://staging.shopee.vn/api/v4/checkout/place_order",
        "headers": {
            "x-csrftoken": "2AzWm32UZWjVkDvuVpf8rTRD9piUKqKu",
            "referer": "https://staging.shopee.vn/",
            "cookie": "",
            "Content-Type": "application/json"
        },
        "payload": {},
        "response_status": 200
    },
    "get_csrftoken": {
        "url": "https://admin.staging.shopee.vn/",
        "response_status": 200,
        "cookies": {
            "sessionid": ""
        }
    },
    "upload_mass_cancellation": {
        "headers": {
            "referer": "https://admin.staging.shopee.vn/order/mass_cancellation/logistics/",
            "user-agent": "Mozilla/5.0 (Windows NT 10.0; Win64; x64) AppleWebKit/537.36 (KHTML, like Gecko) Chrome/79.0.3945.130 Safari/537.36",
            "x-csrftoken": ""
        },
        "files": [],
        "payload": {
            "selection_action": ""
        },
        "response_status": 200,
        "response_text": {
            "code": 0,
            "message": "success",
            "user_message": "success"
        },
        "url": "https://admin.staging.shopee.vn/universal_mass_edit/upload/"
    },
    "search_refund_created": {
        "headers": {
            "referer": "https://admin.staging.shopee.vn/payment/refund_payment_request/",
            "user-agent": "Mozilla/5.0 (Windows NT 10.0; Win64; x64) AppleWebKit/537.36 (KHTML, like Gecko) Chrome/79.0.3945.130 Safari/537.36",
            "x-csrftoken": ""
        },
        "response_status": 200,
        "response_text": {
            "code": 0,
            "message": "success",
            "user_message": "success"
        },
        "url": "https://admin.staging.shopee.vn/payment/refund_payment_request/json/?offset=0&limit=25&status=1&refundid=refund_id_to_be_replace&orderid=&payment_method=&buyer_username=&refund_sn=&bankaccountnumber="
    },
    "change_refund_from_created_to_verified": {
        "headers": {
            "referer": "https://admin.staging.shopee.vn/payment/refund_payment_request/",
            "user-agent": "Mozilla/5.0 (Windows NT 10.0; Win64; x64) AppleWebKit/537.36 (KHTML, like Gecko) Chrome/79.0.3945.130 Safari/537.36",
            "x-csrftoken": ""
        },
        "payload": {
            "ids": [
                []
            ],
            "reason": "auto test",
            "pending_code": "1",
            "from_status": 1
        },
        "response_status": 200,
        "response_text": {
            "code": 0,
            "message": "success",
            "user_message": "success"
        },
        "url": "https://admin.staging.shopee.vn/payment/refund_payment_request/state_change/2/"
    },
    "search_refund_pending": {
        "headers": {
            "referer": "https://admin.staging.shopee.vn/payment/refund_payment_request/",
            "user-agent": "Mozilla/5.0 (Windows NT 10.0; Win64; x64) AppleWebKit/537.36 (KHTML, like Gecko) Chrome/79.0.3945.130 Safari/537.36",
            "x-csrftoken": ""
        },
        "response_status": 200,
        "response_text": {
            "code": 0,
            "message": "success",
            "user_message": "success"
        },
        "url": "https://admin.staging.shopee.vn/payment/refund_payment_request/json/?offset=0&limit=25&status=3&refundid=refund_id_to_be_replace&orderid=&payment_method=&buyer_username=&refund_sn=&bankaccountnumber="
    },
    "change_refund_from_pending_to_verified": {
        "headers": {
            "referer": "https://admin.staging.shopee.vn/payment/refund_payment_request/",
            "user-agent": "Mozilla/5.0 (Windows NT 10.0; Win64; x64) AppleWebKit/537.36 (KHTML, like Gecko) Chrome/79.0.3945.130 Safari/537.36",
            "x-csrftoken": ""
        },
        "payload": {
            "ids": [
                []
            ],
            "reason": "auto test",
            "pending_code": "1",
            "from_status": 3
        },
        "response_status": 200,
        "response_text": {
            "code": 0,
            "message": "success",
            "user_message": "success"
        },
        "url": "https://admin.staging.shopee.vn/payment/refund_payment_request/state_change/2/"
    },
    "search_refund_verified": {
        "headers": {
            "referer": "https://admin.staging.shopee.vn/payment/refund_payment_request/",
            "user-agent": "Mozilla/5.0 (Windows NT 10.0; Win64; x64) AppleWebKit/537.36 (KHTML, like Gecko) Chrome/79.0.3945.130 Safari/537.36",
            "x-csrftoken": ""
        },
        "response_status": 200,
        "response_text": {
            "code": 0,
            "message": "success",
            "user_message": "success"
        },
        "url": "https://admin.staging.shopee.vn/payment/refund_payment_request/json/?offset=0&limit=25&status=2&refundid=refund_id_to_be_replace&orderid=&payment_method=&buyer_username=&refund_sn=&bankaccountnumber="
    },
    "change_refund_from_verified_to_payout": {
        "headers": {
            "referer": "https://admin.staging.shopee.vn/payment/refund_payment_request/",
            "user-agent": "Mozilla/5.0 (Windows NT 10.0; Win64; x64) AppleWebKit/537.36 (KHTML, like Gecko) Chrome/79.0.3945.130 Safari/537.36",
            "x-csrftoken": ""
        },
        "payload": {
            "ids": [
                []
            ],
            "reason": "auto test",
            "pending_code": "1",
            "from_status": 2
        },
        "response_status": 200,
        "response_text": {
            "code": 0,
            "message": "success",
            "user_message": "success"
        },
        "url": "https://admin.staging.shopee.vn/payment/refund_payment_request/state_change/5/"
    },
    "search_refund_payout": {
        "headers": {
            "referer": "https://admin.staging.shopee.vn/payment/refund_payment_request/",
            "user-agent": "Mozilla/5.0 (Windows NT 10.0; Win64; x64) AppleWebKit/537.36 (KHTML, like Gecko) Chrome/79.0.3945.130 Safari/537.36",
            "x-csrftoken": ""
        },
        "response_status": 200,
        "response_text": {
            "code": 0,
            "message": "success",
            "user_message": "success"
        },
        "url": "https://admin.staging.shopee.vn/payment/refund_payment_request/json/?offset=0&limit=25&status=5&refundid=refund_id_to_be_replace&orderid=&payment_method=&buyer_username=&refund_sn=&bankaccountnumber="
    },
    "change_refund_from_payout_to_complete": {
        "headers": {
            "referer": "https://admin.staging.shopee.vn/payment/refund_payment_request/",
            "user-agent": "Mozilla/5.0 (Windows NT 10.0; Win64; x64) AppleWebKit/537.36 (KHTML, like Gecko) Chrome/79.0.3945.130 Safari/537.36",
            "x-csrftoken": ""
        },
        "payload": {
            "ids": [
                []
            ],
            "reason": "auto test",
            "pending_code": "1",
            "from_status": 5
        },
        "response_status": 200,
        "response_text": {
            "code": 0,
            "message": "success",
            "user_message": "success"
        },
        "url": "https://admin.staging.shopee.vn/payment/refund_payment_request/state_change/4/"
    }
}