{
    "get_stock_audits": {
        "url": "https://admin.listing.staging.shopee.com/item/shopee_admin/proxy/stock/audit/api/v1/get_stock_audits",
        "headers": {
            "authority": "admin.listing.staging.shopee.com",
            "service-name": "item.shopee_admin",
            "content-type": "application/json",
            "region": "VN",
            "accept": "application/json",
            "origin": "https://admin.listing.staging.shopee.com",
            "referer": "https://admin.listing.staging.shopee.com/product/listing/detail/shop_id_to_be_replace/item_id_to_be_replace?tab=Log&region=VN",
            "cookie": ""
        },
        "payload": {
            "item_id": 0,
            "page": {
                "limit": 60,
                "offset": 0,
                "offset_list": []
            },
            "filter": {}
        },
        "response_status": 200,
        "response_text": {
            "message": "success",
            "code": 0,
            "user_message": "success"
        }
    }
}