{
    "get_csrftoken": {
        "url": "https://admin.staging.shopee.vn/",
        "response_status": 200,
        "cookies": {
            "sessionid": ""
        }
    },
    "search_refund_created": {
        "headers": {
            "referer": "https://admin.staging.shopee.vn/payment/refund_payment_request/",
            "user-agent": "Mozilla/5.0 (Windows NT 10.0; Win64; x64) AppleWebKit/537.36 (KHTML, like Gecko) Chrome/79.0.3945.130 Safari/537.36",
            "x-csrftoken": ""
        },
        "response_status": 200,
        "response_text": {
            "code": 0,
            "message": "success",
            "user_message": "success"
        },
        "url": "https://admin.staging.shopee.vn/payment/refund_payment_request/json/?offset=0&limit=25&status=1&refundid=refund_id_to_be_replace&orderid=&payment_method=&buyer_username=&refund_sn=&bankaccountnumber="
    },
    "change_refund_from_created_to_verified": {
        "headers": {
            "referer": "https://admin.staging.shopee.vn/payment/refund_payment_request/",
            "user-agent": "Mozilla/5.0 (Windows NT 10.0; Win64; x64) AppleWebKit/537.36 (KHTML, like Gecko) Chrome/79.0.3945.130 Safari/537.36",
            "x-csrftoken": ""
        },
        "payload": {
            "ids": [
                []
            ],
            "reason": "auto test",
            "pending_code": "1",
            "from_status": 1
        },
        "response_status": 200,
        "response_text": {
            "code": 0,
            "message": "success",
            "user_message": "success"
        },
        "url": "https://admin.staging.shopee.vn/payment/refund_payment_request/state_change/2/"
    },
    "search_refund_pending": {
        "headers": {
            "referer": "https://admin.staging.shopee.vn/payment/refund_payment_request/",
            "user-agent": "Mozilla/5.0 (Windows NT 10.0; Win64; x64) AppleWebKit/537.36 (KHTML, like Gecko) Chrome/79.0.3945.130 Safari/537.36",
            "x-csrftoken": ""
        },
        "response_status": 200,
        "response_text": {
            "code": 0,
            "message": "success",
            "user_message": "success"
        },
        "url": "https://admin.staging.shopee.vn/payment/refund_payment_request/json/?offset=0&limit=25&status=3&refundid=refund_id_to_be_replace&orderid=&payment_method=&buyer_username=&refund_sn=&bankaccountnumber="
    },
    "change_refund_from_pending_to_verified": {
        "headers": {
            "referer": "https://admin.staging.shopee.vn/payment/refund_payment_request/",
            "user-agent": "Mozilla/5.0 (Windows NT 10.0; Win64; x64) AppleWebKit/537.36 (KHTML, like Gecko) Chrome/79.0.3945.130 Safari/537.36",
            "x-csrftoken": ""
        },
        "payload": {
            "ids": [
                []
            ],
            "reason": "auto test",
            "pending_code": "1",
            "from_status": 3
        },
        "response_status": 200,
        "response_text": {
            "code": 0,
            "message": "success",
            "user_message": "success"
        },
        "url": "https://admin.staging.shopee.vn/payment/refund_payment_request/state_change/2/"
    },
    "search_refund_verified": {
        "headers": {
            "referer": "https://admin.staging.shopee.vn/payment/refund_payment_request/",
            "user-agent": "Mozilla/5.0 (Windows NT 10.0; Win64; x64) AppleWebKit/537.36 (KHTML, like Gecko) Chrome/79.0.3945.130 Safari/537.36",
            "x-csrftoken": ""
        },
        "response_status": 200,
        "response_text": {
            "code": 0,
            "message": "success",
            "user_message": "success"
        },
        "url": "https://admin.staging.shopee.vn/payment/refund_payment_request/json/?offset=0&limit=25&status=2&refundid=refund_id_to_be_replace&orderid=&payment_method=&buyer_username=&refund_sn=&bankaccountnumber="
    },
    "change_refund_from_verified_to_payout": {
        "headers": {
            "referer": "https://admin.staging.shopee.vn/payment/refund_payment_request/",
            "user-agent": "Mozilla/5.0 (Windows NT 10.0; Win64; x64) AppleWebKit/537.36 (KHTML, like Gecko) Chrome/79.0.3945.130 Safari/537.36",
            "x-csrftoken": ""
        },
        "payload": {
            "ids": [
                []
            ],
            "reason": "auto test",
            "pending_code": "1",
            "from_status": 2
        },
        "response_status": 200,
        "response_text": {
            "code": 0,
            "message": "success",
            "user_message": "success"
        },
        "url": "https://admin.staging.shopee.vn/payment/refund_payment_request/state_change/5/"
    },
    "search_refund_payout": {
        "headers": {
            "referer": "https://admin.staging.shopee.vn/payment/refund_payment_request/",
            "user-agent": "Mozilla/5.0 (Windows NT 10.0; Win64; x64) AppleWebKit/537.36 (KHTML, like Gecko) Chrome/79.0.3945.130 Safari/537.36",
            "x-csrftoken": ""
        },
        "response_status": 200,
        "response_text": {
            "code": 0,
            "message": "success",
            "user_message": "success"
        },
        "url": "https://admin.staging.shopee.vn/payment/refund_payment_request/json/?offset=0&limit=25&status=5&refundid=refund_id_to_be_replace&orderid=&payment_method=&buyer_username=&refund_sn=&bankaccountnumber="
    },
    "change_refund_from_payout_to_complete": {
        "headers": {
            "referer": "https://admin.staging.shopee.vn/payment/refund_payment_request/",
            "user-agent": "Mozilla/5.0 (Windows NT 10.0; Win64; x64) AppleWebKit/537.36 (KHTML, like Gecko) Chrome/79.0.3945.130 Safari/537.36",
            "x-csrftoken": ""
        },
        "payload": {
            "ids": [
                []
            ],
            "reason": "auto test",
            "pending_code": "1",
            "from_status": 5
        },
        "response_status": 200,
        "response_text": {
            "code": 0,
            "message": "success",
            "user_message": "success"
        },
        "url": "https://admin.staging.shopee.vn/payment/refund_payment_request/state_change/4/"
    }
}