{
    "update_checkout_status_paid_order":{
        "api_command" :"order.action.update_checkout_status_paid",
        "req":{
            "userid":1200829212,
            "checkoutid":61897119106427,
            "paid_amount":21400000,
            "reason":"david test 003013",
            "operator":"david test 003013"
        },
        "response_text":{},
        "response_status" : 0
    },
    "update_checkout_status_wrongpaid":{
        "api_command" :"order.action.update_checkout_status_wrongpaid",
        "req":{
            "userid":1200829212,
            "checkoutid":61897119106427,
            "reason":"david test 003013 wrong paid",
            "operator":"david test 003013"
        },
        "response_text":{},
        "response_status" : 0
    },
    "update_checkout_status_paid_wrongpaid_order":{
        "api_command" :"order.action.update_checkout_status_paid",
        "req":{
            "userid":1200829212,
            "checkoutid":61897119106427,
            "paid_amount":21400000,
            "reason":"david test 003013",
            "operator":"david test 003013"
        },
        "response_text":{"debug_msg": "match rule failed"},
        "response_status" : 6600004
    }
    
}