{
    "get_csrftoken": {
        "url": "https://admin.staging.shopee.vn/",
        "response_status": 200,
        "cookies": {
            "sessionid": ""
        }
    },
    "restore_payment_channel_id_51000": {
        "headers": {
            "referer": "https://admin.staging.shopee.vn/payment/channel_list_overview/",
            "user-agent": "Mozilla/5.0 (Windows NT 10.0; Win64; x64) AppleWebKit/537.36 (KHTML, like Gecko) Chrome/79.0.3945.130 Safari/537.36",
            "x-csrftoken": ""
        },
        "payload": {
            "channelid": "51000",
            "spm_channel_id": "0",
            "spm_option_info": "",
            "name": "label_offline_bank_transfer",
            "description": "Bank Transfer",
            "country": "VN",
            "category": "2",
            "subcategory": "2",
            "currency": "VND",
            "flag": "44551695769601",
            "priority": "40",
            "icon": "ic_paymentoption_banktransfer",
            "extra_data": "{\"expiry_duration\": 259200, \"min_amount\": 2000000000000, \"expiry_extension\": 300}"
        },
        "response_status": 200,
        "response_text": {
            "code": 0,
            "message": "success",
            "user_message": "success"
        },
        "url": "https://admin.staging.shopee.vn/payment/channel_list_overview/update/"
    }
}