{
    "restore_item_price_100204809": {
        "url": "https://admin.listing.staging.shopee.com/item/shopee_admin/proxy/item/shopee_admin/api/v1/update_item_basic_info",
		"headers":{
			"content-type": "application/json;charset=UTF-8",
            "region": "VN"
		},
        "payload":{
            "shop_id": 455391,
            "item_id": 100204809,
            "region": "VN",
            "model_setting_list": {
                "model_settings": [
                    {
                        "item_id": 100204809,
                        "model_id": 7408804,
                        "normal_input_price": 1000000000
                    }
                ]
            }
        },
        "response_status": 200
    },
    "restore_item_stock_100204810": {
        "url": "https://admin.listing.staging.shopee.com/item/shopee_admin/proxy/item/shopee_admin/api/v1/update_item_basic_info",
		"headers":{
			"content-type": "application/json;charset=UTF-8",
            "region": "VN"
		},
        "payload":{
            "shop_id": 455391,
            "item_id": 100204810,
            "region": "VN",
            "model_setting_list": {
                "model_settings": [
                    {
                        "item_id": 100204810,
                        "model_id": 7408979,
                        "normal_stock": 5
                    }
                ]
            }
        },
        "response_status": 200
    },
    "restore_item_condition_100204807": {
        "url": "https://admin.listing.staging.shopee.com/item/shopee_admin/proxy/item/shopee_admin/api/v1/update_item_basic_info",
		"headers":{
			"content-type": "application/json;charset=UTF-8",
            "region": "VN"
		},
        "payload":{
            "shop_id": 455391,
            "item_id": 100204807,
            "region": "VN",
            "condition": 1
        },
        "response_status": 200
    }
}
