{
    "upload_product": {
        "url": "https://admin.promotion.staging.shopee.vn/api/gateway/v1/seller_discount/set_seller_discount_item_batch",
        "headers": {
            "origin": "https://admin.promotion.staging.shopee.vn",
            "referer": "https://admin.promotion.staging.shopee.vn/sd-seller-discount-create-info",
            "cookie": "",
            "user-agent": "Mozilla/5.0 (Windows NT 10.0; Win64; x64) AppleWebKit/537.36 (KHTML, like Gecko) Chrome/98.0.4758.102 Safari/537.36",
            "content-type": "application/json"
        },
        "payload": {
            "promotion_id": 0,
            "region": "VN",
            "SkipPermissionBD": false,
            "items": [
                {
                    "item_id": 100985159,
                    "model_details": [
                        {
                            "model_id": 6619511,
                            "promo_price": 500000000,
                            "promo_stock": 20,
                            "status": 1
                        }
                    ],
                    "shop_id": 200669991,
                    "user_item_limit": 3
                }
            ]
        },
        "response_status": 200,
        "response_text": {
            "items": [
                {
                    "item_id": 100985159,
                    "models": [
                        {
                            "error_msg": "",
                            "model_id": 6619511,
                            "operation_type": 1
                        }
                    ],
                    "shop_id": 200669991,
                    "user_item_limit_updated_model_ids": [
                        6619511
                    ]
                }
            ]
        }
    }
}

