{
	"add_to_cart_batch_info":{
		"url": "https://staging.shopee.vn/api/v4/cart/add_to_cart_batch",
		"headers":{
			"x-csrftoken": "2AzWm32UZWjVkDvuVpf8rTRD9piUKqKu",
			"referer": "",
			"cookie": "",
			"Content-Type": "application/json"
		},
        "payload":{
			"orders":[
				{
					"shopid": 200631874,
					"items":[
						{
							"add_on_deal_id": 4234,
							"donot_add_quantity": false,
							"quantity": 1,
							"checkout": true,
							"is_add_on_sub_item": false,
							"shopid": 200631874,
							"itemid": 100826436,
							"modelid": 10001009173
						},
						{
							"add_on_deal_id": 4234,
							"donot_add_quantity": false,
							"quantity": 1,
							"checkout": true,
							"is_add_on_sub_item": true,
							"shopid": 200631874,
							"itemid": 100826437,
							"modelid": 10001009174
						}
					]
				}
			]
        },
		"response_status": 200
	},
	"cart_checkout":{
		"url": "https://staging.shopee.vn/api/v4/cart/checkout",
		"headers":{
			"x-csrftoken": "2AzWm32UZWjVkDvuVpf8rTRD9piUKqKu",
			"referer": "https://staging.shopee.vn/",
			"cookie": "",
			"Content-Type": "application/json"
		},
        "payload":{
			"free_shipping_voucher_info": {
				"free_shipping_voucher_id": 0
			},
			"platform_vouchers": [
			],
			"selected_shop_order_ids": [
				{
					"item_briefs": [
						{
							"add_on_deal_id": 4234,
							"applied_promotion_id": 0,
							"cart_item_change_time": 1617002914,
							"is_add_on_sub_item": false,
							"item_group_id": "1951861625921762042",
							"itemid": 100826436,
							"modelid": 10001009173,
							"offerid": null,
							"price": 2000000000,
							"quantity": 1,
							"status": 1
						},
						{
							"add_on_deal_id": 4234,
							"applied_promotion_id": 4234,
							"cart_item_change_time": 1617002914,
							"is_add_on_sub_item": true,
							"item_group_id": "1951861625921762042",
							"itemid": 100826437,
							"modelid": 10001009174,
							"offerid": null,
							"price": 0,
							"quantity": 1,
							"status": 1
						}
					],
					"shop_vouchers": [
					],
					"shopid": 200631874
				}
			],
			"support_problematic_groups": true,
			"use_coins": false
        },
		"response_status": 200
	},
	"checkout_get":{
		"url": "https://staging.shopee.vn/api/v4/checkout/get",
		"headers":{
			"x-csrftoken": "2AzWm32UZWjVkDvuVpf8rTRD9piUKqKu",
			"referer": "https://staging.shopee.vn/checkout-page",
			"cookie": "",
			"Content-Type": "application/json"
		},
		"payload":{
			"cart_type": 0,
			"checkout_price_data": {
				"bundle_deals_discount": null,
				"buyer_txn_fee": 0,
				"credit_card_promotion": null,
				"group_buy_discount": 0,
				"merchandise_subtotal": 2000000000,
				"promocode_applied": null,
				"shipping_discount_subtotal": 0,
				"shipping_subtotal": 8099000000,
				"shipping_subtotal_before_discount": 8099000000,
				"shopee_coins_redeemed": null,
				"tax_exemption": 0,
				"tax_payable": 0,
				"total_payable": 10099000000
			},
			"client_id": 0,
			"device_info": {
				"buyer_payment_info": {
				},
				"device_fingerprint": "",
				"device_id": "",
				"tongdun_blackbox": ""
			},
			"order_update_info": {
			},
			"promotion_data": {
				"auto_apply_shop_voucher": false,
				"check_shop_voucher_entrances": true,
				"free_shipping_voucher_info": {
					"disabled_reason": "",
					"free_shipping_voucher_code": "",
					"free_shipping_voucher_id": 0
				},
				"platform_vouchers": [
				],
				"shop_vouchers": [
				],
				"use_coins": false
			},
			"selected_payment_channel_data": {
				"payment_channelid": 59000,
				"version": 1
			},
			"shipping_orders": [
				{
					"buyer_address_data": {
						"address_type": 0,
						"addressid": 13412,
						"error_status": "",
						"tax_address": ""
					},
					"buyer_ic_number": "",
					"logistics": {
						"recommended_channelids": [
						]
					},
					"selected_logistic_channelid": 50018,
					"selected_preferred_delivery_time_option_id": 0,
					"selected_preferred_delivery_time_slot_id": 0,
					"shipping_id": 1,
					"shoporder_indexes": [
						0
					],
					"sync": true
				}
			],
			"shoporders": [
				{
					"buyer_address_data": {
						"address_type": 0,
						"addressid": 13412,
						"error_status": "",
						"tax_address": ""
					},
					"items": [
						{
							"add_on_deal_id": 4234,
							"is_add_on_sub_item": true,
							"item_group_id": "1951861625921762042",
							"itemid": 100826437,
							"modelid": 10001009174,
							"quantity": 1
						},
						{
							"add_on_deal_id": 4234,
							"is_add_on_sub_item": false,
							"item_group_id": "1951861625921762042",
							"itemid": 100826436,
							"modelid": 10001009173,
							"quantity": 1
						}
					],
					"logistics": {
						"recommended_channelids": null
					},
					"selected_logistic_channelid": 50018,
					"selected_preferred_delivery_time_option_id": 0,
					"selected_preferred_delivery_time_slot_id": 0,
					"shipping_id": 1,
					"shop": {
						"shopid": 200631874
					}
				}
			],
			"tax_info": {
				"tax_id": ""
			},
			"timestamp": 0
        },
		"response_status": 200
	},
	"place_order":{
		"url": "https://staging.shopee.vn/api/v4/checkout/place_order",
		"headers":{
			"x-csrftoken": "2AzWm32UZWjVkDvuVpf8rTRD9piUKqKu",
			"referer": "https://staging.shopee.vn/",
			"cookie": "",
			"Content-Type": "application/json"
		},
        "payload":{},
		"response_status": 200
	}
}