{
    "approve_flash_sale_products": {
        "headers": {
            "cache-control": "no-cache",
            "content-type": "application/x-www-form-urlencoded",
            "referer": "https://admin.staging.shopee.vn/promotion/flash_sales_v2/step_screening/promotion_id/product_screening/manual_screening/",
            "user-agent": "Mozilla/5.0 (Windows NT 10.0; Win64; x64) AppleWebKit/537.36 (KHTML, like Gecko) Chrome/79.0.3945.130 Safari/537.36",
            "x-csrftoken": ""
        },
        "payload": {
            "items": "[['200669991','100868818','6078676','0','0','0']]",
            "accept_soft_rule":"1"
        },
        "response_status": 200,
        "response_text": {
            "code": 0,
            "message": "success",
            "user_message": "success"
        },
        "url": "https://admin.staging.shopee.vn/promotion/flash_sales_v2/step_screening/promotion_id/product_screening/manual_screening/mass_approve_item/"
    },
    "confirm_flashsale_products": {
        "headers": {
            "cache-control": "no-cache",
            "content-type": "application/x-www-form-urlencoded",
            "referer": "https://admin.staging.shopee.vn/promotion/flash_sales_v2/step_screening/promotion_id/product_screening/manual_screening/",
            "user-agent": "Mozilla/5.0 (Windows NT 10.0; Win64; x64) AppleWebKit/537.36 (KHTML, like Gecko) Chrome/79.0.3945.130 Safari/537.36",
            "x-csrftoken": ""
        },
        "payload": {
            "products": "[{\"itemid\":100868818,\"original_price\":600000000,\"promo_price_for_display\":5000,\"cat_name\":\"Default\",\"modelid\":6078676,\"promo_stock\":5,\"cat_id\":33282,\"promo_price\":500000000,\"shopid\":200669991,\"source\":1,\"promo_name\":\"cart-flash-sale-item\",\"original_price_for_display\":6000,\"rebate_price_for_display\":10,\"purchase_limit\":3,\"rebate_price\":1000000}]",
            "accept_soft_rule": true
        },
        "response_status": 200,
        "response_text": {
            "code": 0,
            "message": "success",
            "user_message": "success"
        },
        "url": "https://admin.staging.shopee.vn/promotion/flash_sales_v2/step_screening/promotion_id/product_screening/manual_screening/upload_confirm/"
    },
    "create_flashsale": {
        "headers": {
            "cache-control": "no-cache",
            "content-type": "application/x-www-form-urlencoded",
            "referer": "https://admin.staging.shopee.vn/promotion/flash_sales_v2/step_new/create/",
            "user-agent": "Mozilla/5.0 (Windows NT 10.0; Win64; x64) AppleWebKit/537.36 (KHTML, like Gecko) Chrome/79.0.3945.130 Safari/537.36",
            "x-csrftoken": ""
        },
        "payload": {
            "allowed_cat": "[]",
            "allowed_shop": [
                0
            ],
            "banner": "d1c675eaef7ba0bcc4684fbdf64e7595",
            "banner_url": "",
            "discount_max": "",
            "discount_min": "",
            "dp_nominate_end": "",
            "dp_nominate_start": "",
            "is_dp_nominate": "false",
            "is_self_nominate": "false",
            "is_show_price": "false",
            "max_DTS": 180,
            "nominate_condition": "",
            "nominate_end": "",
            "nominate_per_seller": "",
            "nominate_start": "",
            "num_dp_per_session": "",
            "pc_banner": "0918b54c5b559f226aa9e8fc9145bee6",
            "promotion_description": "VN Android BundleDeal",
            "promotion_end": "",
            "promotion_min_stock": 5,
            "promotion_name": "TWQA auto test for android bd",
            "promotion_start": "",
            "value_max": 20000000,
            "value_min": 10
        },
        "response_status": 200,
        "response_text": {
            "code": 0,
            "message": "success",
            "user_message": "success"
        },
        "url": "https://admin.staging.shopee.vn/promotion/flash_sales_v2/step_new/create/add/"
    },
    "get_ongoing_flashsale_status": {
        "headers": {
            "cache-control": "no-cache",
            "content-type": "application/x-www-form-urlencoded",
            "user-agent": "Mozilla/5.0 (Windows NT 10.0; Win64; x64) AppleWebKit/537.36 (KHTML, like Gecko) Chrome/79.0.3945.130 Safari/537.36"
        },
        "payload": {},
        "query_string_parameters": {
            "end_time__lte": "",
            "itemid": "",
            "limit": "25",
            "modelid": "",
            "offset": "0",
            "ongoing_status": "3",
            "order_by": "1",
            "promotionid": "",
            "shopid": "",
            "start_time__gte": ""
        },
        "response_status": 200,
        "response_text": {
            "code": 0,
            "message": "success",
            "user_message": "success"
        },
        "url": "https://admin.staging.shopee.vn/promotion/flash_sales_v2/overview/json/"
    },
    "get_reviewing_flashsale_status": {
        "headers": {
            "cache-control": "no-cache",
            "content-type": "application/x-www-form-urlencoded",
            "user-agent": "Mozilla/5.0 (Windows NT 10.0; Win64; x64) AppleWebKit/537.36 (KHTML, like Gecko) Chrome/79.0.3945.130 Safari/537.36"
        },
        "payload": {},
        "query_string_parameters": {
            "end_time__lte": "",
            "itemid": "",
            "limit": "25",
            "modelid": "",
            "offset": "0",
            "ongoing_status": "2",
            "order_by": "1",
            "promotionid": "",
            "shopid": "",
            "start_time__gte": ""
        },
        "response_status": 200,
        "response_text": {
            "code": 0,
            "message": "success",
            "user_message": "success"
        },
        "url": "https://admin.staging.shopee.vn/promotion/flash_sales_v2/overview/json/"
    },
    "refresh_flash_sale_status": {
        "headers": {
            "cache-control": "no-cache",
            "content-type": "application/x-www-form-urlencoded",
            "referer": "https://admin.staging.shopee.vn/promotion/flash_sales_v2/overview/",
            "user-agent": "Mozilla/5.0 (Windows NT 10.0; Win64; x64) AppleWebKit/537.36 (KHTML, like Gecko) Chrome/79.0.3945.130 Safari/537.36",
            "x-csrftoken": ""
        },
        "payload": "",
        "response_status": 200,
        "response_text": {
            "code": 0,
            "message": "success",
            "user_message": "success"
        },
        "url": "https://admin.staging.shopee.vn/promotion/flash_sales_v2/promotion_id/sync/"
    },
    "upload_flashsale_products": {
        "headers": {
            "cache-control": "no-cache",
            "content-type": "application/x-www-form-urlencoded",
            "referer": "https://admin.staging.shopee.vn/promotion/flash_sales_v2/step_screening/promotion_id/product_screening/manual_screening/",
            "user-agent": "Mozilla/5.0 (Windows NT 10.0; Win64; x64) AppleWebKit/537.36 (KHTML, like Gecko) Chrome/79.0.3945.130 Safari/537.36",
            "x-csrftoken": ""
        },
        "payload": {
            "products": "[[\"200669991\",\"100868818\",\"cart-flash-sale-item\",\"6078676\",\"5000\",\"0\",\"3\",\"5\",\"1\",\"4999\",\"0\",\"1\"]]"
        },
        "response_status": 200,
        "response_text": {
            "code": 0,
            "message": "success",
            "user_message": "success"
        },
        "url": "https://admin.staging.shopee.vn/promotion/flash_sales_v2/step_screening/promotion_id/product_screening/manual_screening/upload_check/"
    }
}