{
    "create_gift_with_purchase": {
        "url": "https://admin.promotion.staging.shopee.vn/api/gateway/v1/purchase_with_purchase/create_purchase_with_purchase",
        "headers": {
            "cookie": ""
        },
        "payload": {
            "region": "VN",
            "SkipPermissionBD": false,
            "name": "auto cart test",
            "shop_id": 200669991,
            "start_time": 0,
            "end_time": 0,
            "labels": [
                {
                    "language": "vi",
                    "value": "Mua để nhận quà"
                },
                {
                    "language": "en",
                    "value": "Free Gift"
                }
            ],
            "purchase_rule": {
                "purchase_type": 1,
                "tiers": [
                    {
                        "min_purchase": 1000000,
                        "avail_sub_amount": 1
                    },
                    {
                        "min_purchase": 2000000,
                        "avail_sub_amount": 2
                    },
                    {
                        "min_purchase": 3000000,
                        "avail_sub_amount": 3
                    }
                ]
            },
            "gift_image_hash": "6968d43d5601c2a3e0828026dce029b6",
            "sub_type": 1,
            "source": 0,
            "operator_email": "aster.sun@shopee.com"
        },
        "response_status": 200,
        "response_text": {
            "add_on_deal_id": 0
        }
    },
    "add_pwp_main_item": {
        "url": "https://admin.promotion.staging.shopee.vn/api/gateway/v1/purchase_with_purchase/set_pwp_main_item_list",
        "headers": {
            "cookie": ""
        },
        "payload":{
            "region": "VN",
            "SkipPermissionBD": false,
            "add_on_deal_id":  0,
            "pwp_main_items":[
                {
                    "shop_id": 200669991,
                    "item_id": 100867122,
                    "main_item_limit": 3,
                    "status": 2,
                    "operator_email": "aster.sun@shopee.com"
                }
            ]
        },
        "response_status": 200,
        "response_text": {
            "main_item_responses": [
                {
                    "shop_id": 200669991,
                    "item_id": 100867122
                }
            ]
        }
    },
    "set_all_pwp_item_status": {
        "url": "https://admin.promotion.staging.shopee.vn/api/gateway/v1/purchase_with_purchase/set_all_pwp_main_item_status",
        "headers": {
            "cookie": ""
        },
        "payload":{
            "region": "VN",
            "SkipPermissionBD": false,
            "add_on_deal_id": 0,
            "status": 1,
            "operator_email": "aster.sun@shopee.com"
        },
        "response_status": 200,
        "response_text": {
            "main_item_responses": [
                {
                    "shop_id": 200669991,
                    "item_id": 100867122
                }
            ]
        }
    },
    "set_pwp_sub_item": {
        "url": "https://admin.promotion.staging.shopee.vn/api/gateway/v1/purchase_with_purchase/set_pwp_sub_item_list",
        "headers": {
            "cookie": ""
        },
        "payload":{
            "region": "VN",
            "SkipPermissionBD": false,
            "add_on_deal_id": 0,
            "pwp_sub_items":[
                {
                   "shop_id": 200669991,
                   "item_id": 100867123,
                   "model_id": 10001085307,
                   "sub_item_limit": 1,
                   "sub_item_input_price": 0,
                   "rebate": 0,
                   "status": 2,
                   "operator_email": "aster.sun@shopee.com"
                }
            ]
        },
        "response_status": 200,
        "response_text": {
            "sub_item_responses": [
                {
                    "shop_id": 200669991,
                    "item_id": 100867123,
                    "model_id": 10001085307
                }
            ]
        }
    },
    "set_all_pwp_sub_item_status": {
        "url": "https://admin.promotion.staging.shopee.vn/api/gateway/v1/purchase_with_purchase/set_all_pwp_sub_item_status",
        "headers": {
            "cookie": ""
        },
        "payload":{
            "region": "VN",
            "SkipPermissionBD": false,
            "add_on_deal_id": 0,
            "status": 1,
            "operator_email": "aster.sun@shopee.com"
        },
        "response_status": 200,
        "response_text": {
            "sub_item_responses": [
                {
                    "shop_id": 200669991,
                    "item_id": 100867123,
                    "model_id": 10001085307
                }
            ]
        }
    }
}