{
	"get_product_info_for_display_query_price_info_under_promotion":{
		"api_command": "item.business.get_product_info_for_display",
		"req":
		{
			"shop_item_ids": [
				{
					"shop_id": 200664271,
					"item_id": 100947749
				}
			],
			"info_types": [3],
			"region": "TW"
		},
		"response_text": {
			"info":[
				{
					"item_id":100947749,
					"models":[
						{
							"model_id":6240772,
							"price":{
								"model_id":6240772,
								"ongoing_prices":[
									{
										"rule_type":0,
										"model_id":6240772,
										"display_price":200000000,
										"region":"TW",
										"tax":0,
										"price":200000000,
										"status":0,
										"shop_id":200664271,
										"tax_rate":0,
										"item_id":100947749,
										"input_price":200000000,
										"rule_id":0
									}
								],
								"display_price":{
									"rule_type":0,
									"model_id":6240772,
									"display_price":200000000,
									"region":"TW",
									"tax":0,
									"price":200000000,
									"status":0,
									"shop_id":200664271,
									"tax_rate":0,
									"item_id":100947749,
									"input_price":200000000,
									"rule_id":0
								}
							}
						},
						{
							"model_id":10009943974,
							"price":{
								"model_id":10009943974,
								"ongoing_prices":[
									{
										"rule_type":301,
										"model_id":10009943974,
										"display_price":50000000,
										"region":"TW",
										"tax":0,
										"rebate":0,
										"price":50000000,
										"status":0,
										"shop_id":200664271,
										"tax_rate":0,
										"item_id":100947749,
										"input_price":50000000,
										"purchase_limit":100,
										"rule_id":1000099141
									},
									{
										"rule_type":0,
										"model_id":10009943974,
										"display_price":180000000,
										"region":"TW",
										"tax":0,
										"price":180000000,
										"status":0,
										"shop_id":200664271,
										"tax_rate":0,
										"item_id":100947749,
										"input_price":180000000,
										"rule_id":0
									}
								],
								"display_price":{
									"rule_type":301,
									"model_id":10009943974,
									"display_price":50000000,
									"region":"TW",
									"tax":0,
									"rebate":0,
									"price":50000000,
									"status":0,
									"shop_id":200664271,
									"tax_rate":0,
									"item_id":100947749,
									"input_price":50000000,
									"purchase_limit":100,
									"rule_id":1000099141
								}
							}
						}
					],
					"shop_id":200664271,
					"item_price_info":{
						"aggregated_price":{
							"price_max":200000000,
							"discount":72,
							"min_normal_price":180000000,
							"max_normal_price":200000000,
							"price_min":50000000
						}
					}
				}
			]
		},
		"response_status" : 0
	}
}