{
	"get_product_info_by_item_ids_multiple_info_types":{
		"api_command": "item.business.get_product_info_by_item_ids",
		"req":
		{
			"item_ids": [
				{
					"item_id": 101033765,
					"model_purchase_quantities": [
						{
							"selected": true,
							"quantity": 5,
							"model_id": 10001826524
						}
					]
				}
			],
			"info_types": [1,2,3,4,5,6,7,8,9],
			"region": "TW"
		},
		"response_text":{
			"info":[
				{
					"logistics":{
						"estimate_days":1,
						"weight":100000,
						"dimension":{
							"width":0,
							"length":0,
							"unit":1,
							"height":0
						},
						"logistics_info":{
							"30006": {"cover_shipping_fee": false, "flag": 0, "enabled": true}, 
							"30007": {"cover_shipping_fee": false, "flag": 0, "enabled": true}, 
							"39304": {"default_price": 0, "cover_shipping_fee": false, "flag": 0, "enabled": true}, 
							"30005": {"cover_shipping_fee": false, "flag": 0, "enabled": true}, 
							"39303": {"default_price": 0, "cover_shipping_fee": false, "flag": 0, "enabled": true}
						}
					},
					"statistics":{
						"rating":{
							"rating_star":3.0,
							"rating_counts":[
								0,
								1,
								0,
								1,
								0,
								1
							],
							"rcount_with_image":1,
							"rcount_with_context":3
						},
						"sold":40,
						"liked_count":1,
						"cmt_count":3
					},
					"models":[
						{
							"model_purchase_limit":{
								"selected_quantity":{
									"selected_stock":500,
									"price_rule_id":0,
									"display_price":300000000,
									"available_purchase_quantity":500,
									"price_rule_type":0,
									"selected_allocated_stock":0
								},
								"model_id":10001826524,
								"available_quantities":[
									{
										"selected_stock":500,
										"price_rule_id":0,
										"display_price":300000000,
										"available_purchase_quantity":500,
										"price_rule_type":0,
										"selected_allocated_stock":0
									}
								]
							},
							"model_id":10001826524,
							"price":{
								"model_id":10001826524,
								"ongoing_prices":[
									{
										"rule_type":0,
										"model_id":10001826524,
										"display_price":300000000,
										"region":"TW",
										"tax":0,
										"price":300000000,
										"status":0,
										"shop_id":200664271,
										"tax_rate":0,
										"item_id":101033765,
										"input_price":300000000,
										"rule_id":0
									}
								],
								"display_price":{
									"rule_type":0,
									"model_id":10001826524,
									"display_price":300000000,
									"region":"TW",
									"tax":0,
									"price":300000000,
									"status":0,
									"shop_id":200664271,
									"tax_rate":0,
									"item_id":101033765,
									"input_price":300000000,
									"rule_id":0
								}
							},
							"stock":{
								"display_stock":{
									"rule_type":0,
									"model_id":10001826524,
									"selected_stock":500,
									"region":"TW",
									"stockout_time":0,
									"shop_id":200664271,
									"item_id":101033765,
									"selected_allocated_stock":0,
									"rule_id":0,
									"stock":500
								},
								"model_id":10001826524,
								"ongoing_stocks":[
									{
										"rule_type":0,
										"model_id":10001826524,
										"selected_stock":500,
										"region":"TW",
										"stockout_time":0,
										"shop_id":200664271,
										"item_id":101033765,
										"selected_allocated_stock":0,
										"rule_id":0,
										"stock":500
									}
								]
							},
							"basic":{
								"status":1,
								"create_time":1625022694,
								"name":"White,S",
								"tier_indices":[
									0,
									0
								]
							}
						},
						{
							"model_id":10001826525,
							"price":{
								"model_id":10001826525,
								"ongoing_prices":[
									{
										"rule_type":0,
										"model_id":10001826525,
										"display_price":200000000,
										"region":"TW",
										"tax":0,
										"price":200000000,
										"status":0,
										"shop_id":200664271,
										"tax_rate":0,
										"item_id":101033765,
										"input_price":200000000,
										"rule_id":0
									}
								],
								"display_price":{
									"rule_type":0,
									"model_id":10001826525,
									"display_price":200000000,
									"region":"TW",
									"tax":0,
									"price":200000000,
									"status":0,
									"shop_id":200664271,
									"tax_rate":0,
									"item_id":101033765,
									"input_price":200000000,
									"rule_id":0
								}
							},
							"stock":{
								"display_stock":{
									"rule_type":0,
									"model_id":10001826525,
									"selected_stock":500,
									"region":"TW",
									"stockout_time":0,
									"shop_id":200664271,
									"item_id":101033765,
									"selected_allocated_stock":0,
									"rule_id":0,
									"stock":500
								},
								"model_id":10001826525,
								"ongoing_stocks":[
									{
										"rule_type":0,
										"model_id":10001826525,
										"selected_stock":500,
										"region":"TW",
										"stockout_time":0,
										"shop_id":200664271,
										"item_id":101033765,
										"selected_allocated_stock":0,
										"rule_id":0,
										"stock":500
									}
								]
							},
							"basic":{
								"status":1,
								"create_time":1625022694,
								"name":"Black,S",
								"tier_indices":[
									1,
									0
								]
							}
						}
					],
					"attribute":{
						"attr_status":2,
						"global_attribute_snapshot":{
							"values":[
								{
									"attr_val_id":4,
									"status":1,
									"attr_id":100006,
									"formatted_value":"10cm"
								}
							]
						}
					},
					"cat":{
						"local_cat":{
							"cat_ids":[
								72,
								719,
								15050
							]
						},
						"cat_status":0,
						"use_global_cat":true,
						"global_cat":{
							"cat_ids":[
								100090,
								100723,
								100724
							]
						},
						"cat_list":{
							"cats":[
								{
									"cat_ids":[
										72,
										719,
										15050
									]
								}
							]
						}
					},
					"item_stock":{
						"aggregated_stock":{
							"sold_out_time":0
						}
					},
					"item_basic":{
						"status":1,
						"reference_item_id":"",
						"name":"yushan_get product info",
						"preview_end_time":0,
						"touch_time":1624970036,
						"region":"TW",
						"tier_variations":[
							{
								"type":0,
								"name":"color",
								"options":[
									"White",
									"Black"
								]
							},
							{
								"type":0,
								"name":"size",
								"options":[
									"S"
								]
							}
						],
						"min_purchase_limit":10,
						"currency":"TWD",
						"flag":0,
						"order_max_purchase_limit":0,
						"create_time":1624970036,
						"images":[
							"c166b0645aa3eed219748b96cb49fe73"
						],
						"cb_option":0,
						"condition":1
					},
					"shop_id":200664271,
					"item_id":101033765,
					"item_price_info":{
						"aggregated_price":{
							"price_max":300000000,
							"discount":0,
							"min_normal_price":200000000,
							"max_normal_price":300000000,
							"price_min":200000000
						}
					}
				}
			]
		},
		"response_status" : 0
	}
}