{
	"get_product_info_by_item_ids_parameter_region_3_nil":{
		"api_command": "item.business.get_product_info_by_item_ids",
		"req": {
			"item_ids":[
				{
					"item_id":101033765
				}
			],
			"info_types": [3],
			"user_id": 100010166
		},
		"response_text": {
			"debug_msg": "invalid region: "
		},
		"response_status" : 28900003
	},
	"get_product_info_by_item_ids_parameter_region_3_empty_string":{
		"api_command": "item.business.get_product_info_by_item_ids",
		"req": {
			"item_ids":[
				{
					"item_id":101033765
				}
			],
			"info_types": [3],
			"user_id": 100010166,
			"region": ""
		},
		"response_text": {
			"debug_msg": "invalid region: "
		},
		"response_status" : 28900003
	},
	"get_product_info_by_item_ids_parameter_region_3_string_low_case":{
		"api_command": "item.business.get_product_info_by_item_ids",
		"req": {
			"item_ids":[
				{
					"item_id":101033765
				}
			],
			"info_types": [3],
			"user_id": 100010166,
			"region": "tw"
		},
		"response_text": {
			"debug_msg": "invalid region: tw"
		},
		"response_status" : 28900003
	},
	"get_product_info_by_item_ids_parameter_region_3_string_invalid":{
		"api_command": "item.business.get_product_info_by_item_ids",
		"req": {
			"item_ids":[
				{
					"item_id":101033765
				}
			],
			"info_types": [3],
			"user_id": 100010166,
			"region": "CC"
		},
		"response_text": {
			"debug_msg": "invalid region: CC"
		},
		"response_status" : 28900003
	}
}