{
	"get_product_info_by_item_ids_query_price_info_not_in_promotion":{
		"api_command": "item.business.get_product_info_by_item_ids",
		"req":
		{
			"item_ids": [
				{
					"item_id": 101033765
				}
			],
			"info_types": [3],
			"region": "TW"
		},
		"response_text": {
			"info":[
				{
					"item_id":101033765,
					"item_price_info":{
						"aggregated_price":{
							"discount":0,
							"max_normal_price":300000000,
							"min_normal_price":200000000,
							"price_max":300000000,
							"price_min":200000000
						}
					},
					"models":[
						{
							"model_id":10001826524,
							"price":{
								"display_price":{
									"display_price":300000000,
									"input_price":300000000,
									"item_id":101033765,
									"model_id":10001826524,
									"price":300000000,
									"region":"TW",
									"rule_id":0,
									"rule_type":0,
									"shop_id":200664271,
									"status":0,
									"tax":0,
									"tax_rate":0
								},
								"model_id":10001826524,
								"ongoing_prices":[
									{
										"display_price":300000000,
										"input_price":300000000,
										"item_id":101033765,
										"model_id":10001826524,
										"price":300000000,
										"region":"TW",
										"rule_id":0,
										"rule_type":0,
										"shop_id":200664271,
										"status":0,
										"tax":0,
										"tax_rate":0
									}
								]
							}
						},
						{
							"model_id":10001826525,
							"price":{
								"display_price":{
									"display_price":200000000,
									"input_price":200000000,
									"item_id":101033765,
									"model_id":10001826525,
									"price":200000000,
									"region":"TW",
									"rule_id":0,
									"rule_type":0,
									"shop_id":200664271,
									"status":0,
									"tax":0,
									"tax_rate":0
								},
								"model_id":10001826525,
								"ongoing_prices":[
									{
										"display_price":200000000,
										"input_price":200000000,
										"item_id":101033765,
										"model_id":10001826525,
										"price":200000000,
										"region":"TW",
										"rule_id":0,
										"rule_type":0,
										"shop_id":200664271,
										"status":0,
										"tax":0,
										"tax_rate":0
									}
								]
							}
						}
					],
					"shop_id":200664271
				}
			]
		},
		"response_status" : 0
	}
}