{
	"get_product_info_by_item_ids_parameter_item_ids_nil":{
		"api_command": "item.business.get_product_info_by_item_ids",
		"req": {
			"info_types": [1],
			"region": "TW"
		},
		"response_text": {
			"debug_msg": "item list is empty"
		},
		"response_status" : 28900003
	},
	"get_product_info_by_item_ids_parameter_item_ids_empty_array":{
		"api_command": "item.business.get_product_info_by_item_ids",
		"req": {
			"info_types": [1],
			"item_ids": [],
			"region": "TW"
		},
		"response_text": {
			"debug_msg": "item list is empty"
		},
		"response_status" : 28900003
	},
	"get_product_info_by_item_ids_parameter_item_ids_empty_array_of_object":{
		"api_command": "item.business.get_product_info_by_item_ids",
		"req": {
			"info_types": [1],
			"item_ids": [{}],
			"region": "TW"
		},
		"response_text": {
			"info":[
				{
					"item_id": 0,
					"shop_id": 0
				}
			]
		},
		"response_status" : 0
	}
}