{
	"get_product_info_by_item_ids_query_ds_recommend_info":{
		"api_command": "item.business.get_product_info_by_item_ids",
		"req":
		{
			"item_ids": [
				{
					"item_id": 900249855
				}
			],
			"info_types": [17],
			"region": "TW"
		},
		"response_text": {
			"info":[
				{
					"item_id":900249855,
					"ds_recommend_info":{
						"overlay_image":{
							"images":[
								{
									"overlay_ids":[
										"0"
									],
									"overlay_image":"c497c385fb57ae7f37494e8078f830ac"
								}
							]
						},
						"highlight_video":{
							"video":{
								"duration":15,
								"version":2,
								"vid":"c5251be2b9716fa0689d5450f3494203"
							},
							"videos":[
								{
									"duration":15,
									"version":2,
									"vid":"c5251be2b9716fa0689d5450f3494203"
								}
							]
						}
					},
					"shop_id":201339136
				}
			]
		},
		"response_status" : 0
	}
}