{
	"get_product_info_by_item_ids_query_purchase_quantity_info_quantity_less_than_stock":{
		"api_command": "item.business.get_product_info_by_item_ids",
		"req":
		{
			"item_ids": [
				{
					"item_id": 101033765,
					"model_purchase_quantities": [
						 {
						   "selected": true,
						   "quantity": 499,
						   "model_id": 10001826524
						 }
					]
				}
			],
			"info_types": [9],
			"region": "TW"
		},
		"response_text": {
			"info":[
				{
					"item_id":101033765,
					"models":[
						{
							"model_id":10001826524,
							"model_purchase_limit":{
								"available_quantities":[
									{
										"available_purchase_quantity":500,
										"display_price":300000000,
										"price_rule_id":0,
										"price_rule_type":0,
										"selected_allocated_stock":0,
										"selected_stock":500
									}
								],
								"model_id":10001826524,
								"selected_quantity":{
									"available_purchase_quantity":500,
									"display_price":300000000,
									"price_rule_id":0,
									"price_rule_type":0,
									"selected_allocated_stock":0,
									"selected_stock":500
								}
							}
						}
					],
					"shop_id":200664271
				}
			]
		},
		"response_status" : 0
	},
	"get_product_info_by_item_ids_query_purchase_quantity_info_quantity_equal_to_stock":{
		"api_command": "item.business.get_product_info_by_item_ids",
		"req":
		{
			"item_ids": [
				{
					"item_id": 101033765,
					"model_purchase_quantities": [
						 {
						   "selected": true,
						   "quantity": 500,
						   "model_id": 10001826524
						 }
					]
				}
			],
			"info_types": [9],
			"region": "TW"
		},
		"response_text": {
			"info":[
				{
					"item_id":101033765,
					"models":[
						{
							"model_id":10001826524,
							"model_purchase_limit":{
								"available_quantities":[
									{
										"available_purchase_quantity":500,
										"display_price":300000000,
										"price_rule_id":0,
										"price_rule_type":0,
										"selected_allocated_stock":0,
										"selected_stock":500
									}
								],
								"model_id":10001826524,
								"selected_quantity":{
									"available_purchase_quantity":500,
									"display_price":300000000,
									"price_rule_id":0,
									"price_rule_type":0,
									"selected_allocated_stock":0,
									"selected_stock":500
								}
							}
						}
					],
					"shop_id":200664271
				}
			]
		},
		"response_status" : 0
	},
	"get_product_info_by_item_ids_query_purchase_quantity_info_quantity_greater_than_stock":{
		"api_command": "item.business.get_product_info_by_item_ids",
		"req":
		{
			"item_ids": [
				{
					"item_id": 101033765,
					"model_purchase_quantities": [
						 {
						   "selected": true,
						   "quantity": 501,
						   "model_id": 10001826524
						 }
					]
				}
			],
			"info_types": [9],
			"region": "TW"
		},
		"response_text": {
			"info":[
				{
					"item_id":101033765,
					"models":[
						{
							"model_id":10001826524,
							"model_purchase_limit":{
								"available_quantities":[
									{
										"available_purchase_quantity":500,
										"display_price":300000000,
										"price_rule_id":0,
										"price_rule_type":0,
										"selected_allocated_stock":0,
										"selected_stock":500
									}
								],
								"model_id":10001826524
							}
						}
					],
					"shop_id":200664271
				}
			]
		},
		"response_status" : 0
	}
}