{
	"get_product_info_by_item_ids_parameter_region_19_nil":{
		"api_command": "item.business.get_product_info_by_item_ids",
		"req": {
			"item_ids": [
				{
					"item_id": 900251114
				}
			],
			"info_types": [19]
		},
		"response_text": {
			"debug_msg": "invalid region: "
		},
		"response_status" : 28900003
	},
	"get_product_info_by_item_ids_parameter_region_19_empty_string":{
		"api_command": "item.business.get_product_info_by_item_ids",
		"req": {
			"item_ids": [
				{
				   "item_id": 900251114
			   	}
		   	],
		   "info_types": [19],
			"region": ""
		},
		"response_text": {
			"debug_msg": "invalid region: "
		},
		"response_status" : 28900003
	},
	"get_product_info_by_item_ids_parameter_region_19_string_low_case":{
		"api_command": "item.business.get_product_info_by_item_ids",
		"req": {
			"item_ids": [
				{
				   "item_id": 900251114
			   	}
		   	],
		   	"info_types": [19],
			"region": "tw"
		},
		"response_text": {
			"info":[
				{
					"item_id":900251114,
					"shop_id":201338549,
					"item_description_translation":[
						{
							"lang": "zh-Hant",
							"source":3,
							"version": "0",
							"create_time":1648609589,
							"trans_data":{
								"description": "1.\u5546\u54c1\u8cc7\u8a0a 2.\u53f0\u7063 3.\u7ffb\u8b6f"
							}
						}
					]
				}
			]
		},
		"response_status" : 0
	},
	"get_product_info_by_item_ids_parameter_region_19_string_invalid":{
		"api_command": "item.business.get_product_info_by_item_ids",
		"req": {
			"item_ids": [
				{
				   "item_id": 900251114
			   	}
		   	],
		   "info_types": [19],
			"region": "CC"
		},
		"response_text": {
			"info":[
				{
					"item_id": 900251114,
					"shop_id": 201338549
				}
			]
		},
		"response_status" : 0
	}
}