{
	"update_model_basic_info":{
		"api_command": "item.item_info.update_item_basic_info",
		"req":
		{
			"shop_id": 200664271,
			"item_id": 101033765,
			"item_info":{
				"tier_variation_list":{
					"tier_variations":[
							{
								"name": "color",
								"options": ["W","B"]
							},
							{
								"name": "size",
								"options": ["S"]
							}
					]
				}
			},
			"model_list":{
				"models": [
					{
						"model_id": 10001826524
					},
					{
						"model_id": 10001826525
					}
				]
			},
			"resp_need_item": false,
			"resp_need_models": false
		},
		"response_status" : 0
	},
	"get_product_info_by_item_ids_query_model_basic_info":{
		"api_command": "item.business.get_product_info_by_item_ids",
		"req":
		{
			"item_ids": [
				{
					"item_id": 101033765
				}
			],
			"info_types": [2],
			"region": "TW"
		},
		"response_text": {
			"info":[
				{
					"item_id":101033765,
					"models":[
						{
							"basic":{
								"create_time":1625022694,
								"name":"W,S",
								"status":1,
								"tier_indices":[
									0,
									0
								]
							},
							"model_id":10001826524
						},
						{
							"basic":{
								"create_time":1625022694,
								"name":"B,S",
								"status":1,
								"tier_indices":[
									1,
									0
								]
							},
							"model_id":10001826525
						}
					],
					"shop_id":200664271
				}
			]
		},
		"response_status" : 0
	},
	"restore_model_basic_info":{
		"api_command": "item.item_info.update_item_basic_info",
		"req":
		{
			"shop_id": 200664271,
			"item_id": 101033765,
			"item_info":{
				"tier_variation_list":{
					"tier_variations":[
							{
								"name": "color",
								"options": ["White","Black"]
							},
							{
								"name": "size",
								"options": ["S"]
							}
					]
				}
			},
			"model_list":{
				"models": [
					{
						"model_id": 10001826524
					},
					{
						"model_id": 10001826525
					}
				]
			},
			"resp_need_item": false,
			"resp_need_models": false
		},
		"response_status" : 0
	}
}