{
	"get_product_info_by_item_ids_query_item_rich_description_info_no_rich_text_description":{
		"api_command": "item.business.get_product_info_by_item_ids",
		"req":
		{
			"item_ids": [
				{
					"item_id": 900251114
				}
			],
			"info_types": [24],
			"rich_text_description_version": 1,
			"region": "TW"
		},
		"response_text": {
			"info":[
				{
					"item_id":900251114,
					"shop_id":201338549,
					"item_rich_text_description":{
						"description":"1.Get product info 2.TW 3.Trans",
						"is_rich_text_description":false
					}
				}
			]
		},
		"response_status" : 0
	},
	"get_product_info_by_item_ids_query_item_rich_description_info_has_rich_text_description":{
		"api_command": "item.business.get_product_info_by_item_ids",
		"req":
		{
			"item_ids": [
				{
					"item_id": 900246079
				}
			],
			"info_types": [24],
			"rich_text_description_version": 1,
			"region": "TW"
		},
		"response_text":{
			"info":[
				{
					"item_id":900246079,
					"shop_id":440541,
					"item_rich_text_description":{
						"rich_text_version":1,
						"rich_text_description_paragraph_list":[
							{
								"text":"1.overlay image"
							},
							{
								"img":{
									"ratio":2.26,
									"id":"106212ed30eda1de0c1715b44802d8b8"
								}
							}
						],
						"is_rich_text_description":true
					}
				}
			]
		},
		"response_status" : 0
	}
}