{
	"get_product_info_query_exclusive_price_under_no_user_tag":{
		"api_command": "item.business.get_product_info",
		"req":
		{
			"shop_item_ids": [
				{
					"shop_id": 200664271,
					"item_id": 101044773
				}
			],
			"info_types": [3,4],
			"region": "TW",
			"user_id": 100010166
		},
		"response_text":{
			"info":[
				{
					"item_id":101044773,
					"item_price_info":{
						"aggregated_price":{
							"discount":0,
							"max_normal_price":500000000,
							"min_normal_price":500000000,
							"price_max":500000000,
							"price_min":500000000
						}
					},
					"item_stock":{
						"aggregated_stock":{
							"sold_out_time":0
						}
					},
					"models":[
						{
							"model_id":10001835649,
							"price":{
								"display_price":{
									"display_price":500000000,
									"input_price":500000000,
									"item_id":101044773,
									"model_id":10001835649,
									"price":500000000,
									"region":"TW",
									"rule_id":0,
									"rule_type":0,
									"shop_id":200664271,
									"status":0,
									"tax":0,
									"tax_rate":0
								},
								"model_id":10001835649,
								"ongoing_prices":[
									{
										"display_price":500000000,
										"input_price":500000000,
										"item_id":101044773,
										"model_id":10001835649,
										"price":500000000,
										"region":"TW",
										"rule_id":0,
										"rule_type":0,
										"shop_id":200664271,
										"status":0,
										"tax":0,
										"tax_rate":0
									}
								]
							},
							"stock":{
								"display_stock":{
									"item_id":101044773,
									"model_id":10001835649,
									"region":"TW",
									"rule_id":0,
									"rule_type":0,
									"selected_allocated_stock":0,
									"selected_stock":3000,
									"shop_id":200664271,
									"stock":3000
								},
								"model_id":10001835649,
								"ongoing_stocks":[
									{
										"item_id":101044773,
										"model_id":10001835649,
										"region":"TW",
										"rule_id":0,
										"rule_type":0,
										"selected_allocated_stock":0,
										"selected_stock":3000,
										"shop_id":200664271,
										"stock":3000
									}
								]
							}
						}
					],
					"shop_id":200664271
				}
			]
		},
		"response_status" : 0
	}
}