{
	"change_mall_shop_disable":{
		"url":"https://admin.test.shopee.vn/CMS/official_shop/mall_homepage/shop/banner_id_to_be_replace/change_status/",
		"payload":{
			"status": "0"
		},
		"headers":{
			"Content-Type": "application/x-www-form-urlencoded; charset=UTF-8",
			"origin": "https://admin.test.shopee.vn",
			"referer": "https://admin.test.shopee.vn/CMS/official_shop/mall_homepage/shop/",
			"x-csrftoken": ""
		},
		"response_status":200
	},
	"delete_mall_shop":{
		"url":"https://admin.test.shopee.vn/CMS/official_shop/mall_homepage/shop/banner_id_to_be_replace/delete/",
		"payload":{
		},
		"headers":{
			"Content-Type": "application/x-www-form-urlencoded; charset=UTF-8",
			"origin": "https://admin.test.shopee.vn",
			"referer": "https://admin.test.shopee.vn/CMS/official_shop/mall_homepage/shop/",
			"x-csrftoken": ""
		},
		"response_status":200
	}
}