{
	"delete_multi_activity_banner":{
		"url":"https://admin.test.shopee.vn/CMS/activity/delete/",
		"payload":{
		},
		"headers":{
			"Content-Type": "application/x-www-form-urlencoded; charset=UTF-8",
			"origin": "https://admin.test.shopee.vn",
			"referer": "https://admin.test.shopee.vn/CMS/activity/delete/",
			"x-csrftoken": ""
		},
		"response_status":200
	}

}