{
	"create_activity_banner":{
		"url":"https://admin.test.shopee.vn/CMS/activity/create/post/",
		"payload":{
			"banner_type": "3",
			"image": "2275a5c7ad02c96ae72dd439d180637e",
			"start": "",
			"end": "",
			"status": "1",
			"url": "https://www.google.com/",
			"title": "PC official shop auto test1",
			"display_flag": "1",
			"type": "3",
			"user_list_mode": "0",
			"description": "PC!#$@#%@$ 1123hello 測試 อักษร",
			"hidden_platforms": "",
			"bundle_id": "0",
			"scoping_mode": "1",
			"catid":"11872"
		},
		"headers":{
			"Content-Type": "application/x-www-form-urlencoded; charset=UTF-8",
			"origin": "https://admin.staging.shopee.vn",
			"referer": "https://admin.staging.shopee.vn/CMS/activity/create/",
			"x-csrftoken": ""
		},
		"response_status":200
	}

}