{
    "cart_checkout": {
        "url": "https://staging.shopee.vn/api/v4/cart/checkout",
        "headers": {
            "x-csrftoken": "yyt9KRnOdHh6v4ifFVOl6sfhfhcAWg0P",
            "referer": "https://staging.shopee.vn/",
            "cookie": "",
            "Content-Type": "application/json"
        },
        "payload": {
            "selected_shop_order_ids": [{
                "shopid": 201679004,
                "item_briefs": [{
                    "itemid": 103189149,
                    "modelid": 14594178,
                    "item_group_id": null,
                    "applied_promotion_id": 0,
                    "offerid": null,
                    "price": 2000000000000,
                    "quantity": 1,
                    "is_add_on_sub_item": null,
                    "add_on_deal_id": null,
                    "status": 1,
                    "cart_item_change_time": 1657678358,
                    "membership_offer_id": null
                }],
                "shop_vouchers": []
            }],
            "platform_vouchers": [],
            "free_shipping_voucher_info": null,
            "use_coins": true,
            "sz_device_fingerprint": "x9fv41kK5pSr63dWik3Qag==|ND9ViDaTnQhMVT/U0s206rbKo9oXLsODAy29f3KlM0UCs0YYXr6ASSDAg+qOJdvc2Yb0/RLSPeXa0ZD1nPf/T2VENg==|oEgIXqDsC+I0H74u|05|3",
            "support_problematic_groups": true,
            "version": 3
        },
        "response_status": 200
    },
    "checkout_get": {
        "url": "https://staging.shopee.vn/api/v4/checkout/get",
        "headers": {
            "x-csrftoken": "yyt9KRnOdHh6v4ifFVOl6sfhfhcAWg0P",
            "referer": "https://staging.shopee.vn/checkout-page",
            "cookie": "",
            "Content-Type": "application/json",
            "x-api-source": "pc"
        },
        "payload": {
            "_cft": [56939],
            "timestamp": 1657692367,
            "shoporders": [{
                "shop": {
                    "shopid": 201679004
                },
                "items": [{
                    "itemid": 103189149,
                    "modelid": 14594178,
                    "quantity": 1,
                    "add_on_deal_id": 0,
                    "is_add_on_sub_item": false,
                    "item_group_id": null,
                    "insurances": []
                }],
                "shipping_id": 1
            }],
            "selected_payment_channel_data": {
                "version": 1,
                "payment_channelid": 59000,
                "option_info": "",
                "text_info": {}
            },
            "promotion_data": {
                "use_coins": true,
                "free_shipping_voucher_info": {
                    "free_shipping_voucher_id": 0,
                    "free_shipping_voucher_code": "",
                    "disabled_reason": null,
                    "banner_info": {
                        "msg": "",
                        "learn_more_msg": ""
                    },
                    "required_be_channel_ids": [],
                    "required_spm_channels": []
                },
                "platform_vouchers": [],
                "shop_vouchers": [],
                "check_shop_voucher_entrances": true,
                "auto_apply_shop_voucher": false
            },
            "fsv_selection_infos": [],
            "device_info": {
                "device_id": "",
                "device_fingerprint": "",
                "tongdun_blackbox": "",
                "buyer_payment_info": {}
            },
            "buyer_info": {
                "share_to_friends_info": {
                    "display_toggle": false,
                    "enable_toggle": false,
                    "allow_to_share": false
                },
                "kyc_info": null,
                "checkout_email": ""
            },
            "cart_type": 0,
            "client_id": 0,
            "client_event_info": {
                "is_platform_voucher_changed": false,
                "is_fsv_changed": false
            },
            "tax_info": {
                "tax_id": ""
            },
            "shipping_orders": [{
                "sync": true,
                "buyer_address_data": {
                    "addressid": 19516,
                    "address_type": 0,
                    "tax_address": ""
                },
                "selected_logistic_channelid": 50018,
                "shipping_id": 1,
                "shoporder_indexes": [0],
                "selected_preferred_delivery_time_option_id": 0,
                "selected_preferred_delivery_time_slot_id": null,
                "prescription_info": {
                    "images": null
                }
            }],
            "order_update_info": {},
            "checkout_price_data": {
                "merchandise_subtotal": 2000000000000,
                "shipping_subtotal_before_discount": 3322000000,
                "shipping_discount_subtotal": 0,
                "shipping_subtotal": 3322000000,
                "tax_payable": 0,
                "tax_exemption": 0,
                "custom_tax_subtotal": 0,
                "promocode_applied": null,
                "credit_card_promotion": null,
                "shopee_coins_redeemed": 1000000000,
                "group_buy_discount": 0,
                "bundle_deals_discount": null,
                "price_adjustment": null,
                "buyer_txn_fee": 0,
                "insurance_subtotal": 0,
                "insurance_before_discount_subtotal": 0,
                "insurance_discount_subtotal": 0,
                "vat_subtotal": 0,
                "total_payable": 2002322000000
            }
        },
        "response_status": 200
    },
    "place_order": {
        "url": "https://staging.shopee.vn/api/v4/checkout/place_order",
        "headers": {
            "x-csrftoken": "yyt9KRnOdHh6v4ifFVOl6sfhfhcAWg0P",
            "referer": "https://staging.shopee.vn/",
            "cookie": "",
            "Content-Type": "application/json",
            "x-api-source": "pc"
        },
        "response_status": 200
    }
}