{
   "cart_checkout":{
      "url": "https://staging.shopee.vn/api/v4/cart/checkout",
      "headers":{
         "x-csrftoken": "2AzWm32UZWjVkDvuVpf8rTRD9piUKqKu",
         "referer": "https://staging.shopee.vn/",
         "cookie": "",
         "Content-Type": "application/json",
         "x-api-source": "pc"
      },
      "payload": {
        "selected_shop_order_ids": [
            {
                "shopid": 201874350,
                "item_briefs": [
                    {
                        "itemid": 900273782,
                        "modelid": 10010154241,
                        "item_group_id": null,
                        "applied_promotion_id": 0,
                        "offerid": null,
                        "price": 100000000,
                        "quantity": 1,
                        "is_add_on_sub_item": null,
                        "add_on_deal_id": null,
                        "status": 1,
                        "cart_item_change_time": 1649847495,
                        "membership_offer_id": null
                    }
                ],
                "shop_vouchers": []
            }
        ],
        "platform_vouchers": [],
        "free_shipping_voucher_info": null,
        "use_coins": false,
        "support_problematic_groups": true,
        "version": 3
    },
      "response_status":200
   },
   "checkout_get": {
      "url": "https://staging.shopee.vn/api/v4/checkout/get",
      "headers":{
         "x-csrftoken": "2AzWm32UZWjVkDvuVpf8rTRD9piUKqKu",
         "referer": "https://staging.shopee.vn/checkout-page",
         "cookie": "",
         "Content-Type": "application/json",
         "x-api-source": "pc"
      },
      "payload": {
        "_cft": [
            1131
        ],
        "timestamp": 1649847520,
        "shoporders": [
            {
                "shop": {
                    "shopid": 201874350
                },
                "items": [
                    {
                        "itemid": 900273782,
                        "modelid": 10010154241,
                        "quantity": 1,
                        "add_on_deal_id": 0,
                        "is_add_on_sub_item": false,
                        "item_group_id": null,
                        "insurances": []
                    }
                ],
                "shipping_id": 1
            }
        ],
        "selected_payment_channel_data": {
            "version": 2,
            "option_info": "",
            "channel_id": 5000102,
            "channel_item_option_info": {
                "channel_item_id": 4058,
                "credit_card_data": {
                    "bank_id": 6945,
                    "bank_name": "Citibank",
                    "card_number": "400000xxxxxx0002",
                    "expiry_date": "12-2034"
                }
            },
            "text_info": {}
        },
        "promotion_data": {
            "use_coins": false,
            "free_shipping_voucher_info": {
                "free_shipping_voucher_id": 0,
                "free_shipping_voucher_code": "",
                "disabled_reason": null,
                "banner_info": {
                    "msg": "",
                    "learn_more_msg": ""
                }
            },
            "platform_vouchers": [],
            "shop_vouchers": [],
            "check_shop_voucher_entrances": true,
            "auto_apply_shop_voucher": false
        },
        "fsv_selection_infos": [],
        "device_info": {
            "device_id": "",
            "device_fingerprint": "",
            "tongdun_blackbox": "",
            "buyer_payment_info": {}
        },
        "buyer_info": {
            "share_to_friends_info": {
                "display_toggle": false,
                "enable_toggle": false,
                "allow_to_share": false
            },
            "kyc_info": null,
            "checkout_email": ""
        },
        "cart_type": 0,
        "client_id": 0,
        "tax_info": {
            "tax_id": ""
        },
        "shipping_orders": [
            {
                "sync": true,
                "buyer_address_data": {
                    "addressid": 21039,
                    "address_type": 0,
                    "tax_address": ""
                },
                "selected_logistic_channelid": 58007,
                "shipping_id": 1,
                "shoporder_indexes": [
                    0
                ],
                "selected_preferred_delivery_time_option_id": null,
                "selected_preferred_delivery_time_slot_id": null
            }
        ],
        "order_update_info": {},
        "checkout_price_data": {
            "merchandise_subtotal": 100000000,
            "shipping_subtotal_before_discount": 3080000000,
            "shipping_discount_subtotal": 0,
            "shipping_subtotal": 3080000000,
            "tax_payable": 0,
            "tax_exemption": 0,
            "custom_tax_subtotal": 0,
            "promocode_applied": null,
            "credit_card_promotion": null,
            "shopee_coins_redeemed": null,
            "group_buy_discount": 0,
            "bundle_deals_discount": null,
            "buyer_txn_fee": 0,
            "insurance_subtotal": 0,
            "insurance_before_discount_subtotal": 0,
            "insurance_discount_subtotal": 0,
            "vat_subtotal": 0,
            "total_payable": 3180000000
        }
    },
      "response_status":200
   },
    "place_order": {
       "url": "https://staging.shopee.vn/api/v4/checkout/place_order",
          "headers":{
             "x-csrftoken": "2AzWm32UZWjVkDvuVpf8rTRD9piUKqKu",
             "referer": "https://staging.shopee.vn/",
             "cookie": "",
             "Content-Type": "application/json",
             "x-api-source": "pc"
          },
          "response_status":200
   }
}