{
    "enable_accept_chat_from_profile_page":{
		"url":"https://banhang.staging.shopee.vn/webchat/api/v1.1/sc/chat_setting",
		"payload":{
            "shop_id": 175364394,
            "chat_status": "enabled"
		},
		"headers":{
			"content-type": "application/json;charset=UTF-8",
            "cache-control": "no-cache",
            "user-agent": "Mozilla/5.0 (Windows NT 10.0; Win64; x64) AppleWebKit/537.36 (KHTML, like Gecko) Chrome/79.0.3945.130 Safari/537.36"
		},
		"query_string_parameters":{
			"SPC_CDS":"69a08abe-20e3-4966-a9fc-677657c95ea9",
			"SPC_CDS_VER":"2"
		},
		"response_status":204,
		"response_text":{
			"message": "success",
			"code": 0,
			"user_message": "success"
		}
	}
}