{
    "init_forder": {
        "url": "https://oms.staging.shopee.vn/api/forder/init",
        "headers": {
            "request-id": "1606966763218289190",
            "user-agent": "Mozilla/5.0 (Windows NT 10.0; Win64; x64) AppleWebKit/537.36 (KHTML, like Gecko) Chrome/79.0.3945.130 Safari/537.36",
            "content-type": "application/json",
            "jwt-token": "eyJhbGciOiJIUzI1NiIsIm9wdHIiOiJ3c2EiLCJ0eXAiOiJKV1QifQ.eyJleHAiOjE4OTkxODQ5NzF9.pxUYCkWb6z-DVKutfUC-rzy17WLlpt_SuR1h6z6iGes",
            "cache-control": "no-cache"
        },
        "response_text": {
            "header": {
                "retcode": 0
            }
        },
        "payload": {
            "shipping_traceno": "",
            "user_id": 12345,
			"ofg_id": 0,
            "order_id": 0,
            "country": "VN",
            "pickup_time": 0,
            "channel_id": 50018,
            "shop_id": 200008746,
            "seller_realname": "wu ta lu",
            "shipping_proof": ""
        },
        "response_status": 200
    },
    "get_forder_id": {
        "url": "https://oms.staging.shopee.vn/api/forder/get",
        "headers": {
            "request-id": "1606966763218289190",
            "user-agent": "Mozilla/5.0 (Windows NT 10.0; Win64; x64) AppleWebKit/537.36 (KHTML, like Gecko) Chrome/79.0.3945.130 Safari/537.36",
            "content-type": "application/x-www-form-urlencoded",
            "jwt-token": "eyJhbGciOiJIUzI1NiIsIm9wdHIiOiJ3c2EiLCJ0eXAiOiJKV1QifQ.eyJleHAiOjE4OTkxODQ5NzF9.pxUYCkWb6z-DVKutfUC-rzy17WLlpt_SuR1h6z6iGes",
            "cache-control": "no-cache"
        },
        "payload": {
            "order_id": 0,
            "country": "VN",
            "shop_id": 200008746,
            "tracking_level": 1
        },
        "response_status": 200
    },
    "pickup_done": {
        "url": "https://oms.staging.shopee.vn/api/sls/update_forder_logistic_log",
        "headers": {
            "request-id": "1606966763218289190",
            "user-agent": "Mozilla/5.0 (Windows NT 10.0; Win64; x64) AppleWebKit/537.36 (KHTML, like Gecko) Chrome/79.0.3945.130 Safari/537.36",
            "content-type": "application/x-www-form-urlencoded",
            "jwt-token": "eyJhbGciOiJIUzI1NiIsIm9wdHIiOiJ3c2EiLCJ0eXAiOiJKV1QifQ.eyJleHAiOjE4OTkxODQ5NzF9.pxUYCkWb6z-DVKutfUC-rzy17WLlpt_SuR1h6z6iGes",
            "cache-control": "no-cache"
        },
        "response_text": {
            "header": {
                "retcode": 0
            }
        },
        "payload": {
            "status": 25,
            "channel_description": "ChannelDescription_DOMESTIC_DROPOFF",
            "system_time": "",
            "description": "Description_DOMESTIC_DROPOFF",
            "country": "VN",
            "ignore_status_priority": false,
            "flag": 1,
            "extra_data": "{}",
            "channel_status": "DOMESTIC_DROPOFF",
            "forder_id": 0
        },
        "response_status": 200
    },
    "get_ship_by_date": {
        "url": "https://admin.staging.shopee.vn/system/tools/order_id/",
        "response_status": 200,
        "cookies": {
            "sessionid": ""
        }
    },
    "delivery_done": {
        "url": "https://oms.staging.shopee.vn/api/sls/update_forder_logistic_log",
        "headers": {
            "request-id": "1606966763218289190",
            "user-agent": "Mozilla/5.0 (Windows NT 10.0; Win64; x64) AppleWebKit/537.36 (KHTML, like Gecko) Chrome/79.0.3945.130 Safari/537.36",
            "content-type": "application/x-www-form-urlencoded",
            "jwt-token": "eyJhbGciOiJIUzI1NiIsIm9wdHIiOiJ3c2EiLCJ0eXAiOiJKV1QifQ.eyJleHAiOjE4OTkxODQ5NzF9.pxUYCkWb6z-DVKutfUC-rzy17WLlpt_SuR1h6z6iGes",
            "cache-control": "no-cache"
        },
        "response_status": 200,
        "payload": {
            "status": 3,
            "channel_description": "ChannelDescription_DELIVERED",
            "system_time": "",
            "description": "Description_DELIVERED",
            "country": "VN",
            "ignore_status_priority": false,
            "flag": 1,
            "extra_data": "{}",
            "channel_status": "DELIVERED",
            "forder_id": 0
        },
        "response_text": {
            "header": {
                "retcode": 0
            }
        }
    }
}