{
    "add_to_cart_info_100864150": {
        "url": "https://staging.shopee.vn/api/v4/cart/add_to_cart",
        "headers": {
            "x-csrftoken": "2AzWm32UZWjVkDvuVpf8rTRD9piUKqKu",
            "referer": "https://staging.shopee.vn/",
            "cookie": "",
            "Content-Type": "application/json",
            "x-api-source": "pc"
        },
        "payload": {
            "quantity": 1,
            "checkout": true,
            "update_checkout_only": false,
            "donot_add_quantity": false,
            "source": "{\"refer_urls\":[]}",
            "client_source": 1,
            "shopid": 200646321,
            "itemid": 100864150,
            "modelid": 10001079245
        },
        "response_status": 200
    },
    "add_to_cart_info_100864152": {
        "url": "https://staging.shopee.vn/api/v4/cart/add_to_cart",
        "headers": {
            "x-csrftoken": "2AzWm32UZWjVkDvuVpf8rTRD9piUKqKu",
            "referer": "https://staging.shopee.vn/",
            "cookie": "",
            "Content-Type": "application/json",
            "x-api-source": "pc"
        },
        "payload": {
            "quantity": 1,
            "checkout": true,
            "update_checkout_only": false,
            "donot_add_quantity": false,
            "source": "{\"refer_urls\":[]}",
            "client_source": 1,
            "shopid": 200646321,
            "itemid": 100864152,
            "modelid": 10001079248
        },
        "response_status": 200
    },
    "cart_checkout": {
        "url": "https://staging.shopee.vn/api/v4/cart/checkout",
        "headers": {
            "x-csrftoken": "2AzWm32UZWjVkDvuVpf8rTRD9piUKqKu",
            "referer": "https://staging.shopee.vn/",
            "cookie": "",
            "Content-Type": "application/json"
        },
        "payload": {
            "selected_shop_order_ids": [
                {
                    "shopid": 200646321,
                    "item_briefs": [
                        {
                            "itemid": 100864152,
                            "modelid": 10001079248,
                            "item_group_id": null,
                            "applied_promotion_id": 0,
                            "offerid": null,
                            "price": 3620000000,
                            "quantity": 1,
                            "is_add_on_sub_item": null,
                            "add_on_deal_id": null,
                            "status": 1,
                            "cart_item_change_time": 1622460830
                        },
                        {
                            "itemid": 100864150,
                            "modelid": 10001079245,
                            "item_group_id": null,
                            "applied_promotion_id": 0,
                            "offerid": null,
                            "price": 6510000000,
                            "quantity": 1,
                            "is_add_on_sub_item": null,
                            "add_on_deal_id": null,
                            "status": 1,
                            "cart_item_change_time": 1622460795
                        }
                    ],
                    "shop_vouchers": []
                }
            ],
            "platform_vouchers": [],
            "free_shipping_voucher_info": {
                "free_shipping_voucher_id": 0
            },
            "use_coins": false,
            "support_problematic_groups": true
        },
        "response_status": 200
    },
    "checkout_get": {
        "url": "https://staging.shopee.vn/api/v4/checkout/get",
        "headers": {
            "x-csrftoken": "2AzWm32UZWjVkDvuVpf8rTRD9piUKqKu",
            "referer": "https://staging.shopee.vn/checkout-page",
            "cookie": "",
            "Content-Type": "application/json"
        },
        "payload": {
            "timestamp": 1622460889,
            "shoporders": [
                {
                    "shop": {
                        "shopid": 200646321
                    },
                    "items": [
                        {
                            "itemid": 100864150,
                            "modelid": 10001079245,
                            "add_on_deal_id": 0,
                            "is_add_on_sub_item": false,
                            "item_group_id": 0,
                            "quantity": 1
                        },
                        {
                            "itemid": 100864152,
                            "modelid": 10001079248,
                            "add_on_deal_id": 0,
                            "is_add_on_sub_item": false,
                            "item_group_id": 0,
                            "quantity": 1
                        }
                    ],
                    "logistics": {
                        "recommended_channelids": null
                    },
                    "buyer_address_data": {
                        "tax_address": "",
                        "address_type": 0,
                        "addressid": 14515
                    },
                    "selected_logistic_channelid": 50010,
                    "shipping_id": 1,
                    "selected_preferred_delivery_time_option_id": 0,
                    "selected_preferred_delivery_time_slot_id": null,
                    "selected_preferred_delivery_instructions": {
                        "0": "",
                        "1": "0"
                    }
                }
            ],
            "selected_payment_channel_data": {
                "version": 1,
                "payment_channelid": 59000,
                "option_info": "",
                "text_info": {}
            },
            "promotion_data": {
                "use_coins": false,
                "free_shipping_voucher_info": {
                    "free_shipping_voucher_id": 0,
                    "disabled_reason": null,
                    "free_shipping_voucher_code": ""
                },
                "platform_vouchers": [],
                "shop_vouchers": [],
                "check_shop_voucher_entrances": true,
                "auto_apply_shop_voucher": false
            },
            "device_info": {
                "device_id": "",
                "device_fingerprint": "",
                "tongdun_blackbox": "",
                "buyer_payment_info": {}
            },
            "cart_type": 0,
            "client_id": 0,
            "tax_info": {
                "tax_id": ""
            },
            "shipping_orders": [
                {
                    "sync": true,
                    "logistics": {
                        "recommended_channelids": []
                    },
                    "buyer_address_data": {
                        "tax_address": "",
                        "address_type": 0,
                        "addressid": 14515
                    },
                    "selected_logistic_channelid": 50010,
                    "shipping_id": 1,
                    "shoporder_indexes": [
                        0
                    ],
                    "buyer_ic_number": "",
                    "selected_preferred_delivery_time_option_id": 0,
                    "selected_preferred_delivery_time_slot_id": null,
                    "selected_preferred_delivery_instructions": {
                        "0": "",
                        "1": "0"
                    }
                }
            ],
            "order_update_info": {},
            "checkout_price_data": {
                "shipping_subtotal": 4618400000,
                "shipping_discount_subtotal": 0,
                "shipping_subtotal_before_discount": 4618400000,
                "bundle_deals_discount": null,
                "group_buy_discount": 0,
                "merchandise_subtotal": 10130000000,
                "tax_payable": 0,
                "buyer_txn_fee": 0,
                "credit_card_promotion": null,
                "promocode_applied": null,
                "shopee_coins_redeemed": null,
                "total_payable": 14748400000,
                "tax_exemption": 0
            }
        },
        "response_status": 200
    },
    "place_order": {
        "url": "https://staging.shopee.vn/api/v4/checkout/place_order",
        "headers": {
            "x-csrftoken": "2AzWm32UZWjVkDvuVpf8rTRD9piUKqKu",
            "referer": "https://staging.shopee.vn/",
            "cookie": "",
            "Content-Type": "application/json"
        },
        "payload": {},
        "response_status": 200
    }
}