{
    "restroe_item_stock_itemB": {
        "url": "https://admin.listing.staging.shopee.com/item/shopee_admin/proxy/item/shopee_admin/api/v1/update_item_basic_info",
		"headers":{
			"content-type": "application/json;charset=UTF-8",
            "region": "VN"
		},
        "payload":{
            "shop_id": 200001757,
            "item_id": 100984217,
            "region": "VN",
            "model_setting_list": {
                "model_settings": [
                    {
                        "item_id": 100984217,
                        "model_id": 6582254,
                        "normal_stock": 3
                    }
                ]
            }
        },
        "response_status": 200
    }
}