{
    "add_to_cart_batch_info_100267386": {
        "url": "https://staging.shopee.vn/api/v4/cart/add_to_cart_batch",
        "headers": {
            "x-csrftoken": "2AzWm32UZWjVkDvuVpf8rTRD9piUKqKu",
            "referer": "https://staging.shopee.vn/main_item_order1-i.175361040.100267386",
            "cookie": "",
            "Content-Type": "application/json"
        },
        "payload": {
            "orders": [
                {
                    "shopid": 175361040,
                    "items": [
                        {   "add_on_deal_id": 445,
							"item_group_id": "",
                            "donot_add_quantity": false,
                            "quantity": 1,
                            "checkout": true,
                            "is_add_on_sub_item": false,
                            "shopid": 175361040,
                            "itemid": 100267386,
                            "modelid": 6828909
                        },
                        {
                            "add_on_deal_id": 445,
							"item_group_id": "",
                            "donot_add_quantity": false,
                            "quantity": 1,
                            "checkout": true,
                            "is_add_on_sub_item": true,
                            "shopid": 175361040,
                            "itemid": 100267806,
                            "modelid": 6829209
                        }
                    ]
                }
            ]
        },
        "response_status": 200
    },
    "add_to_cart_batch_info_100267387": {
        "url": "https://staging.shopee.vn/api/v4/cart/add_to_cart_batch",
        "headers": {
            "x-csrftoken": "2AzWm32UZWjVkDvuVpf8rTRD9piUKqKu",
            "referer": "https://staging.shopee.vn/main_item_order2-i.175361040.100267387",
            "cookie": "",
            "Content-Type": "application/json"
        },
        "payload": {
            "orders": [
                {
                    "shopid": 175361040,
                    "items": [
                        {
                            "add_on_deal_id": 445,
							"item_group_id": "",
                            "donot_add_quantity": false,
                            "quantity": 3,
                            "checkout": true,
                            "is_add_on_sub_item": false,
                            "shopid": 175361040,
                            "itemid": 100267387,
                            "modelid": 6829010
                        },
                        {
                            "add_on_deal_id": 445,
							"item_group_id": "",
                            "donot_add_quantity": false,
                            "quantity": 1,
                            "checkout": true,
                            "is_add_on_sub_item": true,
                            "shopid": 175361040,
                            "itemid": 100267806,
                            "modelid": 6829209
                        }
                    ]
                }
            ]
        },
        "response_status": 200
    },
    "cart_checkout": {
        "url": "https://staging.shopee.vn/api/v4/cart/checkout",
        "headers": {
            "x-csrftoken": "2AzWm32UZWjVkDvuVpf8rTRD9piUKqKu",
            "referer": "https://staging.shopee.vn/cart",
            "cookie": "",
            "Content-Type": "application/json"
        },
        "payload": {
            "selected_shop_order_ids": [
                {
                    "shopid": 175361040,
                    "item_briefs": [
                        {
                            "itemid": 100267387,
                            "modelid": 6829010,
                            "item_group_id": "4872841598622867179",
                            "applied_promotion_id": 0,
                            "offerid": null,
                            "price": 1234500000,
                            "quantity": 1,
                            "is_add_on_sub_item": false,
                            "add_on_deal_id": 445,
                            "status": 1,
                            "cart_item_change_time": 1647337475,
							"membership_offer_id": null
                        },
                        {
                            "itemid": 100267806,
                            "modelid": 6829209,
                            "item_group_id": "4872841598622867179",
                            "applied_promotion_id": 445,
                            "offerid": null,
                            "price": 0,
                            "quantity": 1,
                            "is_add_on_sub_item": true,
                            "add_on_deal_id": 445,
                            "status": 1,
                            "cart_item_change_time": 1647337475,
							"membership_offer_id": null
                        },
                        {
                            "itemid": 100267386,
                            "modelid": 6828909,
                            "item_group_id": "1324899469793352747",
                            "applied_promotion_id": 0,
                            "offerid": null,
                            "price": 1234500000,
                            "quantity": 1,
                            "is_add_on_sub_item": false,
                            "add_on_deal_id": 445,
                            "status": 1,
                            "cart_item_change_time": 1647337153,
							"membership_offer_id": null
                        },
                        {
                            "itemid": 100267806,
                            "modelid": 6829209,
                            "item_group_id": "1324899469793352747",
                            "applied_promotion_id": 445,
                            "offerid": null,
                            "price": 0,
                            "quantity": 2,
                            "is_add_on_sub_item": true,
                            "add_on_deal_id": 445,
                            "status": 1,
                            "cart_item_change_time": 1647337153,
							"membership_offer_id": null
                        }
                    ],
                    "shop_vouchers": []
                }
            ],
            "platform_vouchers": [],
            "free_shipping_voucher_info":null,
            "use_coins": false,
            "support_problematic_groups": true,
            "version":3
        },
        "response_status": 200
    },
    "checkout_get": {
        "url": "https://staging.shopee.vn/api/v4/checkout/get",
        "headers": {
            "x-csrftoken": "2AzWm32UZWjVkDvuVpf8rTRD9piUKqKu",
            "referer": "https://staging.shopee.vn/checkout/",
            "cookie": "",
            "Content-Type": "application/json"
        },
        "payload": {
            "timestamp": 1647338399,
            "shoporders": [
                {
                    "shop": {
                        "shopid": 175361040
                    },
                    "items": [
                        {
                            
                            "itemid": 100267386,
                            "modelid": 6828909,
                            "add_on_deal_id": 445,
                            "is_add_on_sub_item": false,
                            "item_group_id": "1324899469793352747",
                            "quantity": 1
                        },
                        {
                            "itemid": 100267387,
                            "modelid": 6829010,
                            "add_on_deal_id": 445,
                            "is_add_on_sub_item": false,
                            "item_group_id": "4872841598622867179",
                            "quantity": 1
                        },
                        {
                            "itemid": 100267806,
                            "modelid": 6829209,
                            "add_on_deal_id": 445,
                            "is_add_on_sub_item": true,
                            "item_group_id": "1324899469793352747",
                            "quantity": 1
                        },
                        {
                            "itemid": 100267806,
                            "modelid": 6829209,
                            "add_on_deal_id": 445,
                            "is_add_on_sub_item": true,
                            "item_group_id": "4872841598622867179",
                            "quantity": 1
                        }
                    ],
                    "shipping_id":1
                }
            ],
            "selected_payment_channel_data":{
                "version":2,
                "option_info":"",
                "channel_id":5000102,
                "channel_item_option_info":{
                    "channel_item_id":3061,
                    "credit_card_data":{
                        "bank_id":6945,
                        "bank_name":"Citibank",
                        "card_number":"400000xxxxxx0002",
                        "expiry_date":"05-2050"
                    }
                },
                "additional_info":{
                "reason":"",
                "channel_blackbox":"{}"
                },
                "text_info":{}
            },
            "promotion_data":{
                "use_coins":false,
                "free_shipping_voucher_info":{
                    "free_shipping_voucher_id":0,
                    "free_shipping_voucher_code":"",
                    "disabled_reason":null,
                    "banner_info":{
                        "msg":"",
                        "learn_more_msg":""
                    }
                },
                "platform_vouchers":[],
                "shop_vouchers":[],
                "check_shop_voucher_entrances":true,
                "auto_apply_shop_voucher":false
            },
            "device_info": {
                "device_id": "",
                "device_fingerprint": "",
                "tongdun_blackbox": "",
                "buyer_payment_info": {}
            },
            "buyer_info":{
                "share_to_friends_info":{
                    "display_toggle":false,
                    "enable_toggle":false,
                    "allow_to_share":false
                },
                "kyc_info":null,
                "checkout_email":""
            },
            "cart_type":0,
            "client_id":0,
            "tax_info":{
                "tax_id":""
            },
            "shipping_orders":[
                {
                "sync":true,
                "buyer_address_data":{
                    "addressid":19637,
                    "address_type":0,
                    "tax_address":""
                },
                "selected_logistic_channelid":50012,
                "shipping_id":1,
                "shoporder_indexes":[
                0
                ],
                "selected_preferred_delivery_time_option_id":0,
                "selected_preferred_delivery_time_slot_id":null
                }
            ],
            "order_update_info": {},
            "checkout_price_data":{
                "merchandise_subtotal":2469000000,
                "shipping_subtotal_before_discount":4340000000,
                "shipping_discount_subtotal":0,
                "shipping_subtotal":4340000000,
                "tax_payable":0,
                "tax_exemption":0,
                "custom_tax_subtotal":0,
                "promocode_applied":null,
                "credit_card_promotion":null,
                "shopee_coins_redeemed":null,
                "group_buy_discount":0,
                "bundle_deals_discount":null,
                "buyer_txn_fee":0,
                "insurance_subtotal":0,
                "insurance_before_discount_subtotal":0,
                "insurance_discount_subtotal":0,
                "vat_subtotal":0,
                "total_payable":6809000000
            }
        },
        "response_status": 200
    },
    "place_order": {
        "url": "https://staging.shopee.vn/api/v4/checkout/place_order",
        "headers": {
            "x-csrftoken": "2AzWm32UZWjVkDvuVpf8rTRD9piUKqKu",
            "referer": "https://staging.shopee.vn/",
            "cookie": "",
            "Content-Type": "application/json"
        },
        "payload": {},
        "response_status": 200
    }
}