{
    "restore_item_stock_100267386": {
        "url": "https://admin.listing.staging.shopee.com/item/shopee_admin/proxy/item/shopee_admin/api/v1/update_item_basic_info",
		"headers":{
			"content-type": "application/json;charset=UTF-8",
            "region": "VN"
		},
        "payload":{
            "shop_id": 175361040,
            "item_id": 100267386,
            "region": "VN",
            "model_setting_list": {
                "model_settings": [
                    {
                        "item_id": 100267386,
                        "model_id": 6828909,
                        "normal_stock": 1000
                    }
                ]
            }
        },
        "response_status": 200
    }
}