shopid,promotionid
200005345,128541
200005345,128542
200005345,128543
200005345,128544
200005345,128545
200005345,128541
200005345,128542
200005345,128543
200005345,128544
200005345,128545
200005345,128541
200005345,128542
200005345,128543
200005345,128544
200005345,128545
