{
    "get_ongoing_flashsale_status": {
        "headers": {
            "cache-control": "no-cache",
            "content-type": "application/x-www-form-urlencoded",
            "user-agent": "Mozilla/5.0 (Windows NT 10.0; Win64; x64) AppleWebKit/537.36 (KHTML, like Gecko) Chrome/79.0.3945.130 Safari/537.36"
        },
        "payload": {},
        "query_string_parameters": {
            "end_time__lte": "",
            "itemid": "",
            "limit": "25",
            "modelid": "",
            "offset": "0",
            "ongoing_status": "3",
            "order_by": "1",
            "promotionid": "",
            "shopid": "",
            "start_time__gte": ""
        },
        "response_status": 200,
        "response_text": {
            "code": 0,
            "message": "success",
            "user_message": "success"
        },
        "url": "https://admin.staging.shopee.vn/promotion/flash_sales_v2/overview/json/"
    },
    "get_reviewing_flashsale_status": {
        "headers": {
            "cache-control": "no-cache",
            "content-type": "application/x-www-form-urlencoded",
            "user-agent": "Mozilla/5.0 (Windows NT 10.0; Win64; x64) AppleWebKit/537.36 (KHTML, like Gecko) Chrome/79.0.3945.130 Safari/537.36"
        },
        "payload": {},
        "query_string_parameters": {
            "end_time__lte": "",
            "itemid": "",
            "limit": "25",
            "modelid": "",
            "offset": "0",
            "ongoing_status": "2",
            "order_by": "1",
            "promotionid": "",
            "shopid": "",
            "start_time__gte": ""
        },
        "response_status": 200,
        "response_text": {
            "code": 0,
            "message": "success",
            "user_message": "success"
        },
        "url": "https://admin.staging.shopee.vn/promotion/flash_sales_v2/overview/json/"
    }
}
