{
    "approve_flash_sale_products": {
        "headers": {
            "cache-control": "no-cache",
            "content-type": "application/x-www-form-urlencoded",
            "referer": "https://admin.staging.shopee.vn/promotion/flash_sales_v2/step_screening/promotion_id/product_screening/manual_screening/",
            "user-agent": "Mozilla/5.0 (Windows NT 10.0; Win64; x64) AppleWebKit/537.36 (KHTML, like Gecko) Chrome/79.0.3945.130 Safari/537.36",
            "x-csrftoken": ""
        },
        "payload": {
            "items": "[['200667322','100969045','10001424386','0','0','0'],['200667322','100969065','6410447','0','0','0']]",
            "accept_soft_rule" : "1"
        },
        "response_status": 200,
        "response_text": {
            "code": 0,
            "message": "success",
            "user_message": "success"
        },
        "url": "https://admin.staging.shopee.vn/promotion/flash_sales_v2/step_screening/promotion_id/product_screening/manual_screening/mass_approve_item/"
    },
    "confirm_flashsale_products": {
        "headers": {
            "cache-control": "no-cache",
            "content-type": "application/x-www-form-urlencoded",
            "referer": "https://admin.staging.shopee.vn/promotion/flash_sales_v2/step_screening/promotion_id/product_screening/manual_screening/",
            "user-agent": "Mozilla/5.0 (Windows NT 10.0; Win64; x64) AppleWebKit/537.36 (KHTML, like Gecko) Chrome/79.0.3945.130 Safari/537.36",
            "x-csrftoken": ""
        },
        "payload": {
            "products": "[{\"itemid\":100969045,\"original_price\":2000000000,\"promo_price_for_display\":15000,\"cat_name\":\"AutoPDP\",\"modelid\":10001424386,\"promo_stock\":5,\"cat_id\":32079,\"promo_price\":1500000000,\"shopid\":200667322,\"source\":1,\"promo_name\":\"flash_sale\",\"original_price_for_display\":20000,\"rebate_price_for_display\":3,\"purchase_limit\":2,\"rebate_price\":300000},{\"itemid\":100969065,\"original_price\":2000000000,\"promo_price_for_display\":15000,\"cat_name\":\"Túi Ví\",\"modelid\":6410447,\"promo_stock\":5,\"cat_id\":11872,\"promo_price\":1500000000,\"shopid\":200667322,\"source\":1,\"promo_name\":\"flash_sale\",\"original_price_for_display\":20000,\"rebate_price_for_display\":3,\"purchase_limit\":2,\"rebate_price\":300000}]",
            "accept_soft_rule" : "true"
        },
        "response_status": 200,
        "response_text": {
            "code": 0,
            "message": "success",
            "user_message": "success"
        },
        "url": "https://admin.staging.shopee.vn/promotion/flash_sales_v2/step_screening/promotion_id/product_screening/manual_screening/upload_confirm/"
    },
    "create_flashsale": {
        "headers": {
            "cache-control": "no-cache",
            "content-type": "application/x-www-form-urlencoded",
            "referer": "https://admin.staging.shopee.vn/promotion/flash_sales_v2/step_new/create/",
            "user-agent": "Mozilla/5.0 (Windows NT 10.0; Win64; x64) AppleWebKit/537.36 (KHTML, like Gecko) Chrome/79.0.3945.130 Safari/537.36",
            "x-csrftoken": ""
        },
        "payload": {
            "allowed_cat": "[]",
            "allowed_shop": [
                0
            ],
            "banner": "d1c675eaef7ba0bcc4684fbdf64e7595",
            "banner_url": "",
            "discount_max": "",
            "discount_min": "",
            "dp_nominate_end": "",
            "dp_nominate_start": "",
            "is_dp_nominate": "false",
            "is_self_nominate": "false",
            "is_show_price": "false",
            "max_DTS": 180,
            "nominate_condition": "",
            "nominate_end": "",
            "nominate_per_seller": "",
            "nominate_start": "",
            "num_dp_per_session": "",
            "pc_banner": "0918b54c5b559f226aa9e8fc9145bee6",
            "promotion_description": "VN Android Product Detail Page Overlap EX",
            "promotion_end": "",
            "promotion_min_stock": 0,
            "promotion_name": "TWQA auto test Android Product Detail Page Overlap",
            "promotion_start": "",
            "value_max": 20000000,
            "value_min": 1
        },
        "response_status": 200,
        "response_text": {
            "code": 0,
            "message": "success",
            "user_message": "success"
        },
        "url": "https://admin.staging.shopee.vn/promotion/flash_sales_v2/step_new/create/add/"
    },
    "refresh_flash_sale_status": {
        "headers": {
            "cache-control": "no-cache",
            "content-type": "application/x-www-form-urlencoded",
            "referer": "https://admin.staging.shopee.vn/promotion/flash_sales_v2/overview/",
            "user-agent": "Mozilla/5.0 (Windows NT 10.0; Win64; x64) AppleWebKit/537.36 (KHTML, like Gecko) Chrome/79.0.3945.130 Safari/537.36",
            "x-csrftoken": ""
        },
        "payload": "",
        "response_status": 200,
        "response_text": {
            "code": 0,
            "message": "success",
            "user_message": "success"
        },
        "url": "https://admin.staging.shopee.vn/promotion/flash_sales_v2/promotion_id/sync/"
    },
    "upload_flashsale_products": {
        "headers": {
            "cache-control": "no-cache",
            "content-type": "application/x-www-form-urlencoded",
            "referer": "https://admin.staging.shopee.vn/promotion/flash_sales_v2/step_screening/promotion_id/product_screening/manual_screening/",
            "user-agent": "Mozilla/5.0 (Windows NT 10.0; Win64; x64) AppleWebKit/537.36 (KHTML, like Gecko) Chrome/79.0.3945.130 Safari/537.36",
            "x-csrftoken": ""
        },
        "payload": {
            "products": "[[\"200667322\",\"100969045\",\"flash_sale\",\"10001424386\",\"15000\",\"3\",\"2\",\"5\"],[\"200667322\",\"100969065\",\"flash_sale\",\"6410447\",\"15000\",\"3\",\"2\",\"5\"]]",
            "accept_soft_rule" : "true"
        },
        "response_status": 200,
        "response_text": {
            "code": 0,
            "message": "success",
            "user_message": "success"
        },
        "url": "https://admin.staging.shopee.vn/promotion/flash_sales_v2/step_screening/promotion_id/product_screening/manual_screening/upload_check/"
    },
    "get_ongoing_flashsale_status": {
        "headers": {
            "cache-control": "no-cache",
            "content-type": "application/x-www-form-urlencoded",
            "user-agent": "Mozilla/5.0 (Windows NT 10.0; Win64; x64) AppleWebKit/537.36 (KHTML, like Gecko) Chrome/79.0.3945.130 Safari/537.36"
        },
        "payload": {},
        "query_string_parameters": {
            "end_time__lte": "",
            "itemid": "",
            "limit": "25",
            "modelid": "",
            "offset": "0",
            "ongoing_status": "3",
            "order_by": "1",
            "promotionid": "",
            "shopid": "",
            "start_time__gte": ""
        },
        "response_status": 200,
        "response_text": {
            "code": 0,
            "message": "success",
            "user_message": "success"
        },
        "url": "https://admin.staging.shopee.vn/promotion/flash_sales_v2/overview/json/"
    },
    "get_reviewing_flashsale_status": {
        "headers": {
            "cache-control": "no-cache",
            "content-type": "application/x-www-form-urlencoded",
            "user-agent": "Mozilla/5.0 (Windows NT 10.0; Win64; x64) AppleWebKit/537.36 (KHTML, like Gecko) Chrome/79.0.3945.130 Safari/537.36"
        },
        "payload": {},
        "query_string_parameters": {
            "end_time__lte": "",
            "itemid": "",
            "limit": "25",
            "modelid": "",
            "offset": "0",
            "ongoing_status": "2",
            "order_by": "1",
            "promotionid": "",
            "shopid": "",
            "start_time__gte": ""
        },
        "response_status": 200,
        "response_text": {
            "code": 0,
            "message": "success",
            "user_message": "success"
        },
        "url": "https://admin.staging.shopee.vn/promotion/flash_sales_v2/overview/json/"
    }
}
