{
	"update_price_not_in_promotion_edit_item_price_valid":{
		"api_command": "item.item_info.update_price",
		"req":
		{
			"shop_id": 200664271,
			"item_id": 100958357,
			"price_setting_list":{
				"price_settings":[
					{
						"rule_type":0,
						"input_price":600000000,
						"currency":"NTD"
					}
				]
			}
		},
		"response_text":{
			"updated_price":600000000
		},
		"response_status" : 0
	},
	"update_price_not_in_promotion_edit_item_price_restore":{
		"api_command": "item.item_info.update_price",
		"req":
		{
			"shop_id": 200664271,
			"item_id": 100958357,
			"price_setting_list":{
				"price_settings":[
					{
						"rule_type":0,
						"input_price":500000000,
						"currency":"NTD"
					}
				]
			}
		},
		"response_text":{
			"updated_price":500000000
		},
		"response_status" : 0
	}
}