{
	"update_item_basic_info_with_model_edit_model_price_less_than_min_setting":{
		"api_command": "item.item_info.update_item_basic_info",
		"req":
		{
			"shop_id":200664271,
        	"item_id":100916647,
			"model_list":{
				"models":[
					{
						"model_id": 10001137577,
						"price":1900000
					}
				]
			},
			"resp_need_item": false,
			"resp_need_models": false,
			"check_only": false
		},
		"response_status" : 710039
	},
	"update_item_basic_info_with_model_edit_model_price_greater_than_max_setting":{
		"api_command": "item.item_info.update_item_basic_info",
		"req":
		{
			"shop_id":200664271,
        	"item_id":100916647,
			"model_list":{
				"models":[
					{
						"model_id": 10001137577,
						"price":10000000100000
					}
				]
			},
			"resp_need_item": false,
			"resp_need_models": false,
			"check_only": false
		},
		"response_status" : 710040
	},
	"update_item_basic_info_with_model_edit_model_price_normal":{
		"api_command": "item.item_info.update_item_basic_info",
		"req":
		{
			"shop_id":200664271,
        	"item_id":100916647,
			"model_list":{
				"models":[
					{
						"model_id": 10001137577,
						"price":205000000
					}
				]
			},
			"resp_need_item": true,
			"resp_need_models": true,
			"check_only": false
		},
		"response_text":{
			"item": {
				"price": 205000000
			},
			"models": [
				{
					"modelid": 10001137577,
					"price": 205000000
				}
			]
		},
		"response_status" : 0 
	},
	"update_item_basic_info_with_model_edit_model_price_restore":{
		"api_command": "item.item_info.update_item_basic_info",
		"req":
		{
			"shop_id":200664271,
        	"item_id":100916647,
			"model_list":{
				"models":[
					{
						"model_id": 10001137577,
						"price":333300000
					}
				]
			},
			"resp_need_item": true,
			"resp_need_models": true,
			"check_only": false
		},
		"response_text":{
			"item": {
				"price": 333300000
			},
			"models": [
				{
					"modelid": 10001137577,
					"price": 333300000			
				}
			]
		},
		"response_status" : 0 
	}
}