{
	"update_stock_by_item_id_parameter_item_id_nil":{
		"api_command": "item.item_info.update_stock_by_item_id",
		"req":
		{
			"shop_id": 200664271,
			"model_list":[
				{
					"model_id": 6408544,
					"stock": 600
					
				}
			],
			"audit_param":{
				"reason":"edit",
				"operator":"yushan",
				"source":"Open api",
				"additional_detail":{
					"edit_mode":"single",
					"app_version":""
				},
				"client_id":"tw_qa.api_test",
				"no_audit": false,
				"force_add": true
			}
		},
		"response_text":{
			"debug_msg": "item_id is invalid, item_id=0: item.price_stock.get_item_price_stock_batch failed: price.business.get_non_login_purchase_info failed"
		},
		"response_status" : 500008
	},
	"update_stock_by_item_id_parameter_item_id_0":{
		"api_command": "item.item_info.update_stock_by_item_id",
		"req":
		{
			"shop_id": 200664271,
			"item_id": 0,
			"model_list":[
				{
					"model_id": 6408544,
					"stock": 600
					
				}
			],
			"audit_param":{
				"reason":"edit",
				"operator":"yushan",
				"source":"Open api",
				"additional_detail":{
					"edit_mode":"single",
					"app_version":""
				},
				"client_id":"tw_qa.api_test",
				"no_audit": false,
				"force_add": true
			}
		},
		"response_text":{
			"debug_msg": "item_id is invalid, item_id=0: item.price_stock.get_item_price_stock_batch failed: price.business.get_non_login_purchase_info failed"
		},
		"response_status" : 500008
	},
	"update_stock_by_item_id_parameter_item_id_negative":{
		"api_command": "item.item_info.update_stock_by_item_id",
		"req":
		{
			"shop_id": 200664271,
			"item_id": -1,
			"audit_param":{
				"reason":"edit",
				"operator":"yushan",
				"source":"Open api",
				"additional_detail":{
					"edit_mode":"single",
					"app_version":""
				},
				"client_id":"tw_qa.api_test",
				"no_audit": false,
				"force_add": true
			}
		},
		"response_text":{},
		"response_status" : 105
	},
	"update_stock_by_item_id_parameter_item_id_uint64max":{
		"api_command": "item.item_info.update_stock_by_item_id",
		"req":
		{
			"shop_id":200664271,
			"item_id":18446744073709551615,
			"model_list":[
				{
					"model_id": 6408544,
					"stock": 600
					
				}
			],
			"audit_param":{
				"reason":"edit",
				"operator":"yushan",
				"source":"Open api",
				"additional_detail":{
					"edit_mode":"single",
					"app_version":""
				},
				"client_id":"tw_qa.api_test",
				"no_audit": false,
				"force_add": true
			}
		},
		"response_text":{
			"debug_msg": "item not found"
		},
		"response_status" : 710001
	},
	"update_stock_by_item_id_parameter_item_id_uint64max_1":{
		"api_command": "item.item_info.update_stock_by_item_id",
		"req":
		{
			"shop_id":200664271,
			"item_id":18446744073709551616,
			"audit_param":{
				"reason":"edit",
				"operator":"yushan",
				"source":"Open api",
				"additional_detail":{
					"edit_mode":"single",
					"app_version":""
				},
				"client_id":"tw_qa.api_test",
				"no_audit": false,
				"force_add": true
			}
		},
		"response_text":{},
		"response_status" : 105
	}
}