{
	"add_item_with_basic_info_parameter_resp_need_item_nil":{
		"api_command": "item.item_info.add_item_with_basic_info",
		"req":
		{
			"shop_id":200664271,
			"item_info": {
				"name": "yushan_api_test",
				"description": "1.Add 2.Response need item",
				"price": 111100000,
				"images": "e7419a6cfcd6f0483d936810cc93b2da",
				"cat": {
					"global_cat":{
						"cat_ids":[100090,100723,100724]
					},
					"cat_list": {
						"cats": [
							{"cat_ids": [31769,34366,34367]}
						]
					}
				},
				"logistic": {
					"estimated_days": 0,
					"weight":500000
				},
				"tier_variation_list":{
					"tier_variations":[
						{
						"name" : "Size",
						"options":["F"]                        
						}
					]  
				},
				"attribute":{}
			},
			"model_list":{
				"models":[
					{
						"tier_index_list":{
							"tier_indices":[0]
						},
						"stock":100,
						"price":110000000
					}
				]
			},
			"resp_need_models": false,
			"check_only": false
		},
		"response_status" : 0
	},
	"delete_item_resp_need_item_nil":{
		"api_command": "item.item_info.delete_item",
		"req":
		{	
			"shop_id":200664271,
			"item_id":"int_to_be_replaced"          
		},
		"response_status" : 0
	},

	"add_item_with_basic_info_parameter_resp_need_item_true":{
		"api_command": "item.item_info.add_item_with_basic_info",
		"req":
		{
			"shop_id":200664271,
			"item_info": {
				"name": "yushan_api_test",
				"description": "1.Add 2.Response need item",
				"price": 111100000,
				"images": "e7419a6cfcd6f0483d936810cc93b2da",
				"cat": {
					"global_cat":{
						"cat_ids":[100090,100723,100724]
					},
					"cat_list": {
						"cats": [
							{"cat_ids": [31769,34366,34367]}
						]
					}
				},
				"logistic": {
					"estimated_days": 0,
					"weight":500000
				},
				"tier_variation_list":{
					"tier_variations":[
						{
						"name" : "Size",
						"options":["F"]                        
						}
					]  
				},
				"attribute":{}
			},
			"model_list":{
				"models":[
					{
						"tier_index_list":{
							"tier_indices":[0]
						},
						"stock":100,
						"price":110000000
					}
				]
			},
			"resp_need_item": true,
			"resp_need_models": false,
			"check_only": false
		},
		"response_status" : 0
	},
	"delete_item_resp_need_item_true":{
		"api_command": "item.item_info.delete_item",
		"req":
		{	
			"shop_id":200664271,
			"item_id":"int_to_be_replaced"          
		},
		"response_status" : 0
	},

	"add_item_with_basic_info_parameter_resp_need_item_false":{
		"api_command": "item.item_info.add_item_with_basic_info",
		"req":
		{
			"shop_id":200664271,
			"item_info": {
				"name": "yushan_api_test",
				"description": "1.Add 2.Response need item",
				"price": 111100000,
				"images": "e7419a6cfcd6f0483d936810cc93b2da",
				"cat": {
					"global_cat":{
						"cat_ids":[100090,100723,100724]
					},
					"cat_list": {
						"cats": [
							{"cat_ids": [31769,34366,34367]}
						]
					}
				},
				"logistic": {
					"estimated_days": 0,
					"weight":500000
				},
				"tier_variation_list":{
					"tier_variations":[
						{
						"name" : "Size",
						"options":["F"]                        
						}
					]  
				},
				"attribute":{}
			},
			"model_list":{
				"models":[
					{
						"tier_index_list":{
							"tier_indices":[0]
						},
						"stock":100,
						"price":110000000
					}
				]
			},
			"resp_need_item": false,
			"resp_need_models": false,
			"check_only": false
		},
		"response_status" : 0
	},
	"delete_item_resp_need_item_false":{
		"api_command": "item.item_info.delete_item",
		"req":
		{	
			"shop_id":200664271,
			"item_id":"int_to_be_replaced"          
		},
		"response_status" : 0
	}
}