{
	"get_item_list_by_item_ids_parameter_null_request":{
		"api_command": "item.item_info.get_item_list_by_item_ids",
		"req":
		{},
		"response_text":{"debug_msg": "Itemid list is nil"},
		"response_status" : 710009
	}
}