{
	"get_item_list_all_status":{
		"api_command": "item.item_info.get_item_list",
		"req":
		{	
			"shop_id":200664271,
            "item_ids":[100851130,100851126,100864343,100851127,100851128,100864344,100863108,100851129],                     
            "status_type":0,
            "ignore_extinfo":true
		},
		"response_text":{
			"items":[
			   {
					"itemid":100851130,
					"status":0
			   },
			   {
					"itemid":100851126,
					"status":1
			   },
			   {
					"itemid":100864343,
					"status":2
			   },
			   {
					"itemid":100851127,
					"status":3
			   },
			   {
					"itemid":100851128,
					"status":4
			   },
			   {
					"itemid":100864344,
					"status":5
			   },
			   {
					"itemid":100863108,
					"status":6
			   },
			   {
					"itemid":100851129,
					"status":8
			   }
			]
		 },
		"response_status" : 0
	}
}