{
	"add_item":{
		"api_command": "item.item_info.add_item_with_basic_info",
		"req":
		{
			"shop_id":200664271,
			"item_info": {
				"name":"yushan_set_model",
				"description": "1.set model list 2.Edit to delete model",
				"price": 213000000,
				"stock":512,
				"images": "e7419a6cfcd6f0483d936810cc93b2da",
				"cat": {
					"global_cat":{
						"cat_ids":[100090,100723,100724]
					},
					"cat_list": {
						"cats": [
							{"cat_ids": [31769,34366,34367]}
						]
					}
				},
				"logistic": {
					"estimated_days": 2,
					"weight":500000
				},
				"tier_variation_list":{
					"tier_variations":[
						{
							"name":"Color",
							"options":["W","B","R"]
						}
					]
				}
			},
			"model_list":{
				"models":[
					{
						"delete":false,
						"tier_index_list":{
							"tier_indices":[0]
						},
						"price":213000000,
						"stock":512
					}
				]
			}
		},
		"response_status" : 0
	},
	"set_model_list_delete_normal_model":{
		"api_command": "item.item_info.set_model_list",
		"req":
		{
			"shop_id":200664271,
			"item_id":"int_to_be_replaced",
			"models":[
				{
					"delete":true,
					"model_id": "int_to_be_replaced"
				}
			],
			"resp_need_models": true
		},
		"response_status" : 0
	},
	"delete_item":{
		"api_command": "item.item_info.delete_item",
		"req":
		{
			"shop_id":200664271,
			"item_id":"int_to_be_replaced"
		},
		"response_status" : 0
	},
	"set_model_list_restore_deleted_model":{
		"api_command": "item.item_info.set_model_list",
		"req":
		{
			"shop_id":200664271,
			"item_id":100948304,
			"models":[
				{
					"delete":false,
					"model_id": 6248169
				}
			]
		},
		"response_text": {"debug_msg": "param error:[model[modelID=6248169] not found in db]"},
		"response_status" : 700005
	},
	"set_model_list_delete_deleted_model":{
		"api_command": "item.item_info.set_model_list",
		"req":
		{
			"shop_id":200664271,
			"item_id":100948304,
			"models":[
				{
					"delete":false,
					"model_id": 6248169
				}
			]
		},
		"response_text": {"debug_msg": "param error:[model[modelID=6248169] not found in db]"},
		"response_status" : 700005
	}
}