{
	"delete_model_list_shop_id_not_exist":{
		"api_command": "item.item_info.delete_model_list",
		"req":
		{
			"shop_id":1,
			"item_id":100947654
		},
		"response_text":{"debug_msg": "item not found"},
		"response_status" : 710001
	}
}