{
	"delete_model_list_model_in_promotion_seller_discount":{
		"api_command": "item.item_info.delete_model_list",
		"req":
		{
			"shop_id":200664271,
			"item_id":100947749,
			"model_ids":[10009943974]
		},
		"response_text":{"debug_msg": "model[10009943974] is in promotion cannot be removed"},
		"response_status" : 730004
	}
}