{
	"update_stock_by_item_id_seller_on_holiday_mode":{
		"api_command": "item.item_info.update_stock_by_item_id",
		"req":
		{
			"shop_id": 200673211,
			"item_id": 100915271,
			"model_list":[
				{
					"stock": 500
				}
			],
			"audit_param":{
				"reason":"Edit",
				"operator":"yushan@shopee.com",
				"source": "Open API",
				"additional_detail":{
					"edit_mode":"single",
					"app_version":""
				},
				"client_id":"tw_qa.api_test",
				"no_audit":false,
				"force_add":false
			}
		},
		"response_text":{
			"debug_msg":"Editing of product info is locked:info_type=,lock_type=HolidayModeLock, event_type/promo=<nil> event_type/sellerpenalty=<nil>"
		},
		"response_status" : 711200
	}
}