{
	"update_price_model_id_not_exist":{
		"api_command": "item.item_info.update_price",
		"req":
		{
			"shop_id": 200664271,
			"item_id": 100959153,
			"model_id": 1,
			"price_setting_list":{
				"price_settings":[
					{
						"rule_type":0,
						"input_price":500000000,
						"currency":"NTD"
					}
				]
			}
		},
		"response_text":{
			"debug_msg": "param error:[model[modelID=1] not found in db]",
   			"updated_price": 0
		},
		"response_status" : 700005
	}
}