{
	"update_stock_by_item_id_item_id_and_model_id_mismatch":{
		"api_command": "item.item_info.update_stock_by_item_id",
		"req":
		{
			"shop_id": 200664271,
			"item_id": 100967602,
			"model_list":[
				{
					"model_id": 6408546,
					"stock": 500
				}
			],
			"audit_param":{
				"reason":"Edit",
				"operator":"yushan@shopee.com",
				"source": "Open API",
				"additional_detail":{
					"edit_mode":"single",
					"app_version":""
				},
				"client_id":"tw_qa.api_test",
				"no_audit":false,
				"force_add":false
			}
		},
		"response_text":{
			"debug_msg":"param error:[model[modelID=6408546] not found in db]"
		},
		"response_status" : 700005
	}
}