{
	"get_item_list_by_item_ids_query_item_over_limit":{
		"api_command": "item.item_info.get_item_list_by_item_ids",
		"req":{
			"item_ids":[100916469 , 100916453 , 100916452 , 100916451 , 100916450 , 100916449 , 100916448 , 100916447 , 100916446 , 100916445 , 100916444 , 100916443 , 100916442 , 100916441 , 100916440 , 100916439 , 100916438 , 100916437 , 100916436 , 100916435 , 100916434 , 100916433 , 100916432 , 100916431 , 100916430 , 100916429 , 100916428 , 100916427 , 100916426 , 100916425 , 100916424 , 100916423 , 100916422 , 100916421 , 100916420 , 100916419 , 100916418 , 100916417 , 100916416 , 100916415 , 100916414 , 100916413 , 100916412 , 100916411 , 100916410 , 100916409 , 100916408 , 100916407 , 100916406 , 100916405, 100916404],
			"ignore_extinfo":true
		},
		"response_text":{"debug_msg": "actual query size of 51 is larger than expected limit of 50"},
		"response_status" : 740003
	}
}