{
	"delete_model_list_model_in_promotion_bundle_deal":{
		"api_command": "item.item_info.delete_model_list",
		"req":
		{
			"shop_id":200664271,
			"item_id":100947959,
			"model_ids":[10010130916]
		},
		"response_text":{"debug_msg": "Editing of product info is locked:info_type=ProductInfoModelDelete,lock_type=PromotionLock, event_type/promo=&{305 false false <nil>} event_type/sellerpenalty=<nil>"},
		"response_status" : 711216
	}
}