{
	"set_model_list_parameter_models_price_setting_list_nil":{
		"api_command": "item.item_info.set_model_list",
		"req":
		{
			"shop_id":200664271,
			"item_id":100947656,
			"models":[
				{
					"model_id":6240573
				}
			]
		},
		"response_text":{"model_ids": [6240573]},
		"response_status" : 0
	},
	"set_model_list_parameter_models_price_setting_list_empty_object":{
		"api_command": "item.item_info.set_model_list",
		"req":
		{
			"shop_id":200664271,
			"item_id":100947656,
			"models":[
				{
					"model_id":6240573,
					"price_setting_list":{}
				}
			]
		},
		"response_text":{"model_ids": [6240573]},
		"response_status" : 0
	},
	"set_model_list_parameter_models_price_setting_list_price_settings_empty_array":{
		"api_command": "item.item_info.set_model_list",
		"req":
		{
			"shop_id":200664271,
			"item_id":100947656,
			"models":[
				{
					"model_id":6240573,
					"price_setting_list":{
						"price_settings":[]
					}
				}
			]
		},
		"response_text":{"model_ids": [6240573]},
		"response_status" : 0
	},
	"set_model_list_parameter_models_price_setting_list_price_settings_empty_array_of_object":{
		"api_command": "item.item_info.set_model_list",
		"req":
		{
			"shop_id":200664271,
			"item_id":100947656,
			"models":[
				{
					"model_id":6240573,
					"price_setting_list":{
						"price_settings":[{}]
					}
				}
			]
		},
		"response_text":{"model_ids": [6240573]},
		"response_status" : 0
	},
	"set_model_list_parameter_models_price_setting_list_price_settings_rule_type_0":{
		"api_command": "item.item_info.set_model_list",
		"req":
		{
			"shop_id":200664271,
			"item_id":100947656,
			"models":[
				{
					"model_id":6240573,
					"price_setting_list":{
						"price_settings":[
							{
								"rule_type":0
							}
						]
					}
				}
			]
		},
		"response_text":{"model_ids": [6240573]},
		"response_status" : 0
	},
	"set_model_list_parameter_models_price_setting_list_price_settings_rule_type_negative":{
		"api_command": "item.item_info.set_model_list",
		"req":
		{
			"shop_id":200664271,
			"item_id":100947656,
			"models":[
				{
					"model_id":6240573,
					"price_setting_list":{
						"price_settings":[
							{
								"rule_type":-1
							}
						]
					}
				}
			]
		},
		"response_text":{},
		"response_status" : 105
	},
	"set_model_list_parameter_models_price_setting_list_price_settings_rule_type_uint32max":{
		"api_command": "item.item_info.set_model_list",
		"req":
		{
			"shop_id":200664271,
			"item_id":100947656,
			"models":[
				{
					"model_id":6240573,
					"price_setting_list":{
						"price_settings":[
							{
								"rule_type":4294967295
							}
						]
					}
				}
			]
		},
		"response_text":{"debug_msg":"param error:[unknown price rule type:[4294967295]]"},
		"response_status" : 700005
	},
	"set_model_list_parameter_models_price_setting_list_price_settings_rule_type_uint32max_1":{
		"api_command": "item.item_info.set_model_list",
		"req":
		{
			"shop_id":200664271,
			"item_id":100947656,
			"models":[
				{
					"model_id":6240573,
					"price_setting_list":{
						"price_settings":[
							{
								"rule_type":4294967296
							}
						]
					}
				}
			]
		},
		"response_text":{},
		"response_status" : 105
	},
	"set_model_list_parameter_models_price_setting_list_price_settings_input_price_0":{
		"api_command": "item.item_info.set_model_list",
		"req":
		{
			"shop_id":200664271,
			"item_id":100947656,
			"models":[
				{
					"model_id":6240573,
					"price_setting_list":{
						"price_settings":[
							{
								"input_price":0
							}
						]
					}
				}
			]
		},
		"response_status" : 710039
	},
	"set_model_list_parameter_models_price_setting_list_price_settings_input_price_negative":{
		"api_command": "item.item_info.set_model_list",
		"req":
		{
			"shop_id":200664271,
			"item_id":100947656,
			"models":[
				{
					"model_id":6240573,
					"price_setting_list":{
						"price_settings":[
							{
								"input_price":-1
							}
						]
					}
				}
			]
		},
		"response_text":{},
		"response_status" : 105
	},
	"set_model_list_parameter_models_price_setting_list_price_settings_input_price_uint64max":{
		"api_command": "item.item_info.set_model_list",
		"req":
		{
			"shop_id":200664271,
			"item_id":100947656,
			"models":[
				{
					"model_id":6240573,
					"price_setting_list":{
						"price_settings":[
							{
								"input_price":18446744073709551615
							}
						]
					}
				}
			]
		},
		"response_status" : 710039
	},
	"set_model_list_parameter_models_price_setting_list_price_settings_input_price_uint64max_1":{
		"api_command": "item.item_info.set_model_list",
		"req":
		{
			"shop_id":200664271,
			"item_id":100947656,
			"models":[
				{
					"model_id":6240573,
					"price_setting_list":{
						"price_settings":[
							{
								"input_price":18446744073709551616
							}
						]
					}
				}
			]
		},
		"response_text":{},
		"response_status" : 105
	},
	"set_model_list_parameter_models_price_setting_list_price_settings_currency_empty_string":{
		"api_command": "item.item_info.set_model_list",
		"req":
		{
			"shop_id":200664271,
			"item_id":100947656,
			"models":[
				{
					"model_id":6240573,
					"price_setting_list":{
						"price_settings":[
							{
								"currency":""
							}
						]
					}
				}
			]
		},
		"response_text":{"model_ids": [6240573]},
		"response_status" : 0
	}
}