{
	"update_item_basic_info_shop_items_reach_limit":{
		"api_command": "item.item_info.update_item_basic_info",
		"req":
		{
			"shop_id":200676348,
			"item_id":100916469,
			"item_info":{
				"unlist":false
			}
		},
		"response_text":{
			"debug_msg": "Item count reaches shop limit",
			"err_detail": {"shop_items_count": 1000, "shop_items_limit": 1000}
		},
		"response_status" : 710005
	}
}