{
	"add_item_with_basic_info_without_model_category_category_path_nil":{
		"api_command": "item.item_info.add_item_with_basic_info",
		"req":
		{
			"shop_id":200664271,
			"item_info": {
				"name":"yushan_add_no cat",
				"description": "1.Add 2.No category",
				"price": 111100000,
				"images": "e7419a6cfcd6f0483d936810cc93b2da",
				"cat": {
					"global_cat":{
						"cat_ids":[]
					}
				},
				"use_global":true,
				"logistic": {
					"estimated_days": 2,
					"weight":500000
				}
			},

			"resp_need_item": false,
			"resp_need_models": false,
			"check_only": false
		},
		"response_text":{"debug_msg": "new item global category cannot be nil"},
		"response_status" : 720103
	},
	"add_item_with_basic_info_without_model_category_category_path_less_than_2":{
		"api_command": "item.item_info.add_item_with_basic_info",
		"req":
		{
			"shop_id":200664271,

			"item_info": {
				"name":"yushan_add_cat<3",
				"description": "1.Add 2.少於2個cat",
				"price": 111100000,
				"images": "e7419a6cfcd6f0483d936810cc93b2da",
				"cat": {
					"global_cat":{
						"cat_ids":[100090]
					},
					"cat_list": {
						"cats": [
							{"cat_ids": [31769]}
						]
					}
				},
				"use_global": true,
				"logistic": {
					"estimated_days": 2,
					"weight":500000
				}
			},

			"resp_need_item": false,
			"resp_need_models": false,
			"check_only": false
		},
		"response_text":{"debug_msg": "len of global category must be between 2-5|actual_len=1: ERROR_GLOBAL_CATEGORY_LEVEL: item.category.check_global_category_path failed"},
		"response_status" : 720101
	},
	"add_item_with_basic_info_without_model_category_category_path_greater_than_5":{
		"api_command": "item.item_info.add_item_with_basic_info",
		"req":
		{
			"shop_id":200664271,
			"item_info": {
				"name":"yushan_add_cat>5",
				"description": "1.Add 2.超過5個cat",
				"price": 111100000,
				"images": "e7419a6cfcd6f0483d936810cc93b2da",
				"cat": {
					"global_cat":{
						"cat_ids":[100090,100723,100724,100090,100723,100724]
					},
					"cat_list": {
						"cats": [
							{"cat_ids": [31769,34366,34367,31769,34366,34367]}
						]
					}
				},
				"use_global":true,
				"logistic": {
					"estimated_days": 2,
					"weight":500000
				}
			},

			"resp_need_item": false,
			"resp_need_models": false,
			"check_only": false
		},
		"response_text":{"debug_msg": "len of global category must be between 2-5|actual_len=6: ERROR_GLOBAL_CATEGORY_LEVEL: item.category.check_global_category_path failed"},
		"response_status" : 720101
	},
	"add_item_with_basic_info_without_model_category_l1_cat_pid_not_0":{
		"api_command": "item.item_info.add_item_with_basic_info",
		"req":
		{
			"shop_id":200664271,
			"item_info": {
				"name":"yushan_add_cat",
				"description": "1.Add 2.Parent cat != 0",
				"price": 111100000,
				"images": "e7419a6cfcd6f0483d936810cc93b2da",
				"cat": {
					"global_cat":{
						"cat_ids":[100723,101668,101669]
					},
					"cat_list": {
						"cats": [
							{"cat_ids": [34366,31770,31775]}
						]
					}
				},
				"use_global": true,
				"logistic": {
					"estimated_days": 2,
					"weight":500000
				}
			},

			"resp_need_item": false,
			"resp_need_models": false,
			"check_only": false
		},
		"response_text":{"debug_msg": "category path must start with L1 cat, global_cat_id=100723 is not L1 cat: item.category.check_global_category_path failed"},
		"response_status" : 720105
	},
	"add_item_with_basic_info_without_model_category_sub_cat_pid_incorrect":{
		"api_command": "item.item_info.add_item_with_basic_info",
		"req":
		{
			"shop_id":200664271,
			"item_info": {
				"name":"yushan_Add_cat",
				"description": "1.Add 2.Parent cat incorrect",
				"price": 111100000,
				"images": "e7419a6cfcd6f0483d936810cc93b2da",
				"cat": {
					"global_cat":{
						"cat_ids":[100091,100723,100724]
					},
					"cat_list": {
						"cats": [
							{"cat_ids": [31851,34366,31792]}
						]
					}
				},
				"use_global": true,
				"logistic": {
					"estimated_days": 2,
					"weight":500000
				}
			},

			"resp_need_item": false,
			"resp_need_models": false,
			"check_only": false
		},
		"response_text":{"debug_msg": "cat path parent-child relationship is not correct. Cat_id=100091 is not parent of cat_id=100723: item.category.check_global_category_path failed"},
		"response_status" : 720105
	},
	"add_item_with_basic_info_without_model_category_last_cat_not_leaf_node":{
		"api_command": "item.item_info.add_item_with_basic_info",
		"req":
		{
			"shop_id":200664271,
			"item_info": {
				"name":"yushan_API_Internal Logic",
				"description": "yushan_API_Internal Logic test category",
				"price": 111100000,
				"images": "e7419a6cfcd6f0483d936810cc93b2da",
				"cat": {
					"global_cat":{
						"cat_ids":[100090,100723,101668]
					},
					"cat_list": {
						"cats": [
							{"cat_ids": [31769,31770,31773]}
						]
					}
				},
				"use_global": true,
				"logistic": {
					"estimated_days": 2,
					"weight":500000
				}
			},

			"resp_need_item": false,
			"resp_need_models": false,
			"check_only": false
		},
		"response_text": {"debug_msg": "invalid leaf_category_id. Cat_id=101668 is not a valid leaf category, because it have a valid child_cat_id=101669|region=TW|seller_type=1: item.category.check_global_category_path failed"},
		"response_status" : 720108
	},
	"add_item_with_basic_info_without_model_category_cat_status_disable":{
		"api_command": "item.item_info.add_item_with_basic_info",
		"req":
		{
			"shop_id":200664271,
			"item_info": {
				"name":"yushan_API_Internal Logic",
				"description": "yushan_API_Internal Logic test category",
				"price": 111100000,
				"images": "e7419a6cfcd6f0483d936810cc93b2da",
				"cat": {
					"global_cat":{
						"cat_ids":[100090,100914,100917]
					},
					"cat_list": {
						"cats": [
							{"cat_ids": [31769,34642,34644]}
						]
					}
				},
				"use_global": true,
				"logistic": {
					"estimated_days": 2,
					"weight":500000
				}
			},

			"resp_need_item": false,
			"resp_need_models": false,
			"check_only": false
		},
		"response_text": {"debug_msg": "category is not normal|global_cat_id=100917: item.category.check_global_category_path failed"},
		"response_status" : 720104
	},
	"add_item_with_basic_info_without_model_category_cat_status_deleted":{
		"api_command": "item.item_info.add_item_with_basic_info",
		"req":
		{
			"shop_id":200664271,
			"item_info": {
				"name":"yushan_API_Internal Logic",
				"description": "yushan_API_Internal Logic test category",
				"price": 111100000,
				"images": "e7419a6cfcd6f0483d936810cc93b2da",
				"cat": {
					"global_cat":{
						"cat_ids":[100090,100914,100920]
					},
					"cat_list": {
						"cats": [
							{"cat_ids": [31769,34642,34643]}
						]
					}
				},
				"logistic": {
					"estimated_days": 2,
					"weight":500000
				}
			},

			"resp_need_item": false,
			"resp_need_models": false,
			"check_only": false
		},
		"response_text": {"debug_msg": "category is not normal|global_cat_id=100920: item.category.check_global_category_path failed"},
		"response_status" : 720104
	},
	"add_item_with_basic_info_without_model_category_cat_forbidden":{
		"api_command": "item.item_info.add_item_with_basic_info",
		"req":
		{
			"shop_id":200664271,
			"item_info": {
				"name":"yushan_add_can delete",
				"description": "1.Add 2.Cat forbidden",
				"price": 111100000,
				"images": "e7419a6cfcd6f0483d936810cc93b2da",
				"cat": {
					"global_cat":{
						"cat_ids":[100090, 100723,100725]
					},
					"cat_list": {
						"cats": [
							{"cat_ids": [31769,34630,34632]}
						]
					}
				},
				"use_global": true,
				"logistic": {
					"estimated_days": 2,
					"weight":500000
				}
			},

			"resp_need_item": false,
			"resp_need_models": false,
			"check_only": false
		},
		"response_text":{"debug_msg": "category contains forbidden category id:100725"},
		"response_status" : 710035
	}
}