{
	"get_item_list_by_item_ids_query_item_need_delete_true":{
		"api_command": "item.item_info.get_item_list_by_item_ids",
		"req":{
			"item_ids":[100917840,100917841,100917842,100917843,100917844],
			"need_deleted":true,
			"ignore_extinfo":true
		},
		"response_text":{
			"items":[
				{
					"catid":31769,
					"condition":0,
					"country":"TW",
					"currency":"TWD",
					"description":"1.Get item list by item id 2.Normal 3.No model ",
					"flag":65536,
					"images":"e7419a6cfcd6f0483d936810cc93b2da",
					"itemid":100917840,
					"liked_count":0,
					"name":"yushan_By id_normal 1",
					"offer_count":0,
					"option":0,
					"pop":0,
					"price":500000000,
					"price_max":500000000,
					"price_min":500000000,
					"rating_bad":0,
					"rating_good":0,
					"rating_normal":0,
					"recommend":0,
					"shopid":200664271,
					"sold":0,
					"status":1,
					"stock":3333
				},
				{
					"catid":31769,
					"condition":0,
					"country":"TW",
					"currency":"TWD",
					"description":"1.Get item list by item id 2.Normal 3.No model ",
					"flag":65536,
					"images":"e7419a6cfcd6f0483d936810cc93b2da",
					"itemid":100917841,
					"liked_count":0,
					"name":"yushan_By id_normal 2",
					"offer_count":0,
					"option":0,
					"pop":0,
					"price":500000000,
					"price_max":500000000,
					"price_min":500000000,
					"rating_bad":0,
					"rating_good":0,
					"rating_normal":0,
					"recommend":0,
					"shopid":200664271,
					"sold":0,
					"status":1,
					"stock":416
				},
				{
					"catid":31769,
					"cb_option":0,
					"cmt_count":0,
					"collect_address":"",
					"condition":0,
					"country":"TW",
					"currency":"TWD",
					"description":"1.Get item list by item id 2.SD 3.No model ",
					"flag":65536,
					"images":"e7419a6cfcd6f0483d936810cc93b2da",
					"itemid":100917842,
					"liked_count":0,
					"name":"yushan_By id_SD",
					"offer_count":0,
					"option":0,
					"pop":0,
					"price":500000000,
					"price_max":500000000,
					"price_min":500000000,
					"rating_bad":0,
					"rating_good":0,
					"rating_normal":0,
					"recommend":0,
					"shopid":200664271,
					"sold":0,
					"status":0,
					"stock":416
				},
				{
					"catid":31769,
					"cb_option":0,
					"cmt_count":0,
					"collect_address":"",
					"condition":0,
					"country":"TW",
					"currency":"TWD",
					"description":"1.Get item list by item id 2.AD 3.No model ",
					"flag":65536,
					"images":"e7419a6cfcd6f0483d936810cc93b2da",
					"itemid":100917843,
					"liked_count":0,
					"name":"yushan_By id_AD",
					"offer_count":0,
					"option":0,
					"pop":0,
					"price":500000000,
					"price_max":500000000,
					"price_min":500000000,
					"rating_bad":0,
					"rating_good":0,
					"rating_normal":0,
					"recommend":0,
					"shopid":200664271,
					"sold":0,
					"status":4,
					"stock":416
				},
				{
					"catid":31769,
					"cb_option":0,
					"cmt_count":0,
					"collect_address":"",
					"condition":0,
					"country":"TW",
					"currency":"TWD",
					"description":"1.Get item list by item id 2.ADC 3.No model ",
					"flag":65536,
					"images":"e7419a6cfcd6f0483d936810cc93b2da",
					"itemid":100917844,
					"liked_count":0,
					"name":"yushan_By id_ADC",
					"offer_count":0,
					"option":0,
					"pop":0,
					"price":500000000,
					"price_max":500000000,
					"price_min":500000000,
					"rating_bad":0,
					"rating_good":0,
					"rating_normal":0,
					"recommend":0,
					"shopid":200664271,
					"sold":0,
					"status":5,
					"stock":416
				}
			]
		},
		"response_status" : 0
	},
	"get_item_list_by_item_ids_query_item_need_delete_false":{
		"api_command": "item.item_info.get_item_list_by_item_ids",
		"req":{
			"item_ids":[100917840,100917841,100917842,100917843,100917844],
			"need_deleted":false,
			"ignore_extinfo":true
		},
		"response_text":{
			"items":[
				{
					"catid":31769,
					"cb_option":0,
					"cmt_count":0,
					"collect_address":"",
					"condition":0,
					"country":"TW",
					"ctime":1618562062,
					"currency":"TWD",
					"description":"1.Get item list by item id 2.Normal 3.No model ",
					"flag":65536,
					"images":"e7419a6cfcd6f0483d936810cc93b2da",
					"itemid":100917840,
					"liked_count":0,
					"name":"yushan_By id_normal 1",
					"offer_count":0,
					"option":0,
					"pop":0,
					"price":500000000,
					"price_max":500000000,
					"price_min":500000000,
					"rating_bad":0,
					"rating_good":0,
					"rating_normal":0,
					"recommend":0,
					"shopid":200664271,
					"sold":0,
					"status":1,
					"stock":3333
				},
				{
					"catid":31769,
					"cb_option":0,
					"cmt_count":0,
					"collect_address":"",
					"condition":0,
					"country":"TW",
					"ctime":1618562228,
					"currency":"TWD",
					"description":"1.Get item list by item id 2.Normal 3.No model ",
					"flag":65536,
					"images":"e7419a6cfcd6f0483d936810cc93b2da",
					"itemid":100917841,
					"liked_count":0,
					"name":"yushan_By id_normal 2",
					"offer_count":0,
					"option":0,
					"pop":0,
					"price":500000000,
					"price_max":500000000,
					"price_min":500000000,
					"rating_bad":0,
					"rating_good":0,
					"rating_normal":0,
					"recommend":0,
					"shopid":200664271,
					"sold":0,
					"status":1,
					"stock":416
				},
				{
					"itemid":100917842,
					"shopid":200664271
				},
				{
					"catid":31769,
					"cb_option":0,
					"cmt_count":0,
					"collect_address":"",
					"condition":0,
					"country":"TW",
					"ctime":1618562289,
					"currency":"TWD",
					"description":"1.Get item list by item id 2.AD 3.No model ",
					"flag":65536,
					"images":"e7419a6cfcd6f0483d936810cc93b2da",
					"itemid":100917843,
					"liked_count":0,
					"name":"yushan_By id_AD",
					"offer_count":0,
					"option":0,
					"pop":0,
					"price":500000000,
					"price_max":500000000,
					"price_min":500000000,
					"rating_bad":0,
					"rating_good":0,
					"rating_normal":0,
					"recommend":0,
					"shopid":200664271,
					"sold":0,
					"status":4,
					"stock":416
				},
				{
					"catid":31769,
					"cb_option":0,
					"cmt_count":0,
					"collect_address":"",
					"condition":0,
					"country":"TW",
					"currency":"TWD",
					"description":"1.Get item list by item id 2.ADC 3.No model ",
					"flag":65536,
					"images":"e7419a6cfcd6f0483d936810cc93b2da",
					"itemid":100917844,
					"liked_count":0,
					"name":"yushan_By id_ADC",
					"offer_count":0,
					"option":0,
					"pop":0,
					"price":500000000,
					"price_max":500000000,
					"price_min":500000000,
					"rating_bad":0,
					"rating_good":0,
					"rating_normal":0,
					"recommend":0,
					"shopid":200664271,
					"sold":0,
					"status":5,
					"stock":416
				}
			]
		},
		"response_status" : 0
	}
}