{
	"delete_item_parameter_item_id_nil":{
		"api_command": "item.item_info.delete_item",
		"req":
		{	
			"shop_id":200664271                
		},
		"response_text":{"debug_msg": "missing/incorrect param"},
		"response_status" : 700005
	},
	"delete_item_parameter_item_id_0":{
		"api_command": "item.item_info.delete_item",
		"req":
		{	
			"shop_id":200664271,
			"item_id":0
		},
		"response_text":{"debug_msg": "item not found"},
		"response_status" : 710001
	},
	"delete_item_parameter_item_id_negative":{
		"api_command": "item.item_info.delete_item",
		"req":
		{	
			"shop_id":200664271,
			"item_id":-1
		},
		"response_text":{},
		"response_status":105
	},
	"delete_item_parameter_item_id_uint64max":{
		"api_command": "item.item_info.delete_item",
		"req":
		{	
			"shop_id":200664271,
			"item_id":18446744073709551615
		},
		"response_text":{"debug_msg": "item not found"},
		"response_status" : 710001
	},
	"delete_item_parameter_item_id_uint64max_1":{
		"api_command": "item.item_info.delete_item",
		"req":
		{	
			"shop_id":200664271,
			"item_id":18446744073709551616
		},
		"response_text":{},
		"response_status" : 105
	}
}