{	
	"add_item_with_basic_info_parameter_item_info_global_attribute_nil":{
		"api_command": "item.item_info.add_item_with_basic_info",
		"req":
		{
			"shop_id":200664271,
			"item_info": {
				"name": "yushan_add_can delete",
				"description": "1.Add 2.Attr 3.For P",
				"price": 111100000,
				"images": "e7419a6cfcd6f0483d936810cc93b2da",
				"cat": {
					"global_cat":{
						"cat_ids": [100090,100723 ,100930]
					}
				},
				"use_global": true,
				"logistic": {
					"estimated_days": 0,
					"weight":500000
				}
			},
			"resp_need_item": false,
			"resp_need_models": false,
			"check_only": false
		},
		"response_status" : 0
	},
	"delete_item_global_attribute_nil":{
		"api_command": "item.item_info.delete_item",
		"req":
		{	
			"shop_id":200664271,
			"item_id":"int_to_be_replaced"          
		},
		"response_status" : 0
	},

	"add_item_with_basic_info_parameter_item_info_global_attribute_empty_object":{
		"api_command": "item.item_info.add_item_with_basic_info",
		"req":
		{
			"shop_id":200664271,
			"item_info": {
				"name": "yushan_add_can delete",
				"description": "1.Add 2.Attr 3.For P",
				"price": 111100000,
				"images": "e7419a6cfcd6f0483d936810cc93b2da",
				"cat": {
					"global_cat":{
						"cat_ids": [100090,100723 ,100930]
					}
				},
				"use_global": true,
				"logistic": {
					"estimated_days": 0,
					"weight": 500000
				},
				"tier_variation_list":{},
				"global_attribute":{}
			},
			"resp_need_item": false,
			"resp_need_models": false,
			"check_only": false
		},
		"response_status" : 0
	},
	"delete_item_global_attribute_empty_object":{
		"api_command": "item.item_info.delete_item",
		"req":
		{	
			"shop_id": 200664271,
			"item_id": "int_to_be_replaced"          
		},
		"response_status" : 0
	},

	"add_item_with_basic_info_parameter_item_info_attrs_empty_array_of_object":{
		"api_command": "item.item_info.add_item_with_basic_info",
		"req":
		{
			"shop_id":200664271,
			"item_info": {
				"name": "yushan_add_can delete",
				"description": "1.Add 2.Attr 3.For P",
				"price": 111100000,
				"images": "e7419a6cfcd6f0483d936810cc93b2da",
				"cat": {
					"global_cat":{
						"cat_ids": [100090,100723 ,100930]
					}
				},
				"use_global": true,
				"logistic": {
					"estimated_days": 0,
					"weight":500000
				},
				"tier_variation_list":{},
				"global_attribute":{
					"attrs": [{}]
				}
			},
			"resp_need_item": false,
			"resp_need_models": false,
			"check_only": false
		},
		"response_text": {"debug_msg": "Please check that all attributes entered are valid.: invalid field|field_name=attr_id_with_value_id.global_attr_id|field_value=0|err=value must different to 0|: ERROR_PARAM: item.attribute.check_attr_list failed"},
		"response_status" : 21000002
	},

	"add_item_with_basic_info_parameter_attrs_global_attr_id_nil":{
		"api_command": "item.item_info.add_item_with_basic_info",
		"req":
		{
			"shop_id":200664271,
			"item_info": {
				"name": "yushan_add_can delete",
				"description": "1.Add 2.Attr 3.For P",
				"price": 111100000,
				"images": "e7419a6cfcd6f0483d936810cc93b2da",
				"cat": {
					"global_cat":{
						"cat_ids": [100090,100723 ,100930]
					}
				},
				"use_global": true,
				"logistic": {
					"estimated_days": 0,
					"weight":500000
				},
				"global_attribute":{
					"attrs": [
						{
							"attr_value_id": 108
						}
					]
				}
			},
			"resp_need_item": false,
			"resp_need_models": false,
			"check_only": false
		},
		"response_text": {"debug_msg": "Please check that all attributes entered are valid.: invalid field|field_name=attr_id_with_value_id.global_attr_id|field_value=0|err=value must different to 0|: ERROR_PARAM: item.attribute.check_attr_list failed"},
		"response_status" : 21000002
	},

	"add_item_with_basic_info_parameter_attrs_global_attr_id_0":{
		"api_command": "item.item_info.add_item_with_basic_info",
		"req":
		{
			"shop_id":200664271,
			"item_info": {
				"name": "yushan_add_can delete",
				"description": "1.Add 2.Attr 3.For P",
				"price": 111100000,
				"images": "e7419a6cfcd6f0483d936810cc93b2da",
				"cat": {
					"global_cat":{
						"cat_ids": [100090,100723 ,100930]
					}
				},
				"use_global": true,
				"logistic": {
					"estimated_days": 0,
					"weight":500000
				},
				"global_attribute":{
					"attrs": [
						{
							"global_attr_id": 0,
							"attr_value_id": 108
						}
					]
				}
			},
			"resp_need_item": false,
			"resp_need_models": false,
			"check_only": false
		},
		"response_text": {"debug_msg": "Please check that all attributes entered are valid.: invalid field|field_name=attr_id_with_value_id.global_attr_id|field_value=0|err=value must different to 0|: ERROR_PARAM: item.attribute.check_attr_list failed"},
		"response_status" : 21000002
	},

	"add_item_with_basic_info_parameter_attrs_global_attr_id_negative":{
		"api_command": "item.item_info.add_item_with_basic_info",
		"req":
		{
			"shop_id":200664271,
			"item_info": {
				"name": "yushan_add_can delete",
				"description": "1.Add 2.Attr 3.For P",
				"price": 111100000,
				"images": "e7419a6cfcd6f0483d936810cc93b2da",
				"cat": {
					"global_cat":{
						"cat_ids": [100090,100723 ,100930]
					}
				},
				"use_global": true,
				"logistic": {
					"estimated_days": 0,
					"weight":500000
				},
				"global_attribute":{
					"attrs": [
						{
							"global_attr_id": -1,
							"attr_value_id": 108
						}
					]
				}
			},
			"resp_need_item": false,
			"resp_need_models": false,
			"check_only": false
		},
		"response_text": {},
		"response_status" : 105
	},

	"add_item_with_basic_info_parameter_attrs_global_attr_id_uint32max":{
		"api_command": "item.item_info.add_item_with_basic_info",
		"req":
		{
			"shop_id":200664271,
			"item_info": {
				"name": "yushan_add_can delete",
				"description": "1.Add 2.Attr 3.For P",
				"price": 111100000,
				"images": "e7419a6cfcd6f0483d936810cc93b2da",
				"cat": {
					"global_cat":{
						"cat_ids": [100090,100723 ,100930]
					}
				},
				"use_global": true,
				"logistic": {
					"estimated_days": 0,
					"weight":500000
				},
				"global_attribute":{
					"attrs": [
						{
							"global_attr_id": 4294967295,
							"attr_value_id": 108
						}
					]
				}
			},
			"resp_need_item": false,
			"resp_need_models": false,
			"check_only": false
		},
		"response_text": {"debug_msg": "Please check that values are applicable to new category: global_attr_id is not mapped with category|cat_id=100930|global_attr_id=4294967295|region=TW: ERROR_PARAM: item.attribute.check_attr_list failed"},
		"response_status" : 21000002
	},

	"add_item_with_basic_info_parameter_attrs_global_attr_id_uint32max_1":{
		"api_command": "item.item_info.add_item_with_basic_info",
		"req":
		{
			"shop_id":200664271,
			"item_info": {
				"name": "yushan_add_can delete",
				"description": "1.Add 2.Attr 3.For P",
				"price": 111100000,
				"images": "e7419a6cfcd6f0483d936810cc93b2da",
				"cat": {
					"global_cat":{
						"cat_ids": [100090,100723 ,100930]
					}
				},
				"use_global": true,
				"logistic": {
					"estimated_days": 0,
					"weight":500000
				},
				"global_attribute":{
					"attrs": [
						{
							"global_attr_id": 4294967296,
							"attr_value_id": 108
						}
					]
				}
			},
			"resp_need_item": false,
			"resp_need_models": false,
			"check_only": false
		},
		"response_text": {},
		"response_status" : 105
	},

	"add_item_with_basic_info_parameter_attrs_attr_value_id_nil":{
		"api_command": "item.item_info.add_item_with_basic_info",
		"req":
		{
			"shop_id":200664271,
			"item_info": {
				"name": "yushan_add_can delete",
				"description": "1.Add 2.Attr 3.For P",
				"price": 111100000,
				"images": "e7419a6cfcd6f0483d936810cc93b2da",
				"cat": {
					"global_cat":{
						"cat_ids": [100090,100723 ,100930]
					}
				},
				"use_global": true,
				"logistic": {
					"estimated_days": 0,
					"weight":500000
				},
				"global_attribute":{
					"attrs": [
						{
							"global_attr_id": 100149
						}
					]
				}
			},
			"resp_need_item": false,
			"resp_need_models": false,
			"check_only": false
		},
		"response_text": {"debug_msg": "Please check that all attributes entered are valid.: invalid field|field_name=check_attr_list_request.attr_with_value_list|err=Please check that you have followed the attribute syntax correctly. Customize_value must be set if attr_value_id = 0|mapping=global_attr_id:100149 attr_value_id:0 |: ERROR_PARAM: item.attribute.check_attr_list failed"},
		"response_status" : 21000002
	},

	"add_item_with_basic_info_parameter_attrs_attr_value_id_0":{
		"api_command": "item.item_info.add_item_with_basic_info",
		"req":
		{
			"shop_id":200664271,
			"item_info": {
				"name": "yushan_add_can delete",
				"description": "1.Add 2.Attr 3.For P",
				"price": 111100000,
				"images": "e7419a6cfcd6f0483d936810cc93b2da",
				"cat": {
					"global_cat":{
						"cat_ids": [100090,100723 ,100930]
					}
				},
				"use_global": true,
				"logistic": {
					"estimated_days": 0,
					"weight":500000
				},
				"global_attribute":{
					"attrs": [
						{
							"global_attr_id": 100149,
							"attr_value_id": 0
						}
					]
				}
			},
			"resp_need_item": false,
			"resp_need_models": false,
			"check_only": false
		},
		"response_text": {"debug_msg": "Please check that all attributes entered are valid.: invalid field|field_name=check_attr_list_request.attr_with_value_list|err=Please check that you have followed the attribute syntax correctly. Customize_value must be set if attr_value_id = 0|mapping=global_attr_id:100149 attr_value_id:0 |: ERROR_PARAM: item.attribute.check_attr_list failed"},
		"response_status" : 21000002
	},

	"add_item_with_basic_info_parameter_attrs_attr_value_id_negative":{
		"api_command": "item.item_info.add_item_with_basic_info",
		"req":
		{
			"shop_id":200664271,
			"item_info": {
				"name": "yushan_add_can delete",
				"description": "1.Add 2.Attr 3.For P",
				"price": 111100000,
				"images": "e7419a6cfcd6f0483d936810cc93b2da",
				"cat": {
					"global_cat":{
						"cat_ids": [100090,100723 ,100930]
					}
				},
				"use_global": true,
				"logistic": {
					"estimated_days": 0,
					"weight":500000
				},
				"global_attribute":{
					"attrs": [
						{
							"global_attr_id": 100149,
							"attr_value_id": -1
						}
					]
				}
			},
			"resp_need_item": false,
			"resp_need_models": false,
			"check_only": false
		},
		"response_text": {},
		"response_status" : 105

	},

	"add_item_with_basic_info_parameter_attrs_attr_value_id_uint32max":{
		"api_command": "item.item_info.add_item_with_basic_info",
		"req":
		{
			"shop_id":200664271,
			"item_info": {
				"name": "yushan_add_can delete",
				"description": "1.Add 2.Attr 3.For P",
				"price": 111100000,
				"images": "e7419a6cfcd6f0483d936810cc93b2da",
				"cat": {
					"global_cat":{
						"cat_ids": [100090,100723 ,100930]
					}
				},
				"use_global": true,
				"logistic": {
					"estimated_days": 0,
					"weight":500000
				},
				"global_attribute":{
					"attrs": [
						{
							"global_attr_id": 100071,
							"attr_value_id": 4294967295
						}
					]
				}
			},
			"resp_need_item": false,
			"resp_need_models": false,
			"check_only": false
		},
		"response_text": {"debug_msg": "Please check that values are applicable to new category: attr_value_id is not mapped with attr under this category|cat_id=100930|attr_value_id=4294967295|global_attr_id=100071|region=TW: ERROR_PARAM: item.attribute.check_attr_list failed"},
		"response_status" : 21000002
	},

	"add_item_with_basic_info_parameter_attrs_attr_value_id_uint32max_1":{
		"api_command": "item.item_info.add_item_with_basic_info",
		"req":
		{
			"shop_id":200664271,
			"item_info": {
				"name": "yushan_add_can delete",
				"description": "1.Add 2.Attr 3.For P",
				"price": 111100000,
				"images": "e7419a6cfcd6f0483d936810cc93b2da",
				"cat": {
					"global_cat":{
						"cat_ids": [100090,100723 ,100930]
					}
				},
				"use_global": true,
				"logistic": {
					"estimated_days": 0,
					"weight":500000
				},
				"global_attribute":{
					"attrs": [
						{
							"global_attr_id": 100071,
							"attr_value_id": 4294967296
						}
					]
				}
			},
			"resp_need_item": false,
			"resp_need_models": false,
			"check_only": false
		},
		"response_text": {},
		"response_status" : 105

	},

	"add_item_with_basic_info_parameter_attrs_attr_value_id_0_and_attr_val_ext_info_empty_object":{
		"api_command": "item.item_info.add_item_with_basic_info",
		"req":
		{
			"shop_id":200664271,
			"item_info": {
				"name": "yushan_add_can delete",
				"description": "1.Add 2.Attr 3.For P",
				"price": 111100000,
				"images": "e7419a6cfcd6f0483d936810cc93b2da",
				"cat": {
					"global_cat":{
						"cat_ids": [100090,100723 ,100930]
					}
				},
				"use_global": true,
				"logistic": {
					"estimated_days": 0,
					"weight":500000
				},
				"global_attribute":{
					"attrs": [
						{
							"global_attr_id": 100149,
							"attr_value_id": 0,
							"attr_val_ext_info": {}
						}
					]
				}
			},
			"resp_need_item": false,
			"resp_need_models": false,
			"check_only": false
		},
		"response_text": {"debug_msg": "Please check that all attributes entered are valid.: invalid field|field_name=check_attr_list_request.attr_with_value_list|err=Please check that you have followed the attribute syntax correctly. Customize_value must be set if attr_value_id = 0|mapping=global_attr_id:100149 attr_value_id:0 |: ERROR_PARAM: item.attribute.check_attr_list failed"},
		"response_status" : 21000002
	},

	"add_item_with_basic_info_parameter_attrs_attr_value_id_not_0_and_attr_val_ext_info_empty_object":{
		"api_command": "item.item_info.add_item_with_basic_info",
		"req":
		{
			"shop_id":200664271,
			"item_info": {
				"name": "yushan_add_can delete",
				"description": "1.Add 2.Attr 3.For P",
				"price": 111100000,
				"images": "e7419a6cfcd6f0483d936810cc93b2da",
				"cat": {
					"global_cat":{
						"cat_ids": [100090,100723 ,100930]
					}
				},
				"use_global": true,
				"logistic": {
					"estimated_days": 0,
					"weight":500000
				},
				"global_attribute":{
					"attrs": [
						{
							"global_attr_id": 100071,
							"attr_value_id": 108,
							"attr_val_ext_info": {}
						}
					]
				}
			},
			"resp_need_item": false,
			"resp_need_models": false,
			"check_only": false
		},
		"response_status" : 0
	},
	"delete_item_attr_value_id_not_0_and_attr_val_ext_info_empty_object":{
		"api_command": "item.item_info.delete_item",
		"req":
		{	
			"shop_id":200664271,
			"item_id":"int_to_be_replaced"          
		},
		"response_status" : 0
	},

	"add_item_with_basic_info_parameter_attr_val_ext_info_raw_val_nil":{
		"api_command": "item.item_info.add_item_with_basic_info",
		"req":
		{
			"shop_id":200664271,
			"item_info": {
				"name": "yushan_add_can delete",
				"description": "1.Add 2.Attr 3.For P",
				"price": 111100000,
				"images": "e7419a6cfcd6f0483d936810cc93b2da",
				"cat": {
					"global_cat":{
						"cat_ids": [100090,100723 ,100930]
					}
				},
				"use_global": true,
				"logistic": {
					"estimated_days": 0,
					"weight":500000
				},
				"global_attribute":{
					"attrs": [
						{
							"global_attr_id": 100149,
							"attr_value_id": 0,
							"attr_val_ext_info": {
								"unit": "kg"
							}
						}
					]
				}
			},
			"resp_need_item": false,
			"resp_need_models": false,
			"check_only": false
		},
		"response_text":{"debug_msg": "global_attr_id=100149 is FREE_TEXT quantitative_attribute: invalid field|field_name=item_attr_value_ext_info.raw_val|err=field is required and must NOT be nil.|: item.attribute.check_attr_list failed"},
		"response_status" : 21000002
	},

	"add_item_with_basic_info_parameter_attr_val_ext_info_raw_val_empty_string":{
		"api_command": "item.item_info.add_item_with_basic_info",
		"req":
		{
			"shop_id":200664271,
			"item_info": {
				"name": "yushan_add_can delete",
				"description": "1.Add 2.Attr 3.For P",
				"price": 111100000,
				"images": "e7419a6cfcd6f0483d936810cc93b2da",
				"cat": {
					"global_cat":{
						"cat_ids": [100090,100723 ,100930]
					}
				},
				"use_global": true,
				"logistic": {
					"estimated_days": 0,
					"weight":500000
				},
				"global_attribute":{
					"attrs": [
						{
							"global_attr_id": 100149,
							"attr_value_id": 0,
							"attr_val_ext_info": {
								"raw_val": "",
								"unit": "kg"
							}
						}
					]
				}
			},
			"resp_need_item": false,
			"resp_need_models": false,
			"check_only": false
		},
		"response_text":{"debug_msg": "Please check that all attributes entered are valid.: invalid field|field_name=attr_value_ext_info.raw_val|field_value=|err=field value must NOT be empty|: ERROR_PARAM: item.attribute.check_attr_list failed"},
		"response_status" : 21000002
	},

	"add_item_with_basic_info_parameter_attr_val_ext_info_unit_nil":{
		"api_command": "item.item_info.add_item_with_basic_info",
		"req":
		{
			"shop_id":200664271,
			"item_info": {
				"name": "yushan_add_can delete",
				"description": "1.Add 2.Attr 3.For P",
				"price": 111100000,
				"images": "e7419a6cfcd6f0483d936810cc93b2da",
				"cat": {
					"global_cat":{
						"cat_ids": [100090,100723 ,100930]
					}
				},
				"use_global": true,
				"logistic": {
					"estimated_days": 0,
					"weight":500000
				},
				"global_attribute":{
					"attrs": [
						{
							"global_attr_id": 100149,
							"attr_value_id": 0,
							"attr_val_ext_info": {
								"raw_val": "1"
							}
						}
					]
				}
			},
			"resp_need_item": false,
			"resp_need_models": false,
			"check_only": false
		},
		"response_text":{"debug_msg": "global_attr_id=100149 is FREE_TEXT quantitative_attribute: invalid field|field_name=item_attr_value_ext_info.unit|err=field is required and must NOT be nil.|: item.attribute.check_attr_list failed"},
		"response_status" : 21000002
	},

	"add_item_with_basic_info_parameter_attr_val_ext_info_unit_empty_string":{
		"api_command": "item.item_info.add_item_with_basic_info",
		"req":
		{
			"shop_id":200664271,
			"item_info": {
				"name": "yushan_add_can delete",
				"description": "1.Add 2.Attr 3.For P",
				"price": 111100000,
				"images": "e7419a6cfcd6f0483d936810cc93b2da",
				"cat": {
					"global_cat":{
						"cat_ids": [100090,100723 ,100930]
					}
				},
				"use_global": true,
				"logistic": {
					"estimated_days": 0,
					"weight":500000
				},
				"global_attribute":{
					"attrs": [
						{
							"global_attr_id": 100149,
							"attr_value_id": 0,
							"attr_val_ext_info": {
								"raw_val": "1",
								"unit": ""
							}
						}
					]
				}
			},
			"resp_need_item": false,
			"resp_need_models": false,
			"check_only": false
		},
		"response_text":{"debug_msg": "Please check that all attributes entered are valid.: invalid field|field_name=attr_value_ext_info.unit|field_value=|err=field value must NOT be empty|: ERROR_PARAM: item.attribute.check_attr_list failed"},
		"response_status" : 21000002
	},

	"add_item_with_basic_info_parameter_attr_val_ext_info_customised_value_nil":{
		"api_command": "item.item_info.add_item_with_basic_info",
		"req":
		{
			"shop_id":200664271,
			"item_info": {
				"name": "yushan_add_can delete",
				"description": "1.Add 2.Attr 3.For P",
				"price": 111100000,
				"images": "e7419a6cfcd6f0483d936810cc93b2da",
				"cat": {
					"global_cat":{
						"cat_ids": [100090,100723 ,100930]
					}
				},
				"use_global": true,
				"logistic": {
					"estimated_days": 0,
					"weight":500000
				},
				"global_attribute":{
					"attrs": [
						{
							"global_attr_id": 100143,
							"attr_value_id": 0,
							"attr_val_ext_info": {}
						}
					]
				}
			},
			"resp_need_item": false,
			"resp_need_models": false,
			"check_only": false
		},
		"response_text":{"debug_msg": "Please check that all attributes entered are valid.: invalid field|field_name=check_attr_list_request.attr_with_value_list|err=Please check that you have followed the attribute syntax correctly. Customize_value must be set if attr_value_id = 0|mapping=global_attr_id:100143 attr_value_id:0 |: ERROR_PARAM: item.attribute.check_attr_list failed"},
		"response_status" : 21000002
	},

	"add_item_with_basic_info_parameter_attr_val_ext_info_customised_value_empty_string":{
		"api_command": "item.item_info.add_item_with_basic_info",
		"req":
		{
			"shop_id":200664271,
			"item_info": {
				"name": "yushan_add_can delete",
				"description": "1.Add 2.Attr 3.For P",
				"price": 111100000,
				"images": "e7419a6cfcd6f0483d936810cc93b2da",
				"cat": {
					"global_cat":{
						"cat_ids": [100090,100723 ,100930]
					}
				},
				"use_global": true,
				"logistic": {
					"estimated_days": 0,
					"weight":500000
				},
				"global_attribute":{
					"attrs": [
						{
							"global_attr_id": 100143,
							"attr_value_id": 0,
							"attr_val_ext_info": {
								"customised_value": ""
							}
						}
					]
				}
			},
			"resp_need_item": false,
			"resp_need_models": false,
			"check_only": false
		},
		"response_status" : 0
	},
	"delete_item_has_quantity_customised_value_empty_string":{
		"api_command": "item.item_info.delete_item",
		"req":
		{	
			"shop_id":200664271,
			"item_id":"int_to_be_replaced"          
		},
		"response_status" : 0
	}
}