{
	"set_model_list_add_model_tier_level_not_equal":{
		"api_command": "item.item_info.set_model_list",
		"req":
		{
			"shop_id":200664271,
			"item_id":100947656,
			"models":[
				{
					"delete":false,
					"tier_index_list":{
						"tier_indices":[0,0]
					},
					"price": 150000000,
					"stock":510
				}
			]
		},
		"response_text":{"debug_msg": "tier level counts are not equal, expected: 1, actual: 2"},
		"response_status" : 730002
	}
}