{
	"get_item_list_by_item_ids_query_item_need_model_true_model_status_partially_normal":{
		"api_command": "item.item_info.get_item_list_by_item_ids",
		"req":{
			"item_ids":[100917860],
			"need_deleted":true,
			"need_models":true,
			"ignore_extinfo":true
		},
		"response_text":{
			"items":[
				{
					"catid":31769,
					"cb_option":0,
					"cmt_count":0,
					"collect_address":"",
					"condition":0,
					"country":"TW",
					"ctime":1618563820,
					"currency":"TWD",
					"description":"1.Get item list by item id 2.\u591a model ",
					"flag":65536,
					"images":"e7419a6cfcd6f0483d936810cc93b2da",
					"itemid":100917860,
					"liked_count":0,
					"name":"yushan_By id_\u591a model",
					"offer_count":0,
					"option":0,
					"pop":0,
					"price":333300000,
					"price_max":333300000,
					"price_min":333300000,
					"rating_bad":0,
					"rating_good":0,
					"rating_normal":0,
					"recommend":0,
					"shopid":200664271,
					"sold":0,
					"status":1,
					"stock":2416
				}
			],
			"models":[
				{
					"models":[
						{
							"ctime":1618563820,
							"currency":"TWD",
							"itemid":100917860,
							"modelid":10001139290,
							"name":"S",
							"price":333300000,
							"price_before_discount":0,
							"promotionid":0,
							"rebate_price":0,
							"sold":0,
							"status":1,
							"stock":416
						},
						{
							"ctime":1618563820,
							"currency":"TWD",
							"itemid":100917860,
							"modelid":10001139291,
							"name":"M",
							"price":333300000,
							"price_before_discount":0,
							"promotionid":0,
							"rebate_price":0,
							"sold":0,
							"status":1,
							"stock":1000
						},
						{
							"ctime":1618563820,
							"currency":"TWD",
							"itemid":100917860,
							"modelid":10001139293,
							"name":"XL",
							"price":333300000,
							"price_before_discount":0,
							"promotionid":0,
							"rebate_price":0,
							"sold":0,
							"status":1,
							"stock":1000
						}
					]
				}
			]
		},
		"response_status" : 0
	}
}