{
	"update_price_in_promotion_edit_model_price_product_promotion":{
		"api_command": "item.item_info.update_price",
		"req":
		{
			"shop_id": 200664271,
			"item_id": 100947755,
			"model_id": 15089313,
			"price_setting_list":{
				"price_settings":[
					{
						"rule_type":0,
						"input_price": 60000000,
						"currency":"NTD"
					}
				]
			}
		},
		"response_text":{
			"debug_msg": "Model[15089313] has promo cannot change price",
			"updated_price":0
		},
		"response_status" : 730007
	}
}