{
	"update_stock_by_item_id_item_id_not_exist":{
		"api_command": "item.item_info.update_stock_by_item_id",
		"req":
		{
			"shop_id": 200664271,
			"item_id": 1,
			"model_list":[
				{
					"model_id": 0,
					"stock": 600
				}
			],
			"audit_param":{
				"reason":"Edit",
				"operator":"yushan@shopee.com",
				"source": "Open API",
				"additional_detail":{
					"edit_mode":"single",
					"app_version":""
				},
				"client_id":"tw_qa.api_test",
				"no_audit":false,
				"force_add":false
			}
		},
		"response_text":{
			"debug_msg":"item not found"
		},
		"response_status" : 710001
	}
}