{
	"set_model_list_edit_model_price_less_than_min_setting":{
		"api_command": "item.item_info.set_model_list",
		"req":
		{
			"shop_id":200664271,
			"item_id":100947656,
			"models":[
				{
					"model_id": 6240573,
					"price": 1900000
				},
				{
					"model_id": 6240574,
					"price": 1900000
				}
			]
		},
		"response_text":{
			"err_detail":{
				"price_max":10000000000000,
				"price_min":2000000
			},
			"debug_msg":"price is less than min limit, price:1900000 limit:2000000"
		},
		"response_status" : 710039
	},
	"set_model_list_edit_model_price_greater_than_max_setting":{
		"api_command": "item.item_info.set_model_list",
		"req":
		{
			"shop_id":200664271,
			"item_id":100947656,
			"models":[
				{
					"model_id": 6240573,
					"price": 10000000100000
				},
				{
					"model_id": 6240574,
					"price": 10000000100000
				}
			]
		},
		"response_text":{
			"err_detail":{
				"price_max":10000000000000,
				"price_min":2000000
			},
			"debug_msg":"price is bigger than max limit, price:10000000100000 limit:10000000000000"
		},
		"response_status" : 710040
	}
}