{
	"set_model_list_parameter_models_stock_nil":{
		"api_command": "item.item_info.set_model_list",
		"req":
		{
			"shop_id":200664271,
			"item_id":100947965,
			"models":[
				{
					"model_id":10001253059
				}
			]
		},
		"response_text":{"model_ids": [10001253059]},
		"response_status" : 0
	},
	"set_model_list_parameter_models_stock_0":{
		"api_command": "item.item_info.set_model_list",
		"req":
		{
			"shop_id":200664271,
			"item_id":100947965,
			"models":[
				{
					"model_id":10001253059,
					"stock":0
				}
			]
		},
		"response_text":{"model_ids": [10001253059]},
		"response_status" : 0
	},
	"set_model_list_parameter_models_stock_negative":{
		"api_command": "item.item_info.set_model_list",
		"req":
		{
			"shop_id":200664271,
			"item_id":100947965,
			"models":[
				{
					"model_id":10001253059,
					"stock":-1
				}
			]
		},
		"response_text":{},
		"response_status" : 105
	},
	"set_model_list_parameter_models_stock_uint32max":{
		"api_command": "item.item_info.set_model_list",
		"req":
		{
			"shop_id":200664271,
			"item_id":100947965,
			"models":[
				{
					"model_id":10001253059,
					"stock":4294967295
				}
			]
		},
		"response_text" : {"debug_msg": "item.price_stock.update_normal_price_stock failed: stock.business.update_normal_stock failed"},
		"response_status" : 500008
	},
	"set_model_list_parameter_models_stock_uint32max_1":{
		"api_command": "item.item_info.set_model_list",
		"req":
		{
			"shop_id":200664271,
			"item_id":100947965,
			"models":[
				{
					"model_id":10001253059,
					"stock":4294967296
				}
			]
		},
		"response_text":{},
		"response_status" : 105
	}
}