{
	"add_item_with_basic_info_parameter_item_info_request_source_nil":{
		"api_command": "item.item_info.add_item_with_basic_info",
		"req":
		{
			"shop_id":200664271,
			"item_info": {
				"name": "yushan_api_test",
				"description": "1.Add 2.Request source 3.For P",
				"price": 111100000,
				"images": "e7419a6cfcd6f0483d936810cc93b2da",
				"cat": {
					"global_cat":{
						"cat_ids":[100090,100723,100724]
					},
					"cat_list": {
						"cats": [
							{"cat_ids": [31769,34366,34367]}
						]
					}
				},
				"logistic": {
					"estimated_days": 0,
					"weight":500000
				},
				"tier_variation_list":{},
				"attribute":{}
			},
			"resp_need_item": false,
			"resp_need_models": false,
			"check_only": false
		},
		"response_status" : 0
	},
	"delete_item_request_source_nil":{
		"api_command": "item.item_info.delete_item",
		"req":
		{	
			"shop_id":200664271,
			"item_id":"int_to_be_replaced"          
		},
		"response_status" : 0
	},

	"add_item_with_basic_info_parameter_item_info_request_source_0":{
		"api_command": "item.item_info.add_item_with_basic_info",
		"req":
		{
			"shop_id":200664271,
			"item_info": {
				"name": "yushan_api_test",
				"description": "1.Add 2.Request source 3.For P",
				"price": 111100000,
				"images": "e7419a6cfcd6f0483d936810cc93b2da",
				"cat": {
					"global_cat":{
						"cat_ids":[100090,100723,100724]
					},
					"cat_list": {
						"cats": [
							{"cat_ids": [31769,34366,34367]}
						]
					}
				},
				"logistic": {
					"estimated_days": 0,
					"weight":500000
				},
				"tier_variation_list":{},
				"attribute":{},
				"request_source":0
			},
			"resp_need_item": false,
			"resp_need_models": false,
			"check_only": false
		},
		"response_status" : 0
	},
	"delete_item_request_source_0":{
		"api_command": "item.item_info.delete_item",
		"req":
		{	
			"shop_id":200664271,
			"item_id":"int_to_be_replaced"          
		},
		"response_status" : 0
	},

	"add_item_with_basic_info_parameter_item_info_request_source_negative":{
		"api_command": "item.item_info.add_item_with_basic_info",
		"req":
		{
			"shop_id":200664271,
			"item_info": {
				"name": "yushan_api_test",
				"description": "1.Add 2.Request source 3.For P",
				"price": 111100000,
				"images": "e7419a6cfcd6f0483d936810cc93b2da",
				"cat": {
					"global_cat":{
						"cat_ids":[100090,100723,100724]
					},
					"cat_list": {
						"cats": [
							{"cat_ids": [31769,34366,34367]}
						]
					}
				},
				"logistic": {
					"estimated_days": 0,
					"weight":500000
				},
				"tier_variation_list":{},
				"attribute":{},
				"request_source":-1
			},
			"resp_need_item": false,
			"resp_need_models": false,
			"check_only": false
		},
		"response_text":{},
		"response_status" : 105
	},
	"add_item_with_basic_info_parameter_item_info_request_source_uint32max":{
		"api_command": "item.item_info.add_item_with_basic_info",
		"req":
		{
			"shop_id":200664271,
			"item_info": {
				"name": "yushan_api_test",
				"description": "1.Add 2.Request source 3.For P",
				"price": 111100000,
				"images": "e7419a6cfcd6f0483d936810cc93b2da",
				"cat": {
					"global_cat":{
						"cat_ids":[100090,100723,100724]
					},
					"cat_list": {
						"cats": [
							{"cat_ids": [31769,34366,34367]}
						]
					}
				},
				"logistic": {
					"estimated_days": 0,
					"weight":500000
				},
				"tier_variation_list":{},
				"attribute":{},
				"request_source":4294967295
			},
			"resp_need_item": false,
			"resp_need_models": false,
			"check_only": false
		},
		"response_status" : 0
	},
	"delete_item_request_source_uint32max":{
		"api_command": "item.item_info.delete_item",
		"req":
		{	
			"shop_id":200664271,
			"item_id":"int_to_be_replaced"          
		},
		"response_status" : 0
	},
	
	"add_item_with_basic_info_parameter_item_info_request_source_uint32max_1":{
		"api_command": "item.item_info.add_item_with_basic_info",
		"req":
		{
			"shop_id":200664271,
			"item_info": {
				"name": "yushan_api_test",
				"description": "1.Add 2.Request source 3.For P",
				"price": 111100000,
				"images": "e7419a6cfcd6f0483d936810cc93b2da",
				"cat": {
					"global_cat":{
						"cat_ids":[100090,100723,100724]
					},
					"cat_list": {
						"cats": [
							{"cat_ids": [31769,34366,34367]}
						]
					}
				},
				"logistic": {
					"estimated_days": 0,
					"weight":500000
				},
				"tier_variation_list":{},
				"attribute":{},
				"request_source":4294967296
			},
			"resp_need_item": false,
			"resp_need_models": false,
			"check_only": false
		},
		"response_text":{},
		"response_status" : 105
	}	
}