{
	"set_model_list_delete_model_in_promotion_add_on_deal":{
		"api_command": "item.item_info.set_model_list",
		"req":
		{
			"shop_id":200664271,
			"item_id":100948278,
			"models":[
				{
					"delete":true,
					"model_id": 10010130906
				}
			],
			"resp_need_models": true
		},
		"response_text":{"debug_msg": "model in add_on_deal cannot be removed"},
		"response_status" : 720422
	}
}