{
	"update_item_basic_info_parameter_instagram_media_id_empty_string":{
		"api_command": "item.item_info.update_item_basic_info",
		"req":
		{
			"shop_id":200664271,
			"item_id":100880312,
			"item_info":{
				"instagram_media_id":""	
			}
		},
		"response_status" : 0
	}
}