{
	"update_price_shop_id_and_item_id_mismatch":{
		"api_command": "item.item_info.update_price",
		"req":
		{
			"shop_id": 200644271,
			"item_id": 100958357,
			"price_setting_list":{
				"price_settings":[
					{
						"rule_type":0,
						"input_price":500000000,
						"currency":"NTD"
					}
				]
			}
		},
		"response_text":{
			"debug_msg":"item not found",
			"updated_price":0
		},
		"response_status" : 710001
	}
}