{
	"get_shop_item_count_1":{
		"api_command": "item.item_info.get_shop_item_count",
		"req":
		{	
			"shop_id":200664271,   
			"count_type":3    
		},
		"response_status" : 0
	},
	"add_item":{
		"api_command": "item.item_info.add_item_with_basic_info",
		"req":
		{
			"shop_id":200664271,
			"item_info": {
				"name":"yushan_can delete",
				"description": "1.No model 2. add normal item",
				"price": 500000000,
				"stock":333,
				"images": "e7419a6cfcd6f0483d936810cc93b2da",
				"cat": {
					"global_cat":{
						"cat_ids":[100090,100723,100724]
					},
					"cat_list": {
						"cats": [
							{"cat_ids": [31769,34366,34367]}
						]
					}
				},
				"logistic": {
					"estimated_days": 2,
					"weight":500000
				},
				"condition":1,
				"unlist":false,
				"searchable":true
			},
			"resp_need_item": true,
			"resp_need_models": false,
			"check_only": false
		},
		"response_status" : 0
	},
	"get_shop_item_count_2":{
		"api_command": "item.item_info.get_shop_item_count",
		"req":
		{	
			"shop_id":200664271,
			"count_type":3 
		},
		"response_text":{"item_count": "int_to_be_replaced"},
		"response_status" : 0
	},
	"update_status_admin_delete_confirm":{
		"api_command": "item.item_info.update_status",
		"req":
		{	  
			"shop_id":200664271,
			"item_id":"int_to_be_replaced",
			"status":5,
			"audit_param":{
				"reason":"",
				"operator":"yushan"
			}
		},
		"response_status" : 0
	}
}