{
	"update_single_mtsku_and_mpsku_item_parameter_mtsku_item_id_nil":{
		"api_command": "item.mtsku.update_single_mtsku_and_mpsku_item",
		"req":
		{
			"mtsku_setting": {
				"basic_setting": {
					"mtsku_global_validation": true
				}
			},
			"mpsku_setting": {
				"shop_id": 201339136,
				"mpsku_item_id": 102846290,
				"basic_setting": {
					"global_classification_validation": true
				}
			},
			"audit_param":{
				"operator": "QA test",
				"reason": "update single",
				"source": "Automate"
			}
		},
		"response_text":{
			"debug_msg": "invalid mtsku id"
		},
		"response_status" : 32700002
	}
}