{
	"unlist_mpsku_item_link_unlist_true":{
		"api_command": "item.mtsku.unlist_mpsku_item",
		"req":
		{
			"mpsku_item_id": 900192664,
			"mpsku_shop_id": 201339136,
			"unlist": true,
			"audit_param":{
				"operator": "yushan",
				"reason": "unlist mp",
				"source": "twqa auto"
			}
		},
		"response_status" : 0
	},
	"get_mtsku_item_for_admin_link_unlist_true":{
		"api_command": "item.mtsku.get_mtsku_item_for_admin",
		"req":
		{
			"mtsku_id": 900192631
		},
		"response_text":{
			"mpsku_list":[
				{
					"mpsku_item_id":900192664,
					"region":"ID",
					"shop_id":201339136,
					"status":8
				}
			]
		},
		"response_status" : 0
	},
	"get_product_info_link_unlist_true":{
		"api_command": "item.business.get_product_info",
		"req":
		{
			"shop_item_ids":[
				{
					"shop_id":201339136,
					"item_id":900192664
				}
			],
			"info_types":[1]
		},
		"response_text":{
			"info":[
				{
					"item_id":900192664,
					"item_basic":{
						"status":8
					},
					"shop_id":201339136
				}
			]
		},
		"response_status" : 0
	},
	"unlist_mpsku_item_link_unlist_false":{
		"api_command": "item.mtsku.unlist_mpsku_item",
		"req":
		{
			"mpsku_item_id": 900192664,
			"mpsku_shop_id": 201339136,
			"unlist": false,
			"audit_param":{
				"operator": "yushan",
				"reason": "unlist mp",
				"source": "twqa auto"
			}
		},
		"response_status" : 0
	},
	"get_mtsku_item_for_admin_link_unlist_false":{
		"api_command": "item.mtsku.get_mtsku_item_for_admin",
		"req":
		{
			"mtsku_id": 900192631
		},
		"response_text":{
			"mpsku_list":[
				{
					"mpsku_item_id":900192664,
					"region":"ID",
					"shop_id":201339136,
					"status": 1
				}
			]
		},
		"response_status" : 0
	},
	"get_product_info_link_unlist_false":{
		"api_command": "item.business.get_product_info",
		"req":
		{
			"shop_item_ids":[
				{
					"shop_id":201339136,
					"item_id":900192664
				}
			],
			"info_types":[1]
		},
		"response_text":{
			"info":[
				{
					"item_id":900192664,
					"item_basic":{
						"status":1
					},
					"shop_id":201339136
				}
			]
		},
		"response_status" : 0
	}
}