{
	"update_single_mtsku_and_mpsku_item_fail_luc_description_length_greater_than_setting":{
		"api_command": "item.mtsku.update_single_mtsku_and_mpsku_item",
		"req":
		{
			"mtsku_setting": {
				"mtsku_item_id": 103154784,
				"basic_setting": {
					"mtsku_global_validation": true
				}
			},
			"mpsku_setting": {
				"shop_id": 201339136,
				"mpsku_item_id": 103154817,
				"basic_setting": {
					"description": "yushan_API_Internal Logic test description 最多五十個字-1",
					"global_classification_validation": true
				}
			},
			"audit_param":{
				"operator": "QA test",
				"reason": "update single",
				"source": "Automate"
			}
		},
		"response_text":{
			"debug_msg": "description length is greater than max limit, length:51 limit:50: item.item_info.update_item_for_mtsku_try failed"
		},
		"response_status" : 710033
	}
}