{
	"create_mtsku_item_global_brand_status_delete":{
		"api_command": "item.mtsku.create_mtsku_item",
		"req":
		{
			"unique_id": "40",
			"item_setting":{
				"merchant_id": 1022564,
				"basic_setting":{
                    "name":"yushan_MTSKU_can delete",
                    "description":"1.Brand 2.Status delete",
					"image_setting":{
						"images":[
							"e881028b64f21605aaa0ac80ccd95f8f"
						]
					},
					"condition": 1,
					"tier_variation_setting":{
						"tier_properties":[
							{
								"name":"color",
								"tier_values":[
									{
										"value":"white"
									}
								]
							}
						]
					},
					"seller_sku":"1234",
					"category_path_setting":{
						"cats":[
							{
								"cat_ids":[100090,100723,100931],
								"region":"WW"
							}
						]
					},
					"brand_setting":{
						"brand_id":1011646
					},
					"mtsku_global_validation":true
				}
			},
			"model_list_setting":{
				"settings": [
					{
						"model_basic_setting":{
							"estimated_days": 2,
							"stock_list_setting":{
								"stock_settings": [
									{
										"fulfilment_type": 2,
										"sellable_stock": 33,
										"location_id": "IDZ"
									}
								]
							},
							"tier_index_list": { 
								"tier_indices": [0]
							},
							"price_setting":{
								"normal_price_setting": {
									"input_price": 100000000,
									"currency": "CNY"
								}
							}
						}
					}
				]
			},
			"audit_param":{
				"operator": "yushan",
				"reason": "create",
				"source": "twqa auto test"
			}
		},
		"response_text":{
			"debug_msg":"the brand doesn't exist/the brand is not available under this category|brandId=1011646: item.mtsku_brand.set_mtsku_brand_check_only failed"
		},
		"response_status" : 73900003
	}
}