{
	"create_mtsku_item_global_category_not_leaf_node":{
		"api_command": "item.mtsku.create_mtsku_item",
		"req":
		{
			"unique_id": "32",
			"item_setting":{
				"merchant_id": 1022564,
				"basic_setting":{
                    "name":"yushan_MTSKU_can delete",
                    "description":"1.Cat 2.Not leaf node",
					"image_setting":{
						"images":[
							"e881028b64f21605aaa0ac80ccd95f8f",
							"0c454ad67953a1abe061847dabbe496b"
						]
					},
					"condition": 1,
					"tier_variation_setting":{
						"tier_properties":[
							{
								"name":"color",
								"tier_values":[
									{
										"value":"white"
									}
								]
							}
						]
					},
					"seller_sku":"1234",
					"category_path_setting":{
						"cats":[
							{
								"cat_ids":[100090,100921],
								"region":"WW"
							}
						]
					},
					"mtsku_global_validation":true
				}
			},
			"model_list_setting":{
				"settings": [
					{
						"model_basic_setting":{
							"estimated_days": 2,
							"stock_list_setting":{
								"stock_settings": [
									{
										"fulfilment_type": 2,
										"sellable_stock": 33,
										"location_id": "IDZ"
									}
								]
							},
							"tier_index_list": { 
								"tier_indices": [0]
							},
							"price_setting":{
								"normal_price_setting": {
									"input_price": 100000000,
									"currency": "CNY"
								}
							}
						}
					}
				]
			},
			"audit_param":{
				"operator": "yushan",
				"reason": "create",
				"source": "twqa auto test"
			}
		},
		"response_text":{
			"debug_msg":"invalid leaf_category_id. Cat_id=100921 is not a valid leaf category, because it have a valid child_cat_id=100922|region=WW|seller_type=0: item.mtsku_category.check_mtsku_global_category_path failed"
		},
		"response_status" : 18201009
	}
}