{
	"update_mpsku_item_parameter_shop_id_0":{
		"api_command": "item.mtsku.update_mpsku_item",
		"req":
		{
			"mtsku_item_id": 102554063,
			"mpsku_setting": {
				"shop_id": 0,
				"mpsku_item_id": 102554073
			},
			"audit_param":{
				"operator":"QA test",
				"reason":"update mp",
				"source":"playground"
			}
		},
		"response_text":{
			"debug_msg": "mpsku ShopId[0],ItemId[102554073] not exist"
		},
		"response_status" : 32703000
	}
}