{
	"update_mtsku_item_for_admin_sync_to_mp_global_cat_not_enable_in_mp_region":{
		"api_command": "item.mtsku.update_mtsku_item_for_admin",
		"req":
		{
			"item_setting": {
				"mtsku_item_id": 900036396,
				"basic_setting": {
					"mtsku_global_validation": true,
					"category_path_setting":{
						"cats":[
							{
								"cat_ids":[
									100090,
									100914,
									100928
								],
								"region":"WW"
							}
						]
					}
				}
			},
			"audit_param":{
				"operator": "yushan",
				"reason": "update mt for admin",
				"source": "twqa auto"
			}
		},
		"response_text":{
			"debug_msg":"mpsku category check err, debug msg[global_category is blocked for this seller type|global_cat_id=100928|region=VN|seller_type=3: ERROR_CAT_BLOCK_SELLER_TYPE_CB: item.category.check_global_category_path failed]",
			"err_mpsku_items":[
				{
					"debug_msg":"",
					"error_code":18201007,
					"has_invalid_global_cat":true,
					"mpsku_item_id":900036411,
					"shop_id":201739580
				}
			]
		},
		"response_status" : 18201007
	}
}