{
	"delete_mtsku_item_parameter_audit_param_nil":{
		"api_command": "item.mtsku.delete_mtsku_item",
		"req":
		{
			"mtsku_item_id": 1
		},
		"response_text":{
			"debug_msg": "miss audit"
		},
		"response_status" : 32700002
	}
}