{
	"unlink_mpsku_item_parameter_audit_param_nil":{
		"api_command": "item.mtsku.unlink_mpsku_item",
		"req":
		{
			"mtsku_item_id": 102391024,
			"mpsku_item_id": 102391115,
			"shop_id": 200709926
		},
		"response_text":{
			"debug_msg": "miss audit"
		},
		"response_status" : 32700002
	}
}