{
	"relink_mtsku_merchant_parameter_audit_param_source_nil":{
		"api_command": "item.mtsku.relink_mtsku_merchant",
		"req":
		{
			"mtsku_item_id": 102724730,
			"new_merchant_id": 1024550,
			"audit_param":{
				"operator": "yushan",
				"reason": "relink"
			}
		},
		"response_text":{
			"debug_msg": "miss audit.Source"
		},
		"response_status" : 32700002
	}
}