{
	"update_mtsku_item_for_admin_sync_to_mp_description":{
		"api_command": "item.mtsku.update_mtsku_item_for_admin",
		"req":
		{
			"item_setting": {
				"mtsku_item_id": 900025808,
				"basic_setting": {
					"description": "yushan up success sync to mp",
					"mtsku_global_validation": true
				},
				"mtsku_sync_field_list_setting": {
					"sync_field": [
						{
							"field": 2,
							"shop_list": {
								"shop_id": 	[201739580]
							}
						}
					]
				}
			},
			"audit_param":{
				"operator": "yushan",
				"reason": "update mt for admin",
				"source": "twqa auto"
			}
		},
		"response_text":{
			"mtsku_item_mapping_entries":[
				{
					"mtsku_model_mapping_entries":[
						{
							"mpsku_model_id":10009713137,
							"mtsku_model_id":10009713112
						}
					],
					"region":"VN",
					"shop_id":201739580,
					"mpsku_item_id":900025821
				}
			],
			"mtsku_model_ids":[
				10009713112
			]
		},
		"response_status" : 0
	}
}