{
	"update_mpsku_item_parameter_mpsku_setting_nil":{
		"api_command": "item.mtsku.update_mpsku_item",
		"req":
		{
			"mtsku_item_id": 102554063,
			"audit_param":{
				"operator":"QA test",
				"reason":"update mp",
				"source":"playground"
			}
		},
		"response_text":{
			"debug_msg": "both mpsku setting and mpsku model setting are nil"
		},
		"response_status" : 32700002
	}
}