{
	"get_mtsku_item_by_mtsku_item_ids_parameter_mtsku_item_id_0":{
		"api_command": "item.mtsku.get_mtsku_item_by_mtsku_item_ids",
		"req":
		{
			"mtsku_item_ids": [0],
			"mtsku_info_types": [1]
		},
		"response_text":{
			"mtsku_list": [
				{
					"mtsku_item_id": 0
				}
			]
		},
		"response_status" : 0
	}
}