{
	"update_mtsku_item_for_admin_sync_to_mp_but_fail_luc_dts_less_than_min":{
		"api_command": "item.mtsku.update_mtsku_item_for_admin",
		"req":
		{
			"item_setting": {
				"mtsku_item_id": 900026990,
				"basic_setting": {
					"mtsku_global_validation": true
				}
			},
			"model_list_setting": {
				"model_settings": [
					{
						"model_id": 10009715152,
						"basic_setting": {
						    "is_pre_order": true,
						    "estimated_days": 14
						},
						"mtsku_model_sync_field_list_setting": {
							"sync_field": [
								{
									"field": 1,
									"shop_list": {
										"shop_id": [201739580]
									}
								},
								{
									"field": 2,
									"shop_list": {
										"shop_id": [201739580]
									}
								}
							]
						}
					}
				]
			},
			"audit_param":{
				"operator": "yushan",
				"reason": "update mt for admin",
				"source": "twqa auto"
			}
		},
		"response_text":{
			"debug_msg":"error mpsku update check: mpsku shop[201739580] itemid[900027007] check update Err[estimated ship days is less than min limit, days:14 limit:15: item.item_info.update_item_for_mtsku_try failed] debug msg[estimated ship days is less than min limit, days:14 limit:15]",
			"err_mpsku_items":[
				{
					"debug_msg":"estimated ship days is less than min limit, days:14 limit:15",
					"error_code":710037,
					"mpsku_item_id":900027007,
					"shop_id":201739580
				}
			]
		},
		"response_status" : 32703005
	}
}