{
	"create_mtsku_item_tier_variation_setting_nil":{
		"api_command": "item.mtsku.create_mtsku_item",
		"req":
		{
			"unique_id": "1",
			"item_setting":{
				"merchant_id": 1022564,
				"basic_setting":{
                    "name":"yushan_MTSKU_can delete",
                    "description":"1.Tier variation nil 2.Can delete",
					"image_setting":{
						"images":[
							"e881028b64f21605aaa0ac80ccd95f8f"
						]
					},
					"condition": 1,
					"seller_sku":"1234",
					"category_path_setting":{
						"cats":[
							{
								"cat_ids":[
									100090,
									100802,
									100915
								],
								"region":"WW"
							}
						]
					},
					"mtsku_global_validation":true
				}
			},
			"model_list_setting":{
				"settings": [
					{
						"model_basic_setting":{
							"estimated_days": 2,
							"stock_list_setting":{
								"stock_settings": [
									{
										"fulfilment_type": 2,
										"sellable_stock": 33,
										"location_id": "IDZ"
									}
								]
							},
							"tier_index_list": { 
								"tier_indices": [0]
							},
							"price_setting":{
								"normal_price_setting": {
									"input_price": 100000000,
									"currency": "CNY"
								}
							}
						}
					}
				]
			},
			"audit_param":{
				"operator": "yushan",
				"reason": "create",
				"source": "twqa auto test"
			}
		},
		"response_text":{
			"debug_msg": "the length of model tierIndices and item tierProperties not match"
		},
		"response_status" : 32700002
	},
	"create_mtsku_item_tier_name_nil":{
		"api_command": "item.mtsku.create_mtsku_item",
		"req":
		{
			"unique_id": "3",
			"item_setting":{
				"merchant_id": 1022564,
				"basic_setting":{
                    "name":"yushan_MTSKU_can delete",
                    "description":"1.Tier variation nil 2.Can delete",
					"image_setting":{
						"images":[
							"e881028b64f21605aaa0ac80ccd95f8f"
						]
					},
					"condition": 1,
					"tier_variation_setting":{
						"tier_properties":[
							{
								"tier_values":[
									{"value": "white"}
								]
							}
						]
					},
					"seller_sku":"1234",
					"category_path_setting":{
						"cats":[
							{
								"cat_ids":[
									100090,
									100802,
									100915
								],
								"region":"WW"
							}
						]
					},
					"mtsku_global_validation":true
				}
			},
			"model_list_setting":{
				"settings": [
					{
						"model_basic_setting":{
							"estimated_days": 2,
							"stock_list_setting":{
								"stock_settings": [
									{
										"fulfilment_type": 2,
										"sellable_stock": 33,
										"location_id": "IDZ"
									}
								]
							},
							"tier_index_list": { 
								"tier_indices": [0]
							},
							"price_setting":{
								"normal_price_setting": {
									"input_price": 100000000,
									"currency": "CNY"
								}
							}
						}
					}
				]
			},
			"audit_param":{
				"operator": "yushan",
				"reason": "create",
				"source": "twqa auto test"
			}
		},
		"response_text":{
			"debug_msg": "miss tier variation property name"
		},
		"response_status" : 32700002
	},
	"create_mtsku_item_tier_values_empty_array":{
		"api_command": "item.mtsku.create_mtsku_item",
		"req":
		{
			"unique_id": "4",
			"item_setting":{
				"merchant_id": 1022564,
				"basic_setting":{
                    "name":"yushan_MTSKU_can delete",
                    "description":"1.Tier variation nil 2.Can delete",
					"image_setting":{
						"images":[
							"e881028b64f21605aaa0ac80ccd95f8f"
						]
					},
					"condition": 1,
					"tier_variation_setting": {
						"tier_properties":[
						   {
							   "name":"color",
							   "tier_values":[]
						   }
					   ]
				   },
					"seller_sku":"1234",
					"category_path_setting":{
						"cats":[
							{
								"cat_ids":[
									100090,
									100802,
									100915
								],
								"region":"WW"
							}
						]
					},
					"mtsku_global_validation":true
				}
			},
			"model_list_setting":{
				"settings": [
					{
						"model_basic_setting":{
							"estimated_days": 2,
							"stock_list_setting":{
								"stock_settings": [
									{
										"fulfilment_type": 2,
										"sellable_stock": 33,
										"location_id": "IDZ"
									}
								]
							},
							"tier_index_list": { 
								"tier_indices": [0]
							},
							"price_setting":{
								"normal_price_setting": {
									"input_price": 100000000,
									"currency": "CNY"
								}
							}
						}
					}
				]
			},
			"audit_param":{
				"operator": "yushan",
				"reason": "create",
				"source": "twqa auto test"
			}
		},
		"response_text":{
			"debug_msg": "miss value for property[color]"
		},
		"response_status" : 32700002
	},
	"create_mtsku_item_value_nil":{
		"api_command": "item.mtsku.create_mtsku_item",
		"req":
		{
			"unique_id": "5",
			"item_setting":{
				"merchant_id": 1022564,
				"basic_setting":{
                    "name":"yushan_MTSKU_can delete",
                    "description":"1.Tier variation nil 2.Can delete",
					"image_setting":{
						"images":[
							"e881028b64f21605aaa0ac80ccd95f8f"
						]
					},
					"condition": 1,
					"tier_variation_setting": {
						"tier_properties":[
						   {
							   "name":"color",
							   "tier_values":[{}]
						   }
					   ]
				   },
					"seller_sku":"1234",
					"category_path_setting":{
						"cats":[
							{
								"cat_ids":[
									100090,
									100802,
									100915
								],
								"region":"WW"
							}
						]
					},
					"mtsku_global_validation":true
				}
			},
			"model_list_setting":{
				"settings": [
					{
						"model_basic_setting":{
							"estimated_days": 2,
							"stock_list_setting":{
								"stock_settings": [
									{
										"fulfilment_type": 2,
										"sellable_stock": 33,
										"location_id": "IDZ"
									}
								]
							},
							"tier_index_list": { 
								"tier_indices": [0]
							},
							"price_setting":{
								"normal_price_setting": {
									"input_price": 100000000,
									"currency": "CNY"
								}
							}
						}
					}
				]
			},
			"audit_param":{
				"operator": "yushan",
				"reason": "create",
				"source": "twqa auto test"
			}
		},
		"response_text":{
			"debug_msg": "one of value miss name for property[color]"
		},
		"response_status" : 32700002
	}
}