{
	"unlist_mpsku_item_not_link_unlist_true":{
		"api_command": "item.mtsku.unlist_mpsku_item",
		"req":
		{
			"mpsku_item_id": 102537300,
			"mpsku_shop_id": 200709926,
			"unlist": true,
			"audit_param":{
				"operator": "yushan",
				"reason": "unlist mp",
				"source": "twqa auto"
			}
		},
		"response_status" : 0
	},
	"get_product_info_not_link_unlist_true":{
		"api_command": "item.business.get_product_info",
		"req":
		{
			"shop_item_ids":[
				{
					"shop_id":200709926,
					"item_id":102537300
				}
			],
			"info_types":[1]
		},
		"response_text":{
			"info":[
				{
					"item_id":102537300,
					"item_basic":{
						"status":8
					},
					"shop_id":200709926
				}
			]
		},
		"response_status" : 0
	},
	"unlist_mpsku_item_not_link_unlist_false":{
		"api_command": "item.mtsku.unlist_mpsku_item",
		"req":
		{
			"mpsku_item_id": 102537300,
			"mpsku_shop_id": 200709926,
			"unlist": false,
			"audit_param":{
				"operator": "yushan",
				"reason": "unlist mp",
				"source": "twqa auto"
			}
		},
		"response_status" : 0
	},
	"get_product_info_not_link_unlist_false":{
		"api_command": "item.business.get_product_info",
		"req":
		{
			"shop_item_ids":[
				{
					"shop_id":200709926,
					"item_id":102537300
				}
			],
			"info_types":[1]
		},
		"response_text":{
			"info":[
				{
					"item_id":102537300,
					"item_basic":{
						"status":1
					},
					"shop_id":200709926
				}
			]
		},
		"response_status" : 0
	}
}