{
	"unlist_mpsku_item_prarmeter_unlist_nil":{
		"api_command": "item.mtsku.unlist_mpsku_item",
		"req":
		{
			"mpsku_item_id": 900192664,
			"mpsku_shop_id": 201339136,
			"audit_param":{
				"operator": "yushan",
				"reason": "unlist mp",
				"source": "twqa auto"
			}
		},
		"response_text":{
			"debug_msg": "invalid mpsku unlist tag"
		},
		"response_status" : 32700002
	}
}