{
	"update_single_mtsku_and_mpsku_item_fail_luc_image_quantity_less_than_setting":{
		"api_command": "item.mtsku.update_single_mtsku_and_mpsku_item",
		"req":
		{
			"mtsku_setting": {
				"mtsku_item_id": 103154785,
				"basic_setting": {
					"mtsku_global_validation": true
				}
			},
			"mpsku_setting": {
				"shop_id": 201339136,
				"mpsku_item_id": 103154820,
				"basic_setting": {
					"images": "e7c334d743fc3e8722b0dd1f30f39ab0",
					"global_classification_validation": true
				}
			},
			"audit_param":{
				"operator": "QA test",
				"reason": "update single",
				"source": "Automate"
			}
		},
		"response_text":{
			"debug_msg": "image num is less than min limit, number:1 limit:2: item.item_info.update_item_for_mtsku_try failed"
		},
		"response_status" : 710034
	}
}