{
	"create_single_mtsku_and_mpsku_item_fail_luc_price_less_than_setting":{
		"api_command": "item.mtsku.create_single_mtsku_and_mpsku_item",
		"req":
		{
			"unique_id": "str_to_be_replaced",
			"mtsku_setting": {
				"merchant_id": 1024752,
				"basic_setting":{
					"name": "yushan_create single for I",
					"description":"1.Create single 2.Can delete",
					"image_setting":{
						"images":[
							"cf582cbb037b3e40b3f6992edfe8dc0c",
							"e881028b64f21605aaa0ac80ccd95f8f"
						]
					},
					"condition": 1,
					"tier_variation_setting":{
						"tier_properties":[
							{
								"name":"",
								"tier_values":[
									{
										"value":""
									}
								]
							}
						]
					},
					"seller_sku":"mt sku",
					"mtsku_global_validation":true,
					"category_path_setting":{
						"cats":[
							{
								"cat_ids":[
									100090,
									100802,
									100915
								],
								"region":"WW"
							}
						]
					},
					"attribute_setting":{
						"attrs":[
							{
								"attr_id":100006,
								"attr_val_id": 5
							}
						]
					}
				}
			},
			"mpsku_setting": {
				"region": "ID",
				"shop_id": 201339136,
				"basic_setting": {
					
				}
			},
			"model_list_setting":{
				"model_settings": [
					{
						"mtsku_model_setting": {
							"model_basic_setting":{
								"tier_index_list":{
									"tier_indices":[0]
								},
								"weight": 100000,
								"dimension": {
									"width": 100000,
									"length": 100000,
									"height": 100000,
									"unit": 100000
								},
								"estimated_days": 3,
								"seller_sku": "mt model sku",
								"stock_list_setting": {
									"stock_settings":[
										{
											"location_id": "CNZ",
											"fulfilment_type": 2,
											"sellable_stock": 1000
										}
									]
								},
								"price_setting": {
									"normal_price_setting": {
										"input_price": 1000000000,
										"currency": "CNY"
									}
								}
							}
						},
						"mpsku_model_setting":{
							"basic_setting": {
								"seller_sku": "mp model sku",
								"price_list_setting": {
									"price_settings": [
										{
											"rule_type": 0,
											"input_price": 1900000,
											"currency": "IDR"
										}
									]
								}
							}
						}
					}
				]
			},
			"audit_param":{
				"operator": "yushan",
				"reason": "create single mt and mp",
				"source": "twqa auto test"
			}
		},
		"response_text":{
			"debug_msg": "price is less than min limit, price:1900000 limit:2000000: item.item_info.add_item_with_mtsku failed"
		},
		"response_status" : 710039
	}
}