{
	"get_product_info_sync_to_mp_attr_free_text":{
		"api_command": "item.business.get_product_info",
		"req":
		{
			"shop_item_ids": [
				{
					"shop_id": 201739580,
					"item_id": 900026801
				}
			],
			"info_types": [7]
		},
		"response_text":{
			"info":[
				{
					"attribute": {
						"global_attribute_snapshot":{
							"values": [
								{
									"attr_id": 100143,
									"attr_val_id": 0,
									"formatted_value": "33 free text up",
									"status": 1
								}
							]
						}
					},
					"item_id": 900026801,
					"shop_id": 201739580
				}
			]
		},
		"response_status" : 0
	}
}