{
	"create_mpsku_item_luc_price_range_greater_than_setting":{
		"api_command": "item.mtsku.create_mpsku_item",
		"req":
		{
			"unique_id": "",
			"mtsku_item_id": 102594972,
			"create_mpsku_item_setting": {
				"shop_id": 201311716,
				"region": "ID",
				"basic_setting": {
					"name":"yushan_create mp for luc",
					"description":"1.Create mpsku 2.Can delete",
					"images":"e881028b64f21605aaa0ac80ccd95f8f,0c454ad67953a1abe061847dabbe496b",
					"logistic": {
						"estimated_days": 3,
						"is_pre_order": false
					},
					"global_classification_validation": true
				},
				"special_setting":{
					"condition": 1,
					"dimension": {
						"width": 1,
						"length": 1,
						"height": 1,
						"unit": 1
					},
					"global_category": {
						"cat_list": {
							"cats": [
								{
									"cat_ids": [100090,100802,100915]
								}
							]
						}
					}
				}
			},
			"create_mpsku_model_list_setting": {
				"create_mpsku_model_setting" :[
					{
						"mtsku_model_id": 14214585,
						"basic_setting": {
							"delete": false,
							"price_list_setting": {
								"price_settings": [
									{
										"rule_type": 0,
										"input_price": 10000000100000,
										"currency": "IDR"
									}
								]
							}
						}
					}
				]
			},
			"audit_param":{
				"operator":"QA test",
				"reason":"create mp",
				"source":"playground"
			}
		},
		"response_text":{
			"debug_msg": "price is bigger than max limit, price:10000000100000 limit:10000000000000: item.item_info.add_item_with_mtsku failed"
		},
		"response_status" : 710040
	}
}