{
	"update_mtsku_item_global_attribute_link_to_global_category_leaf_node":{
		"api_command": "item.mtsku.update_mtsku_item",
		"req":
		{
			"item_setting":{
				"mtsku_item_id": 101120743,
				"basic_setting":{
					"category_path_setting": {
						"cats": [{ "cat_ids": [100090,100921,100922], "region": "WW" }]
					},
					"attribute_setting":{
						"attrs":[
							{
								"attr_id":100068,
								"attr_val_id":105
							}
						]
					},	
					"mtsku_global_validation": true
				}
			},
			"audit_param":{
				"operator": "yushan",
				"reason": "udpate",
				"source": "twqa test"
			}
		},
		"response_text":{"mtsku_model_ids": [8011355]},
		"response_status" : 0
	}
}