{
	"update_mpsku_item_parameter_mtsku_item_id_0":{
		"api_command": "item.mtsku.update_mpsku_item",
		"req":
		{
			"mtsku_item_id": 0
		},
		"response_text":{
			"debug_msg": "invalid mtsku itemid"
		},
		"response_status" : 32700002
	}
}