{
	"get_mtsku_by_merchant_id_mt_status_is_delete":{
		"api_command": "item.mtsku.get_mtsku_by_merchant_id",
		"req":
		{
			"merchant_id": 1023712,
			"mtsku_info_types": [1],
			"status": 0
		},
		"response_text":{
			"has_next":false,
			"mtsku_list":[
				{
					"mtsku_basic":{
						"cats":[
							{
								"cat_ids":[
									100090,
									100802,
									100915
								],
								"region":"WW"
							}
						],
						"condition":1,
						"image_list":[
							"e881028b64f21605aaa0ac80ccd95f8f"
						],
						"merchant_id":1023712,
						"name":"yushan_mtsku_delete",
						"seller_sku":"sku",
						"status":0,
						"tier_variation":{
							"tier_models":[
								{
									"mtsku_model_id":8053250,
									"tier_indices":[
										0
									]
								}
							],
							"tier_properties":[
								{
									"name":"color",
									"tier_values":[
										{
											"value":"white"
										}
									]
								}
							]
						}
					},
					"mtsku_item_id":101151448
				}
			],
			"offset":"",
			"total":1
		},
		"response_status" : 0
	}
}