{
	"update_mtsku_item_fail_luc_title_contain_prohibit_characters":{
		"api_command": "item.mtsku.update_mtsku_item",
		"req":
		{
			"item_setting":{
				"mtsku_item_id": 101128589,
				"basic_setting":{
					"name":"yushan_MTSKU 违法"
				}
			},
			"audit_param":{
				"operator": "yushan",
				"reason": "update",
				"source": "twqa test"
			}
		},
		"response_text":{
			"debug_msg":"not pass listing upload control check,reason:title prohibited chars\u8fdd,debug msg:fail to pass upload control rules",
			"upload_control_detail":{
				"title_prohibited_chars":[
					"\u8fdd"
				]
			}
		},
		"response_status" : 32706002
	}
}