{
	"get_mtsku_by_merchant_id_mt_status_is_normal":{
		"api_command": "item.mtsku.get_mtsku_by_merchant_id",
		"req":
		{
			"merchant_id": 1023712,
			"mtsku_info_types": [1],
			"status": 1
		},
		"response_text":{
			"has_next":false,
			"mtsku_list":[
				{
					"mtsku_basic":{
						"cats":[
							{
								"cat_ids":[
									100090,
									100802,
									100915
								],
								"region":"WW"
							}
						],
						"condition":1,
						"image_list":[
							"e881028b64f21605aaa0ac80ccd95f8f"
						],
						"merchant_id":1023712,
						"name":"yushan_mtsku_normal",
						"seller_sku":"sku",
						"status":1,
						"tier_variation":{
							"tier_models":[
								{
									"mtsku_model_id":8053249,
									"tier_indices":[
										0
									]
								}
							],
							"tier_properties":[
								{
									"name":"color",
									"tier_values":[
										{
											"value":"white"
										}
									]
								}
							]
						}
					},
					"mtsku_item_id":101151447
				},
				{
					"mtsku_basic":{
						"cats":[
							{
								"cat_ids":[
									100090,
									100723,
									100930
								],
								"region":"WW"
							}
						],
						"condition":1,
						"image_list":[
							"e881028b64f21605aaa0ac80ccd95f8f"
						],
						"merchant_id":1023712,
						"name":"yushan_mtsku_cat_and_attr",
						"seller_sku":"sku",
						"status":1,
						"tier_variation":{
							"tier_models":[
								{
									"mtsku_model_id":8053253,
									"tier_indices":[
										0
									]
								}
							],
							"tier_properties":[
								{
									"name":"color",
									"tier_values":[
										{
											"value":"white"
										}
									]
								}
							]
						}
					},
					"mtsku_item_id":101151450
				},
				{
					"mtsku_basic":{
						"cats":[
							{
								"cat_ids":[
									100090,
									100723,
									100931
								],
								"region":"WW"
							}
						],
						"condition":1,
						"image_list":[
							"e881028b64f21605aaa0ac80ccd95f8f"
						],
						"merchant_id":1023712,
						"name":"yushan_mtsku_cat_and_brand",
						"seller_sku":"sku",
						"status":1,
						"tier_variation":{
							"tier_models":[
								{
									"mtsku_model_id":8053254,
									"tier_indices":[
										0
									]
								}
							],
							"tier_properties":[
								{
									"name":"color",
									"tier_values":[
										{
											"value":"white"
										}
									]
								}
							]
						}
					},
					"mtsku_item_id":101151451
				},	
				{
					"mtsku_basic":{
						"cats":[
							{
								"cat_ids":[
									100090,
									100921,
									100922
								],
								"region":"WW"
							}
						],
						"condition":1,
						"image_list":[
							"e881028b64f21605aaa0ac80ccd95f8f"
						],
						"merchant_id":1023712,
						"name":"yushan_mtsku_cat_attr_and_brand",
						"seller_sku":"sku",
						"status":1,
						"tier_variation":{
							"tier_models":[
								{
									"mtsku_model_id":8053255,
									"tier_indices":[
										0
									]
								}
							],
							"tier_properties":[
								{
									"name":"color",
									"tier_values":[
										{
											"value":"white"
										}
									]
								}
							]
						}
					},
					"mtsku_item_id":101151452
				}
			],
			"offset":"",
			"total":4
		},
		"response_status" : 0
	}
}