{
	"update_single_mtsku_and_mpsku_item_fail_luc_title_contains_prohibit_character":{
		"api_command": "item.mtsku.update_single_mtsku_and_mpsku_item",
		"req":
		{
			"mtsku_setting": {
				"mtsku_item_id": 103154619,
				"basic_setting": {
					"mtsku_global_validation": true
				}
			},
			"mpsku_setting": {
				"shop_id": 201339136,
				"mpsku_item_id": 103154643,
				"basic_setting": {
					"name": "yushan_single 违規",
					"global_classification_validation": true
				}
			},
			"audit_param":{
				"operator": "QA test",
				"reason": "update single",
				"source": "Automate"
			}
		},
		"response_text":{
			"debug_msg": "name contains not permitted characters: \u8fdd: item.item_info.update_item_for_mtsku_try failed"
		},
		"response_status" : 710031
	}
}