{
	"get_mtsku_by_condition_for_admin_mtsku_item_id_and_status_not_match":{
		"api_command": "item.mtsku.get_mtsku_by_condition_for_admin",
		"req":
		{
			"query_condition": {
				"merchant_id": 1023712,
				"mtsku_item_id": 101151447,
				"status": 0
			}
		},
		"response_text": {"has_next": false, "total": 0},
		"response_status" : 0
	}
}