{
	"update_upload_control_rules_title":{
		"api_command": "listing_qc.upload_control.update_upload_control_rules",
		"req":
		{
			"seller_category": 3,
			"seller_type": 4,
			"upload_control_rules": {
				"title_length_min": 3,
				"title_length_max": 30
			},
			"operator": "yushan"
		},
		"response_text":{},
		"response_status" : 0
	},
	"create_mtsku_item_fail_luc_title_less_than_min":{
		"api_command": "item.mtsku.create_mtsku_item",
		"req":
		{
			"unique_id": "1",
			"item_setting":{
				"merchant_id": 1022564,
				"basic_setting":{
                    "name":"yu",
                    "description":"1.Location nil 2.Can delete",
					"image_setting":{
						"images":[
							"e881028b64f21605aaa0ac80ccd95f8f"
						]
					},
					"condition": 1,
					"tier_variation_setting":{
						"tier_properties":[
							{
								"name":"color",
								"tier_values":[
									{
										"value":"white"
									}
								]
							}
						]
					},
					"seller_sku":"1234",
					"category_path_setting":{
						"cats":[
							{
								"cat_ids":[
									100090,
									100802,
									100915
								],
								"region":"WW"
							}
						]
					},
					"mtsku_global_validation":true
				}
			},
			"model_list_setting":{
				"settings": [
					{
						"model_basic_setting":{
							"estimated_days": 2,
							"stock_list_setting":{
								"stock_settings": [
									{
										"fulfilment_type": 2,
										"sellable_stock": 9999,
										"location_id": "IDZ"
									}
								]
							},
							"tier_index_list": { 
								"tier_indices": [0]
							},
							"price_setting":{
								"normal_price_setting": {
									"input_price": 100000000,
									"currency": "CNY"
								}
							}
						}
					}
				]
			},
			"audit_param":{
				"operator": "yushan",
				"reason": "create",
				"source": "twqa auto test"
			}
		},
		"response_text":{
			"debug_msg":"not pass listing upload control check,reason:name length not pass qc, actual value:2,lower limit:3,debug msg:fail to pass upload control rules",
			"upload_control_detail":{
				"title_len":{
					"lower_limit":3,
					"actual_value":2
				}
			}
		},
		"response_status" : 32706002
	},
	"create_mtsku_item_fail_luc_title_greater_than_max":{
		"api_command": "item.mtsku.create_mtsku_item",
		"req":
		{
			"unique_id": "1",
			"item_setting":{
				"merchant_id": 1022564,
				"basic_setting":{
                    "name":"yushan_MTSKU_can delete~~~~~~31",
                    "description":"1.Fail LUC 2.Can delete",
					"image_setting":{
						"images":[
							"e881028b64f21605aaa0ac80ccd95f8f"
						]
					},
					"condition": 1,
					"tier_variation_setting":{
						"tier_properties":[
							{
								"name":"color",
								"tier_values":[
									{
										"value":"white"
									}
								]
							}
						]
					},
					"seller_sku":"1234",
					"category_path_setting":{
						"cats":[
							{
								"cat_ids":[
									100090,
									100802,
									100915
								],
								"region":"WW"
							}
						]
					},
					"mtsku_global_validation":true
				}
			},
			"model_list_setting":{
				"settings": [
					{
						"model_basic_setting":{
							"estimated_days": 2,
							"stock_list_setting":{
								"stock_settings": [
									{
										"fulfilment_type": 2,
										"sellable_stock": 9999,
										"location_id": "IDZ"
									}
								]
							},
							"tier_index_list": { 
								"tier_indices": [0]
							},
							"price_setting":{
								"normal_price_setting": {
									"input_price": 100000000,
									"currency": "CNY"
								}
							}
						}
					}
				]
			},
			"audit_param":{
				"operator": "yushan",
				"reason": "create",
				"source": "twqa auto test"
			}
		},
		"response_text":{
			"debug_msg":"not pass listing upload control check,reason:name length not pass qc, actual value:31,upper limit:30,debug msg:fail to pass upload control rules",
			"upload_control_detail":{
				"title_len":{
					"upper_limit":30,
					"actual_value":31
				}
			}
		},
		"response_status" : 32706002
	},
	"update_upload_control_rules_title_restore":{
		"api_command": "listing_qc.upload_control.update_upload_control_rules",
		"req":
		{
			"seller_category": 3,
			"seller_type": 4,
			"upload_control_rules": {
				"title_length_min": 1,
				"title_length_max": 499
			},
			"operator": "yushan"
		},
		"response_text":{},
		"response_status" : 0
	}
}