{
	"get_mtsku_by_merchant_id_parameter_merchant_id_nil":{
		"api_command": "item.mtsku.get_mtsku_by_merchant_id",
		"req":
		{
			"mtsku_info_types": [1]
		},
		"response_text":{
			"debug_msg": "invalid merchant id"
		},
		"response_status" : 32700002
	}
}