{
	"update_single_mtsku_and_mpsku_item_parameter_audit_param_operator_nil":{
		"api_command": "item.mtsku.update_single_mtsku_and_mpsku_item",
		"req":
		{
			"mtsku_setting": {
				"mtsku_item_id": 102846139,
				"basic_setting": {
					"mtsku_global_validation": true
				}
			},
			"mpsku_setting": {
				"shop_id": 201339136,
				"mpsku_item_id": 102846290,
				"basic_setting": {
					"global_classification_validation": true
				}
			},
			"audit_param":{
				"reason": "update single mt and mp",
				"source": "twqa auto test"
			}
		},
		"response_text":{
			"debug_msg": "miss audit.Operator"
		},
		"response_status" : 32700002
	}
}