{
	"update_mtsku_item_for_admin_sync_to_mp_but_fail_luc_description_greater_than_max":{
		"api_command": "item.mtsku.update_mtsku_item_for_admin",
		"req":
		{
			"item_setting": {
				"mtsku_item_id": 900025808,
				"basic_setting": {
					"description": "yushan up mt for admin sync to mp but fail luc - Description~",
					"mtsku_global_validation": true
				},
				"mtsku_sync_field_list_setting": {
					"sync_field": [
						{
							"field": 2,
							"shop_list": {
								"shop_id": 	[201739580]
							}
						}
					]
				}
			},
			"audit_param":{
				"operator": "yushan",
				"reason": "update mt for admin",
				"source": "twqa auto"
			}
		},
		"response_text":{
			"debug_msg":"error mpsku update check: mpsku shop[201739580] itemid[900025821] check update Err[description length is greater than max limit, length:61 limit:60: item.item_info.update_item_for_mtsku_try failed] debug msg[description length is greater than max limit, length:61 limit:60]",
			"err_mpsku_items":[
				{
					"debug_msg":"description length is greater than max limit, length:61 limit:60",
					"error_code":710033,
					"mpsku_item_id":900025821,
					"shop_id":201739580
				}
			]
		},
		"response_status" : 32703005
	}
}