{
	"update_single_mtsku_and_mpsku_item_global_category_invalid_level":{
		"api_command": "item.mtsku.update_single_mtsku_and_mpsku_item",
		"req":
		{
			"mtsku_setting": {
				"mtsku_item_id": 103184288,
				"basic_setting": {
					"mtsku_global_validation": true,
					"category_path_setting":{
						"cats":[
							{
								"cat_ids":[123456],
								"region":"WW"
							}
						]
					}
				}
			},
			"mpsku_setting": {
				"shop_id": 201339136,
				"mpsku_item_id": 103184325,
				"basic_setting": {
					"global_classification_validation": true
				}
			},
			"audit_param":{
				"operator": "QA test",
				"reason": "update single",
				"source": "Automate"
			}
		},
		"response_text":{
			"debug_msg": "len of global category must be between 2-5|actual_len=1: ERROR_GLOBAL_CATEGORY_LEVEL: item.category.check_global_category_path failed: item.item_info.update_item_for_mtsku_try failed"
		},
		"response_status" : 720101
	}
}