{
	"update_mtsku_item_for_admin_sync_to_mp_but_fail_luc_title_greater_than_max":{
		"api_command": "item.mtsku.update_mtsku_item_for_admin",
		"req":
		{
			"item_setting": {
				"mtsku_item_id": 900025800,
				"basic_setting": {
					"name": "yushan up mt sync fail luc title",
					"mtsku_global_validation": true
				},
				"mtsku_sync_field_list_setting": {
					"sync_field": [
						{
							"field": 1,
							"shop_list": {
								"shop_id": 	[201739580]
							}
						}
					]
				}
			},
			"audit_param":{
				"operator": "yushan",
				"reason": "update mt for admin",
				"source": "twqa auto"
			}
		},
		"response_text":{
			"debug_msg":"error mpsku update check: mpsku shop[201739580] itemid[900025810] check update Err[name length is greater than max limit, length:32 limit:30: item.item_info.update_item_for_mtsku_try failed] debug msg[name length is greater than max limit, length:32 limit:30]",
			"err_mpsku_items":[
				{
					"debug_msg":"name length is greater than max limit, length:32 limit:30",
					"error_code":710030,
					"mpsku_item_id":900025810,
					"shop_id":201739580
				}
			]
		},
		"response_status" : 32703005
	}
}