{
	"create_mtsku_item_image_setting_nil":{
		"api_command": "item.mtsku.create_mtsku_item",
		"req":
		{
			"unique_id": "1",
			"item_setting":{
				"merchant_id": 1022564,
				"basic_setting":{
					"name":"yushan_MTSKU_can delete",
					"description":"1.Image nil 2.Can delete",
					"condition":1,
					"tier_variation_setting":{
						"tier_properties":[
							{
								"name":"color",
								"tier_values":[
									{
										"value":"黑"
									}
								]
							}
						]
					},
					"seller_sku":"1234",
					"category_path_setting":{
						"cats":[
							{
								"cat_ids":[
									100090,
									100802,
									100915
								],
								"region":"WW"
							}
						]
					},
					"mtsku_global_validation":true
				}
			},
			"model_list_setting":{
				"settings": [{}]
			},
			"audit_param":{
				"operator": "yushan",
				"reason": "create",
				"source": "twqa auto test"
			}
		},
		"response_text":{
			"debug_msg": "invalid image"
		},
		"response_status" : 32700002
	},
	"create_mtsku_item_images_empty_array":{
		"api_command": "item.mtsku.create_mtsku_item",
		"req":
		{
			"unique_id": "2",
			"item_setting":{
				"merchant_id": 1022564,
				"basic_setting":{
					"name":"yushan_MTSKU_can delete",
					"description":"1.Image nil 2.Can delete",
					"image_setting":{
						"images":[]
					},
					"condition":1,
					"tier_variation_setting":{
						"tier_properties":[
							{
								"name":"color",
								"tier_values":[
									{
										"value":"黑"
									}
								]
							}
						]
					},
					"seller_sku":"1234",
					"category_path_setting":{
						"cats":[
							{
								"cat_ids":[
									100090,
									100802,
									100915
								],
								"region":"WW"
							}
						]
					},
					"mtsku_global_validation":true
				}
			},
			"model_list_setting":{
				"settings": [{}]
			},
			"audit_param":{
				"operator": "yushan",
				"reason": "create",
				"source": "twqa auto test"
			}
		},
		"response_text":{
			"debug_msg": "invalid image"
		},
		"response_status" : 32700002
	}
}