{
	"update_mtsku_item_global_attribute_not_link_to_any_global_category":{
		"api_command": "item.mtsku.update_mtsku_item",
		"req":
		{
			"item_setting":{
				"mtsku_item_id": 101120743,
				"basic_setting":{
					"category_path_setting": {
						"cats": [{ "cat_ids": [100090,100802,100915], "region": "WW" }]
					},
					"attribute_setting":{
						"attrs":[
							{
								"attr_id":100066,
								"attr_val_id":103
							}
						]
					},	
					"mtsku_global_validation": true
				}
			},
			"audit_param":{
				"operator": "yushan",
				"reason": "udpate",
				"source": "twqa test"
			}
		},
		"response_text":{
			"debug_msg":"attrs in all regions is blocked or global_attr_id is not mapped with category. AttrIds=100066: item.mtsku_attribute.set_mtsku_attr_value_list_check_only failed"
		},
		"response_status" : 74700002
	}
}