{
	"update_single_mtsku_and_mpsku_item_global_brand_status_delete":{
		"api_command": "item.mtsku.update_single_mtsku_and_mpsku_item",
		"req":
		{
			"mtsku_setting": {
				"mtsku_item_id": 103184580,
				"basic_setting": {
					"mtsku_global_validation": true,
					"category_path_setting":{
						"cats":[
							{
								"cat_ids":[100090,100723,100931],
								"region":"WW"
							}
						]
					},
					"brand_setting":{
						"brand_id":1011646
					}
				}
			},
			"mpsku_setting": {
				"shop_id": 201339136,
				"mpsku_item_id": 103184611,
				"basic_setting": {
					"global_classification_validation": true
				}
			},
			"audit_param":{
				"operator": "QA test",
				"reason": "update single",
				"source": "Automate"
			}
		},
		"response_text":{
			"debug_msg": "the brand doesn't exist/the brand is not available under this category|brandId=1011646: item.mtsku_brand.set_mtsku_brand_check_only failed"
		},
		"response_status" : 73900003
	}
}