{
	"update_upload_control_rules":{
		"api_command": "listing_qc.upload_control.update_upload_control_rules",
		"req":
		{
			"seller_category": 3,
			"seller_type": 4,
			"upload_control_rules": {
				"title_length_min": 1,
				"title_length_max": 499,
				"description_length_min": 1,
				"description_length_max": 2000,
				"image_width_min": 1,
				"image_height_min": 1,
				"image_num_min": 1,
				"image_num_max": 8,
				"price_range": [
					{
						"price_limit_min": 10,
						"price_limit_max": 999999900000,
						"currency": "CNY"
					}
				],
				"price_gap_limit": 6
			},
			"operator": "yushan"
		},
		"response_text":{},
		"response_status" : 0
	},
	"update_mtsku_item_fail_luc_price_gap_greate_than_limit":{
		"api_command": "item.mtsku.update_mtsku_item",
		"req":
		{
			"item_setting":{
				"mtsku_item_id": 101128589
			},
			"model_list_setting":{
				"model_settings": [
					{
						"model_id": 8017569,
						"basic_setting":{
							"price_setting":{
								"normal_price_setting": {
									"input_price": 70000000,
									"currency": "CNY"
								}
							}
						}
					},
					{
						"model_id": 10008933485,
						"basic_setting":{
							"price_setting":{
								"normal_price_setting": {
									"input_price": 10000000,
									"currency": "CNY"
								}
							}
						}
					}
				]
			},
			"audit_param":{
				"operator": "yushan",
				"reason": "create",
				"source": "twqa auto test"
			}
		},
		"response_text":{
			"debug_msg":"not pass listing upload control check,reason:model price gap limit not pass qc, actual value:7,upper limit:6,debug msg:fail to pass upload control rules",
			"upload_control_detail":{
				"model_price_gap_limit":{
					"upper_limit":6,
					"actual_value":7
				}
			}
		},
		"response_status" : 32706002
	}
}