{
	"get_mtsku_by_merchant_id_mtsku_brand":{
		"api_command": "item.mtsku.get_mtsku_by_merchant_id",
		"req":
		{
			"merchant_id": 1041052,
			"mtsku_info_types": [1, 10]
		},
		"response_text":{
			"has_next":false,
			"total":2,
			"mtsku_list":[
				{
					"mtsku_item_id":900071077,
					"mtsku_basic":{
						"name":"yushan_get mt link 1 mp",
						"merchant_id":1041052
					},
					"global_brand":{
						"brand_id":0,
						"setting_list":[
							{
								"region":"SG",
								"display_name":"",
								"local_status":1
							},
							{
								"region":"TH",
								"display_name":"",
								"local_status":1
							},
							{
								"region":"MY",
								"display_name":"",
								"local_status":1
							},
							{
								"region":"ID",
								"display_name":"",
								"local_status":1
							},
							{
								"region":"PH",
								"display_name":"",
								"local_status":1
							},
							{
								"region":"VN",
								"display_name":"",
								"local_status":1
							},
							{
								"region":"TW",
								"display_name":"",
								"local_status":1
							},
							{
								"region":"BR",
								"display_name":"",
								"local_status":1
							},
							{
								"region":"IN",
								"display_name":"",
								"local_status":1
							},
							{
								"region":"MX",
								"display_name":"",
								"local_status":1
							},
							{
								"region":"CO",
								"display_name":"",
								"local_status":1
							},
							{
								"region":"CL",
								"display_name":"",
								"local_status":1
							},
							{
								"region":"AR",
								"display_name":"",
								"local_status":1
							},
							{
								"region":"PL",
								"display_name":"",
								"local_status":1
							},
							{
								"region":"FR",
								"display_name":"",
								"local_status":1
							},
							{
								"region":"ES",
								"display_name":"",
								"local_status":1
							},
							{
								"region":"XX",
								"display_name":"",
								"local_status":1
							}
						],
						"brand_status":1,
						"brand_name":"NoBrand"
					}
				},
				{
					"mtsku_item_id":900071076,
					"mtsku_basic":{
						"name":"yushan_get mt no mp",
						"merchant_id":1041052
					},
					"global_brand":{
						"brand_id":0,
						"setting_list":[
							{
								"region":"SG",
								"display_name":"",
								"local_status":1
							},
							{
								"region":"TH",
								"display_name":"",
								"local_status":1
							},
							{
								"region":"MY",
								"display_name":"",
								"local_status":1
							},
							{
								"region":"ID",
								"display_name":"",
								"local_status":1
							},
							{
								"region":"PH",
								"display_name":"",
								"local_status":1
							},
							{
								"region":"VN",
								"display_name":"",
								"local_status":1
							},
							{
								"region":"TW",
								"display_name":"",
								"local_status":1
							},
							{
								"region":"BR",
								"display_name":"",
								"local_status":1
							},
							{
								"region":"IN",
								"display_name":"",
								"local_status":1
							},
							{
								"region":"MX",
								"display_name":"",
								"local_status":1
							},
							{
								"region":"CO",
								"display_name":"",
								"local_status":1
							},
							{
								"region":"CL",
								"display_name":"",
								"local_status":1
							},
							{
								"region":"AR",
								"display_name":"",
								"local_status":1
							},
							{
								"region":"PL",
								"display_name":"",
								"local_status":1
							},
							{
								"region":"FR",
								"display_name":"",
								"local_status":1
							},
							{
								"region":"ES",
								"display_name":"",
								"local_status":1
							},
							{
								"region":"XX",
								"display_name":"",
								"local_status":1
							}
						],
						"brand_status":1,
						"brand_name":"NoBrand"
					}
				}
			]
		},
		"response_status" : 0
	}
}