{
	"update_mtsku_item_global_category_status_disable":{
		"api_command": "item.mtsku.update_mtsku_item",
		"req":
		{
			"item_setting":{
				"mtsku_item_id": 101120743,
				"basic_setting":{
					"category_path_setting": {
						"cats": [{ "cat_ids": [100090,100914,100917], "region": "WW" }]
				   	},
					"mtsku_global_validation": true
				}
			},
			"audit_param":{
				"operator": "yushan",
				"reason": "udpate",
				"source": "twqa test"
			}
		},
		"response_text":{
			"debug_msg": "category is not normal|global_cat_id=100917: item.mtsku_category.check_mtsku_global_category_path failed"
		},
		"response_status" : 18201005
	}
}