{
    "check_category_list": {
        "api_command": "discover.pages.bff.get_mart_homepage_categories?tw_sg2",
        "req": {},
        "response_text": {
            "data": {
                "categories": [
                    {},
                    {},
                    {
                        "catid": 21126155,
                        "parent_catid": 0,
                        "default_name": "supermarket1"
                    }
                ]
            },
            "error": 0,
            "error_msg": ""
        },
        "response_status": 0
    }
}