{
    "upload_product": {
        "url": "https://admin.promotion.staging.shopee.vn/api/gateway/v1/seller_discount/set_seller_discount_item_batch",
        "headers": {
            "origin": "https://admin.promotion.staging.shopee.vn",
            "referer": "https://admin.promotion.staging.shopee.vn/sd-seller-discount-create-info",
            "cookie": "",
            "user-agent": "Mozilla/5.0 (Windows NT 10.0; Win64; x64) AppleWebKit/537.36 (KHTML, like Gecko) Chrome/100.0.4896.88 Safari/537.36",
            "content-type": "application/json"
        },
        "payload": {
            "region": "VN",
            "SkipPermissionBD": false,
            "promotion_id": 0,
            "items": [
                {
                    "item_id": 900299182,
                    "shop_id": 201946416,
                    "model_details": [
                        {
                            "model_id": 10010183445,
                            "status": 1,
                            "promo_price": 80000000,
                            "promo_stock": 1
                        }
                    ],
                    "user_item_limit": 1
                }
            ]
        },
        "response_status": 200,
        "response_text": {
            "items": [
                {
                    "item_id": 900299182,
                    "shop_id": 201946416,
                    "models": [
                        {
                            "model_id": 10010183445,
                            "error_msg": "",
                            "operation_type": 1
                        }
                    ],
                    "user_item_limit_updated_model_ids": [
                        10010183445
                    ]
                }
            ]
        }
    },
    "cart_checkout": {
        "url": "https://staging.shopee.vn/api/v4/cart/checkout",
        "headers": {
            "x-csrftoken": "2AzWm32UZWjVkDvuVpf8rTRD9piUKqKu",
            "referer": "https://staging.shopee.vn/",
            "cookie": "",
            "Content-Type": "application/json",
            "x-api-source": "pc"
        },
        "payload": {
            "selected_shop_order_ids": [
                {
                    "shopid": 201946416,
                    "item_briefs": [
                        {
                            "itemid": 900299182,
                            "modelid": 10010183445,
                            "item_group_id": null,
                            "applied_promotion_id": 0,
                            "offerid": null,
                            "price": 80000000,
                            "quantity": 1,
                            "is_add_on_sub_item": null,
                            "add_on_deal_id": null,
                            "status": 2,
                            "cart_item_change_time": 1652432257,
                            "membership_offer_id": null
                        }
                    ],
                    "shop_vouchers": []
                }
            ],
            "platform_vouchers": [],
            "free_shipping_voucher_info": null,
            "use_coins": false,
            "sz_device_fingerprint": "pXnhJAswdZOYmVOOQAeLqA==|tVnnOK5tQpBJV+vPxyMjWp2uDDE4vTwhkaK+pohFj4JtEmPx5SZk0rowa6IE4vsLqSmAEMrL2bja8YloeOrt8ew=|X8SCcn2uvoqWPBUO|04|3",
            "support_problematic_groups": true,
            "version": 3
        },
        "response_status": 200
    },
    "checkout_get": {
        "url": "https://staging.shopee.vn/api/v4/checkout/get",
        "headers": {
            "x-csrftoken": "2AzWm32UZWjVkDvuVpf8rTRD9piUKqKu",
            "referer": "https://staging.shopee.vn/checkout-page",
            "cookie": "",
            "Content-Type": "application/json",
            "x-api-source": "pc"
        },
        "payload": {
            "_cft": [
                3179
            ],
            "shoporders": [
                {
                    "shop": {
                        "shopid": 201946416
                    },
                    "items": [
                        {
                            "itemid": 900299182,
                            "modelid": 10010183445,
                            "quantity": 1,
                            "add_on_deal_id": null,
                            "is_add_on_sub_item": null,
                            "item_group_id": null,
                            "insurances": []
                        }
                    ]
                }
            ],
            "selected_payment_channel_data": {},
            "promotion_data": {
                "use_coins": false,
                "free_shipping_voucher_info": {
                    "free_shipping_voucher_id": 0,
                    "disabled_reason": "",
                    "description": ""
                },
                "platform_vouchers": [],
                "shop_vouchers": [],
                "check_shop_voucher_entrances": true,
                "auto_apply_shop_voucher": false
            },
            "device_info": {
                "device_id": "",
                "device_fingerprint": "",
                "tongdun_blackbox": "",
                "buyer_payment_info": {}
            },
            "tax_info": {
                "tax_id": ""
            }
        },
        "response_status": 200
    },
    "place_order": {
        "url": "https://staging.shopee.vn/api/v4/checkout/place_order",
        "headers": {
            "x-csrftoken": "2AzWm32UZWjVkDvuVpf8rTRD9piUKqKu",
            "referer": "https://staging.shopee.vn/",
            "cookie": "",
            "Content-Type": "application/json",
            "x-api-source": "pc"
        },
        "payload": {},
        "response_status": 200
    }
}