{
    "get_csrftoken": {
        "url": "https://admin.staging.shopee.vn/",
        "response_status": 200,
        "cookies": {
            "sessionid": ""
        }
    },
    "create_shopee_voucher": {
        "url": "https://admin.staging.shopee.vn/promotion/new/add/",
        "headers": {
            "referer": "https://admin.staging.shopee.vn/promotion/new/",
            "origin": "https://admin.staging.shopee.vn"
        },
        "payload":{
            "status": "1",
            "success_show_message": "",
            "push_existsing_user": "1",
            "registered": "1",
            "email_verified": "0",
            "phone_verified": "0",
            "bankaccount_linked": "0",
            "distributed_count": "",
            "name": "051301 A voucher",
            "prefix": "",
            "length": "0",
            "usage_limit": "1",
            "value": "",
            "discount": "50",
            "max_value": "0",
            "min_price": "0.00",
            "start_time": "",
            "end_time": "",
            "valid_duration_type": "1",
            "banner": "",
            "delay_banner": "",
            "including_all": "1",
            "product_labels": "",
            "disable_product_labels": "",
            "scope_of_user": "0",
            "user-scope-error-custom-link": "0",
            "payment-method-type": "0",
            "logistic-promotion-rule": "0",
            "use_custom_link": "0",
            "use_link": "",
            "use_image_upload": "0",
            "image_id": "1",
            "icon_text": "SHOPEE",
            "use_custom_description": "0",
            "title": "",
            "customised_1_ms": "",
            "customised_1_th": "",
            "customised_1_id": "",
            "customised_1_zh_tw": "",
            "customised_1_vn": "",
            "customised_1_en": "",
            "customised_1_zh_cn": "",
            "customised_2_ms": "",
            "customised_2_th": "",
            "customised_2_id": "",
            "customised_2_zh_tw": "",
            "customised_2_vn": "",
            "customised_2_en": "",
            "customised_2_zh_cn": "",
            "product_scope_tag": "0",
            "customised_product_scope_ms": "",
            "customised_product_scope_th": "",
            "customised_product_scope_id": "",
            "customised_product_scope_zh_tw": "",
            "customised_product_scope_vn": "",
            "customised_product_scope_en": "",
            "customised_product_scope_zh_cn": "",
            "usage_term_product": "test",
            "description": "test",
            "allow_seller_promotion": "1",
            "is_seller_absorbed": "0",
            "voucher_type": "1",
            "use_type": "1",
            "non_claimable": "false",
            "reward": "0",
            "action_trigger": "1",
            "delay_notif": "0",
            "action_content": "",
            "realtime": "1",
            "payment_methods": "",
            "bin_numbers": "",
            "card_brand_ids": "",
            "devices": "",
            "trigger_friend": "false",
            "orders_live_operator": "3",
            "orders_cancelled_operator": "3",
            "all_user": "true",
            "by_user_tags": "false",
            "by_userids": "false",
            "user_scope_custom_error_title_list": "[{\"language\":\"pt-BR\",\"value\":\"\"},{\"language\":\"en\",\"value\":\"\"}]",
            "user_scope_custom_error_content_list": "[{\"language\":\"pt-BR\",\"value\":\"\"},{\"language\":\"en\",\"value\":\"\"}]",
            "user_scope_custom_error_custom_link": "",
            "user_scope_custom_error_custom_link_text_list": "[{\"language\":\"pt-BR\",\"value\":\"\"},{\"language\":\"en\",\"value\":\"\"}]",
            "including_cat[]": "-1",
            "mp_include_fe_categories": "-1",
            "mp_exclude_fe_categories":"",
            "display_labels": "",
            "not_show_product_scope_tag": "false",
            "tag_hash": "",
            "icon_hash": "6cf904801bb6a6809d91b0a0e53ef5a3"
        },
        "response_status": 200,
        "response_text": {
            "message": "success",
            "code": 0,
            "user_message": "success"
        }
    }
}