{
    "add_to_cart_batch_info": {
        "headers": {
            "Content-Type": "application/json",
            "cookie": "",
            "referer": "",
            "x-csrftoken": "2AzWm32UZWjVkDvuVpf8rTRD9piUKqKu"
        },
        "payload": {
            "orders": [
                {
                    "items": [
                        {
                            "add_on_deal_id": 18383,
                            "checkout": true,
                            "donot_add_quantity": true,
                            "is_add_on_sub_item": false,
                            "itemid": 900048453,
                            "modelid": 14715763,
                            "quantity": 1,
                            "shopid": 201747518
                        },
                        {
                            "add_on_deal_id": 18383,
                            "checkout": true,
                            "donot_add_quantity": true,
                            "is_add_on_sub_item": true,
                            "itemid": 900048459,
                            "modelid": 14715782,
                            "quantity": 1,
                            "shopid": 201747518
                        },
                        {
                            "add_on_deal_id": 18383,
                            "checkout": true,
                            "donot_add_quantity": true,
                            "is_add_on_sub_item": true,
                            "itemid": 900048480,
                            "modelid": 10009753010,
                            "quantity": 1,
                            "shopid": 201747518
                        }
                    ],
                    "shopid": 201747518
                }
            ]
        },
        "response_status": 200,
        "url": "https://staging.shopee.vn/api/v4/cart/add_to_cart_batch"
    }
}
