{
    "save_voucher": {
		"url": "https://staging.shopee.vn/api/v2/voucher_wallet/save_platform_voucher_by_voucher_code",
		"headers": {
			"x-csrftoken": "2AzWm32UZWjVkDvuVpf8rTRD9piUKqKu",
			"referer": "https://staging.shopee.vn/cart",
			"cookie": "",
			"Content-Type": "application/json",
			"x-api-source": "pc"
		},
		"payload": {
			"voucher_code": ""
		},
		"response_status": 200
	},
    "get_csrftoken": {
        "url": "https://admin.staging.shopee.vn/",
        "response_status": 200,
        "cookies": {
            "sessionid": ""
        }
    },
    "voucher_50023_and_cc_Only": {
        "url": "https://admin.staging.shopee.vn/promotion/new/add/",
        "headers": {
            "referer": "https://admin.staging.shopee.vn/promotion/new/",
            "origin": "https://admin.staging.shopee.vn"
        },
        "payload":{
            "status":"1",
            "success_show_message":"",
            "push_existsing_user":"1",
            "registered":"1",
            "email_verified":"0",
            "phone_verified":"0",
            "bankaccount_linked":"0",
            "distributed_count":"",
            "name":"050701 A voucher",
            "prefix":"",
            "length":"0",
            "usage_limit":"1",
            "value":"10000",
            "discount":"0",
            "max_value":"0",
            "min_price":"0",
            "start_time":"",
            "end_time":"",
            "reminder_pn_setting":"3",
            "banner":"",
            "delay_banner":"",
            "including_all":"1",
            "product_labels":"",
            "disable_product_labels":"",
            "scope_of_user":"0",
            "user-scope-error-custom-link":"0",
            "payment-method-type":"1",
            "logistic-promotion-rule":"0",
            "use_custom_link":"0",
            "use_link":"",
            "use_image_upload":"0",
            "image_id":"1",
            "icon_text_es_mx":"",
            "icon_text_es_co":"",
            "icon_text_es_cl":"",
            "icon_text_pt_br":"",
            "icon_text_es_ar":"",
            "icon_text_pl":"",
            "icon_text_es_es":"",
            "icon_text_th":"",
            "icon_text_id":"",
            "icon_text_zh_tw":"",
            "icon_text_vn":"SHOPEE",
            "icon_text_fr":"",
            "icon_text_en":"SHOPEE",
            "icon_text_zh_cn":"",
            "icon_text_ms":"",
            "icon_text_hi":"",
            "use_custom_description":"0",
            "title":"",
            "customised_1_es_mx":"",
            "customised_1_es_co":"",
            "customised_1_es_cl":"",
            "customised_1_pt_br":"",
            "customised_1_es_ar":"",
            "customised_1_pl":"",
            "customised_1_es_es":"",
            "customised_1_fr":"",
            "customised_1_th":"",
            "customised_1_id":"",
            "customised_1_zh_tw":"",
            "customised_1_vn":"",
            "customised_1_en":"",
            "customised_1_hi":"",
            "customised_1_zh_cn":"",
            "customised_1_ms":"",
            "customised_2_es_mx":"",
            "customised_2_es_co":"",
            "customised_2_es_cl":"",
            "customised_2_pt_br":"",
            "customised_2_es_ar":"",
            "customised_2_pl":"",
            "customised_2_es_es":"",
            "customised_2_th":"",
            "customised_2_id":"",
            "customised_2_zh_tw":"",
            "customised_2_vn":"",
            "customised_2_fr":"",
            "customised_2_en":"",
            "customised_2_zh_cn":"",
            "customised_2_ms":"",
            "customised_2_hi":"",
            "product_scope_tag":"0",
            "customised_tag_image_id":"",
            "customised_product_scope_ms":"",
            "customised_product_scope_th":"",
            "customised_product_scope_id":"",
            "customised_product_scope_zh_tw":"",
            "customised_product_scope_vn":"",
            "customised_product_scope_fr":"",
            "customised_product_scope_en":"",
            "customised_product_scope_zh_cn":"",
            "customised_product_scope_es_mx":"",
            "customised_product_scope_es_co":"",
            "customised_product_scope_es_cl":"",
            "customised_product_scope_pt_br":"",
            "customised_product_scope_es_ar":"",
            "customised_product_scope_pl":"",
            "customised_product_scope_es_es":"",
            "customised_product_scope_hi":"",
            "usage_term_product":"test",
            "description":"test",
            "allow_seller_promotion":"1",
            "is_seller_absorbed":"0",
            "voucher_type":"1",
            "use_type":"1",
            "non_claimable":"false",
            "reward":"0",
            "action_trigger":"1",
            "delay_notif":"0",
            "action_content":"",
            "realtime":"1",
            "logistics_channels":"50023",
            "payment_methods":"1,2",
            "spm_channels_v2[0][spm_channel_id]":"NaN",
            "spm_channels_v2[1][spm_channel_id]":"1",
            "spm_channels_v2[2][spm_channel_id]":"2",
            "bin_numbers":"",
            "card_brand_ids":"",
            "devices":"",
            "trigger_friend":"false",
            "orders_live_operator":"3",
            "orders_cancelled_operator":"3",
            "all_user":"true",
            "by_user_tags":"false",
            "by_userids":"false",
            "user_scope_custom_error_title_list": "[{\"language\":\"pt-BR\",\"value\":\"\"},{\"language\":\"en\",\"value\":\"\"}]",
            "user_scope_custom_error_content_list": "[{\"language\":\"pt-BR\",\"value\":\"\"},{\"language\":\"en\",\"value\":\"\"}]",
            "user_scope_custom_error_custom_link": "",
            "user_scope_custom_error_custom_link_text_list": "[{\"language\":\"pt-BR\",\"value\":\"\"},{\"language\":\"en\",\"value\":\"\"}]",
            "including_cat[]":"-1",
            "mp_include_fe_categories":"-1",
            "mp_exclude_fe_categories":"",
            "stop_dispatch_time":"2022-04-2123:01",
            "display_labels":"",
            "not_show_product_scope_tag":"false",
            "tag_hash":"",
            "icon_hash":"f575e7f8cd82f80b6b5a003f464d25c0",
            "icon_text":"SHOPEE"
        },
        "response_status": 200,
        "response_text": {
            "message": "success",
            "code": 0,
            "user_message": "success"
        }
    }
}