{
    "Bundle_Deal_admin_disable_normal_item":{
        "url": "https://admin.promotion.staging.shopee.vn/api/gateway/v1/bundle_deal/set_bundle_deal_item_status",
        "headers": {
            "content-type": "application/json",
            "cache-control": "no-cache",
            "user-agent": "Mozilla/5.0 (Windows NT 10.0; Win64; x64) AppleWebKit/537.36 (KHTML, like Gecko) Chrome/100.0.4896.88 Safari/537.36",
            "Cookie": ""
        },
        "payload": {
            "region": "VN",
            "SkipPermissionBD": false,
            "shop_item_ids": [
                {
                    "shop_id": 201747518,
                    "item_id": 900295394
                }
            ],
            "status": 0,
            "bundle_deal_id": 29888
        },
        "response_status": 200,
        "response_text": {
            "data": {
                "success_items": [
                    {
                        "shopid": 201747518,
                        "itemid": 900295394,
                        "bundle_deal_id": 29888
                    }
                ]
            }
        }
    }
}