{
	"read_conversation_success": {
		"api_command": "chat.gateway.read_conversation",
		"req": {
			"user_id": 442749,
			"message_id": 2074911661893976204,
			"conversation_id": 1901592475783193,
			"biz_id": 0
		},
		"response_status": 0,
		"response_text": {}
	}
}