{
	"user_id_not_match_msg_id_and_ignore_user_check_false": {
		"api_command": "chat.gateway.get_msg",
		"req": {
			"user_id": 123456,
			"msg_id": [
				4137098843719303308
			],
			"need_bytes": true,
			"ignore_user_check": false,
			"biz_id": 0
		},
		"response_status": 0,
		"response_text": {
		}
	},
	"user_id_not_match_msg_id_but_ignore_user_check_true": {
		"api_command": "chat.gateway.get_msg",
		"req": {
			"user_id": 123456,
			"msg_id": [
				4137098843719303308
			],
			"need_bytes": true,
			"ignore_user_check": true,
			"biz_id": 0
		},
		"response_status": 0,
		"response_text": {
			"msg_data": [
				{
					"receiver_id": 442813,
					"msg_type": 0,
					"option":6464,
					"msg_content":
					{
						"text":
						{
							"text": "Send Msg Test"
						}
					},
					"msg_id": 4137098843719303308,
					"sender_id": 442749,
					"source": 8000,
					"create_time": 1627382832503170053,
					"conversation_id": 1901592475779517,
					"sender_shop_id": 442750,
					"region": "TW"
				}
			]
		}
	}
}