{
	"biz_id_is_string": {
		"api_command": "chat.gateway.get_conversation_list",
		"req": {
			"biz_id": "test",
			"cursor": {
				"last_message_time": 1576207991389521149,
				"conversation_id": 0
			},
			"user_id": 442749,
			"sorting": 1,
			"limit": 3,
			"ignore_filters": true
		},
		"response_status": 105,
		"response_text": {}
	},
	"biz_id_is_float": {
		"api_command": "chat.gateway.get_conversation_list",
		"req": {
			"biz_id": 1.5,
			"cursor": {
				"last_message_time": 1576207991389521149,
				"conversation_id": 0
			},
			"user_id": 442749,
			"sorting": 1,
			"limit": 3,
			"ignore_filters": true
		},
		"response_status": 105,
		"response_text": {}
	},
	"biz_id_is_null": {
		"api_command": "chat.gateway.get_conversation_list",
		"req": {
			"biz_id": null,
			"cursor": {
				"last_message_time": 1576207991389521149,
				"conversation_id": 0
			},
			"user_id": 442749,
			"sorting": 1,
			"limit": 3,
			"ignore_filters": true
		},
		"response_status": 105,
		"response_text": {}
	},
	"biz_id_is_negative": {
		"api_command": "chat.gateway.get_conversation_list",
		"req": {
			"biz_id": -1,
			"cursor": {
				"last_message_time": 1576207991389521149,
				"conversation_id": 0
			},
			"user_id": 442749,
			"sorting": 1,
			"limit": 3,
			"ignore_filters": true
		},
		"response_status": 105,
		"response_text": {}
	},
	"biz_id_is_invalid": {
		"api_command": "chat.gateway.get_conversation_list",
		"req": {
			"biz_id": -1,
			"cursor": {
				"last_message_time": 1576207991389521149,
				"conversation_id": 0
			},
			"user_id": 442749,
			"sorting": 1,
			"limit": 3,
			"ignore_filters": true
		},
		"response_status": 105,
		"response_text": {}
	}
}