{
	"conversation_id_is_string": {
		"api_command": "chat.gateway.search_msg",
		"req": {
			"conversation_id": "test",
			"user_id": 442749,
			"keyword": "testsearchmessage0512",
			"region": "TW",
			"limit": 1,
			"search_entity": 1
		},
		"response_status": 105,
		"response_text": {}
	},
	"conversation_id_is_float": {
		"api_command": "chat.gateway.search_msg",
		"req": {
			"conversation_id": 1.5,
			"user_id": 442749,
			"keyword": "testsearchmessage0512",
			"region": "TW",
			"limit": 1,
			"search_entity": 1
		},
		"response_status": 105,
		"response_text": {}
	},
	"conversation_id_is_null": {
		"api_command": "chat.gateway.search_msg",
		"req": {
			"conversation_id": null,
			"user_id": 442749,
			"keyword": "testsearchmessage0512",
			"region": "TW",
			"limit": 1,
			"search_entity": 1
		},
		"response_status": 105,
		"response_text": {}
	},
	"conversation_id_is_negative": {
		"api_command": "chat.gateway.search_msg",
		"req": {
			"conversation_id": -1,
			"user_id": 442749,
			"keyword": "testsearchmessage0512",
			"region": "TW",
			"limit": 1,
			"search_entity": 1
		},
		"response_status": 105,
		"response_text": {}
	}
}