{
	"msg_type_not_match_msg_content": {
		"api_command": "chat.gateway.send_msg",
		"req": {
			"msg": {
				"msg_content": {
					"order": {
						"shopid": 442750,
						"orderid": 64390994180661
					}
				},
				"msg_type": 999999,
				"option": 0,
				"referer": {
					"shopid": 442750,
					"orderid": 64390994180661,
					"entry_point": 4
				}
			},
			"sender_id": 442749,
			"receiver_id": 442813,
			"region": "TW",
			"source": 8000,
			"support_faq": true,
			"send_options": {
				"force_send_cancelorder_warning": true,
				"comply_cancelorder_warning": false
			}
		},
		"response_status": 10002,
		"response_text": {
			"resp_common": {
			}
		}
	}
}