{
	"user_id_is_string": {
		"api_command": "chat.gateway.pin_conversation",
		"req": {
			"user_id": "test",
			"conversation_id": 1901592475779517
		},
		"response_status": 105,
		"response_text": {}
	},
	"user_id_is_float": {
		"api_command": "chat.gateway.pin_conversation",
		"req": {
			"user_id": 1.5,
			"conversation_id": 1901592475779517
		},
		"response_status": 105,
		"response_text": {}
	},
	"user_id_is_null": {
		"api_command": "chat.gateway.pin_conversation",
		"req": {
			"user_id": null,
			"conversation_id": 1901592475779517
		},
		"response_status": 105,
		"response_text": {}
	},
	"user_id_is_negative": {
		"api_command": "chat.gateway.pin_conversation",
		"req": {
			"user_id": -1,
			"conversation_id": 1901592475779517
		},
		"response_status": 105,
		"response_text": {}
	},
	"user_id_is_0": {
		"api_command": "chat.gateway.pin_conversation",
		"req": {
			"user_id": 0,
			"conversation_id": 1901592475779517
		},
		"response_status": 10002,
		"response_text": {}
	},
	"user_id_is_removed": {
		"api_command": "chat.gateway.pin_conversation",
		"req": {
			"conversation_id": 1901592475779517
		},
		"response_status": 10002,
		"response_text": {}
	}
}