{
	"entry_point_is_string": {
		"api_command": "chat.gateway.send_msg",
		"req": {
			"msg": {
				"msg_content": {
					"text": {
						"text": "test"
					}
				},
				"msg_type": 0,
				"option": 0,
				"referer": {
					"entry_point": "test",
					"shopid": 4
				}
			},
			"sender_id": 442749,
			"receiver_id": 442813,
			"region": "TW",
			"source": 8000,
			"support_faq": true,
			"send_options": {
				"force_send_cancelorder_warning": false,
				"comply_cancelorder_warning": false
			}
		},
		"response_status": 105,
		"response_text": {}
	},
	"entry_point_is_float": {
		"api_command": "chat.gateway.send_msg",
		"req": {
			"msg": {
				"msg_content": {
					"text": {
						"text": "test"
					}
				},
				"msg_type": 0,
				"option": 0,
				"referer": {
					"entry_point": 1.5,
					"shopid": 4
				}
			},
			"sender_id": 442749,
			"receiver_id": 442813,
			"region": "TW",
			"source": 8000,
			"support_faq": true,
			"send_options": {
				"force_send_cancelorder_warning": false,
				"comply_cancelorder_warning": false
			}
		},
		"response_status": 105,
		"response_text": {}
	},
	"entry_point_is_null": {
		"api_command": "chat.gateway.send_msg",
		"req": {
			"msg": {
				"msg_content": {
					"text": {
						"text": "test"
					}
				},
				"msg_type": 0,
				"option": 0,
				"referer": {
					"entry_point": null,
					"shopid": 4
				}
			},
			"sender_id": 442749,
			"receiver_id": 442813,
			"region": "TW",
			"source": 8000,
			"support_faq": true,
			"send_options": {
				"force_send_cancelorder_warning": false,
				"comply_cancelorder_warning": false
			}
		},
		"response_status": 105,
		"response_text": {}
	}
}