{
	"need_byte_is_string": {
		"api_command": "chat.gateway.get_msg",
		"req": {
			"user_id": 442749,
			"msg_id": [0],
			"need_bytes": "test",
			"ignore_user_check": true,
			"biz_id": 0
		},
		"response_status": 105,
		"response_text": {}
	},
	"need_byte_is_null": {
		"api_command": "chat.gateway.get_msg",
		"req": {
			"user_id": 442749,
			"msg_id": [0],
			"need_bytes": null,
			"ignore_user_check": true,
			"biz_id": 0
		},
		"response_status": 105,
		"response_text": {}
	}
}