{
	"clear_conversation_but_user_id_not_match_conversation_id": {
		"api_command": "chat.gateway.clear_conversation",
		"req": {
			"conversation_id": 1901592475779517,
			"user_id": 123123
		},
		"response_status": 10002,
		"response_text": {
			"resp_common": {
				"debug_msg": "user 123123 not in conv 1901592475779517: ERROR_PARAMS"
			}
		}
	}
}