{
	"comply_cancelorder_warning_is_string": {
		"api_command": "chat.gateway.send_msg",
		"req": {
			"msg": {
				"msg_content": {
					"text": {
						"text": "test"
					}
				},
				"msg_type": 0,
				"option": 0,
				"referer": {
					"entry_point": 4,
					"shopid": 442750
				}
			},
			"region": "TW",
			"sender_id": 442749,
			"receiver_id": 442813,
			"support_faq": false,
			"source": 8000,
			"send_options": {
				"comply_cancelorder_warning": "test",
				"force_send_cancelorder_warning": false
			}
		},
		"response_status": 105,
		"response_text": {}
	},
	"comply_cancelorder_warning_is_null": {
		"api_command": "chat.gateway.send_msg",
		"req": {
			"msg": {
				"msg_content": {
					"text": {
						"text": "test"
					}
				},
				"msg_type": 0,
				"option": 0,
				"referer": {
					"entry_point": 4,
					"shopid": 442750
				}
			},
			"region": "TW",
			"sender_id": 442749,
			"receiver_id": 442813,
			"support_faq": false,
			"source": 8000,
			"send_options": {
				"comply_cancelorder_warning": null,
				"force_send_cancelorder_warning": false
			}
		},
		"response_status": 105,
		"response_text": {}
	}
}