{
	"orderid_is_string": {
		"api_command": "chat.gateway.send_msg",
		"req": {
			"msg": {
				"msg_content": {
					"order": {
						"shopid": 442749,
						"orderid": "test"
					}
				},
				"msg_type": 5,
				"option": 0,
				"referer": {
					"shopid": 442750,
					"orderid": 64390994180661,
					"entry_point": 4
				}
			},
			"sender_id": 442749,
			"receiver_id": 442813,
			"region": "TW",
			"source": 8000,
			"support_faq": true,
			"send_options": {
				"force_send_cancelorder_warning": false,
				"comply_cancelorder_warning": false
			}
		},
		"response_status": 105,
		"response_text": {}
	},
	"orderid_is_float": {
		"api_command": "chat.gateway.send_msg",
		"req": {
			"msg": {
				"msg_content": {
					"order": {
						"shopid": 442749,
						"orderid": 1.5
					}
				},
				"msg_type": 5,
				"option": 0,
				"referer": {
					"shopid": 442750,
					"orderid": 64390994180661,
					"entry_point": 4
				}
			},
			"sender_id": 442749,
			"receiver_id": 442813,
			"region": "TW",
			"source": 8000,
			"support_faq": true,
			"send_options": {
				"force_send_cancelorder_warning": false,
				"comply_cancelorder_warning": false
			}
		},
		"response_status": 105,
		"response_text": {}
	},
	"orderid_is_null": {
		"api_command": "chat.gateway.send_msg",
		"req": {
			"msg": {
				"msg_content": {
					"order": {
						"shopid": 442749,
						"orderid": null
					}
				},
				"msg_type": 5,
				"option": 0,
				"referer": {
					"shopid": 442750,
					"orderid": 64390994180661,
					"entry_point": 4
				}
			},
			"sender_id": 442749,
			"receiver_id": 442813,
			"region": "TW",
			"source": 8000,
			"support_faq": true,
			"send_options": {
				"force_send_cancelorder_warning": false,
				"comply_cancelorder_warning": false
			}
		},
		"response_status": 105,
		"response_text": {}
	},
	"orderid_is_removed": {
		"api_command": "chat.gateway.send_msg",
		"req": {
			"msg": {
				"msg_content": {
					"order": {
						"shopid": 442749
					}
				},
				"msg_type": 5,
				"option": 0,
				"referer": {
					"shopid": 442750,
					"orderid": 64390994180661,
					"entry_point": 4
				}
			},
			"sender_id": 442749,
			"receiver_id": 442813,
			"region": "TW",
			"source": 8000,
			"support_faq": true,
			"send_options": {
				"force_send_cancelorder_warning": false,
				"comply_cancelorder_warning": false
			}
		},
		"response_status": 10002,
		"response_text": {}
	},
	"orderid_is_negative": {
		"api_command": "chat.gateway.send_msg",
		"req": {
			"msg": {
				"msg_content": {
					"order": {
						"shopid": 442749
					}
				},
				"msg_type": 5,
				"option": 0,
				"referer": {
					"shopid": 442750,
					"orderid": 64390994180661,
					"entry_point": 4
				}
			},
			"sender_id": 442749,
			"receiver_id": 442813,
			"region": "TW",
			"source": 8000,
			"support_faq": true,
			"send_options": {
				"force_send_cancelorder_warning": false,
				"comply_cancelorder_warning": false
			}
		},
		"response_status": 10002,
		"response_text": {}
	}
}