{
	"user_id_is_string": {
		"api_command": "chat.gateway.get_unread_conversation_count",
		"req": {
			"user_id": "test"
		},
		"response_status": 105,
		"response_text": {}
	},
	"user_id_is_float": {
		"api_command": "chat.gateway.get_unread_conversation_count",
		"req": {
			"user_id": 1.5
		},
		"response_status": 105,
		"response_text": {}
	},
	"user_id_is_null": {
		"api_command": "chat.gateway.get_unread_conversation_count",
		"req": {
			"user_id": null
		},
		"response_status": 105,
		"response_text": {}
	},
	"user_id_is_negative": {
		"api_command": "chat.gateway.get_unread_conversation_count",
		"req": {
			"user_id": -1
		},
		"response_status": 105,
		"response_text": {}
	},
	"user_id_is_0": {
		"api_command": "chat.gateway.get_unread_conversation_count",
		"req": {
			"user_id": 0
		},
		"response_status": 10002,
		"response_text": {}
	},
	"user_id_is_removed": {
		"api_command": "chat.gateway.get_unread_conversation_count",
		"req": {
		},
		"response_status": 10002,
		"response_text": {}
	}
}