{
	"user_id_is_string": {
		"api_command": "chat.gateway.send_msg",
		"req": {
			"msg": {
				"msg_content": {
					"coin_transfer": {
						"user_id": "test",
						"transaction_id": 2074155354435911681,
						"amount": 100000
					}
				},
				"msg_type": 1022,
				"option": 0,
				"referer": {
					"shopid": 442750,
					"entry_point": 4
				}
			},
			"sender_id": 442749,
			"receiver_id": 442813,
			"region": "TW",
			"source": 8000,
			"support_faq": false,
			"send_options": {
				"force_send_cancelorder_warning": false,
				"comply_cancelorder_warning": false
			}
		},
		"response_status": 105,
		"response_text": {}
	},
	"user_id_is_float": {
		"api_command": "chat.gateway.send_msg",
		"req": {
			"msg": {
				"msg_content": {
					"coin_transfer": {
						"user_id": 1.5,
						"transaction_id": 2074155354435911681,
						"amount": 100000
					}
				},
				"msg_type": 1022,
				"option": 0,
				"referer": {
					"shopid": 442750,
					"entry_point": 4
				}
			},
			"sender_id": 442749,
			"receiver_id": 442813,
			"region": "TW",
			"source": 8000,
			"support_faq": false,
			"send_options": {
				"force_send_cancelorder_warning": false,
				"comply_cancelorder_warning": false
			}
		},
		"response_status": 105,
		"response_text": {}
	},
	"user_id_is_null": {
		"api_command": "chat.gateway.send_msg",
		"req": {
			"msg": {
				"msg_content": {
					"coin_transfer": {
						"user_id": null,
						"transaction_id": 2074155354435911681,
						"amount": 100000
					}
				},
				"msg_type": 1022,
				"option": 0,
				"referer": {
					"shopid": 442750,
					"entry_point": 4
				}
			},
			"sender_id": 442749,
			"receiver_id": 442813,
			"region": "TW",
			"source": 8000,
			"support_faq": false,
			"send_options": {
				"force_send_cancelorder_warning": false,
				"comply_cancelorder_warning": false
			}
		},
		"response_status": 105,
		"response_text": {}
	},
	"user_id_is_negative": {
		"api_command": "chat.gateway.send_msg",
		"req": {
			"msg": {
				"msg_content": {
					"coin_transfer": {
						"user_id": -1,
						"transaction_id": 2074155354435911681,
						"amount": 100000
					}
				},
				"msg_type": 1022,
				"option": 0,
				"referer": {
					"shopid": 442750,
					"entry_point": 4
				}
			},
			"sender_id": 442749,
			"receiver_id": 442813,
			"region": "TW",
			"source": 8000,
			"support_faq": false,
			"send_options": {
				"force_send_cancelorder_warning": false,
				"comply_cancelorder_warning": false
			}
		},
		"response_status": 105,
		"response_text": {}
	},
	"user_id_is_0": {
		"api_command": "chat.gateway.send_msg",
		"req": {
			"msg": {
				"msg_content": {
					"coin_transfer": {
						"user_id": 0,
						"transaction_id": 2074155354435911681,
						"amount": 100000
					}
				},
				"msg_type": 1022,
				"option": 0,
				"referer": {
					"shopid": 442750,
					"entry_point": 4
				}
			},
			"sender_id": 442749,
			"receiver_id": 442813,
			"region": "TW",
			"source": 8000,
			"support_faq": false,
			"send_options": {
				"force_send_cancelorder_warning": false,
				"comply_cancelorder_warning": false
			}
		},
		"response_status": 10002,
		"response_text": {}
	},
	"user_id_is_removed": {
		"api_command": "chat.gateway.send_msg",
		"req": {
			"msg": {
				"msg_content": {
					"coin_transfer": {
						"transaction_id": 2074155354435911681,
						"amount": 100000
					}
				},
				"msg_type": 1022,
				"option": 0,
				"referer": {
					"shopid": 442750,
					"entry_point": 4
				}
			},
			"sender_id": 442749,
			"receiver_id": 442813,
			"region": "TW",
			"source": 8000,
			"support_faq": false,
			"send_options": {
				"force_send_cancelorder_warning": false,
				"comply_cancelorder_warning": false
			}
		},
		"response_status": 10002,
		"response_text": {}
	}
}