{
	"feature_context_is_string": {
		"api_command": "chat.gateway.get_unread_conversation_count",
		"req": {
			"request_info": {
				"feature_context": "test",
				"requestid":"test",
				"requestsrc":"test",
				"signature": "test",
				"operation_id":"test"
			},
			"user_id": 442749
		},
		"response_status": 105,
		"response_text": {}
	},
	"feature_context_is_float": {
		"api_command": "chat.gateway.get_unread_conversation_count",
		"req": {
			"request_info": {
				"feature_context": 1.5,
				"requestid":"test",
				"requestsrc":"test",
				"signature": "test",
				"operation_id":"test"
			},
			"user_id": 442749
		},
		"response_status": 105,
		"response_text": {}
	},
	"feature_context_is_null": {
		"api_command": "chat.gateway.get_unread_conversation_count",
		"req": {
			"request_info": {
				"feature_context": null,
				"requestid":"test",
				"requestsrc":"test",
				"signature": "test",
				"operation_id":"test"
			},
			"user_id": 442749
		},
		"response_status": 105,
		"response_text": {}
	}
}