{
	"duplicate_source_id":{
		"api_command": "marketplace.order_accounting.settlement.billing_item.create_billing_item?id",
		"req":
		{
			"source_id": 89098995076328,
			"item_type": 1,
			"user_id": 1201910804,
			"amount": 1000000
		},
		"response_status" : 104800006,
		"response_text":{
			"debug_msg": "104800006:ERROR_DUPLICATED billing_item duplicated with sts sourceId=89098995076328, type=BILLING_ITEM_TYPE_ORDER_ESCROW"
		}
	},
	"not_exists_user_id":{
		"api_command": "marketplace.order_accounting.settlement.billing_item.create_billing_item?id",
		"req":
		{
			"source_id": "int_to_be_replaced",
			"item_type": 1,
			"user_id": 10001,
			"amount": 1000000
		},
		"response_status" : 121600000,
		"response_text":{
			"debug_msg": "121600000:ERROR_UNKNOWN call GetAccount failed err=10013"
		}
	}
}