﻿shop_id,item_id,model_id,promo_price,rebate,purchase_limit,overall_promo_stock,product_display_name,extra_disc_price,extra_disc_stock,extra_disc_rebate,extra_disc_time
200512092,100947448,10001245410,8000,1,1,1,a,,,,
200512092,100947449,10001245411,10000,1,1,1,b,,,,
200512092,100947450,10001245412,30000,1,1,1,c,,,,
200512092,100947451,10001245413,40000,1,1,1,d,,,,
200512092,100947452,10001245414,5000,1,1,1,e,,,,
200512092,100947453,10001245415,4000,1,1,1,f,,,,
201273544,900282910,15129047,4000,1,1,1,g,,,,
