﻿shop_id,item_id,model_id,promo_price,rebate,purchase_limit,overall_promo_stock,product_display_name,extra_disc_price,extra_disc_stock,extra_disc_rebate,extra_disc_time
200667322,100977754,6517127,15000,3,2,5,flash_sale,,,,
200667322,100977755,6517129,15000,3,2,5,flash_sale,,,,
