shopid,productid,fs_catid,productshortname
320038,2428559,1,Product1
320038,2428561,1,Product3
320038,2428562,1,Product4
320038,2428563,1,Product5
320038,2428564,1,Product6
320038,2428566,2,Product7
200000300,100292096,1,Product8
200000300,100292097,1,Product9
200000300,100292098,1,Product10
200000300,100292101,1,Product11
200000300,100292102,1,Product12
200000300,100292104,1,Product13