shopid,productid,fs_catid,promo_name,order_type,sold_out_automove,display_order
320038,2428584,1,P1(M),recommendation,,
320038,2428585,2,P2(M),recommendation,,
320038,2428586,3,P3(M),recommendation,,
320038,2428587,4,P4(M),recommendation,,
320038,2428588,5,P5(M),recommendation,,
320038,2428589,4,P6(M),recommendation,,
320038,2428590,3,P7(M),recommendation,,
