﻿shop_id,item_id,overlay_image_id,fs_cat_id,product_display_name,order_type,sold_out_automove,display_order
201289578,101602250,0,16,product1,manual configuration,N,1
201289577,101602350,0,16,product2,manual configuration,N,2
201289577,101602450,0,16,product3,manual configuration,N,3
201289577,101602500,0,17,product4,manual configuration,N,4
201289577,101602600,0,17,product5,manual configuration,N,5
201289577,101602650,0,17,product6,manual configuration,N,6
201289577,101602750,0,18,product7,manual configuration,N,7
201289577,101602800,0,18,product8,manual configuration,N,8
201289577,101603000,0,18,product9,manual configuration,N,9
201289577,101603150,0,18,product10,manual configuration,N,10
