{
    "get_csrftoken": {
        "url": "https://admin.staging.shopee.vn/",
        "response_status": 200,
        "cookies": {
            "sessionid": ""
        }
    },
    "create_public_shopee_voucher": {
        "url": "https://admin.staging.shopee.vn/promotion/new/add/",
        "headers": {
            "referer": "https://admin.staging.shopee.vn/promotion/new/",
            "origin": "https://admin.staging.shopee.vn"
        },
        "payload":{
            "status":"1",
            "success_show_message":"",
            "push_existsing_user":"1",
            "registered":"1",
            "email_verified":"0",
            "phone_verified":"0",
            "bankaccount_linked":"0",
            "distributed_count":"",
            "name":"ART-44346_public_shopee_voucher",
            "length":"0",
            "usage_limit":"10",
            "value":"100",
            "discount":"0",
            "max_value":"0",
            "min_price":"0",
            "banner":"",
            "delay_banner":"",
            "including_all":"1",
            "product_labels":"",
            "disable_product_labels":"",
            "scope_of_user":"0",
            "user-scope-error-custom-link":"0",
            "payment-method-type":"0",
            "logistic-promotion-rule":"0",
            "use_custom_link":"0",
            "use_link":"",
            "use_image_upload":"0",
            "image_id":"1",
            "icon_text":"SHOPEE",
            "use_custom_description":"0",
            "title":"",
            "customised_1_ms":"",
            "customised_1_th":"",
            "customised_1_id":"",
            "customised_1_zh_tw":"",
            "customised_1_vn":"shopee_public",
            "customised_1_en":"shopee_public",
            "customised_1_zh_cn":"",
            "customised_1_es_mx":"",
            "customised_1_es_co":"",
            "customised_1_es_cl":"",
            "customised_1_pt_br":"",
            "customised_1_pl":"",
            "customised_1_es_es":"",
            "customised_1_fr":"",
            "customised_1_hi":"",
            "customised_2_ms":"",
            "customised_2_th":"",
            "customised_2_id":"",
            "customised_2_zh_tw":"",
            "customised_2_vn":"",
            "customised_2_en":"",
            "customised_2_zh_cn":"",
            "customised_2_es_mx":"",
            "customised_2_es_co":"",
            "customised_2_es_cl":"",
            "customised_2_pt_br":"",
            "customised_2_pl":"",
            "customised_2_es_es":"",
            "customised_2_fr":"",
            "customised_2_hi":"",
            "product_scope_tag":"0",
            "customised_tag_image_id":"",
            "customised_product_scope_ms":"",
            "customised_product_scope_th":"",
            "customised_product_scope_id":"",
            "customised_product_scope_zh_tw":"",
            "customised_product_scope_vn":"",
            "customised_product_scope_en":"",
            "customised_product_scope_zh_cn":"",
            "customised_product_scope_es_mx":"",
            "customised_product_scope_es_co":"",
            "customised_product_scope_es_cl":"",
            "customised_product_scope_pt_br":"",
            "customised_product_scope_pl":"",
            "customised_product_scope_es_es":"",
            "customised_product_scope_fr":"",
            "customised_product_scope_hi":"",
            "usage_term_product":"auto",
            "description":"auto",
            "allow_seller_promotion":"1",
            "is_seller_absorbed":"0",
            "voucher_type":"1",
            "use_type":"1",
            "non_claimable":"false",
            "reward":"0",
            "action_trigger":"1",
            "delay_notif":"0",
            "action_content":"",
            "realtime":"1",
            "logistics_channels":"5000,5001,5002,5003,50010,50011,50012,50015,50016,50018,50019,50020,50021,50022,50023,50024,50025,50066,58000,58001,58007,58010,58881,59997,80033",
            "payment_methods":"",
            "bin_numbers":"",
            "card_brand_ids":"",
            "devices":"",
            "trigger_friend":"false",
            "orders_live_operator":"3",
            "orders_cancelled_operator":"3",
            "all_user":"true",
            "by_user_tags":"false",
            "by_userids":"false",
            "user_scope_custom_error_title_list":"[{\"language\":\"vi\",\"value\":\"\"},{\"language\":\"en\",\"value\":\"\"}]",
            "user_scope_custom_error_content_list":"[{\"language\":\"vi\",\"value\":\"\"},{\"language\":\"en\",\"value\":\"\"}]",
            "user_scope_custom_error_custom_link":"",
            "user_scope_custom_error_custom_link_text_list":"[{\"language\":\"vi\",\"value\":\"\"},{\"language\":\"en\",\"value\":\"\"}]",
            "including_cat[]":"-1",
            "mp_include_fe_categories":"-1",
            "mp_exclude_fe_categories":"",
            "display_labels":"",
            "not_show_product_scope_tag":"false",
            "tag_hash":"",
            "icon_hash":"f575e7f8cd82f80b6b5a003f464d25c0"
		},
        "response_status": 200,
        "response_text": {
            "message": "success",
            "code": 0,
            "user_message": "success"
        }
    },
    "create_seller_voucher": {
        "url": "https://admin.staging.shopee.vn/promotion/seller_vouchers/new/add/",
        "headers": {
            "user-agent": "Mozilla/5.0 (Windows NT 10.0; Win64; x64) AppleWebKit/537.36 (KHTML, like Gecko) Chrome/79.0.3945.130 Safari/537.36",
            "referer": "https://admin.staging.shopee.vn/promotion/seller_vouchers/new/",
            "x-csrftoken": "",
            "x-requested-with": "XMLHttpRequest",
            "content-type": "application/x-www-form-urlencoded; charset=UTF-8"
        },
        "payload":{
            "reward": "0",
            "shopid": "200005352",
            "name": "ART-44346_seller_voucher",
            "prefix": "",
            "claim_quota_value": "2000000000",
            "quota_type": "0",
            "value": "100",
            "discount": "0",
            "max_value": "0",
            "customised_1_vn":"seller_voucher",
            "customised_1_en":"seller_voucher",
            "coin_cashback_rate": "0",
            "coin_cashback_cap": "0",
            "min_price": "0",
            "start_time": "",
            "end_time": "",
            "is_seller_absorbed": "1",
            "display_settings": "1",
            "user_scope_custom_error_title_list": "[{\"language\":\"vi\",\"value\":\"\"},{\"language\":\"en\",\"value\":\"\"}]",
            "user_scope_custom_error_content_list": "[{\"language\":\"vi\",\"value\":\"\"},{\"language\":\"en\",\"value\":\"\"}]",
            "user_scope_custom_error_custom_link": "",
            "user_scope_custom_error_custom_link_text_list": "[{\"language\":\"vi\",\"value\":\"\"},{\"language\":\"en\",\"value\":\"\"}]",
            "fraud_checks": "",
            "device": "",
            "logistics": "58000,58001,50011,50010,50012,50015,50016,5000,50018,50019,50020,50021,50022,50023,50024,50025,50066,58007,58881",
            "including_all": "1"
		},
        "response_status": 200,
        "response_text": {
            "message": "success",
            "code": 0,
            "user_message": "success"
        }
    },
    "create_public_dp_voucher": {
        "url": "https://admin.staging.shopee.vn/promotion/dp_vouchers/new/add/",
        "headers": {
            "referer": "https://admin.staging.shopee.vn/dp_vouchers/new/",
            "origin": "https://admin.staging.shopee.vn"
        },
        "payload":{
            "use_type":"1",
            "reward":"0",
            "name":"ART-44346_public_dp_voucher",
            "suffix_length":"0",
            "quota_value":"2000000000",
            "non_claimable":"false",
            "discount_value":"100",
            "discount_percent":"0",
            "max_value":"0",
            "min_price":"0",
            "coin_cashback_rate":"0",
            "coin_cashback_cap":"0",
            "valid_days":"0",
            "action_trigger":"false",
            "action_title":"",
            "action_content":"",
            "push_content":"",
            "url":"",
            "banner":"",
            "delay_notif_trigger":"false",
            "delay_action_title":"",
            "delay_action_content":"",
            "delay_push_content":"",
            "delay_url":"",
            "delay_banner":"",
            "delay_cron_time":"",
            "delay_days":"0",
            "including_cats":"-1",
            "including_carriers":"",
            "including_items":"",
            "including_group_ids":"",
            "excluding_cats":"",
            "excluding_carriers":"",
            "excluding_items":"",
            "excluding_group_ids":"",
            "scope_of_user_type":"1",
            "all_user":"true",
            "user_registry_time_start":"",
            "user_registry_time_end":"",
            "scope_of_user_new_user":"0",
            "fraud_checks":"",
            "devices":"",
            "trigger_friend":"false",
            "payment_method_type":"0",
            "payment_methods":"",
            "bin_numbers":"",
            "card_brand_ids":"",
            "user_scope_custom_error_title_list":"[{\"language\":\"vi\",\"value\":\"\"},{\"language\":\"en\",\"value\":\"\"}]",
            "user_scope_custom_error_content_list":"[{\"language\":\"vi\",\"value\":\"\"},{\"language\":\"en\",\"value\":\"\"}]",
            "user_scope_custom_error_custom_link":"",
            "user_scope_custom_error_custom_link_text_list":"[{\"language\":\"vi\",\"value\":\"\"},{\"language\":\"en\",\"value\":\"\"}]",
            "icon_hash":"eb07a3b3a03bbce4e0862c895da1ed25",
            "icon_text_vn": "Nạp Thẻ & Dịch Vụ",
            "icon_text":"Nạp Thẻ & Dịch Vụ",
            "icon_text_en": "DIGITALPURCHASE",
            "use_link":"",
            "usage_term_product":"auto",
            "description":"auto",
            "display_labels":"",
            "not_show_product_scope_tag":"true",
            "hide_vem_display":"false"
		},
        "response_status": 200,
        "response_text": {
            "message": "success",
            "code": 0,
            "user_message": "success"
        }
    },
    "save_voucher": {
		"url": "https://staging.shopee.vn/api/v2/voucher_wallet/save_platform_voucher_by_voucher_code",
		"headers": {
			"x-csrftoken": "2AzWm32UZWjVkDvuVpf8rTRD9piUKqKu",
			"referer": "https://staging.shopee.vn/cart",
			"cookie": "",
			"Content-Type": "application/json",
			"x-api-source": "pc"
		},
		"payload": {
			"voucher_code": ""
		},
		"response_status": 200
	},
    "save_seller_voucher": {
		"url": "https://staging.shopee.vn/api/v2/voucher_wallet/save_shop_voucher",
        "headers": {
            "x-csrftoken": "2AzWm32UZWjVkDvuVpf8rTRD9piUKqKu",
            "referer": "https://staging.shopee.vn/cart",
            "cookie": "",
            "Content-Type": "application/json"
        },
        "payload": {
            "promotionid": 0,
            "voucher_code": "",
            "shopid": 200005352
        },
        "response_status": 200
    }
    
}
