{
    "get_csrftoken": {
        "url": "https://admin.staging.shopee.vn/",
        "response_status": 200,
        "cookies": {
            "sessionid": ""
        }
    },
    "create_promotion_rule": {
        "url": "https://admin.staging.shopee.vn/shipment/promotion/promotions/",
        "payload": {
            "description":"auto LP 2 discount rule for_daily_run",
            "status":1,
            "start_time":0,
            "end_time":0,
            "priority":10,
            "channels":{
               "50023":{

               }
            },
            "discount_rule_flag":65600,
            "discount_flag":2,
            "discount_delta":1000000,
            "rebate_rule_flag":0,
            "rebate_flag":0,
            "rebate_delta":0,
            "seller_scope_type":1,
            "buyer_scope_type":1,
            "extra_data":{
               "percentage_discount_cap":0,
               "percentage_rebate_cap":0,
               "min_order_total":0,
               "buyer_location_group_id":0,
               "seller_location_group_id":9,
               "entity_permission_group":666,
               "discount_rounding_factor":0,
               "rebate_rounding_factor":0,
               "buyer_list_entity_permission_group":0,
               "payment_type":0
            }
         },
        "headers": {
            "content-type": "application/json",
            "user-agent": "Mozilla/5.0 (Windows NT 10.0; Win64; x64) AppleWebKit/537.36 (KHTML, like Gecko) Chrome/79.0.3945.130 Safari/537.36",
            "referer": "https://admin.staging.shopee.vn/shipment/promotion/",
            "x-csrftoken": "",
            "x-requested-with": "XMLHttpRequest"
        },
        "response_status": 200,
        "response_text": {
            "message": "success",
            "code": 0,
            "user_message": "success"
        }
    },
    "create_free_shipping_voucher": {
        "url": "https://admin.staging.shopee.vn/promotion/new/add/",
        "payload": {
            "status": "1",
            "success_show_message": "",
            "push_existsing_user": "1",
            "registered": "1",
            "email_verified": "0",
            "phone_verified": "0",
            "bankaccount_linked": "0",
            "distributed_count": "",
            "name": "auto LP Android 2 discount rule",
            "prefix": "",
            "length": "0",
            "usage_limit": "1",
            "banner": "",
            "delay_banner": "",
            "including_all": "1",
            "product_labels": "",
            "disable_product_labels": "",
            "scope_of_user": "2",
            "user-scope-error-custom-link": "0",
            "payment-method-type": "0",
            "logistic-promotion-rule": "1",
            "use_custom_link": "0",
            "use_link": "",
            "use_image_upload": "0",
            "image_id": "1",
            "icon_text": "SHOPEE",
            "use_custom_description": "0",
            "title": "",
            "customised_1_ms": "",
            "customised_1_th": "",
            "customised_1_id": "",
            "customised_1_zh_tw": "",
            "customised_1_vn": "",
            "customised_1_en": "",
            "customised_1_zh_cn": "",
            "customised_2_ms": "",
            "customised_2_th": "",
            "customised_2_id": "",
            "customised_2_zh_tw": "",
            "customised_2_vn": "",
            "customised_2_en": "",
            "customised_2_zh_cn": "",
            "customised_product_scope_ms": "",
            "customised_product_scope_th": "",
            "customised_product_scope_id": "",
            "customised_product_scope_zh_tw": "",
            "customised_product_scope_vn": "",
            "customised_product_scope_en": "",
            "customised_product_scope_zh_cn": "",
            "usage_term_product": "",
            "description": "auto test",
            "allow_seller_promotion": "1",
            "is_seller_absorbed": "0",
            "voucher_type": "1",
            "non_claimable": "false",
            "reward": "2",
            "delay_notif": "0",
            "action_content": "",
            "payment_methods": "",
            "bin_numbers": "",
            "card_brand_ids": "",
            "devices": "",
            "trigger_friend": "false",
            "orders_live_operator": "3",
            "orders_cancelled_operator": "3",
            "by_user_tags": "false",
            "user_scope_custom_error_custom_link": "",
            "including_cat[]": "-1",
            "display_labels": "",
            "icon_hash": "f575e7f8cd82f80b6b5a003f464d25c0",
            "valid_duration_type": "1",
            "claim_quota_value": "2000000000",
            "quota_type": "0",
            "usage_limit_per_user": "1",
            "use_type": "0",
            "product_scope_tag": "1",
            "action_trigger": "0",
            "realtime": "0",
            "all_user": "false",
            "by_userids": "true",
            "not_show_product_scope_tag": "true",
            "display_setting_message": "",
            "display_setting_url": "",
            "logistics_channels": "58000,58001,50011,50010,50012,50015,50016,5000,50018,50019,50020,50021,50022,50023,50024,50025,50066,58007,58881",
            "user_scope_custom_error_title_list": "[{\"language\":\"vi\",\"value\":\"\"},{\"language\":\"en\",\"value\":\"\"}]",
            "user_scope_custom_error_content_list": "[{\"language\":\"vi\",\"value\":\"\"},{\"language\":\"en\",\"value\":\"\"}]",
            "user_scope_custom_error_custom_link_text_list": "[{\"language\":\"vi\",\"value\":\"\"},{\"language\":\"en\",\"value\":\"\"}]",
            "shipping_promotion_rules": ""
        },
        "headers": {
            "origin": "https://admin.staging.shopee.vn",
            "referer": "https://admin.staging.shopee.vn/promotion/new/"
        },
        "response_status": 200,
        "response_text": {
            "message": "success",
            "code": 0,
            "user_message": "success"
        }
    },
    "upload_dispatch_user": {
        "headers": {
            "referer": "https://admin.staging.shopee.vn/promotion/promotion_id/dispatch_task/",
            "user-agent": "Mozilla/5.0 (Windows NT 10.0; Win64; x64) AppleWebKit/537.36 (KHTML, like Gecko) Chrome/79.0.3945.130 Safari/537.36",
            "x-csrftoken": ""
        },
        "files":{
            "file": "",
            "Content-Type": "application/vnd.ms-excel"
        },
        "response_status": 200,
        "response_text": {
            "code": 0,
            "message": "success",
            "user_message": "success"
        },
        "url": "https://admin.staging.shopee.vn/promotion/promotion_id/dispatch_task/import/"
    },
    "dispatch_free_shipping_voucher": {
        "headers": {
            "referer": "https://admin.staging.shopee.vn/promotion/promotion_id/dispatch_task/",
            "user-agent": "Mozilla/5.0 (Windows NT 10.0; Win64; x64) AppleWebKit/537.36 (KHTML, like Gecko) Chrome/79.0.3945.130 Safari/537.36",
            "x-csrftoken": ""
        },
        "response_status": 200,
        "response_text": {
            "code": 0,
            "message": "success",
            "user_message": "success"
        },
        "url": "https://admin.staging.shopee.vn/promotion/promotion_id/dispatch_task/dispatch/"
    },
    "run_space_cronjob": {
        "url": "https://space.shopee.io/apis/runonce/v1/jobs/executions/run",
        "headers": {
            "Authorization": "Bearer eyJhbGciOiJSUzI1NiIsImtpZCI6Ijc1YTIyMzA3NzdjNzY1YzYxOGUxOTFlZjY4NDU0MDhmN2JkYjY4MTQiLCJ0eXAiOiJKV1QifQ.eyJlbWFpbCI6ImFuaXRhLmxAc2hvcGVlLmNvbSIsImV4cCI6MTYyMzk5MDM5MiwiaXNzIjoiaHR0cHM6Ly9zcGFjZS5zaG9wZWUuaW8vdjEvY2VydHMiLCJzdWIiOiI0MDEyNjEifQ.S3IOUMow04_V_LE-gnZH2FinVkh80kFoNDJG5fHXQsu6PCzHOS9TTXBbb5lGwWxsxXK8Uj1jF3Zy6qEwwEffziTu7q16TFG8uCeCzSHeUpZ4y0NMe_jDl-ZYrbz43dizMnwCyrBFf2GZjR-Phc6vNhs9P5QG_9EhZOY2RPlhRifcIbV8Gtc2HCI2nEbcTEtLtJZ-zfZxkZ-lSAVk9mt8XHkVauDA3QEJafa2om5aIEu-sAccAHdo2CK4jY_appXqD6oM7izc1TNPDUCdVwWVwVmgs3C_skqvzq2QvbtHKWMslKhhguNJBmYqMuPoqZw5Groqgz-0eGy0ljeXtRpCMI00BPamMmnWJcFhQ-765p1j1zfO1BfTe_gjJ5EqkHIpmikzEf4WlWHp2RlyD3gUUi9GMa8drsO1-VhhL0rs8JBtjLTsWe_2u40MQwUrhn0Nfv3NUuf8Uzgw42XBLJPMEy8lhEPlfu_wQZiXdUrfoKMQjvsJAkZWqzmcdxwqO7D2D7Ay5HofW8B4d-2VAHQNlu1RSe9-S09cPocMYJsmHJ-9vE2g8Rh1XuLBROx5ZP8E6EXafIsmFZQSObZXqo9sbtGkke8QeUDxmUdpqlZFqSoumXUyzjewAt4wlhm3lw_xZbiml_VjdAa3mYOKWVwl1fltNPBOHPEgnvrvvn8IW50"
        },
        "payload": {
            "job_id":"promotion-logisticscron-staging.v2.1619680369742",
            "cid":"sg"
        },
        "response_status": 200
    }
}