{
    "get_csrftoken": {
        "url": "https://admin.staging.shopee.vn/",
        "response_status": 200,
        "cookies": {
            "sessionid": ""
        }
    },
    "create_promotion_rule": {
        "url": "https://admin.staging.shopee.vn/shipment/promotion/promotions/",
        "payload": {
            "description": "auto LP PDP single price for_daily_run",
            "status": 1,
            "start_time": 0,
            "end_time": 0,
            "priority": 10,
            "channels":{
                "50015":{

                },
                "50024":{

                }
            },
            "discount_rule_flag": 65536,
            "discount_flag": 2,
            "discount_delta": 0,
            "rebate_rule_flag": 0,
            "rebate_flag": 0,
            "rebate_delta": 0,
            "buyer_scope_type": 1,
            "seller_scope_type": 1,
            "extra_data": {
                "percentage_discount_cap": 0,
                "percentage_rebate_cap": 0,
                "min_order_total": 0,
                "buyer_location_group_id": 0,
                "seller_location_group_id": 0,
                "entity_permission_group": 0,
                "discount_rounding_factor": 0,
                "rebate_rounding_factor": 0,
                "buyer_list_entity_permission_group": 0,
                "payment_type": 0
            }
        },
        "headers": {
            "content-type": "application/json",
            "user-agent": "Mozilla/5.0 (Windows NT 10.0; Win64; x64) AppleWebKit/537.36 (KHTML, like Gecko) Chrome/79.0.3945.130 Safari/537.36",
            "referer": "https://admin.staging.shopee.vn/shipment/promotion/",
            "x-csrftoken": "",
            "x-requested-with": "XMLHttpRequest"
        },
        "response_status": 200,
        "response_text": {
            "message": "success",
            "code": 0,
            "user_message": "success"
        }
    },
    "run_space_cronjob": {
        "url": "https://space.shopee.io/apis/runonce/v1/jobs/executions/run",
        "headers": {
            "Authorization": "Bearer eyJhbGciOiJSUzI1NiIsImtpZCI6Ijc1YTIyMzA3NzdjNzY1YzYxOGUxOTFlZjY4NDU0MDhmN2JkYjY4MTQiLCJ0eXAiOiJKV1QifQ.eyJlbWFpbCI6ImFuaXRhLmxAc2hvcGVlLmNvbSIsImV4cCI6MTYyMzk5MDM5MiwiaXNzIjoiaHR0cHM6Ly9zcGFjZS5zaG9wZWUuaW8vdjEvY2VydHMiLCJzdWIiOiI0MDEyNjEifQ.S3IOUMow04_V_LE-gnZH2FinVkh80kFoNDJG5fHXQsu6PCzHOS9TTXBbb5lGwWxsxXK8Uj1jF3Zy6qEwwEffziTu7q16TFG8uCeCzSHeUpZ4y0NMe_jDl-ZYrbz43dizMnwCyrBFf2GZjR-Phc6vNhs9P5QG_9EhZOY2RPlhRifcIbV8Gtc2HCI2nEbcTEtLtJZ-zfZxkZ-lSAVk9mt8XHkVauDA3QEJafa2om5aIEu-sAccAHdo2CK4jY_appXqD6oM7izc1TNPDUCdVwWVwVmgs3C_skqvzq2QvbtHKWMslKhhguNJBmYqMuPoqZw5Groqgz-0eGy0ljeXtRpCMI00BPamMmnWJcFhQ-765p1j1zfO1BfTe_gjJ5EqkHIpmikzEf4WlWHp2RlyD3gUUi9GMa8drsO1-VhhL0rs8JBtjLTsWe_2u40MQwUrhn0Nfv3NUuf8Uzgw42XBLJPMEy8lhEPlfu_wQZiXdUrfoKMQjvsJAkZWqzmcdxwqO7D2D7Ay5HofW8B4d-2VAHQNlu1RSe9-S09cPocMYJsmHJ-9vE2g8Rh1XuLBROx5ZP8E6EXafIsmFZQSObZXqo9sbtGkke8QeUDxmUdpqlZFqSoumXUyzjewAt4wlhm3lw_xZbiml_VjdAa3mYOKWVwl1fltNPBOHPEgnvrvvn8IW50"
        },
        "payload": {
            "job_id":"promotion-logisticscron-staging.v2.1619680369742",
            "cid":"sg"
        },
        "response_status": 200
    }
}