{
    "get_csrftoken": {
        "url": "https://admin.staging.shopee.vn/",
        "response_status": 200,
        "cookies": {
            "sessionid": ""
        }
    },
    "get_ongoing_logistic_promotion": {
        "url": "https://admin.staging.shopee.vn/shipment/promotion/promotions/",
        "headers": {
            "referer": "https://admin.staging.shopee.vn/shipment/promotion/"
        },
        "response_status": 200,
        "response_text": {
            "message": "success",
            "code": 0,
            "user_message": "success"
        }
    },
    "delete_promotion_rule": {
        "url": "https://admin.staging.shopee.vn/shipment/promotion/promotions/promotion_id",
        "headers": {
            "content-type": "application/json",
            "user-agent": "Mozilla/5.0 (Windows NT 10.0; Win64; x64) AppleWebKit/537.36 (KHTML, like Gecko) Chrome/79.0.3945.130 Safari/537.36",
            "referer": "https://admin.staging.shopee.vn/shipment/promotion/",
            "x-csrftoken": "",
            "x-requested-with": "XMLHttpRequest"
        },
        "response_status": 200,
        "response_text": {
            "message": "success",
            "code": 0,
            "user_message": "success"
        }
    }
}