100185922,318216, 0.00777
100185909,318216, 0.00777
2400344,318213, 0.00777
100185950,318216, 0.00777
2411042,318216, 0.00777
2400501,318216, 0.00777
2400362,318214, 0.00777
100185991,318216, 0.00777
2400369,318214, 0.00777
2400366,318214, 0.00777
100265758,175361238, 0.00777
2411040,318213, 0.00777
100266128,175361238, 0.00777
2400381,318214, 0.00777
2400378,318214, 0.00777
2400546,318214, 0.00777
2400545,318214, 0.00777
2400373,318214, 0.00777
2400374,318214, 0.00777
2400377,318214, 0.00777
2400376,318214, 0.00777
2400371,318214, 0.00777
2400372,318214, 0.00777
200512092,100398553, 0.00777
200512093,100387447, 0.00777
453656,100267220, 0.00777
200512092,100806227, 0.00777