{
   "add_to_cart_info": {
      "headers": {
         "Content-Type": "application/json",
         "cookie": "",
         "referer": "https://staging.shopee.vn/",
         "x-csrftoken": "2AzWm32UZWjVkDvuVpf8rTRD9piUKqKu"
      },
      "payload": {
         "checkout": true,
         "client_source": 1,
         "donot_add_quantity": false,
         "itemid": 100863086,
         "modelid": 6065534,
         "quantity": 2,
         "shopid": 200667934,
         "source": "{\"refer_urls\":[]}",
         "update_checkout_only": false
      },
      "response_status": 200,
      "url": "https://staging.shopee.vn/api/v4/cart/add_to_cart"
   },
   "cart_checkout": {
      "headers": {
         "Content-Type": "application/json",
         "cookie": "",
         "referer": "https://staging.shopee.vn/",
         "x-api-source": "pc",
         "x-csrftoken": "2AzWm32UZWjVkDvuVpf8rTRD9piUKqKu"
      },
      "payload": {
         "free_shipping_voucher_info": {
            "free_shipping_voucher_code": null,
            "free_shipping_voucher_id": 0
         },
         "platform_vouchers": [],
         "selected_shop_order_ids": [
            {
               "item_briefs": [
                  {
                     "add_on_deal_id": null,
                     "applied_promotion_id": 101238,
                     "cart_item_change_time": 1627618335,
                     "is_add_on_sub_item": null,
                     "item_group_id": null,
                     "itemid": 100863086,
                     "modelid": 6065534,
                     "offerid": null,
                     "price": 800000000,
                     "quantity": 2,
                     "status": 1
                  }
               ],
               "shop_vouchers": [],
               "shopid": 200667934
            }
         ],
         "support_problematic_groups": true,
         "use_coins": true,
         "version": 3
      },
      "response_status": 200,
      "url": "https://staging.shopee.vn/api/v4/cart/checkout"
   },
   "checkout_get": {
      "headers": {
         "Content-Type": "application/json",
         "cookie": "",
         "referer": "https://staging.shopee.vn/checkout-page",
         "x-api-source": "pc",
         "x-csrftoken": "2AzWm32UZWjVkDvuVpf8rTRD9piUKqKu"
      },
      "payload": {
         "_cft": [
            56939
         ],
         "buyer_info": {
            "checkout_email": "",
            "kyc_info": null,
            "share_to_friends_info": {
               "allow_to_share": false,
               "display_toggle": false,
               "enable_toggle": false
            }
         },
         "cart_type": 0,
         "checkout_price_data": {
            "bundle_deals_discount": null,
            "buyer_txn_fee": 0,
            "credit_card_promotion": null,
            "custom_tax_subtotal": 0,
            "group_buy_discount": 0,
            "insurance_before_discount_subtotal": 0,
            "insurance_discount_subtotal": 0,
            "insurance_subtotal": 0,
            "merchandise_subtotal": 2000000000,
            "price_adjustment": null,
            "promocode_applied": null,
            "shipping_discount_subtotal": 0,
            "shipping_subtotal": 3421000000,
            "shipping_subtotal_before_discount": 3421000000,
            "shopee_coins_redeemed": null,
            "tax_exemption": 0,
            "tax_payable": 0,
            "total_payable": 5421000000,
            "vat_subtotal": 0
         },
         "client_event_info": {
            "is_fsv_changed": false,
            "is_platform_voucher_changed": false
         },
         "client_id": 0,
         "device_info": {
            "buyer_payment_info": {},
            "device_fingerprint": "",
            "device_id": "",
            "tongdun_blackbox": ""
         },
         "fsv_selection_infos": [],
         "order_update_info": {},
         "promotion_data": {
            "auto_apply_shop_voucher": false,
            "check_shop_voucher_entrances": true,
            "free_shipping_voucher_info": {
               "banner_info": {
                  "learn_more_msg": "",
                  "msg": ""
               },
               "disabled_reason": null,
               "free_shipping_voucher_code": "",
               "free_shipping_voucher_id": 0,
               "required_be_channel_ids": [],
               "required_spm_channels": []
            },
            "platform_vouchers": [],
            "shop_vouchers": [],
            "use_coins": false
         },
         "selected_payment_channel_data": {
            "channel_id": 5000102,
            "channel_item_option_info": {
               "channel_item_id": 2956,
               "credit_card_data": {
                  "bank_id": 6945,
                  "bank_name": "Citibank",
                  "card_number": "400000xxxxxx0002",
                  "expiry_date": "12-2029"
               }
            },
            "option_info": "",
            "text_info": {},
            "version": 2
         },
         "shipping_orders": [
            {
               "buyer_address_data": {
                  "address_type": 0,
                  "addressid": 13341,
                  "tax_address": ""
               },
               "prescription_info": {
                  "images": null
               },
               "selected_logistic_channelid": 50018,
               "selected_preferred_delivery_time_option_id": 0,
               "selected_preferred_delivery_time_slot_id": null,
               "shipping_id": 1,
               "shoporder_indexes": [
                  0
               ],
               "sync": true
            }
         ],
         "shoporders": [
            {
               "items": [
                  {
                     "add_on_deal_id": 0,
                     "insurances": [],
                     "is_add_on_sub_item": false,
                     "item_group_id": null,
                     "itemid": 100863086,
                     "modelid": 6065534,
                     "quantity": 2
                  }
               ],
               "shipping_id": 1,
               "shop": {
                  "shopid": 200667934
               }
            }
         ],
         "tax_info": {
            "tax_id": ""
         },
         "timestamp": 1658216206
      },
      "response_status": 200,
      "url": "https://staging.shopee.vn/api/v4/checkout/get"
   },
   "place_order": {
      "headers": {
         "Content-Type": "application/json",
         "cookie": "",
         "referer": "https://staging.shopee.vn/",
         "x-api-source": "pc",
         "x-csrftoken": "2AzWm32UZWjVkDvuVpf8rTRD9piUKqKu"
      },
      "response_status": 200,
      "url": "https://staging.shopee.vn/api/v4/checkout/place_order"
   }
}