{
    "get_forder_id": {
        "url": "https://oms.staging.shopee.vn/api/forder/get",
        "headers": {
            "request-id": "1606966763218289190",
            "user-agent": "Mozilla/5.0 (Windows NT 10.0; Win64; x64) AppleWebKit/537.36 (KHTML, like Gecko) Chrome/79.0.3945.130 Safari/537.36",
            "content-type": "application/x-www-form-urlencoded",
            "jwt-token": "eyJhbGciOiJIUzI1NiIsIm9wdHIiOiJ3c2EiLCJ0eXAiOiJKV1QifQ.eyJleHAiOjE4OTkxODQ5NzF9.pxUYCkWb6z-DVKutfUC-rzy17WLlpt_SuR1h6z6iGes",
            "cache-control": "no-cache"
        },
        "payload": {
            "order_id": 0,
            "country": "VN",
            "shop_id": 200667934,
            "tracking_level": 1
        },
        "response_status": 200
    },
    "init_forder": {
        "url": "https://oms.staging.shopee.vn/api/forder/init",
        "headers": {
            "request-id": "1606966763218289190",
            "user-agent": "Mozilla/5.0 (Windows NT 10.0; Win64; x64) AppleWebKit/537.36 (KHTML, like Gecko) Chrome/79.0.3945.130 Safari/537.36",
            "content-type": "application/json",
            "jwt-token": "eyJhbGciOiJIUzI1NiIsIm9wdHIiOiJ3c2EiLCJ0eXAiOiJKV1QifQ.eyJleHAiOjE4OTkxODQ5NzF9.pxUYCkWb6z-DVKutfUC-rzy17WLlpt_SuR1h6z6iGes",
            "cache-control": "no-cache"
        },
        "payload": {
            "order_id": 0,
            "country": "VN",
            "shop_id": 200667934,
            "user_id": 100669518,
            "channel_id": 50015
        },
        "response_status": 200
    },
    "get_ship_by_date": {
        "url": "https://admin.staging.shopee.vn/system/tools/order_id/",
        "response_status": 200,
        "cookies": {
            "sessionid": ""
        }
    },
    "pickup_done": {
        "url": "https://oms.staging.shopee.vn/api/sls/update_forder_logistic_log",
        "headers": {
            "request-id": "1606966763218289190",
            "user-agent": "Mozilla/5.0 (Windows NT 10.0; Win64; x64) AppleWebKit/537.36 (KHTML, like Gecko) Chrome/79.0.3945.130 Safari/537.36",
            "content-type": "application/x-www-form-urlencoded",
            "jwt-token": "eyJhbGciOiJIUzI1NiIsIm9wdHIiOiJ3c2EiLCJ0eXAiOiJKV1QifQ.eyJleHAiOjE4OTkxODQ5NzF9.pxUYCkWb6z-DVKutfUC-rzy17WLlpt_SuR1h6z6iGes",
            "cache-control": "no-cache"
        },
        "payload": {
            "status": 25,
            "channel_description": "ChannelDescription_DOMESTIC_DROPOFF",
            "system_time": "",
            "description": "Description_DOMESTIC_DROPOFF",
            "country": "VN",
            "ignore_status_priority": false,
            "flag": 1,
            "extra_data": "{}",
            "channel_status": "DOMESTIC_DROPOFF",
            "forder_id": 0
        },
        "response_text": {
            "header": {
                "retcode": 0
            }
        },
        "response_status": 200
    },
    "accept_return_refund": {
        "response_text": {
            "header": {
                "retcode": 0
            }
        },
        "payload": {
            "header": {},
            "message": {
              "user_id": 100669518,
			"ofg_id": 0,
              "return_id": 0,
              "offer_id": 1
            }
          },
        "query_string_parameters": {
            "SPC_CDS": "8d4c3f8f-ff1a-48ef-bd32-7036dd75020e",
            "SPC_CDS_VER": "2"
        },
        "response_status": 200,
        "response_text": {
            "code": 0,
            "message": "success",
            "user_message": "success"
        },
        "url": "https://banhang.staging.shopee.vn/api/drc/v1/offers/accept"
    },
    "delivery_done": {
        "url": "https://oms.staging.shopee.vn/api/sls/update_forder_logistic_log",
        "headers": {
            "request-id": "1606966763218289190",
            "user-agent": "Mozilla/5.0 (Windows NT 10.0; Win64; x64) AppleWebKit/537.36 (KHTML, like Gecko) Chrome/79.0.3945.130 Safari/537.36",
            "content-type": "application/x-www-form-urlencoded",
            "jwt-token": "eyJhbGciOiJIUzI1NiIsIm9wdHIiOiJ3c2EiLCJ0eXAiOiJKV1QifQ.eyJleHAiOjE4OTkxODQ5NzF9.pxUYCkWb6z-DVKutfUC-rzy17WLlpt_SuR1h6z6iGes",
            "cache-control": "no-cache"
        },
        "response_status": 200,
        "response_text": {
            "header": {
                "retcode": 0
            }
        },
        "payload": {
            "status": 3,
            "channel_description": "ChannelDescription_DELIVERED",
            "system_time": "",
            "description": "Description_DELIVERED",
            "country": "VN",
            "ignore_status_priority": false,
            "flag": 1,
            "extra_data": "{}",
            "channel_status": "DELIVERED",
            "forder_id": 0
        }
    },
    "get_toship_list": {
        "url": "https://oms.staging.shopee.vn/api/forder/shipment_list",
        "headers": {
            "request-id": "1606966763218289190",
            "user-agent": "Mozilla/5.0 (Windows NT 10.0; Win64; x64) AppleWebKit/537.36 (KHTML, like Gecko) Chrome/79.0.3945.130 Safari/537.36",
            "content-type": "application/x-www-form-urlencoded",
            "jwt-token": "eyJhbGciOiJIUzI1NiIsIm9wdHIiOiJ3c2EiLCJ0eXAiOiJKV1QifQ.eyJleHAiOjE4OTkxODQ5NzF9.pxUYCkWb6z-DVKutfUC-rzy17WLlpt_SuR1h6z6iGes",
            "cache-control": "no-cache"
        },
        "query_string_parameters": {
            "country": "VN",
            "shop_id": "200667934",
            "page": "1",
            "list_type": "2"
        },
        "response_status": 200
    }
}