{
    "change_voucher_status": {
        "url": "https://admin.staging.shopee.region/promotion/promotion_id/status/",
        "headers": {
            "referer": "https://admin.staging.shopee.region/promotion/promotion_id/edit/",
            "user-agent": "Mozilla/5.0 (Windows NT 10.0; Win64; x64) AppleWebKit/537.36 (KHTML, like Gecko) Chrome/79.0.3945.130 Safari/537.36",
            "x-csrftoken": ""
        },
        "response_status": 200,
        "response_text": {
            "success": true
        }
    }
}