shop_id,item_id,model_id,promo_price,rebate,purchase_limit,overall_promo_stock,product_display_name,extra_disc_price,extra_disc_stock,extra_disc_rebate,extra_disc_time,remark(optional)
200001301,100294895,3756090,20000,100,5,5,P1,,,,,
200001316,100311875,10002426360,2000,0,5,5,P2,,,,,
