{
	"noticode100_due_date_0":{
		"api_command": "noti.scheduler.trigger_noti_by_noticode",
		"req":{
			"userid_list":[100010968],
			"noti":{
				"noticode": 100,
				"action_info":{
					"due_date":0
				}
			}
		},
		"response_status":0,
		"response_text":{}
	},
	"noticode100_due_date_int32_limit":{
		"api_command": "noti.scheduler.trigger_noti_by_noticode",
		"req":{
			"userid_list":[100010968],
			"noti":{
				"noticode": 100,
				"action_info":{
					"due_date":2147483647
				}
			}
		},
		"response_status":0,
		"response_text":{}
	},
	"noticode100_due_date_over_int32_limit":{
		"api_command": "noti.scheduler.trigger_noti_by_noticode",
		"req":{
			"userid_list":[100010968],
			"noti":{
				"noticode": 100,
				"action_info":{
					"due_date":2147483648
				}
			}
		},
		"response_status":105,
		"response_text":null
	},
	"noticode100_due_date_not_exist":{
		"api_command": "noti.scheduler.trigger_noti_by_noticode",
		"req":{
			"userid_list":[100010968],
			"noti":{
				"noticode": 100,
				"action_info":{
					"due_date":2147483640
				}
			}
		},
		"response_status":0,
		"response_text":{}
	},
	"noticode100_due_date_string":{
		"api_command": "noti.scheduler.trigger_noti_by_noticode",
		"req":{
			"userid_list":[100010968],
			"noti":{
				"noticode": 100,
				"action_info":{
					"due_date":"String"
				}
			}
		},
		"response_status":105,
		"response_text":null
	},
	"noticode100_due_date_float_number":{
		"api_command": "noti.scheduler.trigger_noti_by_noticode",
		"req":{
			"userid_list":[100010968],
			"noti":{
				"noticode": 100,
				"action_info":{
					"due_date":1.5
				}
			}
		},
		"response_status":105,
		"response_text":null
	},
	"noticode100_due_date_negative":{
		"api_command": "noti.scheduler.trigger_noti_by_noticode",
		"req":{
			"userid_list":[100010968],
			"noti":{
				"noticode": 100,
				"action_info":{
					"due_date":-1
				}
			}
		},
		"response_status":0,
		"response_text":{}
	}
}