{
	"noticode160_days_to_confirm_0":{
		"api_command": "noti.scheduler.trigger_noti_by_noticode",
		"req":{
			"userid_list":[100010968],
			"noti":{
				"noticode": 160,
				"action_info":{
					"days_to_confirm":0
				}
			}
		},
		"response_status":0,
		"response_text":{}
	},
	"noticode160_days_to_confirm_int32_limit":{
		"api_command": "noti.scheduler.trigger_noti_by_noticode",
		"req":{
			"userid_list":[100010968],
			"noti":{
				"noticode": 160,
				"action_info":{
					"days_to_confirm":2147483647
				}
			}
		},
		"response_status":0,
		"response_text":{}
	},
	"noticode160_days_to_confirm_over_int32_limit":{
		"api_command": "noti.scheduler.trigger_noti_by_noticode",
		"req":{
			"userid_list":[100010968],
			"noti":{
				"noticode": 160,
				"action_info":{
					"days_to_confirm":2147483648
				}
			}
		},
		"response_status":105,
		"response_text":null
	},
	"noticode160_days_to_confirm_not_exist":{
		"api_command": "noti.scheduler.trigger_noti_by_noticode",
		"req":{
			"userid_list":[100010968],
			"noti":{
				"noticode": 160,
				"action_info":{
					"days_to_confirm":2147483640
				}
			}
		},
		"response_status":0,
		"response_text":{}
	},
	"noticode160_days_to_confirm_string":{
		"api_command": "noti.scheduler.trigger_noti_by_noticode",
		"req":{
			"userid_list":[100010968],
			"noti":{
				"noticode": 160,
				"action_info":{
					"days_to_confirm":"String"
				}
			}
		},
		"response_status":105,
		"response_text":null
	},
	"noticode160_days_to_confirm_float_number":{
		"api_command": "noti.scheduler.trigger_noti_by_noticode",
		"req":{
			"userid_list":[100010968],
			"noti":{
				"noticode": 160,
				"action_info":{
					"days_to_confirm":1.5
				}
			}
		},
		"response_status":105,
		"response_text":null
	},
	"noticode160_days_to_confirm_negative":{
		"api_command": "noti.scheduler.trigger_noti_by_noticode",
		"req":{
			"userid_list":[100010968],
			"noti":{
				"noticode": 160,
				"action_info":{
					"days_to_confirm":-1
				}
			}
		},
		"response_status":0,
		"response_text":{}
	}
}