{
	"noticode112_refund_reason_empty":{
		"api_command": "noti.scheduler.trigger_noti_by_noticode",
		"req":{
			"userid_list":[100010968],
			"noti":{
				"noticode": 112,
				"action_info":{
					"refund_reason":""
				}
			}
		},
		"response_status":0,
		"response_text":{}
	},
	"noticode112_refund_reason_number":{
		"api_command": "noti.scheduler.trigger_noti_by_noticode",
		"req":{
			"userid_list":[100010968],
			"noti":{
				"noticode": 112,
				"action_info":{
					"refund_reason":123
				}
			}
		},
		"response_status":105,
		"response_text":null
	},
	"noticode112_refund_reason_float_number":{
		"api_command": "noti.scheduler.trigger_noti_by_noticode",
		"req":{
			"userid_list":[100010968],
			"noti":{
				"noticode": 112,
				"action_info":{
					"refund_reason":1.5
				}
			}
		},
		"response_status":105,
		"response_text":null
	},
	"noticode112_refund_reason_other_refund_reason_word":{
		"api_command": "noti.scheduler.trigger_noti_by_noticode",
		"req":{
			"userid_list":[100010968],
			"noti":{
				"noticode": 112,
				"action_info":{
					"refund_reason":"Việt naประเทศไท"
				}
			}
		},
		"response_status":0,
		"response_text":{}
	},
	"noticode112_refund_reason_foremost_space":{
		"api_command": "noti.scheduler.trigger_noti_by_noticode",
		"req":{
			"userid_list":[100010968],
			"noti":{
				"noticode": 112,
				"action_info":{
					"refund_reason":" Việt naประเทศไท"
				}
			}
		},
		"response_status":0,
		"response_text":{}
	},
	"noticode112_refund_reason_last_space":{
		"api_command": "noti.scheduler.trigger_noti_by_noticode",
		"req":{
			"userid_list":[100010968],
			"noti":{
				"noticode": 112,
				"action_info":{
					"refund_reason":"Việt naประเทศไท "
				}
			}
		},
		"response_status":0,
		"response_text":{}
	},
	"noticode112_refund_reason_emoji":{
		"api_command": "noti.scheduler.trigger_noti_by_noticode",
		"req":{
			"userid_list":[100010968],
			"noti":{
				"noticode": 112,
				"action_info":{
					"refund_reason":"😀"
				}
			}
		},
		"response_status":0,
		"response_text":{}
	}
}