{
	"noticode112_userid_0":{
		"api_command": "noti.scheduler.trigger_noti_by_noticode",
		"req":{
			"userid_list":[100010968],
			"noti":{
				"noticode": 112,
				"userid":0
			}
		},
		"response_status":0,
		"response_text":{}
	},
	"noticode112_userid_int32_limit":{
		"api_command": "noti.scheduler.trigger_noti_by_noticode",
		"req":{
			"userid_list":[100010968],
			"noti":{
				"noticode": 112,
				"userid":2147483647
			}
		},
		"response_status":0,
		"response_text":{}
	},
	"noticode112_userid_over_int32_limit":{
		"api_command": "noti.scheduler.trigger_noti_by_noticode",
		"req":{
			"userid_list":[100010968],
			"noti":{
				"noticode": 112,
				"userid":2147483648
			}
		},
		"response_status":105,
		"response_text":null
	},
	"noticode112_userid_not_exist":{
		"api_command": "noti.scheduler.trigger_noti_by_noticode",
		"req":{
			"userid_list":[100010968],
			"noti":{
				"noticode": 112,
				"userid":2147483640
			}
		},
		"response_status":0,
		"response_text":{}
	},
	"noticode112_userid_string":{
		"api_command": "noti.scheduler.trigger_noti_by_noticode",
		"req":{
			"userid_list":[100010968],
			"noti":{
				"noticode": 112,
				"userid":"0"
			}
		},
		"response_status":105,
		"response_text":null
	},
	"noticode112_userid_float_number":{
		"api_command": "noti.scheduler.trigger_noti_by_noticode",
		"req":{
			"userid_list":[100010968],
			"noti":{
				"noticode": 112,
				"userid":1.5
			}
		},
		"response_status":105,
		"response_text":null
	},
	"noticode112_userid_negative":{
		"api_command": "noti.scheduler.trigger_noti_by_noticode",
		"req":{
			"userid_list":[100010968],
			"noti":{
				"noticode": 112,
				"userid":-1
			}
		},
		"response_status":0,
		"response_text":{}
	}
}