{
	"noticode161_noticode_0":{
		"api_command": "noti.scheduler.trigger_noti_by_noticode",
		"req":{
			"userid_list":[100010968],
			"noti":{
				"noticode": 0
			}
		},
		"response_status":6700005,
		"response_text":{
			"debug_msg":"Invalid request, req.Noti.Noticode cannot be empty"
		}
	},
	"noticode161_noticode_int32_limit":{
		"api_command": "noti.scheduler.trigger_noti_by_noticode",
		"req":{
			"userid_list":[100010968],
			"noti":{
				"noticode": 2147483647
			}
		},
		"response_status":0,
		"response_text":{}
	},
	"noticode161_noticode_over_int32_limit":{
		"api_command": "noti.scheduler.trigger_noti_by_noticode",
		"req":{
			"userid_list":[100010968],
			"noti":{
				"noticode": 2147483648
			}
		},
		"response_status":105,
		"response_text":null
	},
	"noticode161_noticode_not_exist":{
		"api_command": "noti.scheduler.trigger_noti_by_noticode",
		"req":{
			"userid_list":[100010968],
			"noti":{
				"noticode": 2147483640
			}
		},
		"response_status":0,
		"response_text":{}
	},
	"noticode161_noticode_string":{
		"api_command": "noti.scheduler.trigger_noti_by_noticode",
		"req":{
			"userid_list":[100010968],
			"noti":{
				"noticode": "25"
			}
		},
		"response_status":105,
		"response_text":null
	},
	"noticode161_noticode_float_number":{
		"api_command": "noti.scheduler.trigger_noti_by_noticode",
		"req":{
			"userid_list":[100010968],
			"noti":{
				"noticode": 1.5
			}
		},
		"response_status":105,
		"response_text":null
	},
	"noticode161_noticode_negative":{
		"api_command": "noti.scheduler.trigger_noti_by_noticode",
		"req":{
			"userid_list":[100010968],
			"noti":{
				"noticode": -1
			}
		},
		"response_status":0,
		"response_text":{}
	}
}