{
	"noticode160_userid_list_0":{
		"api_command": "noti.scheduler.trigger_noti_by_noticode",
		"req":{
			"userid_list":[0],
			"noti":{
				"noticode": 160
			}
		},
		"response_status":0,
		"response_text":{}
	},
	"noticode160_userid_list_int64_limit":{
		"api_command": "noti.scheduler.trigger_noti_by_noticode",
		"req":{
			"userid_list":[4294967295],
			"noti":{
				"noticode": 160
			}
		},
		"response_status":0,
		"response_text":{}
	},
	"noticode160_userid_list_over_int64_limit":{
		"api_command": "noti.scheduler.trigger_noti_by_noticode",
		"req":{
			"userid_list":[4294967296],
			"noti":{
				"noticode": 160
			}
		},
		"response_status":105,
		"response_text":null
	},
	"noticode160_userid_list_not_exist":{
		"api_command": "noti.scheduler.trigger_noti_by_noticode",
		"req":{
			"userid_list":[4294967290],
			"noti":{
				"noticode": 160
			}
		},
		"response_status":0,
		"response_text":{}
	},
	"noticode160_userid_list_string":{
		"api_command": "noti.scheduler.trigger_noti_by_noticode",
		"req":{
			"userid_list":["String"],
			"noti":{
				"noticode": 160
			}
		},
		"response_status":105,
		"response_text":null
	},
	"noticode160_userid_list_float_number":{
		"api_command": "noti.scheduler.trigger_noti_by_noticode",
		"req":{
			"userid_list":[1.5],
			"noti":{
				"noticode": 160
			}
		},
		"response_status":105,
		"response_text":null
	},
	"noticode160_userid_list_negative":{
		"api_command": "noti.scheduler.trigger_noti_by_noticode",
		"req":{
			"userid_list":[-1],
			"noti":{
				"noticode": 160
			}
		},
		"response_status":105,
		"response_text":null
	}
}