{
	"noticode597_country_empty":{
		"api_command": "noti.scheduler.trigger_noti_by_noticode",
		"req":{
			"userid_list":[100010968],
			"noti":{
				"noticode": 597,
				"action_info":{
					"country":""
				}
			}
		},
		"response_status":0,
		"response_text":{}
	},
	"noticode597_country_number":{
		"api_command": "noti.scheduler.trigger_noti_by_noticode",
		"req":{
			"userid_list":[100010968],
			"noti":{
				"noticode": 597,
				"action_info":{
					"country":123
				}
			}
		},
		"response_status":105,
		"response_text":null
	},
	"noticode597_country_float_number":{
		"api_command": "noti.scheduler.trigger_noti_by_noticode",
		"req":{
			"userid_list":[100010968],
			"noti":{
				"noticode": 597,
				"action_info":{
					"country":1.5
				}
			}
		},
		"response_status":105,
		"response_text":null
	},
	"noticode597_country_other_countries_word":{
		"api_command": "noti.scheduler.trigger_noti_by_noticode",
		"req":{
			"userid_list":[100010968],
			"noti":{
				"noticode": 597,
				"action_info":{
					"country":"Việt naประเทศไท"
				}
			}
		},
		"response_status":0,
		"response_text":{}
	},
	"noticode597_country_foremost_space":{
		"api_command": "noti.scheduler.trigger_noti_by_noticode",
		"req":{
			"userid_list":[100010968],
			"noti":{
				"noticode": 597,
				"action_info":{
					"country":" Việt naประเทศไท"
				}
			}
		},
		"response_status":0,
		"response_text":{}
	},
	"noticode597_country_last_space":{
		"api_command": "noti.scheduler.trigger_noti_by_noticode",
		"req":{
			"userid_list":[100010968],
			"noti":{
				"noticode": 597,
				"action_info":{
					"country":"Việt naประเทศไท "
				}
			}
		},
		"response_status":0,
		"response_text":{}
	},
	"noticode597_country_emoji":{
		"api_command": "noti.scheduler.trigger_noti_by_noticode",
		"req":{
			"userid_list":[100010968],
			"noti":{
				"noticode": 597,
				"action_info":{
					"country":"😀"
				}
			}
		},
		"response_status":0,
		"response_text":{}
	}
}