{
	"noticode175_userid_list_empty":{
		"api_command": "noti.scheduler.trigger_noti_by_noticode",
		"req":{
			"userid_list":[]
		},
		"response_status":6700005,
		"response_text":{
			"debug_msg": "Invalid request, req.UseridList req.ShopidList cannot be both empty"
		}
	},
	"noticode175_userid_list_only":{
		"api_command": "noti.scheduler.trigger_noti_by_noticode",
		"req":{
			"userid_list":[442880]
		},
		"response_status":6700005,
		"response_text":{
			"debug_msg": "Invalid request, req.Noti cannot be empty"
		}
	},
	"noticode175_noti_empty":{
		"api_command": "noti.scheduler.trigger_noti_by_noticode",
		"req":{
			"noti":{}
		},
		"response_status":6700005,
		"response_text":{
			"debug_msg": "Invalid request, req.UseridList req.ShopidList cannot be both empty"
		}
	},
	"noticode175_noti_only":{
		"api_command": "noti.scheduler.trigger_noti_by_noticode",
		"req":{
			"noti":{
				"userid":442880
			}
		},
		"response_status":6700005,
		"response_text":{
			"debug_msg": "Invalid request, req.UseridList req.ShopidList cannot be both empty"
		}
	},
	"noticode175_userid_list_input_noti_empty":{
		"api_command": "noti.scheduler.trigger_noti_by_noticode",
		"req":{
			"userid_list":[442880],
			"noti":{}
		},
		"response_status":6700005,
		"response_text":{
			"debug_msg": "Invalid request, req.Noti cannot be empty"
		}
	},
	"noticode175_noti_input_userid_list_empty":{
		"api_command": "noti.scheduler.trigger_noti_by_noticode",
		"req":{
			"userid_list":[],
			"noti":{
				"userid":442880
			}
		},
		"response_status":6700005,
		"response_text":{
			"debug_msg": "Invalid request, req.UseridList req.ShopidList cannot be both empty"
		}
	},
	"noticode175_both_userid_list_noti_empty":{
		"api_command": "noti.scheduler.trigger_noti_by_noticode",
		"req":{
			"shopid_list":[],
			"noti":{}
		},
		"response_status":6700005,
		"response_text":{
			"debug_msg": "Invalid request, req.UseridList req.ShopidList cannot be both empty"
		}
	},
	"noticode175_noticode_empty_action_info_none":{
		"api_command": "noti.scheduler.trigger_noti_by_noticode",
		"req":{
			"userid_list":[442880],
			"noti":{
				"orderid":123123123
			}
		},
		"response_status":6700005,
		"response_text":{
			"debug_msg": "Invalid request, req.Noti.Noticode cannot be empty"
		}
	},
	"noticode175_noti_action_info_empty":{
		"api_command": "noti.scheduler.trigger_noti_by_noticode",
		"req":{
			"userid_list":[442880],
			"noti":{
				"action_info":{}
			}
		},
		"response_status":6700005,
		"response_text":{
			"debug_msg": "Invalid request, req.Noti cannot be empty"
		}
	},
	"noticode175_noticode_empty_action_info_input":{
		"api_command": "noti.scheduler.trigger_noti_by_noticode",
		"req":{
			"userid_list":[442880],
			"noti":{
				"action_info":{
					"seller_name":"Seller Name"
				}
			}
		},
		"response_status":6700005,
		"response_text":{
			"debug_msg": "Invalid request, req.Noti.Noticode cannot be empty"
		}
	},
	"noticode175_noticode_empty":{
		"api_command": "noti.scheduler.trigger_noti_by_noticode",
		"req":{
			"userid_list":[442880],
			"noti":{
				"noticode":0
			}
		},
		"response_status":6700005,
		"response_text":{
			"debug_msg": "Invalid request, req.Noti.Noticode cannot be empty"
		}
	},
	"noticode175_flow_action_info_none":{
		"api_command": "noti.scheduler.trigger_noti_by_noticode",
		"req":{
			"userid_list":[442880],
			"noti":{
				"noticode":175
			}
		},
		"response_status":0,
		"response_text":{}
	},
	"noticode175_flow_action_info_empty":{
		"api_command": "noti.scheduler.trigger_noti_by_noticode",
		"req":{
			"userid_list":[442880],
			"noti":{
				"noticode":175,
				"action_info":{}
			}
		},
		"response_status":0,
		"response_text":{}
	}
}