{
	"noticode160_send":{
		"api_command": "noti.scheduler.trigger_noti_by_noticode",
		"req":{
			"userid_list": [
				100635331
			],
			"noti": {
				"noticode": 160,
				"userid": 100635331,
				"shopid": 442881,
				"item_name": "多功能相機包",
				"orderid": 65614432165458,
				"action_info": {
					"seller_name": "changsam",
					"buyer_name": "samwptest193",
					"country": "TW",
					"paid_amount": 0,
					"paid_amount_currency": "TWD",
					"order_sn": "210129HV7G5KJJ",
					"carrier_name": "7-11",
					"days_to_confirm": 14
				}
			}
		},
		"response_status":0,
		"response_text":{}
	}
}