{
	"noticode199_refund_amount_currency_empty":{
		"api_command": "noti.scheduler.trigger_noti_by_noticode",
		"req":{
			"userid_list":[100010968],
			"noti":{
				"noticode": 199,
				"action_info":{
					"refund_amount_currency":""
				}
			}
		},
		"response_status":0,
		"response_text":{}
	},
	"noticode199_refund_amount_currency_number":{
		"api_command": "noti.scheduler.trigger_noti_by_noticode",
		"req":{
			"userid_list":[100010968],
			"noti":{
				"noticode": 199,
				"action_info":{
					"refund_amount_currency":123
				}
			}
		},
		"response_status":105,
		"response_text":null
	},
	"noticode199_refund_amount_currency_float_number":{
		"api_command": "noti.scheduler.trigger_noti_by_noticode",
		"req":{
			"userid_list":[100010968],
			"noti":{
				"noticode": 199,
				"action_info":{
					"refund_amount_currency":1.5
				}
			}
		},
		"response_status":105,
		"response_text":null
	},
	"noticode199_refund_amount_currency_other_countries_word":{
		"api_command": "noti.scheduler.trigger_noti_by_noticode",
		"req":{
			"userid_list":[100010968],
			"noti":{
				"noticode": 199,
				"action_info":{
					"refund_amount_currency":"Việt naประเทศไท"
				}
			}
		},
		"response_status":0,
		"response_text":{}
	},
	"noticode199_refund_amount_currency_foremost_space":{
		"api_command": "noti.scheduler.trigger_noti_by_noticode",
		"req":{
			"userid_list":[100010968],
			"noti":{
				"noticode": 199,
				"action_info":{
					"refund_amount_currency":" Việt naประเทศไท"
				}
			}
		},
		"response_status":0,
		"response_text":{}
	},
	"noticode199_refund_amount_currency_last_space":{
		"api_command": "noti.scheduler.trigger_noti_by_noticode",
		"req":{
			"userid_list":[100010968],
			"noti":{
				"noticode": 199,
				"action_info":{
					"refund_amount_currency":"Việt naประเทศไท "
				}
			}
		},
		"response_status":0,
		"response_text":{}
	},
	"noticode199_refund_amount_currency_emoji":{
		"api_command": "noti.scheduler.trigger_noti_by_noticode",
		"req":{
			"userid_list":[100010968],
			"noti":{
				"noticode": 199,
				"action_info":{
					"refund_amount_currency":"😀"
				}
			}
		},
		"response_status":0,
		"response_text":{}
	}
}