{
	"noticode480_transaction_id_0":{
		"api_command": "noti.scheduler.trigger_noti_by_noticode",
		"req":{
			"userid_list":[100010968],
			"noti":{
				"noticode": 480,
				"action_info":{
					"transaction_id":0
				}
			}
		},
		"response_status":0,
		"response_text":{}
	},
	"noticode480_transaction_id_over_limit":{
		"api_command": "noti.scheduler.trigger_noti_by_noticode",
		"req":{
			"userid_list":[100010968],
			"noti":{
				"noticode": 480,
				"action_info":{
					"transaction_id":67256325288381123123
				}
			}
		},
		"response_status":105,
		"response_text":null
	},
	"noticode480_transaction_id_not_exist":{
		"api_command": "noti.scheduler.trigger_noti_by_noticode",
		"req":{
			"userid_list":[100010968],
			"noti":{
				"noticode": 480,
				"action_info":{
					"transaction_id":6725632528838112312
				}
			}
		},
		"response_status":0,
		"response_text":{}
	},
	"noticode480_transaction_id_string":{
		"api_command": "noti.scheduler.trigger_noti_by_noticode",
		"req":{
			"userid_list":[100010968],
			"noti":{
				"noticode": 480,
				"action_info":{
					"transaction_id":"String"
				}
			}
		},
		"response_status":105,
		"response_text":null
	},
	"noticode480_transaction_id_float_number":{
		"api_command": "noti.scheduler.trigger_noti_by_noticode",
		"req":{
			"userid_list":[100010968],
			"noti":{
				"noticode": 480,
				"action_info":{
					"transaction_id":1.5
				}
			}
		},
		"response_status":105,
		"response_text":null
	},
	"noticode480_transaction_id_negative":{
		"api_command": "noti.scheduler.trigger_noti_by_noticode",
		"req":{
			"userid_list":[100010968],
			"noti":{
				"noticode": 480,
				"action_info":{
					"transaction_id":-1
				}
			}
		},
		"response_status":0,
		"response_text":{}
	}
}