{
	"noticode199_refund_amount_0":{
		"api_command": "noti.scheduler.trigger_noti_by_noticode",
		"req":{
			"userid_list":[100010968],
			"noti":{
				"noticode": 199,
				"action_info":{
					"refund_amount":0
				}
			}
		},
		"response_status":0,
		"response_text":{}
	},
	"noticode199_refund_amount_over_limit":{
		"api_command": "noti.scheduler.trigger_noti_by_noticode",
		"req":{
			"userid_list":[100010968],
			"noti":{
				"noticode": 199,
				"action_info":{
					"refund_amount":67256325288381123123
				}
			}
		},
		"response_status":105,
		"response_text":null
	},
	"noticode199_refund_amount_not_exist":{
		"api_command": "noti.scheduler.trigger_noti_by_noticode",
		"req":{
			"userid_list":[100010968],
			"noti":{
				"noticode": 199,
				"action_info":{
					"refund_amount":6725632528838112312
				}
			}
		},
		"response_status":0,
		"response_text":{}
	},
	"noticode199_refund_amount_string":{
		"api_command": "noti.scheduler.trigger_noti_by_noticode",
		"req":{
			"userid_list":[100010968],
			"noti":{
				"noticode": 199,
				"action_info":{
					"refund_amount":"String"
				}
			}
		},
		"response_status":105,
		"response_text":null
	},
	"noticode199_refund_amount_float_number":{
		"api_command": "noti.scheduler.trigger_noti_by_noticode",
		"req":{
			"userid_list":[100010968],
			"noti":{
				"noticode": 199,
				"action_info":{
					"refund_amount":1.5
				}
			}
		},
		"response_status":105,
		"response_text":null
	},
	"noticode199_refund_amount_negative":{
		"api_command": "noti.scheduler.trigger_noti_by_noticode",
		"req":{
			"userid_list":[100010968],
			"noti":{
				"noticode": 199,
				"action_info":{
					"refund_amount":-1
				}
			}
		},
		"response_status":0,
		"response_text":{}
	}
}