{
	"noticode597_carrier_name_empty":{
		"api_command": "noti.scheduler.trigger_noti_by_noticode",
		"req":{
			"userid_list":[100010968],
			"noti":{
				"noticode": 597,
				"action_info":{
					"carrier_name":""
				}
			}
		},
		"response_status":0,
		"response_text":{}
	},
	"noticode597_carrier_name_number":{
		"api_command": "noti.scheduler.trigger_noti_by_noticode",
		"req":{
			"userid_list":[100010968],
			"noti":{
				"noticode": 597,
				"action_info":{
					"carrier_name":123
				}
			}
		},
		"response_status":105,
		"response_text":null
	},
	"noticode597_carrier_name_float_number":{
		"api_command": "noti.scheduler.trigger_noti_by_noticode",
		"req":{
			"userid_list":[100010968],
			"noti":{
				"noticode": 597,
				"action_info":{
					"carrier_name":1.5
				}
			}
		},
		"response_status":105,
		"response_text":null
	},
	"noticode597_carrier_name_other_countries_word":{
		"api_command": "noti.scheduler.trigger_noti_by_noticode",
		"req":{
			"userid_list":[100010968],
			"noti":{
				"noticode": 597,
				"action_info":{
					"carrier_name":"Việt naประเทศไท"
				}
			}
		},
		"response_status":0,
		"response_text":{}
	},
	"noticode597_carrier_name_foremost_space":{
		"api_command": "noti.scheduler.trigger_noti_by_noticode",
		"req":{
			"userid_list":[100010968],
			"noti":{
				"noticode": 597,
				"action_info":{
					"carrier_name":" Việt naประเทศไท"
				}
			}
		},
		"response_status":0,
		"response_text":{}
	},
	"noticode597_carrier_name_last_space":{
		"api_command": "noti.scheduler.trigger_noti_by_noticode",
		"req":{
			"userid_list":[100010968],
			"noti":{
				"noticode": 597,
				"action_info":{
					"carrier_name":"Việt naประเทศไท "
				}
			}
		},
		"response_status":0,
		"response_text":{}
	},
	"noticode597_carrier_name_emoji":{
		"api_command": "noti.scheduler.trigger_noti_by_noticode",
		"req":{
			"userid_list":[100010968],
			"noti":{
				"noticode": 597,
				"action_info":{
					"carrier_name":"😀"
				}
			}
		},
		"response_status":0,
		"response_text":{}
	}
}