{
	"noticode7_order_sn_empty":{
		"api_command": "noti.scheduler.trigger_noti_by_noticode",
		"req":{
			"userid_list":[100010968],
			"noti":{
				"noticode": 7,
				"action_info":{
					"order_sn":""
				}
			}
		},
		"response_status":0,
		"response_text":{}
	},
	"noticode7_order_sn_number":{
		"api_command": "noti.scheduler.trigger_noti_by_noticode",
		"req":{
			"userid_list":[100010968],
			"noti":{
				"noticode": 7,
				"action_info":{
					"order_sn":123
				}
			}
		},
		"response_status":105,
		"response_text":null
	},
	"noticode7_order_sn_float_number":{
		"api_command": "noti.scheduler.trigger_noti_by_noticode",
		"req":{
			"userid_list":[100010968],
			"noti":{
				"noticode": 7,
				"action_info":{
					"order_sn":1.5
				}
			}
		},
		"response_status":105,
		"response_text":null
	},
	"noticode7_order_sn_other_countries_word":{
		"api_command": "noti.scheduler.trigger_noti_by_noticode",
		"req":{
			"userid_list":[100010968],
			"noti":{
				"noticode": 7,
				"action_info":{
					"order_sn":"Việt naประเทศไท"
				}
			}
		},
		"response_status":0,
		"response_text":{}
	},
	"noticode7_order_sn_foremost_space":{
		"api_command": "noti.scheduler.trigger_noti_by_noticode",
		"req":{
			"userid_list":[100010968],
			"noti":{
				"noticode": 7,
				"action_info":{
					"order_sn":" Việt naประเทศไท"
				}
			}
		},
		"response_status":0,
		"response_text":{}
	},
	"noticode7_order_sn_last_space":{
		"api_command": "noti.scheduler.trigger_noti_by_noticode",
		"req":{
			"userid_list":[100010968],
			"noti":{
				"noticode": 7,
				"action_info":{
					"order_sn":"Việt naประเทศไท "
				}
			}
		},
		"response_status":0,
		"response_text":{}
	},
	"noticode7_order_sn_emoji":{
		"api_command": "noti.scheduler.trigger_noti_by_noticode",
		"req":{
			"userid_list":[100010968],
			"noti":{
				"noticode": 7,
				"action_info":{
					"order_sn":"😀"
				}
			}
		},
		"response_status":0,
		"response_text":{}
	}
}