type,reward,name,vcode,distribution_method,max_usage,quota_type,claim_quota,usage_quota,discount_value,cap,min_spend,seller_absorbed,activity_start_time,valid_start,valid_end,usage_terms,shop_type,FE_catids,FE_catids_exclude,shopids,product_label_id(including),product_label_id(excluding),scope_of_user,user_tags,first_purchase,fraud_checks,device,channel_id,PN_title,PN_action_require_centent,PN_push_content,PN_url,PN_icon_id,payment_method,BIN,brand_id,use_link,FE_icon,FE_text_Vi,FE_text_EN,usage_terms_product,customised_product_scope_tags,reminder_pn_setting
public,absolute,mass gene public user multi,{vcode1},0,2,,,,1600,0,550,0,,{start_time},{end_time},A,0,-1,0,-1,-1,0,100676712|100676721,,0,0,1,-1,,,,,,0,,,,45,A0804,,,,
private,absolute,mass gene private user multi,{vcode2},0,1,claim,10,,1600,0,550,0,{start_time},{start_time},{end_time},A,0,-1,0,-1,-1,0,100676712|100676721,,0,0,1,-1,,,,,,0,,,,45,A0804,,,,
