{
	"create_task_noticode_over_int32":{
		"api_command": "noti.admin.create_task",
		"req":{
			"task":{
				"task_name": "SpexAPITestCreateTask_task_name",
				"noticode": 2147483648,
				"operator": "sam.chang@shopee.com",
				"creator": "sam.chang@shopee.com",
				"multi_region": ["TW"],
				"task_description": "CreateTaskTest",
				"app_type": [1],
				"noti_methods": [2, 32],
				"ar_content": "AR Content",
				"pn_content": "PN Content",
				"ar_redirect": "https://www.google.com",
				"pn_redirect": "https://www.google.com",
				"action_category": 1,
				"owner_id": 14
			}
		},
		"response_status":105,
		"response_text":null
	},
	"create_task_noticode_string":{
		"api_command": "noti.admin.create_task",
		"req":{
			"task":{
				"task_name": "SpexAPITestCreateTask_task_name",
				"noticode": "String",
				"operator": "sam.chang@shopee.com",
				"creator": "sam.chang@shopee.com",
				"multi_region": ["TW"],
				"task_description": "CreateTaskTest",
				"app_type": [1],
				"noti_methods": [2, 32],
				"ar_content": "AR Content",
				"pn_content": "PN Content",
				"ar_redirect": "https://www.google.com",
				"pn_redirect": "https://www.google.com",
				"action_category": 1,
				"owner_id": 14
			}
		},
		"response_status":105,
		"response_text":null
	},
	"create_task_noticode_float_number":{
		"api_command": "noti.admin.create_task",
		"req":{
			"task":{
				"task_name": "SpexAPITestCreateTask_task_name",
				"noticode": 1.5,
				"operator": "sam.chang@shopee.com",
				"creator": "sam.chang@shopee.com",
				"multi_region": ["TW"],
				"task_description": "CreateTaskTest",
				"app_type": [1],
				"noti_methods": [2, 32],
				"ar_content": "AR Content",
				"pn_content": "PN Content",
				"ar_redirect": "https://www.google.com",
				"pn_redirect": "https://www.google.com",
				"action_category": 1,
				"owner_id": 14
			}
		},
		"response_status":105,
		"response_text":null
	}
}