{
	"create_task_content_classification_id_over_int64_limit":{
		"api_command": "noti.admin_marketpush.create_task",
		"req":{
			"task":{
				"task_name": "ST050301",
				"task_description": "Test Des",
				"region": "TW",
				"noti_folder": 1,
				"operator": "sam.chang@shopee.com",
				"pn_title": "PN Title",
				"pn_content": "PN Content",
				"ar_title": "AR Title",
				"ar_content": "AR Content",
				"ar_config":{
					"redirect_url": "https://www.google.com",
					"icon": "255609944a60a452771b2763c5f8cd3b"
				},
				"content_classification_id": 4294967296
			}
		},
		"response_status":105,
		"response_text":null
	},
	"create_task_content_classification_id_string":{
		"api_command": "noti.admin_marketpush.create_task",
		"req":{
			"task":{
				"task_name": "ST050301",
				"task_description": "Test Des",
				"region": "TW",
				"noti_folder": 1,
				"operator": "sam.chang@shopee.com",
				"pn_title": "PN Title",
				"pn_content": "PN Content",
				"ar_title": "AR Title",
				"ar_content": "AR Content",
				"ar_config":{
					"redirect_url": "https://www.google.com",
					"icon": "255609944a60a452771b2763c5f8cd3b"
				},
				"content_classification_id": "String"
			}
		},
		"response_status":105,
		"response_text":null
	},
	"create_task_content_classification_id_float_number":{
		"api_command": "noti.admin_marketpush.create_task",
		"req":{
			"task":{
				"task_name": "ST050301",
				"task_description": "Test Des",
				"region": "TW",
				"noti_folder": 1,
				"operator": "sam.chang@shopee.com",
				"pn_title": "PN Title",
				"pn_content": "PN Content",
				"ar_title": "AR Title",
				"ar_content": "AR Content",
				"ar_config":{
					"redirect_url": "https://www.google.com",
					"icon": "255609944a60a452771b2763c5f8cd3b"
				},
				"content_classification_id": 1.5
			}
		},
		"response_status":105,
		"response_text":null
	},
	"create_task_content_classification_id_negative":{
		"api_command": "noti.admin_marketpush.create_task",
		"req":{
			"task":{
				"task_name": "ST050301",
				"task_description": "Test Des",
				"region": "TW",
				"noti_folder": 1,
				"operator": "sam.chang@shopee.com",
				"pn_title": "PN Title",
				"pn_content": "PN Content",
				"ar_title": "AR Title",
				"ar_content": "AR Content",
				"ar_config":{
					"redirect_url": "https://www.google.com",
					"icon": "255609944a60a452771b2763c5f8cd3b"
				},
				"content_classification_id": -1
			}
		},
		"response_status":105,
		"response_text":null
	}
}