{
	"edit_sms_task_external_call_get_sms_task":{
		"api_command": "noti.message_gatekeeper.get_sms_task",
		"req":{
			"task_id": 497
		},
		"response_status":0,
		"response_text":{
			"task": {
				"task_type": 1,
				"task_scope": 2,
				"task_id": 497,
				"creator": "sam.chang@shopee.com",
				"category_id": 22,
				"task_channel": 1,
				"task_description": "Test Edit Case",
				"task_name": "SCTestEditSMSEx",
				"operator": "sam.chang@shopee.com",
				"task_content": "Test SMS has transify\ntransify_key:SmsVcodeSellerloanViewContract",
				"task_status": 1,
				"region_list": ["TW", "ID"],
				"owner_id": 28
			}
		}
	},
	"edit_sms_task_external_edit_all_parameters":{
		"api_command": "noti.message_gatekeeper.edit_sms_task",
		"req":{
			"task": {
				"task_id": 497,
				"category_id": 23,
				"task_description": "Test Edit Cases",
				"task_name": "SCTestEditSMSEx",
				"task_content": "Tests SMS has transify\ntransify_key:SmsVcodeSellerloanViewContract",
				"region_list": ["TW", "ID", "VN"],
				"owner_id": 29,
				"operator": "sam.chang@shopee.coms"
			}
		},
		"response_status":0,
		"response_text":{}
	},
	"edit_sms_task_external_call_get_sms_task_after_editing":{
		"api_command": "noti.message_gatekeeper.get_sms_task",
		"req":{
			"task_id": 497
		},
		"response_status":0,
		"response_text":{
			"task": {
				"task_type": 1,
				"task_scope": 2,
				"task_id": 497,
				"creator": "sam.chang@shopee.com",
				"category_id": 23,
				"task_channel": 1,
				"task_description": "Test Edit Cases",
				"task_name": "SCTestEditSMSEx",
				"operator": "sam.chang@shopee.coms",
				"task_content": "Tests SMS has transify\ntransify_key:SmsVcodeSellerloanViewContract",
				"task_status": 1,
				"region_list": ["TW", "ID", "VN"],
				"owner_id": 29
			}
		}
	},
	"edit_sms_task_external_restore_test_data":{
		"api_command": "noti.message_gatekeeper.edit_sms_task",
		"req":{
			"task": {
				"task_id": 497,
				"category_id": 22,
				"task_description": "Test Edit Case",
				"task_name": "SCTestEditSMSEx",
				"task_content": "Test SMS has transify\ntransify_key:SmsVcodeSellerloanViewContract",
				"region_list": ["TW", "ID"],
				"owner_id": 28,
				"operator": "sam.chang@shopee.com"
			}
		},
		"response_status":0,
		"response_text":{}
	},
	"edit_sms_task_external_get_restore_test_data":{
		"api_command": "noti.message_gatekeeper.get_sms_task",
		"req":{
			"task_id": 497
		},
		"response_status":0,
		"response_text":{
			"task": {
				"task_type": 1,
				"task_scope": 2,
				"task_id": 497,
				"creator": "sam.chang@shopee.com",
				"category_id": 22,
				"task_channel": 1,
				"task_description": "Test Edit Case",
				"task_name": "SCTestEditSMSEx",
				"operator": "sam.chang@shopee.com",
				"task_content": "Test SMS has transify\ntransify_key:SmsVcodeSellerloanViewContract",
				"task_status": 1,
				"region_list": ["TW", "ID"],
				"owner_id": 28
			}
		}
	}
}