{
	"get_task_list_none":{
		"api_command": "noti.admin_marketpush.get_task_list",
		"req":{},
		"response_status":59400005,
		"response_text":{
			"debug_msg": "request failed, err:region: string field is required: noti.marketpush.get_task_list failed"
		}
	},
	"get_task_list_only_input_task_name_empty":{
		"api_command": "noti.admin_marketpush.get_task_list",
		"req":{
			"task_name": ""
		},
		"response_status":59400005,
		"response_text":{
			"debug_msg": "request failed, err:task_name: string field cannot be empty: noti.marketpush.get_task_list failed"
		}
	},
	"get_task_list_only_input_region_empty":{
		"api_command": "noti.admin_marketpush.get_task_list",
		"req":{
			"region": ""
		},
		"response_status":59400005,
		"response_text":{
			"debug_msg": "request failed, err:region: string field cannot be zero: noti.marketpush.get_task_list failed"
		}
	}
}