{
	"get_task_list_offset_0":{
		"api_command": "noti.admin.get_transactional_task_list",
		"req":{
			"offset": 0
		},
		"response_status":0,
		"response_text":{
			"total": "int_to_be_replaced",
			"task_list":{
				"task_id": "int_to_be_replaced",
				"task_name": "str_to_be_replaced"
			}
		}
	},
	"get_task_list_offset_1":{
		"api_command": "noti.admin.get_transactional_task_list",
		"req":{
			"offset": 1
		},
		"response_status":0,
		"response_text":{
			"total": "int_to_be_replaced",
			"task_list":{
				"task_id": "int_to_be_replaced",
				"task_name": "str_to_be_replaced"
			}
		}
	},
	"get_task_list_offset_task_length_minus_one":{
		"api_command": "noti.admin.get_transactional_task_list",
		"req":{
			"offset": "int_to_be_replaced"
		},
		"response_status":0,
		"response_text":{
			"total": "int_to_be_replaced",
			"task_list":{
				"task_id": "int_to_be_replaced",
				"task_name": "str_to_be_replaced"
			}
		}
	},
	"get_task_list_offset_task_length_minus_two":{
		"api_command": "noti.admin.get_transactional_task_list",
		"req":{
			"offset": "int_to_be_replaced"
		},
		"response_status":0,
		"response_text":{
			"total": "int_to_be_replaced",
			"task_list":{
				"task_id": "int_to_be_replaced",
				"task_name": "str_to_be_replaced"
			}
		}
	},
	"get_task_list_offset_task_length":{
		"api_command": "noti.admin.get_transactional_task_list",
		"req":{
			"offset": "int_to_be_replaced"
		},
		"response_status":0,
		"response_text":{
			"total": "int_to_be_replaced"
		}
	},
	"get_task_list_offset_task_int64_limit":{
		"api_command": "noti.admin.get_transactional_task_list",
		"req":{
			"offset": 4294967295
		},
		"response_status":0,
		"response_text":{
			"total": "int_to_be_replaced"
		}
	},
	"get_task_list_offset_task_over_int64_limit":{
		"api_command": "noti.admin.get_transactional_task_list",
		"req":{
			"offset": 4294967296
		},
		"response_status":105,
		"response_text":null
	},
	"get_task_list_offset_string":{
		"api_command": "noti.admin.get_transactional_task_list",
		"req":{
			"offset": "String"
		},
		"response_status":105,
		"response_text":null
	},
	"get_task_list_offset_float_number":{
		"api_command": "noti.admin.get_transactional_task_list",
		"req":{
			"offset": 1.5
		},
		"response_status":105,
		"response_text":null
	},
	"get_task_list_offset_negative":{
		"api_command": "noti.admin.get_transactional_task_list",
		"req":{
			"offset": -1
		},
		"response_status":105,
		"response_text":null
	}
}