{
	"create_sms_task_internal_duplicate_task_name":{
		"api_command": "noti.message_gatekeeper.create_sms_task",
		"req":{
			"task": {
				"task_name": "SCTestAPICreate",
				"category_id": 22,
				"owner_id": 28,
				"task_description": "Test Des",
				"task_content": "Test SMS has transify\ntransify_key:SmsVcodeSellerloanViewContract",
				"task_scope": 1,
				"operator": "sam.chang@shopee.com",
				"ext_info":{
					"manual_message": {
						"num_of_messages_sent": 1,
						"manual_message_type": 1,
						"task_operators": ["sam.chang@shopee.com"]
					},
					"task_queue":1
				}
			}
		},
		"response_status":29500001,
		"response_text":{
			"debug_msg": "Error 1062: Duplicate entry 'SCTestAPICreate' for key 'idx_task_name'"
		}
	}
}