{
	"get_task_list_min_time_0":{
		"api_command": "noti.admin_marketpush.get_task_list",
		"req":{
			"region": "TW",
			"schedule_time_range":{
				"min_time": 0
			}
		},
		"response_status":0,
		"response_text":{
			"total": "int_to_be_replaced"
		}
	},
	"get_task_list_min_time_int64_limit":{
		"api_command": "noti.admin_marketpush.get_task_list",
		"req":{
			"region": "TW",
			"schedule_time_range":{
				"min_time": 4294967295
			}
		},
		"response_status":0,
		"response_text":{
			"total": 0
		}
	},
	"get_task_list_min_time_over_int64_limit":{
		"api_command": "noti.admin_marketpush.get_task_list",
		"req":{
			"region": "TW",
			"schedule_time_range":{
				"min_time": 4294967296
			}
		},
		"response_status":105,
		"response_text":null
	},
	"get_task_list_min_time_string":{
		"api_command": "noti.admin_marketpush.get_task_list",
		"req":{
			"region": "TW",
			"schedule_time_range":{
				"min_time": "String"
			}
		},
		"response_status":105,
		"response_text":null
	},
	"get_task_list_min_time_float_number":{
		"api_command": "noti.admin_marketpush.get_task_list",
		"req":{
			"region": "TW",
			"schedule_time_range":{
				"min_time": 1.5
			}
		},
		"response_status":105,
		"response_text":null
	},
	"get_task_list_min_time_negative":{
		"api_command": "noti.admin_marketpush.get_task_list",
		"req":{
			"region": "TW",
			"schedule_time_range":{
				"min_time": -1
			}
		},
		"response_status":105,
		"response_text":null
	}
}