{
	"get_owner_list_owner_name_partial":{
		"api_command": "noti.admin.get_owner_list",
		"req":{
			"owner_name": "Shopee"
		},
		"response_status":0,
		"response_text":{
			"total": "int_to_be_replaced"
		}
	},
	"get_owner_list_owner_name_exact":{
		"api_command": "noti.admin.get_owner_list",
		"req":{
			"owner_name": "ShopeeFood Driver"
		},
		"response_status":0,
		"response_text":{
			"total": "int_to_be_replaced"
		}
	}
}