{
	"get_task_list_offset_0":{
		"api_command": "noti.admin_marketpush.get_task_list",
		"req":{
			"region": "TW",
			"offset": 0
		},
		"response_status":0,
		"response_text":{
			"total": "int_to_be_replaced"
		}
	},
	"get_task_list_offset_1":{
		"api_command": "noti.admin_marketpush.get_task_list",
		"req":{
			"region": "TW",
			"offset": 1
		},
		"response_status":0,
		"response_text":{
			"total": "int_to_be_replaced",
			"task_list":[{
				"task_id": "int_to_be_replaced"
			}]
		}
	},
	"get_task_list_offset_int64_limit":{
		"api_command": "noti.admin_marketpush.get_task_list",
		"req":{
			"region": "TW",
			"offset": 4294967295
		},
		"response_status":0,
		"response_text":{
			"total": "int_to_be_replaced"
		}
	},
	"get_task_list_offset_over_int64_limit":{
		"api_command": "noti.admin_marketpush.get_task_list",
		"req":{
			"region": "TW",
			"offset": 4294967296
		},
		"response_status":105,
		"response_text":null
	},
	"get_task_list_offset_string":{
		"api_command": "noti.admin_marketpush.get_task_list",
		"req":{
			"region": "TW",
			"offset": "String"
		},
		"response_status":105,
		"response_text":null
	},
	"get_task_list_offset_float_number":{
		"api_command": "noti.admin_marketpush.get_task_list",
		"req":{
			"region": "TW",
			"offset": 1.5
		},
		"response_status":105,
		"response_text":null
	},
	"get_task_list_offset_negative":{
		"api_command": "noti.admin_marketpush.get_task_list",
		"req":{
			"region": "TW",
			"offset": -1
		},
		"response_status":105,
		"response_text":null
	}
}