{
	"edit_whatsapp_task_internal_manual_message_before_calling_whatsapp_task":{
		"api_command": "noti.message_gatekeeper.edit_whatsapp_task",
		"req":{
			"task": {
				"task_id": 129,
				"category_id": 14,
				"owner_id": 18,
				"task_description": "Test Edit Case",
				"region_list": ["TW", "ID"],
				"whatsapp_channel_id": "6802dc69ff184f4ca276d21db1a581a5",
				"operator": "sam.chang@shopee.com"
			}
		},
		"response_status":0,
		"response_text":{}
	},
	"edit_whatsapp_task_internal_manual_message_call_get_whatsapp_task":{
		"api_command": "noti.message_gatekeeper.get_whatsapp_task",
		"req":{
			"task_id": 129
		},
		"response_status":0,
		"response_text":{
			"task": {
				"task_type": 1,
				"task_id": 129,
				"creator": "sam.chang@shopee.com",
				"category_id": 14,
				"task_description": "Test Edit Case",
				"task_name": "SCTestEditW",
				"operator": "sam.chang@shopee.com",
				"task_status": 1,
				"region_list": ["TW", "ID"],
				"owner_id": 18,
				"whatsapp_channel_id": "6802dc69ff184f4ca276d21db1a581a5"
			}
		}
	},
	"edit_whatsapp_task_internal_manual_message_edit_all_parameters":{
		"api_command": "noti.message_gatekeeper.edit_whatsapp_task",
		"req":{
			"task": {
				"task_id": 129,
				"category_id": 15,
				"owner_id": 19,
				"task_description": "Test Edit Cases",
				"region_list": ["TW", "ID", "VN"],
				"whatsapp_channel_id": "4073399cbd22400b9f81e6d150d318ae",
				"operator": "sam.chang@shopee.coms"
			}
		},
		"response_status":0,
		"response_text":{}
	},
	"edit_whatsapp_task_internal_manual_message_call_get_whatsapp_task_after_editing":{
		"api_command": "noti.message_gatekeeper.get_whatsapp_task",
		"req":{
			"task_id": 129
		},
		"response_status":0,
		"response_text":{
			"task": {
				"task_type": 1,
				"task_id": 129,
				"creator": "sam.chang@shopee.com",
				"category_id": 15,
				"task_description": "Test Edit Cases",
				"operator": "sam.chang@shopee.coms",
				"region_list": ["TW", "ID", "VN"],
				"whatsapp_channel_id": "4073399cbd22400b9f81e6d150d318ae",
				"owner_id": 19
			}
		}
	},
	"edit_whatsapp_task_internal_manual_message_restore_test_data":{
		"api_command": "noti.message_gatekeeper.edit_whatsapp_task",
		"req":{
			"task": {
				"task_id": 129,
				"category_id": 14,
				"owner_id": 18,
				"task_description": "Test Edit Case",
				"region_list": ["TW", "ID"],
				"whatsapp_channel_id": "6802dc69ff184f4ca276d21db1a581a5",
				"operator": "sam.chang@shopee.com"
			}
		},
		"response_status":0,
		"response_text":{}
	},
	"edit_whatsapp_task_internal_manual_message_get_restore_test_data":{
		"api_command": "noti.message_gatekeeper.get_whatsapp_task",
		"req":{
			"task_id": 129
		},
		"response_status":0,
		"response_text":{
			"task": {
				"task_type": 1,
				"task_id": 129,
				"creator": "sam.chang@shopee.com",
				"category_id": 14,
				"task_description": "Test Edit Case",
				"task_name": "SCTestEditW",
				"operator": "sam.chang@shopee.com",
				"task_status": 1,
				"region_list": ["TW", "ID"],
				"owner_id": 18,
				"whatsapp_channel_id": "6802dc69ff184f4ca276d21db1a581a5"
			}
		}
	}
}