{
	"create_task_empty":{
		"api_command": "noti.admin_marketpush.create_task",
		"req":{},
		"response_status":10011,
		"response_text":{
			"debug_msg": "request failed, err:: noti.marketpush.create_task failed"
		}
	},
	"create_task_task_empty":{
		"api_command": "noti.admin_marketpush.create_task",
		"req":{
			"task": {}
		},
		"response_status":10011,
		"response_text":{
			"debug_msg": "request failed, err:: noti.marketpush.create_task failed"
		}
	},
	"create_task_only_task_name":{
		"api_command": "noti.admin_marketpush.create_task",
		"req":{
			"task":{
				"task_name": "ST050301"
			}
		},
		"response_status":59400005,
		"response_text":{
			"debug_msg": "request failed, err:task: task_description: string field is required: noti.marketpush.create_task failed"
		}
	},
	"create_task_only_task_description":{
		"api_command": "noti.admin_marketpush.create_task",
		"req":{
			"task":{
				"task_description": "Test Des"
			}
		},
		"response_status":59400005,
		"response_text":{
			"debug_msg": "request failed, err:task: task_name: string field is required: noti.marketpush.create_task failed"
		}
	},
	"create_task_task_name_task_description":{
		"api_command": "noti.admin_marketpush.create_task",
		"req":{
			"task":{
				"task_name": "ST050301",
				"task_description": "Test Des"
			}
		},
		"response_status":59400005,
		"response_text":{
			"debug_msg": "request failed, err:task: region: string field is required: noti.marketpush.create_task failed"
		}
	},
	"create_task_task_name_task_description_region":{
		"api_command": "noti.admin_marketpush.create_task",
		"req":{
			"task":{
				"task_name": "ST050301",
				"task_description": "Test Des",
				"region": "TW"
			}
		},
		"response_status":59400005,
		"response_text":{
			"debug_msg": "request failed, err:task: noti_folder: uint32 field is required: noti.marketpush.create_task failed"
		}
	},
	"create_task_task_name_task_description_region_noti_folder":{
		"api_command": "noti.admin_marketpush.create_task",
		"req":{
			"task":{
				"task_name": "ST050301",
				"task_description": "Test Des",
				"region": "TW",
				"noti_folder": 1
			}
		},
		"response_status":59400005,
		"response_text":{
			"debug_msg": "request failed, err:task: operator: string field is required: noti.marketpush.create_task failed"
		}
	},
	"create_task_to_operator":{
		"api_command": "noti.admin_marketpush.create_task",
		"req":{
			"task":{
				"task_name": "ST050301",
				"task_description": "Test Des",
				"region": "TW",
				"noti_folder": 1,
				"operator": "sam.chang@shopee.com"
			}
		},
		"response_status":59400005,
		"response_text":{
			"debug_msg": "request failed, err:task: pn_content: string field is required: noti.marketpush.create_task failed"
		}
	},
	"create_task_to_pn_content":{
		"api_command": "noti.admin_marketpush.create_task",
		"req":{
			"task":{
				"task_name": "ST050301",
				"task_description": "Test Des",
				"region": "TW",
				"noti_folder": 1,
				"operator": "sam.chang@shopee.com",
				"pn_title": "PN Title",
				"pn_content": "PN Content"
			}
		},
		"response_status":59400005,
		"response_text":{
			"debug_msg": "request failed, err:task: ar_title: string field is required: noti.marketpush.create_task failed"
		}
	},
	"create_task_to_ar_title":{
		"api_command": "noti.admin_marketpush.create_task",
		"req":{
			"task":{
				"task_name": "ST050301",
				"task_description": "Test Des",
				"region": "TW",
				"noti_folder": 1,
				"operator": "sam.chang@shopee.com",
				"pn_title": "PN Title",
				"pn_content": "PN Content",
				"ar_title": "AR Title"
			}
		},
		"response_status":59400005,
		"response_text":{
			"debug_msg": "request failed, err:task: ar_content: string field is required: noti.marketpush.create_task failed"
		}
	},
	"create_task_to_ar_content":{
		"api_command": "noti.admin_marketpush.create_task",
		"req":{
			"task":{
				"task_name": "ST050301",
				"task_description": "Test Des",
				"region": "TW",
				"noti_folder": 1,
				"operator": "sam.chang@shopee.com",
				"pn_title": "PN Title",
				"pn_content": "PN Content",
				"ar_title": "AR Title",
				"ar_content": "AR Content"
			}
		},
		"response_status":59400005,
		"response_text":{
			"debug_msg": "request failed, err:task: ar_config: message field is required: noti.marketpush.create_task failed"
		}
	},
	"create_task_to_ar_config_empty_content":{
		"api_command": "noti.admin_marketpush.create_task",
		"req":{
			"task":{
				"task_name": "ST050301",
				"task_description": "Test Des",
				"region": "TW",
				"noti_folder": 1,
				"operator": "sam.chang@shopee.com",
				"pn_title": "PN Title",
				"pn_content": "PN Content",
				"ar_title": "AR Title",
				"ar_content": "AR Content",
				"ar_config":{}
			}
		},
		"response_status":59400005,
		"response_text":{
			"debug_msg": "request failed, err:task: ar_config: message field is required: noti.marketpush.create_task failed"
		}
	},
	"create_task_to_ar_config_with_redirect_url":{
		"api_command": "noti.admin_marketpush.create_task",
		"req":{
			"task":{
				"task_name": "ST050301",
				"task_description": "Test Des",
				"region": "TW",
				"noti_folder": 1,
				"operator": "sam.chang@shopee.com",
				"pn_title": "PN Title",
				"pn_content": "PN Content",
				"ar_title": "AR Title",
				"ar_content": "AR Content",
				"ar_config":{
					"redirect_url": "https://www.google.com"
				}
			}
		},
		"response_status":59400005,
		"response_text":{
			"debug_msg": "request failed, err:task: ar_config: icon: string field is required: noti.marketpush.create_task failed"
		}
	}
}