{
	"get_whatsapp_task_list_internal_search_task_id":{
		"api_command": "noti.message_gatekeeper.get_whatsapp_task_list",
		"req":{
			"offset":0,
			"result_size":10,
			"task_ids":[106],
			"task_scope": 1,
			"task_type":1
		},
		"response_status":0,
		"response_text":{
			"total": 1,
			"task_list": [{
				"task_type": 1,
				"task_id": 106,
				"task_name": "SC0624SMS04"
			}]
		}
	},
	"get_whatsapp_task_list_internal_search_more_than_one_task_id":{
		"api_command": "noti.message_gatekeeper.get_whatsapp_task_list",
		"req":{
			"offset":0,
			"result_size":10,
			"task_ids":[106, 99, 100],
			"task_scope": 1,
			"task_type":1
		},
		"response_status":0,
		"response_text":{
			"total": 3,
			"task_list": [
			{
				"task_type": 1,
				"task_id": 106,
				"task_name": "SC0624SMS04"
			},
			{
				"task_type": 1,
				"task_id": 99,
				"task_name": "ST0524"
			},
			{
				"task_type": 1,
				"task_id": 100,
				"task_name": "SC062001"
			}]
		}
	},
	"get_whatsapp_task_list_internal_search_task_name_exact":{
		"api_command": "noti.message_gatekeeper.get_whatsapp_task_list",
		"req":{
			"offset":0,
			"result_size":10,
			"task_name":"SC0624SMS04",
			"task_scope": 1,
			"task_type":1
		},
		"response_status":0,
		"response_text":{
			"total": 1,
			"task_list": [{
				"task_id": 106,
				"task_name": "SC0624SMS04"
			}]
		}
	},
	"get_whatsapp_task_list_internal_search_task_name_partial":{
		"api_command": "noti.message_gatekeeper.get_whatsapp_task_list",
		"req":{
			"offset":0,
			"result_size":10,
			"task_name":"0624SMS04",
			"task_scope": 1,
			"task_type":1
		},
		"response_status":0,
		"response_text":{
			"total": 1,
			"task_list": [{
				"task_id": 106,
				"task_name": "SC0624SMS04"
			}]
		}
	},
	"get_whatsapp_task_list_internal_search_task_status_pending_admin_approval":{
		"api_command": "noti.message_gatekeeper.get_whatsapp_task_list",
		"req":{
			"offset":0,
			"result_size":10,
			"task_status":1,
			"task_scope": 1,
			"task_type":1
		},
		"response_status":0,
		"response_text":{
			"total": "int_to_be_replaced"
		}
	},
	"get_whatsapp_task_list_internal_search_task_status_enabled":{
		"api_command": "noti.message_gatekeeper.get_whatsapp_task_list",
		"req":{
			"offset":0,
			"result_size":10,
			"task_status":2,
			"task_scope": 1,
			"task_type":1
		},
		"response_status":0,
		"response_text":{
			"total": "int_to_be_replaced"
		}
	},
	"get_whatsapp_task_list_internal_search_task_status_disabled":{
		"api_command": "noti.message_gatekeeper.get_whatsapp_task_list",
		"req":{
			"offset":0,
			"result_size":10,
			"task_status":3,
			"task_scope": 1,
			"task_type":1
		},
		"response_status":0,
		"response_text":{
			"total": "int_to_be_replaced"
		}
	},
	"get_whatsapp_task_list_internal_search_owner_has_result":{
		"api_command": "noti.message_gatekeeper.get_whatsapp_task_list",
		"req":{
			"offset":0,
			"result_size":10,
			"owner_id":31,
			"task_scope": 1,
			"task_type":1
		},
		"response_status":0,
		"response_text":{
			"total": "int_to_be_replaced",
			"task_list": [{
				"task_id": "int_to_be_replaced",
				"owner_id": 31
			}]
		}
	},
	"get_whatsapp_task_list_internal_search_owner_has_no_result":{
		"api_command": "noti.message_gatekeeper.get_whatsapp_task_list",
		"req":{
			"offset":0,
			"result_size":10,
			"owner_id":90,
			"task_scope": 1,
			"task_type":1
		},
		"response_status":0,
		"response_text":{
			"total": 0
		}
	},
	"get_whatsapp_task_list_internal_search_category_otp":{
		"api_command": "noti.message_gatekeeper.get_whatsapp_task_list",
		"req":{
			"offset":0,
			"result_size":10,
			"category_ids": [
				6,
				12,
				13,
				20,
				38
			],
			"task_scope": 1,
			"task_type":1
		},
		"response_status":0,
		"response_text":{
			"total": "int_to_be_replaced"
		}
	}
}