{
	"create_task_web_push_config_action_title_empty":{
		"api_command": "noti.admin_marketpush.create_task",
		"req":{
			"task":{
				"task_name": "ST050301",
				"task_description": "Test Des",
				"region": "TW",
				"noti_folder": 1,
				"operator": "sam.chang@shopee.com",
				"ar_content": "AR Content",
				"pn_title": "PN Title",
				"pn_content": "PN Content",
				"ar_title": "AR Title",
				"send_option": 4,
				"ar_config":{
					"icon": "255609944a60a452771b2763c5f8cd3b",
					"redirect_url": "https://www.google.com"
				},
				"web_push_content": "Web Push Content",
				"web_push_title": "Web Push Title",
				"web_push_config":{
					"redirect_url": "https://www.google.com",
					"icon": "255609944a60a452771b2763c5f8cd3b",
					"action_title": ""
				}
			}
		},
		"response_status":59400005,
		"response_text":{
			"debug_msg": "request failed, err:task: web_push_config: action_title: string field cannot be empty: noti.marketpush.create_task failed"
		}
	},
	"create_task_web_push_config_action_title_number":{
		"api_command": "noti.admin_marketpush.create_task",
		"req":{
			"task":{
				"task_name": "ST050301",
				"task_description": "Test Des",
				"region": "TW",
				"noti_folder": 1,
				"operator": "sam.chang@shopee.com",
				"ar_content": "AR Content",
				"pn_title": "PN Title",
				"pn_content": "PN Content",
				"ar_title": "AR Title",
				"send_option": 4,
				"ar_config":{
					"icon": "255609944a60a452771b2763c5f8cd3b",
					"redirect_url": "https://www.google.com"
				},
				"web_push_content": "Web Push Content",
				"web_push_title": "Web Push Title",
				"web_push_config":{
					"redirect_url": "https://www.google.com",
					"icon": "255609944a60a452771b2763c5f8cd3b",
					"action_title": 123
				}
			}
		},
		"response_status":105,
		"response_text":null
	},
	"create_task_web_push_config_action_title_float_number":{
		"api_command": "noti.admin_marketpush.create_task",
		"req":{
			"task":{
				"task_name": "ST050301",
				"task_description": "Test Des",
				"region": "TW",
				"noti_folder": 1,
				"operator": "sam.chang@shopee.com",
				"ar_content": "AR Content",
				"pn_title": "PN Title",
				"pn_content": "PN Content",
				"ar_title": "AR Title",
				"send_option": 4,
				"ar_config":{
					"icon": "255609944a60a452771b2763c5f8cd3b",
					"redirect_url": "https://www.google.com"
				},
				"web_push_content": "Web Push Content",
				"web_push_title": "Web Push Title",
				"web_push_config":{
					"redirect_url": "https://www.google.com",
					"icon": "255609944a60a452771b2763c5f8cd3b",
					"action_title": 1.5
				}
			}
		},
		"response_status":105,
		"response_text":null
	}
}