{
	"create_task_ar_redirect_empty":{
		"api_command": "noti.admin.create_task",
		"req":{
			"task":{
				"task_name": "SpexAPITestCreateTask_task_name",
				"operator": "sam.chang@shopee.com",
				"creator": "sam.chang@shopee.com",
				"multi_region": ["TW"],
				"task_description": "CreateTaskTest",
				"app_type": [1],
				"noti_methods": [2, 32],
				"ar_content": "AR Content",
				"pn_content": "PN Content",
				"ar_redirect": "",
				"pn_redirect": "https://www.google.com",
				"action_category": 1,
				"owner_id": 14
			}
		},
		"response_status":20400100,
		"response_text":{
			"debug_msg": "Request validation failed: task: ar_redirect: string field cannot be empty"
		}
	},
	"create_task_ar_redirect_number":{
		"api_command": "noti.admin.create_task",
		"req":{
			"task":{
				"task_name": "SpexAPITestCreateTask_task_name",
				"ar_content": "AR Content",
				"operator": "sam.chang@shopee.com",
				"creator": "sam.chang@shopee.com",
				"multi_region": ["TW"],
				"task_description": "CreateTaskTest",
				"app_type": [1],
				"noti_methods": [2, 32],
				"pn_content": "PN Content",
				"ar_redirect": 123,
				"pn_redirect": "https://www.google.com",
				"action_category": 1,
				"owner_id": 14
			}
		},
		"response_status":105,
		"response_text":null
	},
	"create_task_ar_redirect_float_number":{
		"api_command": "noti.admin.create_task",
		"req":{
			"task":{
				"task_name": "SpexAPITestCreateTask_task_name",
				"ar_content": "AR Content",
				"operator": "sam.chang@shopee.com",
				"creator": "sam.chang@shopee.com",
				"multi_region": ["TW"],
				"task_description": "CreateTaskTest",
				"app_type": [1],
				"noti_methods": [2, 32],
				"pn_content": "PN Content",
				"ar_redirect": 1.5,
				"pn_redirect": "https://www.google.com",
				"action_category": 1,
				"owner_id": 14
			}
		},
		"response_status":105,
		"response_text":null
	}
}