{
	"get_sms_task_list_internal_overview_page_1":{
		"api_command": "noti.message_gatekeeper.get_sms_task_list",
		"req":{
			"offset":0,
			"result_size":10,
			"task_scope": 1,
			"task_type":1
		},
		"response_status":0,
		"response_text":{
			"total": "int_to_be_replaced",
			"task_list": [{
				"task_type": 1,
				"task_id": "int_to_be_replaced",
				"task_name": "str_to_be_replaced"
			}]
		}
	},
	"get_sms_task_list_internal_overview_page_2":{
		"api_command": "noti.message_gatekeeper.get_sms_task_list",
		"req":{
			"offset":10,
			"result_size":10,
			"task_scope": 1,
			"task_type":1
		},
		"response_status":0,
		"response_text":{
			"total": "int_to_be_replaced",
			"task_list": [{
				"task_type": 1,
				"task_id": "int_to_be_replaced",
				"task_name": "str_to_be_replaced"
			}]
		}
	},
	"get_sms_task_list_internal_offset_over_task_count":{
		"api_command": "noti.message_gatekeeper.get_sms_task_list",
		"req":{
			"offset":99999,
			"result_size":10,
			"task_scope": 1,
			"task_type":1
		},
		"response_status":0,
		"response_text":{
			"total": "int_to_be_replaced"
		}
	}
}