{
	"add_files_csv_file_names_empty":{
		"api_command": "noti.admin_marketpush.add_files",
		"req":{
			"csv_file_names": [""],
			"task_id": 2,
			"send_type": 1
		},
		"response_status":59500000,
		"response_text":{
			"debug_msg": "csv_file_names: index 0: string field cannot be empty"
		}
	},
	"add_files_csv_file_names_number":{
		"api_command": "noti.admin_marketpush.add_files",
		"req":{
			"csv_file_names": [123],
			"task_id": 2,
			"send_type": 1
		},
		"response_status":105,
		"response_text":null
	},
	"add_files_csv_file_names_float_number":{
		"api_command": "noti.admin_marketpush.add_files",
		"req":{
			"csv_file_names": [1.5],
			"task_id": 2,
			"send_type": 1
		},
		"response_status":105,
		"response_text":null
	},
	"add_files_csv_file_names_correct_file_name":{
		"api_command": "noti.admin_marketpush.add_files",
		"req":{
			"csv_file_names": ["Notification header format.csv"],
			"task_id": 2,
			"csv_file_paths": ["c24hucgde9vi3of7ps2g"],
			"send_type": 1
		},
		"response_status":0,
		"response_text":{
			"csv_send_config":{
				"csv_files":[{
					"file_name":"Notification header format.csv",
					"file_path":"c24hucgde9vi3of7ps2g",
					"mini_files":[{
						"file_path":"c24hucgde9vi3of7ps2g"
					}]
				}]
			}
		}
	},
	"add_files_csv_file_names_not_correct_file_name_without_csv":{
		"api_command": "noti.admin_marketpush.add_files",
		"req":{
			"csv_file_names": ["asdf"],
			"task_id": 2,
			"csv_file_paths": ["c24hucgde9vi3of7ps2g"],
			"send_type": 1
		},
		"response_status":0,
		"response_text":{
			"csv_send_config":{
				"csv_files":[{
					"file_name":"asdf",
					"file_path":"c24hucgde9vi3of7ps2g",
					"mini_files":[{
						"file_path":"c24hucgde9vi3of7ps2g"
					}]
				}]
			}
		}
	},
	"add_files_csv_file_names_not_correct_file_name_with_csv":{
		"api_command": "noti.admin_marketpush.add_files",
		"req":{
			"csv_file_names": ["asdf.csv"],
			"task_id": 2,
			"csv_file_paths": ["c24hucgde9vi3of7ps2g"],
			"send_type": 1
		},
		"response_status":0,
		"response_text":{
			"csv_send_config":{
				"csv_files":[{
					"file_name":"asdf.csv",
					"file_path":"c24hucgde9vi3of7ps2g",
					"mini_files":[{
						"file_path":"c24hucgde9vi3of7ps2g"
					}]
				}]
			}
		}
	}
}