{
	"get_task_list_task_id_task_name_not_same_task":{
		"api_command": "noti.admin.get_task_list",
		"req":{
			"task_id":9329,
			"task_name":"penalty_system_appeal_fail"
		},
		"response_status":0,
		"response_text":{
			"total": 1,
			"task_list":[{
				"task_id":9329,
				"task_name": "penalty_system_tier_changed"
			}]
		}
	},
	"get_task_list_task_id_task_name_owner_id_not_same_task":{
		"api_command": "noti.admin.get_task_list",
		"req":{
			"task_id":9329,
			"task_name":"penalty_system_appeal_fail",
			"owner_id":14
		},
		"response_status":0,
		"response_text":{
			"total": 1,
			"task_list":[{
				"task_id":9329,
				"task_name": "penalty_system_tier_changed",
				"owner_id": 38
			}]
		}
	},
	"get_task_list_task_id_task_name_owner_id_app_type_not_same_task":{
		"api_command": "noti.admin.get_task_list",
		"req":{
			"task_id":9329,
			"task_name":"penalty_system_appeal_fail",
			"owner_id":14,
			"app_type":{
				"keys":["2"],
				"method":1
			}
		},
		"response_status":0,
		"response_text":{
			"total": 1,
			"task_list":[{
				"task_id":9329,
				"task_name": "penalty_system_tier_changed",
				"owner_id": 38,
				"app_type":[1]
			}]
		}
	}
}