{
	"get_whatsapp_task_list_by_internal_manual_message_overview_page_1":{
		"api_command": "noti.admin_message_gatekeeper.get_whatsapp_task_list_by_internal",
		"req":{
			"offset":0,
			"result_size":10,
			"task_type":2
		},
		"response_status":0,
		"response_text":{
			"total": "int_to_be_replaced",
			"task_list": [{
				"task_type": 2,
				"task_id": "int_to_be_replaced",
				"task_name": "str_to_be_replaced"
			}]
		}
	},
	"get_whatsapp_task_list_by_internal_manual_message_overview_page_2":{
		"api_command": "noti.admin_message_gatekeeper.get_whatsapp_task_list_by_internal",
		"req":{
			"offset":10,
			"result_size":10,
			"task_type":2
		},
		"response_status":0,
		"response_text":{
			"total": "int_to_be_replaced",
			"task_list": [{
				"task_type": 2,
				"task_id": "int_to_be_replaced",
				"task_name": "str_to_be_replaced"
			}]
		}
	},
	"get_whatsapp_task_list_by_internal_manual_message_offset_over_task_count":{
		"api_command": "noti.admin_message_gatekeeper.get_whatsapp_task_list_by_internal",
		"req":{
			"offset":99999,
			"result_size":10,
			"task_type":2
		},
		"response_status":0,
		"response_text":{
			"total": "int_to_be_replaced"
		}
	}
}