{
	"edit_task_priority_0":{
		"api_command": "noti.admin.edit_task",
		"req":{
			"task":{
				"task_id": 9047,
				"priority": 0,
				"ar_content": "AR Content",
				"pn_content": "PN Content",
				"operator": "sam.chang@shopee.com",
				"app_type": [1],
				"noti_methods": [2, 32],
				"pn_redirect": "https://www.google.com",
				"ar_redirect": "https://www.google.com"
			}
		},
		"response_status":0,
		"response_text":{
			"task":{
				"priority": 0
			}
		}
	},
	"edit_task_priority_int32_limit":{
		"api_command": "noti.admin.edit_task",
		"req":{
			"task":{
				"task_id": 9047,
				"priority": 2147483647,
				"ar_content": "AR Content",
				"pn_content": "PN Content",
				"operator": "sam.chang@shopee.com",
				"app_type": [1],
				"noti_methods": [2, 32],
				"pn_redirect": "https://www.google.com",
				"ar_redirect": "https://www.google.com"
			}
		},
		"response_status":0,
		"response_text":{
			"task":{
				"priority": 2147483647
			}
		}
	},
	"edit_task_priority_over_int32":{
		"api_command": "noti.admin.edit_task",
		"req":{
			"task":{
				"task_id": 9047,
				"priority": 2147483648,
				"ar_content": "AR Content",
				"pn_content": "PN Content",
				"operator": "sam.chang@shopee.com",
				"app_type": [1],
				"noti_methods": [2, 32],
				"pn_redirect": "https://www.google.com",
				"ar_redirect": "https://www.google.com"
			}
		},
		"response_status":105,
		"response_text":null
	},
	"edit_task_priority_string":{
		"api_command": "noti.admin.edit_task",
		"req":{
			"task":{
				"task_id": 9047,
				"priority": "String",
				"ar_content": "AR Content",
				"pn_content": "PN Content",
				"operator": "sam.chang@shopee.com",
				"app_type": [1],
				"noti_methods": [2, 32],
				"pn_redirect": "https://www.google.com",
				"ar_redirect": "https://www.google.com"
			}
		},
		"response_status":105,
		"response_text":null
	},
	"edit_task_priority_float_number":{
		"api_command": "noti.admin.edit_task",
		"req":{
			"task":{
				"task_id": 9047,
				"priority": 1.5,
				"ar_content": "AR Content",
				"pn_content": "PN Content",
				"operator": "sam.chang@shopee.com",
				"app_type": [1],
				"noti_methods": [2, 32],
				"pn_redirect": "https://www.google.com",
				"ar_redirect": "https://www.google.com"
			}
		},
		"response_status":105,
		"response_text":null
	},
	"edit_task_priority_negative":{
		"api_command": "noti.admin.edit_task",
		"req":{
			"task":{
				"task_id": 9047,
				"priority": -1,
				"ar_content": "AR Content",
				"pn_content": "PN Content",
				"operator": "sam.chang@shopee.com",
				"app_type": [1],
				"noti_methods": [2, 32],
				"pn_redirect": "https://www.google.com",
				"ar_redirect": "https://www.google.com"
			}
		},
		"response_status":20400003,
		"response_text":{
			"debug_msg": "request failed, err:Error 1264: Out of range value for column 'priority' at row 1: noti.scheduler.edit_task failed"
		}
	},
	"edit_task_priority_restore_data":{
		"api_command": "noti.admin.edit_task",
		"req":{
			"task":{
				"task_id": 9047,
				"priority": 0,
				"ar_content": "AR Content",
				"pn_content": "PN Content",
				"operator": "sam.chang@shopee.com",
				"app_type": [1],
				"noti_methods": [2, 32],
				"pn_redirect": "https://www.google.com",
				"ar_redirect": "https://www.google.com"
			}
		},
		"response_status":0,
		"response_text":{
			"task":{
				"priority": 0
			}
		}
	}
}