{
	"add_two_csv_file_to_step3_page":{
		"api_command": "noti.admin_marketpush.add_files",
		"req":{
			"task_id": 35,
			"send_type": 1,
			"csv_file_paths": ["c24hug8de9vi3of7ps50", "c69mhb0de9vldne8gv10"],
			"csv_file_names": ["Notification header format.csv", "Notification header format2.csv"]
		},
		"response_status":0,
		"response_text":{
			"csv_send_config":{
				"csv_files":[{
					"file_name":"Notification header format.csv",
					"file_path":"c24hug8de9vi3of7ps50",
					"mini_files":[{
						"file_path":"c24hug8de9vi3of7ps50"
					}]
				},
				{
					"file_name":"Notification header format2.csv",
					"file_path":"c69mhb0de9vldne8gv10",
					"mini_files":[{
						"file_path":"c69mhb0de9vldne8gv10"
					}]
				}]
			}
		}
	},
	"get_task_on_step3_page":{
		"api_command": "noti.admin_marketpush.get_task",
		"req":{
			"task_id": 35
		},
		"response_status":0,
		"response_text":{
			"debug_msg":"",
			"task":{
				"test_send_config":{
					"csv_send_config":{
						"csv_files":[{
							"file_name":"Notification header format.csv",
							"file_path":"c24hug8de9vi3of7ps50",
							"mini_files":[{
								"file_path":"c24hug8de9vi3of7ps50"
							}]
							},
							{
							"file_name":"Notification header format2.csv",
							"file_path":"c69mhb0de9vldne8gv10",
							"mini_files":[{
								"file_path":"c69mhb0de9vldne8gv10"
							}]
						}]
					}
				},
				"task_control_info":{
				"can_test_send":true,
				"task_id":35,
				"can_real_send":false,
				"can_schedule_send":false
				},
				"task_id":35
			}
		}
	},
	"add_two_csv_file_to_step4_page":{
		"api_command": "noti.admin_marketpush.add_files",
		"req":{
			"task_id": 62,
			"send_type": 2,
			"csv_file_paths": ["c24hug8de9vi3of7ps50", "c69mhb0de9vldne8gv10"],
			"csv_file_names": ["Notification header format.csv", "Notification header format2.csv"]
		},
		"response_status":0,
		"response_text":{
			"csv_send_config":{
				"csv_files":[{
					"file_name":"Notification header format.csv",
					"file_path":"c24hug8de9vi3of7ps50",
					"mini_files":[{
						"file_path":"c24hug8de9vi3of7ps50"
					}]
				},
				{
				"file_name":"Notification header format2.csv",
				"file_path":"c69mhb0de9vldne8gv10",
				"mini_files":[{
					"file_path":"c69mhb0de9vldne8gv10"
				}]
				}
				]
			}
		}
	},
	"get_task_on_step4_page":{
		"api_command": "noti.admin_marketpush.get_task",
		"req":{
			"task_id": 62
		},
		"response_status":0,
		"response_text":{
			"debug_msg":"",
			"task":{
				"real_send_config":{
					"csv_send_config":{
						"csv_files":[{
							"no_rows":2,
							"file_name":"Notification header format.csv",
							"csv_format":0,
							"file_path":"c24hug8de9vi3of7ps50",
							"mini_files":[{
							"no_rows":2,
							"csv_format":0,
							"file_path":"c24hug8de9vi3of7ps50"
							}]
						},
						{
							"no_rows":2,
							"file_name":"Notification header format2.csv",
							"csv_format":0,
							"file_path":"c69mhb0de9vldne8gv10",
							"mini_files":[{
								"no_rows":2,
								"csv_format":0,
								"file_path":"c69mhb0de9vldne8gv10"
							}]
						}]
					}
				},
				"task_control_info":{
				"can_test_send":true,
				"can_real_send":false,
				"can_schedule_send":false,
				"task_id":62
				}
			}
		}
	}
}