{
	"create_tasks_by_json_config_task_json_config_list_empty":{
		"api_command": "noti.admin.create_tasks_by_json_config",
		"req":{
			"task_json_config_list": "",
			"owner_id": 14,
			"operator": "sam.chang@shopee.com"
		},
		"response_status":10000,
		"response_text":{
			"debug_msg": "task_json_config_list: string field cannot be empty"
		}
	},
	"create_tasks_by_json_config_task_json_config_list_number":{
		"api_command": "noti.admin.create_tasks_by_json_config",
		"req":{
			"task_json_config_list": 123,
			"owner_id": 14,
			"operator": "sam.chang@shopee.com"
			},
		"response_status":105,
		"response_text":null
	},
	"create_tasks_by_json_config_task_json_config_list_float_number":{
		"api_command": "noti.admin.create_tasks_by_json_config",
		"req":{
			"task_json_config_list": 1.5,
			"owner_id": 14,
			"operator": "sam.chang@shopee.com"
		},
		"response_status":105,
		"response_text":null
	}
}