{
	"create_sms_task_internal_min_necessary_field":{
		"api_command": "noti.message_gatekeeper.create_sms_task",
		"req":{
			"task": {
				"task_name": "str_to_be_replaced",
				"category_id": 22,
				"owner_id": 28,
				"task_description": "Test Des",
				"task_content": "Test SMS has transify\ntransify_key:SmsVcodeSellerloanViewContract",
				"task_scope": 1,
				"operator": "sam.chang@shopee.com",
				"ext_info":{
					"manual_message": {
						"num_of_messages_sent": 1,
						"manual_message_type": 1,
						"task_operators": ["sam.chang@shopee.com"]
					},
					"task_queue":1
				}
			}
		},
		"response_status":0,
		"response_text":{
			"task_id": "int_to_be_replaced"
		}
	},
	"create_sms_task_internal_min_necessary_field_WebFE":{
		"api_command": "noti.message_gatekeeper.create_sms_task",
		"req":{
			"task": {
				"task_name": "str_to_be_replaced",
				"category_id": 22,
				"owner_id": 28,
				"task_description": "Test Des",
				"task_content": "Test SMS has transify\ntransify_key:SmsVcodeSellerloanViewContract",
				"task_scope": 1,
				"operator": "sam.chang@shopee.com",
				"region_list": ["TW", "ID"],
				"ext_info":{
					"manual_message": {
						"num_of_messages_sent": 1,
						"manual_message_type": 1,
						"task_operators": ["sam.chang@shopee.com"]
					},
					"task_queue":1
				}
			}
		},
		"response_status":0,
		"response_text":{
			"task_id": "int_to_be_replaced"
		}
	}
}