{
	"edit_task_redirect_url_number":{
		"api_command": "noti.admin_marketpush.edit_task",
		"req":{
			"task":{
				"task_id": 2,
				"ar_config":{
					"redirect_url": 123
				}
			}
		},
		"response_status":105,
		"response_text":null
	},
	"edit_task_redirect_url_float_number":{
		"api_command": "noti.admin_marketpush.edit_task",
		"req":{
			"task":{
				"task_id": 2,
				"ar_config":{
					"redirect_url": 1.5
				}
			}
		},
		"response_status":105,
		"response_text":null
	}
}