{
	"edit_task_task_id_0":{
		"api_command": "noti.admin_marketpush.edit_task",
		"req":{
			"task":{
				"task_id": 0
			}
		},
		"response_status":59400005,
		"response_text":{
			"debug_msg": "request failed, err:task_id: uint32 field cannot be zero: noti.marketpush.get_task_from_master failed"
		}
	},
	"edit_task_task_id_int64_limit":{
		"api_command": "noti.admin_marketpush.edit_task",
		"req":{
			"task":{
				"task_id": 4294967295
			}
		},
		"response_status":59400001,
		"response_text":{
			"debug_msg": "request failed, err:not found: noti.marketpush.get_task_from_master failed"
		}
	},
	"edit_task_task_id_over_int64_limit":{
		"api_command": "noti.admin_marketpush.edit_task",
		"req":{
			"task":{
				"task_id": 4294967296
			}
		},
		"response_status":105,
		"response_text":null
	},
	"edit_task_task_id_string":{
		"api_command": "noti.admin_marketpush.edit_task",
		"req":{
			"task":{
				"task_id": "String"
			}
		},
		"response_status":105,
		"response_text":null
	},
	"edit_task_task_id_float_number":{
		"api_command": "noti.admin_marketpush.edit_task",
		"req":{
			"task":{
				"task_id": 1.5
			}
		},
		"response_status":105,
		"response_text":null
	},
	"edit_task_task_id_negative":{
		"api_command": "noti.admin_marketpush.edit_task",
		"req":{
			"task":{
				"task_id": -1
			}
		},
		"response_status":105,
		"response_text":null
	}
}