{
	"edit_task_ar_title":{
		"api_command": "noti.admin_marketpush.edit_task",
		"req":{
			"task":{
				"task_id": 21,
				"operator": "sam.chang@shopee.com",
				"ar_title": "AR Title Edit"
			}
		},
		"response_status":0,
		"response_text":{
			"task":{
				"creator": "sam.chang@shopee.com",
				"task_id": 21,
				"ar_title": "AR Title Edit"
			}
		}
	},
	"get_task_after_editing_first":{
		"api_command": "noti.admin_marketpush.get_task",
		"req":{
			"task_id": 21
		},
		"response_status":0,
		"response_text":{
			"debug_msg": "",
			"task":{
				"ar_title": "AR Title Edit"
			}
		}
	},
	"edit_task_ar_title_again":{
		"api_command": "noti.admin_marketpush.edit_task",
		"req":{
			"task":{
				"task_id": 21,
				"operator": "sam.chang@shopee.com",
				"ar_title": "AR Title"
			}
		},
		"response_status":0,
		"response_text":{
			"task":{
				"creator": "sam.chang@shopee.com",
				"task_id": 21,
				"ar_title": "AR Title"
			}
		}
	},
	"get_task_after_editing_second":{
		"api_command": "noti.admin_marketpush.get_task",
		"req":{
			"task_id": 21
		},
		"response_status":0,
		"response_text":{
			"debug_msg": "",
			"task":{
				"ar_title": "AR Title"
			}
		}
	}
}