{
	"get_task_list_app_type_keys_empty":{
		"api_command": "noti.admin.get_task_list",
		"req":{
			"app_type":{
				"keys":[""]
			}
		},
		"response_status":10000,
		"response_text":{
			"debug_msg": "strconv.Atoi: parsing \"\": invalid syntax"
		}
	},
	"get_task_list_app_type_keys_number":{
		"api_command": "noti.admin.get_task_list",
		"req":{
			"app_type":{
				"keys":[123]
			}
		},
		"response_status":105,
		"response_text":null
	},
	"get_task_list_app_type_keys_float_number":{
		"api_command": "noti.admin.get_task_list",
		"req":{
			"app_type":{
				"keys":[1.5]
			}
		},
		"response_status":105,
		"response_text":null
	},
	"get_task_list_app_type_keys_exist_but_not_input_method":{
		"api_command": "noti.admin.get_task_list",
		"req":{
			"app_type":{
				"keys":["1"]
			}
		},
		"response_status":20400003,
		"response_text":{
			"debug_msg": "ERROR_EXTERNAL_SERVICE"
		}
	},
	"get_task_list_app_type_keys_not_exist":{
		"api_command": "noti.admin.get_task_list",
		"req":{
			"app_type":{
				"keys":["10"]
			}
		},
		"response_status":10000,
		"response_text":{
			"debug_msg": "invalid app type: 10"
		}
	}
}