{
	"trigger_test_send_no_csv":{
		"api_command": "noti.admin_marketpush.trigger_test_send",
		"req":{
			"task_id": 36,
			"operator": "sam.chang@shopee.com"
		},
		"response_status":10000,
		"response_text":{
			"debug_msg": "no csv files are present for test"
		}
	},
	"trigger_test_send_not_exist_task":{
		"api_command": "noti.admin_marketpush.trigger_test_send",
		"req":{
			"task_id": 99999,
			"operator": "sam.chang@shopee.com"
		},
		"response_status":59400001,
		"response_text":{
			"debug_msg": "request failed, err:not found: noti.marketpush.get_task_from_master failed"
		}
	}
}