{
	"edit_task_noti_folder_over_int64_limit":{
		"api_command": "noti.admin_marketpush.edit_task",
		"req":{
			"task":{
				"task_id": 2,
				"operator": "sam.chang@shopee.com",
				"noti_folder": 4294967296
			}
		},
		"response_status":105,
		"response_text":null
	},
	"edit_task_noti_folder_string":{
		"api_command": "noti.admin_marketpush.edit_task",
		"req":{
			"task":{
				"task_id": 2,
				"operator": "sam.chang@shopee.com",
				"noti_folder": "Sting"
			}
		},
		"response_status":105,
		"response_text":null
	},
	"edit_task_noti_folder_float_number":{
		"api_command": "noti.admin_marketpush.edit_task",
		"req":{
			"task":{
				"task_id": 2,
				"operator": "sam.chang@shopee.com",
				"noti_folder": 1.5
			}
		},
		"response_status":105,
		"response_text":null
	},
	"edit_task_noti_folder_negative":{
		"api_command": "noti.admin_marketpush.edit_task",
		"req":{
			"task":{
				"task_id": 2,
				"operator": "sam.chang@shopee.com",
				"noti_folder": -1
			}
		},
		"response_status":105,
		"response_text":null
	},
	"edit_task_noti_folder_not_exist":{
		"api_command": "noti.admin_marketpush.edit_task",
		"req":{
			"task":{
				"task_id": 2,
				"operator": "sam.chang@shopee.com",
				"noti_folder": 6
			}
		},
		"response_status":59400005,
		"response_text":{
			"debug_msg": "request failed, err:task: noti_folder: uint32 field is not in enum map:map[1:NOTI_FOLDER_PROMOTIONS 2:NOTI_FOLDER_LISTING_UPDATES 4:NOTI_FOLDER_ORDER_UPDATES 6:NOTI_FOLDER_SHOPEE_UPDATES 8:NOTI_FOLDER_WALLET 9:NOTI_FOLDER_ADS 10:NOTI_FOLDER_SOCIAL_UPDATES 13:NOTI_FOLDER_SHOPEE_PAY_LATER 14:NOTI_FOLDER_FLASH_SALE_NOMINATIONS 15:NOTI_FOLDER_FBS_PRODUCT_NOMINATIONS_UPDATES 16:NOTI_FOLDER_FBS_INBOUND_UPDATES 17:NOTI_FOLDER_SELLER_ORDER_UPDATES 18:NOTI_FOLDER_SELLER_RATINGS 19:NOTI_FOLDER_SELLER_RETURN_REFUND 20:NOTI_FOLDER_SELLER_LISTING 21:NOTI_FOLDER_SELLER_WALLET 22:NOTI_FOLDER_SELLER_MARKETING_CENTRE 23:NOTI_FOLDER_SELLER_PERFORMANCE 24:NOTI_FOLDER_SELLER_SHOPEE_UPDATES 32:NOTI_FOLDER_SHOPEE_GAMES]: noti.marketpush.edit_task failed"
		}
	}
}