{
	"trigger_noti_user_noti_pc_redirect_url_empty":{
		"api_command": "noti.admin.trigger_noti",
		"req":{
			"task_id":9562,
			"user_noti":{
				"user_id":100635331,
				"pc_redirect_url":""
			}
		},
		"response_status":0,
		"response_text":{}
	},
	"trigger_noti_user_noti_pc_redirect_url_number":{
		"api_command": "noti.admin.trigger_noti",
		"req":{
			"task_id":9518,
			"user_noti":{
				"user_id":100635331,
				"pc_redirect_url":123
			}
		},
		"response_status":105,
		"response_text":null
	},
	"trigger_noti_user_noti_pc_redirect_url_float_number":{
		"api_command": "noti.admin.trigger_noti",
		"req":{
			"task_id":9518,
			"user_noti":{
				"user_id":100635331,
				"pc_redirect_url":1.5
			}
		},
		"response_status":105,
		"response_text":null
	}
}
