{
	"create_task_multi_region_empty":{
		"api_command": "noti.admin.create_task",
		"req":{
			"task":{
				"task_name": "SpexAPITestCreateTask_task_name",
				"multi_region": [""],
				"operator": "sam.chang@shopee.com",
				"creator": "sam.chang@shopee.com",
				"task_description": "CreateTaskTest",
				"app_type": [1],
				"noti_methods": [2, 32],
				"ar_content": "AR Content",
				"pn_content": "PN Content",
				"ar_redirect": "https://www.google.com",
				"pn_redirect": "https://www.google.com",
				"owner_id": 14,
				"action_category": 1
			}
		},
		"response_status":20400100,
		"response_text":{
			"debug_msg": "Request validation failed: task: image: string field is required"
		}
	},
	"create_task_multi_region_number":{
		"api_command": "noti.admin.create_task",
		"req":{
			"task":{
				"task_name": "SpexAPITestCreateTask_task_name",
				"multi_region": [123],
				"operator": "sam.chang@shopee.com",
				"creator": "sam.chang@shopee.com",
				"task_description": "CreateTaskTest",
				"app_type": [1],
				"noti_methods": [2, 32],
				"ar_content": "AR Content",
				"pn_content": "PN Content",
				"ar_redirect": "https://www.google.com",
				"pn_redirect": "https://www.google.com",
				"owner_id": 14,
				"action_category": 1
			}
		},
		"response_status":105,
		"response_text":null
	},
	"create_task_multi_region_float_number":{
		"api_command": "noti.admin.create_task",
		"req":{
			"task":{
				"task_name": "SpexAPITestCreateTask_task_name",
				"multi_region": [1.5],
				"operator": "sam.chang@shopee.com",
				"creator": "sam.chang@shopee.com",
				"task_description": "CreateTaskTest",
				"app_type": [1],
				"noti_methods": [2, 32],
				"ar_content": "AR Content",
				"pn_content": "PN Content",
				"ar_redirect": "https://www.google.com",
				"pn_redirect": "https://www.google.com",
				"owner_id": 14,
				"action_category": 1
			}
		},
		"response_status":105,
		"response_text":null
	},
	"create_task_multi_region_not_exist":{
		"api_command": "noti.admin.create_task",
		"req":{
			"task":{
				"task_name": "SpexAPITestCreateTask_task_name",
				"multi_region": ["AK"],
				"operator": "sam.chang@shopee.com",
				"creator": "sam.chang@shopee.com",
				"task_description": "CreateTaskTest",
				"app_type": [1],
				"noti_methods": [2, 32],
				"ar_content": "AR Content",
				"pn_content": "PN Content",
				"ar_redirect": "https://www.google.com",
				"pn_redirect": "https://www.google.com",
				"owner_id": 14,
				"action_category": 1,
				"image": "255609944a60a452771b2763c5f8cd3b"
			}
		},
		"response_status":20400100,
		"response_text":{
			"debug_msg": "Request validation failed: task: multi_region: index 0: invalid region: AK"
		}
	}
}