{
	"get_task_list_multi_region_keys_empty":{
		"api_command": "noti.admin.get_transactional_task_list",
		"req":{
			"multi_region":{
				"keys":[""]
			}
		},
		"response_status":10000,
		"response_text":{
			"debug_msg": "multi_region: keys: index 0: string field cannot be empty"
		}
	},
	"get_task_list_multi_region_keys_number":{
		"api_command": "noti.admin.get_transactional_task_list",
		"req":{
			"multi_region":{
				"keys":[123]
			}
		},
		"response_status":105,
		"response_text":null
	},
	"get_task_list_multi_region_keys_float_number":{
		"api_command": "noti.admin.get_transactional_task_list",
		"req":{
			"multi_region":{
				"keys":[1.5]
			}
		},
		"response_status":105,
		"response_text":null
	},
	"get_task_list_multi_region_keys_not_exist":{
		"api_command": "noti.admin.get_transactional_task_list",
		"req":{
			"multi_region":{
				"keys":["AK"]
			}
		},
		"response_status":10000,
		"response_text":{
			"debug_msg": "multi_region: keys: index 0: invalid region: AK"
		}
	},
	"get_task_list_multi_region_keys_exist_but_not_input_method":{
		"api_command": "noti.admin.get_transactional_task_list",
		"req":{
			"multi_region":{
				"keys":["TW"]
			}
		},
		"response_status":20400003,
		"response_text":{
			"debug_msg": "ERROR_EXTERNAL_SERVICE"
		}
	}
}