{
    "cart_remove_user_cart_empty_request": {
        "api_command": "cart.core.remove_cart_item",
        "req": {
    
        },
        "response_text": {
            "debug_msg": "cart item cannot found"
        },
        "response_status": 6210001
    },
    "cart_remove_user_cart_userid_null": {
        "api_command": "cart.core.remove_cart_item",
        "req": {
            "user_id": null
        },
        "response_text": {
            
        },
        "response_status": 105
    },
    "cart_remove_user_cart_userid_0": {
        "api_command": "cart.core.remove_cart_item",
        "req": {
            "user_id": 0
        },
        "response_text": {
            "debug_msg": "cart item cannot found"
        },
        "response_status": 6210001
    },
    "cart_remove_user_cart_userid_float": {
        "api_command": "cart.core.remove_cart_item",
        "req": {
            "user_id": 1.5
        },
        "response_text": {
            
        },
        "response_status": 105
    },
    "cart_remove_user_cart_userid_uint64max": {
        "api_command": "cart.core.remove_cart_item",
        "req": {
            "user_id": 18446744073709551615
        },
        "response_text": {
            "debug_msg": "cannot load item: call CmdGetItemBusinessProductInfo by spex failed with sp_Code: 28900003"
        },
        "response_status": 6200004
    },
    "cart_remove_user_cart_userid_uint64max_1": {
        "api_command": "cart.core.remove_cart_item",
        "req": {
            "user_id": 18446744073709551616
        },
        "response_text": {
            
        },
        "response_status": 105
    },
    "cart_remove_user_cart_userid_negative": {
        "api_command": "cart.core.remove_cart_item",
        "req": {
            "user_id": -1
        },
        "response_text": {
            
        },
        "response_status": 105
    },
    "cart_remove_user_cart_userid_string":{
        "api_command": "cart.core.remove_cart_item",
        "req": {
            "user_id": "string"
        },
        "response_text": {
            
        },
        "response_status": 105
    }

}