{
    "update_item_status_to_normal": {
        "api_command": "item.item_info.update_status",
        "req": {
            "shop_id":600114065,
			"item_id":3900139001,
            "status" : 1,
            "audit_param":{
                "reason":"",
                "operator":""
            },
            "disable_noti": true
        },
        "response_text": {
            
        },
        "response_status": 0
    },
    "cart_add_user_cart_50_items_in_a_shop": {
        "api_command": "cart.core.add_cart_item",
        "req": {
            "user_id": 1200898207,
            "shop_id": 600114065,
            "cart_item":{
                "item_id":3900139001,
                "quantity":1

            }
        },
        "response_text": {
            "debug_msg": "cart too many items"
        },
        "response_status": 6210019
    }
}