{
    "update_item_status_to_normal": {
        "api_command": "item.item_info.update_status",
        "req": {
            "shop_id":421426764,
			"item_id":3100140590,
            "status" : 1,
            "audit_param":{
                "reason":"",
                "operator":""
            },
            "disable_noti": true
        },
        "response_text": {
            
        },
        "response_status": 0
    },
    "cart_add_user_cart_normal_modelid": {
        "api_command": "cart.core.add_cart_item",
        "req": {
            "user_id": 1200829212,
            "shop_id": 421426764,
            "cart_item":{
                "item_id":3100140590,
                "quantity":5,
                "model_id": 2000453735

            }
        },
        "response_text": {
            "cart_item_count": 5
        },
        "response_status": 0
    },
    "cart_add_user_cart_normal_modelid_quantity_0": {
        "api_command": "cart.core.add_cart_item",
        "req": {
            "user_id": 1200829212,
            "shop_id": 421426764,
            "cart_item":{
                "item_id":3100140590,
                "quantity":0,
                "model_id": 2000453735

            }
        },
        "response_text": {
            "cart_item_count": 5
        },
        "response_status": 0
    },
    "cart_add_user_cart_normal_modelid_quantity_minus_1": {
        "api_command": "cart.core.add_cart_item",
        "req": {
            "user_id": 1200829212,
            "shop_id": 421426764,
            "cart_item":{
                "item_id":3100140590,
                "quantity":-1,
                "model_id": 2000453735

            }
        },
        "response_text": {
            "cart_item_count": 4
        },
        "response_status": 0
    },
    "cart_add_user_cart_normal_modelid_quantity_minus_4": {
        "api_command": "cart.core.add_cart_item",
        "req": {
            "user_id": 1200829212,
            "shop_id": 421426764,
            "cart_item":{
                "item_id":3100140590,
                "quantity":-4,
                "model_id": 2000453735

            }
        },
        "response_text": {
            "cart_item_count": 0
        },
        "response_status": 0
    }
    
}