{
    "approve_flash_sale_products": {
        "headers": {
            "cache-control": "no-cache",
            "content-type": "application/x-www-form-urlencoded",
            "referer": "https://admin.staging.shopee.vn/promotion/flash_sales_v2/step_screening/promotion_id/product_screening/manual_screening/",
            "user-agent": "Mozilla/5.0 (Windows NT 10.0; Win64; x64) AppleWebKit/537.36 (KHTML, like Gecko) Chrome/79.0.3945.130 Safari/537.36",
            "x-csrftoken": ""
        },
        "payload": {
            "items": "[['200021885','100373803','10000046022','0','0','0'],['200021885','100373804','10000046023','0','0','0'],['200021885','100373805','10000046024','0','0','0'],['200021885','100373806','10000046025','0','0','0'],['200021885','100373807','10000046026','0','0','0'],['200021885','100373808','10000046027','0','0','0'],['200021885','100373809','10000046028','0','0','0'],['200021885','100373810','10000046029','0','0','0']]"
        },
        "response_status": 200,
        "response_text": {
            "code": 0,
            "message": "success",
            "user_message": "success"
        },
        "url": "https://admin.staging.shopee.vn/promotion/flash_sales_v2/step_screening/promotion_id/product_screening/manual_screening/mass_approve_item/"
    },
    "batch_reject_flash_sale_products": {
        "headers": {
            "cache-control": "no-cache",
            "content-type": "application/x-www-form-urlencoded",
            "referer": "https://admin.staging.shopee.vn/promotion/flash_sales_v2/step_management/promotion_id/",
            "user-agent": "Mozilla/5.0 (Windows NT 10.0; Win64; x64) AppleWebKit/537.36 (KHTML, like Gecko) Chrome/79.0.3945.130 Safari/537.36",
            "x-csrftoken": ""
        },
        "payload": {
            "products": "['100373803','100373804','100373805','100373806','100373807','100373808','100373809','100373810']",
			"reject_reason": "Out of stock"
        },
        "response_status": 200,
        "response_text": {
            "code": 0,
            "message": "success",
            "user_message": "success"
        },
        "url": "https://admin.staging.shopee.vn/promotion/flash_sales_v2/step_management/promotion_id/batch_reject/"
    },
    "confirm_flashsale_products": {
        "headers": {
            "cache-control": "no-cache",
            "content-type": "application/x-www-form-urlencoded",
            "referer": "https://admin.staging.shopee.vn/promotion/flash_sales_v2/step_screening/promotion_id/product_screening/manual_screening/",
            "user-agent": "Mozilla/5.0 (Windows NT 10.0; Win64; x64) AppleWebKit/537.36 (KHTML, like Gecko) Chrome/79.0.3945.130 Safari/537.36",
            "x-csrftoken": ""
        },
        "payload": {
            "products": "[['200021885','100373803','PD1','10000046022','20200','0','1','1','0','20000','0','1'],['200021885','100373804','PD2','10000046023','20200','0','1','1','0','20000','0','1'],['200021885','100373805','PD3','10000046024','20200','0','1','1','0','20000','0','1'],['200021885','100373806','PD4','10000046025','20200','0','1','1','0','20000','0','1'],['200021885','100373807','PD5','10000046026','20200','0','1','1','0','20000','0','1'],['200021885','100373808','PD6','10000046027','20200','0','1','1','0','20000','0','1'],['200021885','100373809','PD7','10000046028','20200','0','1','1','0','20000','0','1'],['200021885','100373810','PD8','10000046029','20200','0','1','1','0','20000','0','1']]"
        },
        "response_status": 200,
        "response_text": {
            "code": 0,
            "message": "success",
            "user_message": "success"
        },
        "url": "https://admin.staging.shopee.vn/promotion/flash_sales_v2/step_screening/promotion_id/product_screening/manual_screening/upload_confirm/"
    },
    "create_flashsale": {
        "headers": {
            "cache-control": "no-cache",
            "content-type": "application/x-www-form-urlencoded",
            "referer": "https://admin.staging.shopee.vn/promotion/flash_sales_v2/step_new/create/",
            "user-agent": "Mozilla/5.0 (Windows NT 10.0; Win64; x64) AppleWebKit/537.36 (KHTML, like Gecko) Chrome/79.0.3945.130 Safari/537.36",
            "x-csrftoken": ""
        },
        "payload": {
            "allowed_cat": [
                "0",
                "14874",
                "14875",
                "14877",
                "14990",
                "14991",
                "14713",
                "14714",
                "14697",
                "14698",
                "14616",
                "14617",
                "14610",
                "14611",
                "14613",
                "14614",
                "14601",
                "14602",
                "14450",
                "14451",
                "14560",
                "11866",
                "11987",
                "11855",
                "11918",
                "11919",
                "11920",
                "11921",
                "11922",
                "11923",
                "11924",
                "11925",
                "14182",
                "14183",
                "14185",
                "14186",
                "11868",
                "12061",
                "12062",
                "12063",
                "12064",
                "12065",
                "12066",
                "12067",
                "11871",
                "12006",
                "12007",
                "12008",
                "12009",
                "12010",
                "12011",
                "12012",
                "14191",
                "14192",
                "14196",
                "14198",
                "14200",
                "14202",
                "14204",
                "14206",
                "14208",
                "14210",
                "15336",
                "15337",
                "15339",
                "11849",
                "12042",
                "12043",
                "12044",
                "12045",
                "12046",
                "11862",
                "11961",
                "11963",
                "11964",
                "11965",
                "11966",
                "11967",
                "11969",
                "11971",
                "11972",
                "11973",
                "11974",
                "11975",
                "11976",
                "11873",
                "12022",
                "12023",
                "12024",
                "12025",
                "12026",
                "12027",
                "12028",
                "12029",
                "12030",
                "12038",
                "11850",
                "12047",
                "12048",
                "12049",
                "12050",
                "12052",
                "12053",
                "12054",
                "13771",
                "14707",
                "14708",
                "14718",
                "14720",
                "14722",
                "11859",
                "11930",
                "11931",
                "11934",
                "11935",
                "11936",
                "11937",
                "11939",
                "11940",
                "11945",
                "11946",
                "11947",
                "11853",
                "11889",
                "11894",
                "11895",
                "11896",
                "11899",
                "11900",
                "11904",
                "11907",
                "11908",
                "11910",
                "11911",
                "11912",
                "11913",
                "11915",
                "11872",
                "12014",
                "12015",
                "12016",
                "12017",
                "12018",
                "12020",
                "11870",
                "11991",
                "11993",
                "11994",
                "11995",
                "11996",
                "11997",
                "11998",
                "11999",
                "12000",
                "12001",
                "12002"
            ],
            "allowed_shop": [
                0
            ],
            "banner": "d1c675eaef7ba0bcc4684fbdf64e7595",
            "banner_url": "",
            "discount_max": "",
            "discount_min": "",
            "dp_nominate_end": "",
            "dp_nominate_start": "",
            "is_dp_nominate": "false",
            "is_self_nominate": "false",
            "is_show_price": "false",
            "max_DTS": 180,
            "nominate_condition": "",
            "nominate_end": "",
            "nominate_per_seller": "",
            "nominate_start": "",
            "num_dp_per_session": "",
            "pc_banner": "0918b54c5b559f226aa9e8fc9145bee6",
            "promotion_description": "VN Android auto Flash sale for Microsite overlay image!",
            "promotion_end": "",
            "promotion_min_stock": 1,
            "promotion_name": "TWQA auto test for Microsite overlay image!!",
            "promotion_start": "",
            "value_max": 20000000,
            "value_min": 10
        },
        "response_status": 200,
        "response_text": {
            "code": 0,
            "message": "success",
            "user_message": "success"
        },
        "url": "https://admin.staging.shopee.vn/promotion/flash_sales_v2/step_new/create/add/"
    },
    "refresh_flash_sale_status": {
        "headers": {
            "cache-control": "no-cache",
            "content-type": "application/x-www-form-urlencoded",
            "referer": "https://admin.staging.shopee.vn/promotion/flash_sales_v2/overview/",
            "user-agent": "Mozilla/5.0 (Windows NT 10.0; Win64; x64) AppleWebKit/537.36 (KHTML, like Gecko) Chrome/79.0.3945.130 Safari/537.36",
            "x-csrftoken": ""
        },
        "payload": "",
        "response_status": 200,
        "response_text": {
            "code": 0,
            "message": "success",
            "user_message": "success"
        },
        "url": "https://admin.staging.shopee.vn/promotion/flash_sales_v2/promotion_id/sync/"
    },
    "upload_flashsale_products": {
        "headers": {
            "cache-control": "no-cache",
            "content-type": "application/x-www-form-urlencoded",
            "referer": "https://admin.staging.shopee.vn/promotion/flash_sales_v2/step_screening/promotion_id/product_screening/manual_screening/",
            "user-agent": "Mozilla/5.0 (Windows NT 10.0; Win64; x64) AppleWebKit/537.36 (KHTML, like Gecko) Chrome/79.0.3945.130 Safari/537.36",
            "x-csrftoken": ""
        },
        "payload": {
            "products": "[['200021885','100373803','PD1','10000046022','20200','0','1','1','0','20000','0','1'],['200021885','100373804','PD2','10000046023','20200','0','1','1','0','20000','0','1'],['200021885','100373805','PD3','10000046024','20200','0','1','1','0','20000','0','1'],['200021885','100373806','PD4','10000046025','20200','0','1','1','0','20000','0','1'],['200021885','100373807','PD5','10000046026','20200','0','1','1','0','20000','0','1'],['200021885','100373808','PD6','10000046027','20200','0','1','1','0','20000','0','1'],['200021885','100373809','PD7','10000046028','20200','0','1','1','0','20000','0','1'],['200021885','100373810','PD8','10000046029','20200','0','1','1','0','20000','0','1']]"
        },
        "response_status": 200,
        "response_text": {
            "code": 0,
            "message": "success",
            "user_message": "success"
        },
        "url": "https://admin.staging.shopee.vn/promotion/flash_sales_v2/step_screening/promotion_id/product_screening/manual_screening/upload_check/"
    },
    "get_ongoing_flashsale_status": {
        "headers": {
            "cache-control": "no-cache",
            "content-type": "application/x-www-form-urlencoded",
            "user-agent": "Mozilla/5.0 (Windows NT 10.0; Win64; x64) AppleWebKit/537.36 (KHTML, like Gecko) Chrome/79.0.3945.130 Safari/537.36"
        },
        "payload": {},
        "query_string_parameters": {
            "end_time__lte": "",
            "itemid": "",
            "limit": "25",
            "modelid": "",
            "offset": "0",
            "ongoing_status": "3",
            "order_by": "1",
            "promotionid": "",
            "shopid": "",
            "start_time__gte": ""
        },
        "response_status": 200,
        "response_text": {
            "code": 0,
            "message": "success",
            "user_message": "success"
        },
        "url": "https://admin.staging.shopee.vn/promotion/flash_sales_v2/overview/json/"
    },
    "get_reviewing_flashsale_status": {
        "headers": {
            "cache-control": "no-cache",
            "content-type": "application/x-www-form-urlencoded",
            "user-agent": "Mozilla/5.0 (Windows NT 10.0; Win64; x64) AppleWebKit/537.36 (KHTML, like Gecko) Chrome/79.0.3945.130 Safari/537.36"
        },
        "payload": {},
        "query_string_parameters": {
            "end_time__lte": "",
            "itemid": "",
            "limit": "25",
            "modelid": "",
            "offset": "0",
            "ongoing_status": "2",
            "order_by": "1",
            "promotionid": "",
            "shopid": "",
            "start_time__gte": ""
        },
        "response_status": 200,
        "response_text": {
            "code": 0,
            "message": "success",
            "user_message": "success"
        },
        "url": "https://admin.staging.shopee.vn/promotion/flash_sales_v2/overview/json/"
    }
}