{
	"update_product_info":{
		"url":"https://banhang.staging.shopee.vn/api/v3/product/update_product/",
		"payload": [
			{
			  "id": 100270573,
			  "name": "product1",
			  "brand": "None",
			  "images": [
				"3f9a54f41cd5764b4ff29333e3f588a0"
			  ],
			  "description": "snoopyyyyyyyyyyyyyyyyyyyyyyyyyyyyyyyyyyyyyy",
			  "model_list": [
				{
				  "id": 0,
				  "sku": "",
				  "tier_index": [
					0
				  ],
				  "is_default": true,
				  "name": "product1",
				  "price": "45000",
				  "item_price": "",
				  "stock": 900
				}
			  ],
			  "category_path": [
				11866,
				11987,
				12159
			  ],
			  "attribute_model": {
				"attribute_model_id": 1550,
				"attributes": [
				  {
					"status": 2,
					"attribute_id": 1631,
					"value": ""
				  }
				]
			  },
			  "parent_sku": "",
			  "wholesale_list": [],
			  "installment_tenures": {
				"status": 0,
				"enables": [],
				"tip_type": 0
			  },
			  "weight": "50",
			  "dimension": {
				"width": 0,
				"height": 0,
				"length": 0
			  },
			  "pre_order": false,
			  "days_to_ship": 2,
			  "condition": 1,
			  "size_chart": "",
			  "video_list": [],
			  "tier_variation": [
				{
				  "name": "",
				  "options": [
					""
				  ],
				  "images": []
				}
			  ],
			  "add_on_deal": [],
			  "price": "45000",
			  "stock": 900,
			  "logistics_channels": [
				{
				  "size": 0,
				  "price": "0.00",
				  "cover_shipping_fee": false,
				  "enabled": false,
				  "item_flag": "0",
				  "channelid": 5000,
				  "sizeid": 0
				},
				{
				  "size": 0,
				  "price": "44616.00",
				  "cover_shipping_fee": false,
				  "enabled": true,
				  "item_flag": "0",
				  "channelid": 50010,
				  "sizeid": 0
				},
				{
				  "size": 0,
				  "price": "19448.00",
				  "cover_shipping_fee": false,
				  "enabled": false,
				  "item_flag": "0",
				  "channelid": 50011,
				  "sizeid": 0
				},
				{
				  "size": 0,
				  "price": "16500.00",
				  "cover_shipping_fee": false,
				  "enabled": true,
				  "item_flag": "0",
				  "channelid": 50012,
				  "sizeid": 0
				},
				{
				  "size": 0,
				  "price": "25168.00",
				  "cover_shipping_fee": false,
				  "enabled": true,
				  "item_flag": "0",
				  "channelid": 50015,
				  "sizeid": 0
				},
				{
				  "size": 0,
				  "price": "8910.00",
				  "cover_shipping_fee": false,
				  "enabled": false,
				  "item_flag": "0",
				  "channelid": 50016,
				  "sizeid": 0
				},
				{
				  "size": 0,
				  "price": "16050.00",
				  "cover_shipping_fee": false,
				  "enabled": true,
				  "item_flag": "0",
				  "channelid": 50018,
				  "sizeid": 0
				},
				{
				  "size": 0,
				  "price": "14300.00",
				  "cover_shipping_fee": false,
				  "enabled": false,
				  "item_flag": "0",
				  "channelid": 50023,
				  "sizeid": 0
				}
			  ],
			  "ds_cat_rcmd_id": "",
			  "category_recommend": [],
			  "unlisted": false
			}
		  ],
		"headers":{
			"content-type": "application/x-www-form-urlencoded",
            "cache-control": "no-cache",
            "user-agent": "Mozilla/5.0 (Windows NT 10.0; Win64; x64) AppleWebKit/537.36 (KHTML, like Gecko) Chrome/79.0.3945.130 Safari/537.36"
		},
		"query_string_parameters":{
			"SPC_CDS":"5f519cbf-ae8c-4344-92a6-3ced237648b3",
			"SPC_CDS_VER":"2",
			"version": "3.1.0"
		},
		"response_status":200,
		"response_text":{
			"message": "success",
			"code": 0,
			"user_message": "success"
		}
	},
	"restore_product_info":{
		"url":"https://banhang.staging.shopee.vn/api/v3/product/update_product/",
		"payload": [
			{
			  "id": 100270573,
			  "name": "snoopy",
			  "brand": "None",
			  "images": [
				"9fcb70a34bc28629cbaadb0c239b2ae7"
			  ],
			  "description": "snoopyyyyyyyyyyyyyyyyyyyyyyyyyyyyyy",
			  "model_list": [
				{
				  "id": 0,
				  "sku": "",
				  "tier_index": [
					0
				  ],
				  "is_default": true,
				  "name": "snoopy",
				  "price": "1000",
				  "item_price": "",
				  "stock": 900
				}
			  ],
			  "category_path": [
				11866,
				11987,
				12159
			  ],
			  "attribute_model": {
				"attribute_model_id": 1550,
				"attributes": [
				  {
					"status": 2,
					"attribute_id": 1631,
					"value": ""
				  }
				]
			  },
			  "parent_sku": "",
			  "wholesale_list": [],
			  "installment_tenures": {
				"status": 0,
				"enables": [],
				"tip_type": 0
			  },
			  "weight": "50",
			  "dimension": {
				"width": 0,
				"height": 0,
				"length": 0
			  },
			  "pre_order": false,
			  "days_to_ship": 2,
			  "condition": 1,
			  "size_chart": "",
			  "video_list": [],
			  "tier_variation": [
				{
				  "name": "",
				  "options": [
					""
				  ],
				  "images": []
				}
			  ],
			  "add_on_deal": [],
			  "price": "1000",
			  "stock": 900,
			  "logistics_channels": [
				{
				  "size": 0,
				  "price": "0.00",
				  "cover_shipping_fee": false,
				  "enabled": false,
				  "item_flag": "0",
				  "channelid": 5000,
				  "sizeid": 0
				},
				{
				  "size": 0,
				  "price": "44616.00",
				  "cover_shipping_fee": false,
				  "enabled": true,
				  "item_flag": "0",
				  "channelid": 50010,
				  "sizeid": 0
				},
				{
				  "size": 0,
				  "price": "19448.00",
				  "cover_shipping_fee": false,
				  "enabled": false,
				  "item_flag": "0",
				  "channelid": 50011,
				  "sizeid": 0
				},
				{
				  "size": 0,
				  "price": "16500.00",
				  "cover_shipping_fee": false,
				  "enabled": true,
				  "item_flag": "0",
				  "channelid": 50012,
				  "sizeid": 0
				},
				{
				  "size": 0,
				  "price": "25168.00",
				  "cover_shipping_fee": false,
				  "enabled": true,
				  "item_flag": "0",
				  "channelid": 50015,
				  "sizeid": 0
				},
				{
				  "size": 0,
				  "price": "8910.00",
				  "cover_shipping_fee": false,
				  "enabled": false,
				  "item_flag": "0",
				  "channelid": 50016,
				  "sizeid": 0
				},
				{
				  "size": 0,
				  "price": "16050.00",
				  "cover_shipping_fee": false,
				  "enabled": true,
				  "item_flag": "0",
				  "channelid": 50018,
				  "sizeid": 0
				},
				{
				  "size": 0,
				  "price": "14300.00",
				  "cover_shipping_fee": false,
				  "enabled": false,
				  "item_flag": "0",
				  "channelid": 50023,
				  "sizeid": 0
				}
			  ],
			  "ds_cat_rcmd_id": "",
			  "category_recommend": [],
			  "unlisted": false
			}
		  ],
		"headers":{
			"content-type": "application/x-www-form-urlencoded",
            "cache-control": "no-cache",
            "user-agent": "Mozilla/5.0 (Windows NT 10.0; Win64; x64) AppleWebKit/537.36 (KHTML, like Gecko) Chrome/79.0.3945.130 Safari/537.36"
		},
		"query_string_parameters":{
			"SPC_CDS":"5f519cbf-ae8c-4344-92a6-3ced237648b3",
			"SPC_CDS_VER":"2",
			"version": "3.1.0"
		},
		"response_status":200,
		"response_text":{
			"message": "success",
			"code": 0,
			"user_message": "success"
		}
	}
}