{
    "get_csrftoken": {
        "url": "https://admin.staging.shopee.vn/",
        "response_status": 200,
        "cookies": {
            "sessionid": ""
        }
    },
    "create_shopee_voucher": {
        "url": "https://admin.staging.shopee.vn/promotion/new/add/",
        "headers": {
            "referer": "https://admin.staging.shopee.vn/promotion/new/",
            "origin": "https://admin.staging.shopee.vn"
        },
        "payload":{
            "status":"1",
            "success_show_message":"",
            "push_existsing_user":"1",
            "registered":"1",
            "email_verified":"0",
            "phone_verified":"0",
            "bankaccount_linked":"0",
            "distributed_count":"",
            "name":"auto MVG A all user FE",
            "length":"0",
            "usage_limit":"10",
            "value":"100",
            "discount":"0",
            "max_value":"0",
            "min_price":"0",
            "banner":"",
            "delay_banner":"",
            "including_all":"1",
            "product_labels":"",
            "disable_product_labels":"",
            "scope_of_user":"0",
            "user-scope-error-custom-link":"0",
            "payment-method-type":"0",
            "logistic-promotion-rule":"0",
            "use_custom_link":"0",
            "use_link":"",
            "use_image_upload":"0",
            "image_id":"1",
            "icon_text":"SHOPEE",
            "use_custom_description":"0",
            "title":"",
            "customised_1_ms":"",
            "customised_1_th":"",
            "customised_1_id":"",
            "customised_1_zh_tw":"",
            "customised_1_vn":"shopee_public",
            "customised_1_en":"shopee_public",
            "customised_1_zh_cn":"",
            "customised_1_es_mx":"",
            "customised_1_es_co":"",
            "customised_1_es_cl":"",
            "customised_1_pt_br":"",
            "customised_1_pl":"",
            "customised_1_es_es":"",
            "customised_1_fr":"",
            "customised_1_hi":"",
            "customised_2_ms":"",
            "customised_2_th":"",
            "customised_2_id":"",
            "customised_2_zh_tw":"",
            "customised_2_vn":"",
            "customised_2_en":"",
            "customised_2_zh_cn":"",
            "customised_2_es_mx":"",
            "customised_2_es_co":"",
            "customised_2_es_cl":"",
            "customised_2_pt_br":"",
            "customised_2_pl":"",
            "customised_2_es_es":"",
            "customised_2_fr":"",
            "customised_2_hi":"",
            "product_scope_tag":"0",
            "customised_tag_image_id":"",
            "customised_product_scope_ms":"",
            "customised_product_scope_th":"",
            "customised_product_scope_id":"",
            "customised_product_scope_zh_tw":"",
            "customised_product_scope_vn":"",
            "customised_product_scope_en":"",
            "customised_product_scope_zh_cn":"",
            "customised_product_scope_es_mx":"",
            "customised_product_scope_es_co":"",
            "customised_product_scope_es_cl":"",
            "customised_product_scope_pt_br":"",
            "customised_product_scope_pl":"",
            "customised_product_scope_es_es":"",
            "customised_product_scope_fr":"",
            "customised_product_scope_hi":"",
            "usage_term_product":"auto",
            "description":"auto",
            "allow_seller_promotion":"1",
            "is_seller_absorbed":"0",
            "voucher_type":"1",
            "use_type":"1",
            "non_claimable":"false",
            "reward":"0",
            "action_trigger":"1",
            "delay_notif":"0",
            "action_content":"",
            "realtime":"1",
            "logistics_channels":"5000,5001,5002,5003,50010,50011,50012,50015,50016,50018,50019,50020,50021,50022,50023,50024,50025,50066,58000,58001,58007,58010,58881,59997,80033",
            "payment_methods":"",
            "bin_numbers":"",
            "card_brand_ids":"",
            "devices":"",
            "trigger_friend":"false",
            "orders_live_operator":"3",
            "orders_cancelled_operator":"3",
            "all_user":"true",
            "by_user_tags":"false",
            "by_userids":"false",
            "user_scope_custom_error_title_list":"[{\"language\":\"vi\",\"value\":\"\"},{\"language\":\"en\",\"value\":\"\"}]",
            "user_scope_custom_error_content_list":"[{\"language\":\"vi\",\"value\":\"\"},{\"language\":\"en\",\"value\":\"\"}]",
            "user_scope_custom_error_custom_link":"",
            "user_scope_custom_error_custom_link_text_list":"[{\"language\":\"vi\",\"value\":\"\"},{\"language\":\"en\",\"value\":\"\"}]",
            "including_cat[]":"-1",
            "mp_include_fe_categories":"-1",
            "mp_exclude_fe_categories":"",
            "display_labels":"",
            "not_show_product_scope_tag":"false",
            "tag_hash":"",
            "icon_hash":"f575e7f8cd82f80b6b5a003f464d25c0"
		},
        "response_status": 200,
        "response_text": {
            "message": "success",
            "code": 0,
            "user_message": "success"
        }
    }
}