{
    "update_metrics_compulsory_field_check": {
        "api_command": "discover.collection.admin.update_metrics?tw",
        "req": {},
        "response_text": {},
        "response_status": 19700001
    }
}