{
    "put_collection_info_audit_log_new_values_active_end_date_null": {
        "api_command": "discover.collection.admin.put_collection_info_audit_log?tw",
        "req": {
            "collection_id": 3400,
            "event": 2,
            "operator": "steven.chen@shopee.com",
            "diff": {
                "old_values": {
                    "active_end_date": 0
                },
                "new_values": {
                    "active_end_date": null
                }
            }
        },
        "response_text": null,
        "response_status": 105
    },
    "put_collection_info_audit_log_new_values_active_end_date_string": {
        "api_command": "discover.collection.admin.put_collection_info_audit_log?tw",
        "req": {
            "collection_id": 3400,
            "event": 2,
            "operator": "steven.chen@shopee.com",
            "diff": {
                "old_values": {
                    "active_end_date": 0
                },
                "new_values": {
                    "active_end_date": "steven_test"
                }
            }
        },
        "response_text": null,
        "response_status": 105
    },
    "put_collection_info_audit_log_new_values_active_end_date_boolean": {
        "api_command": "discover.collection.admin.put_collection_info_audit_log?tw",
        "req": {
            "collection_id": 3400,
            "event": 2,
            "operator": "steven.chen@shopee.com",
            "diff": {
                "old_values": {
                    "active_end_date": 0
                },
                "new_values": {
                    "active_end_date": true
                }
            }
        },
        "response_text": {},
        "response_status": 0
    },
    "put_collection_info_audit_log_new_values_active_end_date_int": {
        "api_command": "discover.collection.admin.put_collection_info_audit_log?tw",
        "req": {
            "collection_id": 3400,
            "event": 2,
            "operator": "steven.chen@shopee.com",
            "diff": {
                "old_values": {
                    "active_end_date": 0
                },
                "new_values": {
                    "active_end_date": 1234
                }
            }
        },
        "response_text": {},
        "response_status": 0
    }
}