{
    "put_items_audit_log_item_audit_logs_item_id_null": {
        "api_command": "discover.collection.admin.put_items_audit_log?tw",
        "req": {
            "collection_id": 5050,
            "event": 2,
            "operator": "steven.chen@shopee.com",
            "item_audit_logs": [
                    {
                "item_id": null
                }
            ]
        },
        "response_text": null,
        "response_status": 105
    },
    "put_items_audit_log_item_audit_logs_item_id_string": {
        "api_command": "discover.collection.admin.put_items_audit_log?tw",
        "req": {
            "collection_id": 5050,
            "event": 2,
            "operator": "steven.chen@shopee.com",
            "item_audit_logs": [
                    {
                "item_id": "steven_test"
                }
            ]
        },
        "response_text": null,
        "response_status": 105
    },
    "put_items_audit_log_item_audit_logs_item_id_boolean": {
        "api_command": "discover.collection.admin.put_items_audit_log?tw",
        "req": {
            "collection_id": 5050,
            "event": 2,
            "operator": "steven.chen@shopee.com",
            "item_audit_logs": [
                    {
                "item_id": false
                }
            ]
        },
        "response_text": {},
        "response_status": 0
    },
    "put_items_audit_log_item_audit_logs_item_id_-1": {
        "api_command": "discover.collection.admin.put_items_audit_log?tw",
        "req": {
            "collection_id": 5050,
            "event": 2,
            "operator": "steven.chen@shopee.com",
            "item_audit_logs": [
                    {
                "item_id": -1
                }
            ]
        },
        "response_text": null,
        "response_status": 105
    },
    "put_items_audit_log_exact_item_audit_logs_item_id": {
        "api_command": "discover.collection.admin.put_items_audit_log?tw",
        "req": {
            "collection_id": 5050,
            "event": 2,
            "operator": "steven.chen@shopee.com",
            "item_audit_logs": [
                    {
                "item_id": 3108694
                }
            ]
        },
        "response_text": {},
        "response_status": 0
    }
}