{
    "get_boost_status_for_non_existed_collection": {
        "api_command": "discover.collection.admin.get_boost_status?tw",
        "req": {
            "collection_id": 878787
        },
        "response_text": {"status": 0, "scheduled_time": 0},
        "response_status": 0
    }
}