{
    "get_campaign_tags_for_non_existed_collection": {
        "api_command": "discover.collection.admin.get_campaign_tags?tw",
        "req": {
            "collection_ids": [878787]
        },
        "response_text": {"product_collection_campaign_tags": [{"collection_id": 878787}]},
        "response_status": 0
    }
}