{
    "get_shop_metrics_logic_check_for_asc_true": {
        "api_command": "discover.collection.admin.get_shop_metrics?tw",
        "req": {
            "collection_id": 5633,
            "offset": 0 ,
            "limit": 1,
            "asc" : true
        },
        "response_text": {
            "shop_metrics":[{"shop_id": 204929}], "limit": 1, "offset": 0
        },
        "response_status": 0
    },
    "get_shop_metrics_logic_check_for_asc_false": {
        "api_command": "discover.collection.admin.get_shop_metrics?tw",
        "req": {
            "collection_id": 5633,
            "offset": 0 ,
            "limit": 1,
            "asc" : false
        },
        "response_text": {
            "shop_metrics":[{"shop_id": 320379}], "limit": 1, "offset": 0
        },
        "response_status": 0
    }
}