{
    "get_tasks_for_item_rule_set": {
        "api_command": "discover.collection.admin.get_tasks?tw",
        "req": {
            "offset": 0,
            "limit": 1,
            "rule_id": "4" 
        },
        "response_text": {
            "total_count": 2, "tasks": [{"status": 1, "task_id": "56"}], "limit": 1, "offset": 0        
        },
        "response_status": 0
    }
}