{
    "put_collection_info_audit_log_event_type_1": {
        "api_command": "discover.collection.admin.put_collection_info_audit_log?tw",
        "req": {
            "collection_id": 35203,
            "event": 1,
            "operator": "sam.chang@shopee.com",
            "diff": {
            "old_values": {
                "name": "sam_2"
                },
            "new_values": {
                "name": "sam_1"
                }
            }
        },
        "response_text": {},
        "response_status": 0
    },
    "put_collection_info_audit_log_event_type_2": {
        "api_command": "discover.collection.admin.put_collection_info_audit_log?tw",
        "req": {
            "collection_id": 35203,
            "event": 2,
            "operator": "sam.chang@shopee.com",
            "diff": {
            "old_values": {
                "name": "sam_2"
                },
            "new_values": {
                "name": "sam_1"
                }
            }
        },
        "response_text": {},
        "response_status": 0
    }
}