{
    "schedule_boost_disable_null": {
        "api_command": "discover.collection.admin.schedule_boost?tw",
        "req": {
            "collection_id": 5050,
            "disable": null,
            "scheduled_time": 123,
            "operator": "string"
        },
        "response_text": null,
        "response_status": 105
    },
    "schedule_boost_disable_int": {
        "api_command": "discover.collection.admin.schedule_boost?tw",
        "req": {
            "collection_id": 5050,
            "disable": 123,
            "scheduled_time": 123,
            "operator": "string"
        },
        "response_text": {},
        "response_status": 0
    },
    "schedule_boost_disable_string": {
        "api_command": "discover.collection.admin.schedule_boost?tw",
        "req": {
            "collection_id": 5050,
            "disable": "steven_test",
            "scheduled_time": 123,
            "operator": "string"
        },
        "response_text": null,
        "response_status": 105
    },
    "schedule_boost_disable_boolean": {
        "api_command": "discover.collection.admin.schedule_boost?tw",
        "req": {
            "collection_id": 5050,
            "disable":true,
            "scheduled_time": 123,
            "operator": "string"
        },
        "response_text": {},
        "response_status": 0
    }
}