{
    "get_groups_logic_check_for_update_time_min_less_than_max": {
        "api_command": "discover.collection.admin.get_groups?tw",
        "req": {
            "offset": 0,
            "limit": 1,
            "update_time_min": 1622510000,
            "update_time_max": 1622510669
        },
        "response_text": {
            "total_count": 1,
            "limit": 1,
            "groups": [{
                "name": "Featured from L1 Category, Label 1000117",
                "task_id": 21,
                "last_operator": "Item Rule Set Service",
                "group_id": 26,
                "rule_id": 2,
                "description": "L1 Category Collections Inside | One-off"}],
            "offset": 0
        },
        "response_status": 0
    },
    "get_groups_logic_check_for_update_time_min_equal_max": {
        "api_command": "discover.collection.admin.get_groups?tw",
        "req": {
            "offset": 0,
            "limit": 1,
            "update_time_min": 1622510669,
            "update_time_max": 1622510669
        },
        "response_text": {
            "total_count": 1,
            "limit": 1,
            "groups": [{
                "name": "Featured from L1 Category, Label 1000117",
                "task_id": 21,
                "last_operator": "Item Rule Set Service",
                "group_id": 26,
                "rule_id": 2,
                "description": "L1 Category Collections Inside | One-off"}],
            "offset": 0
        },
        "response_status": 0
    },
    "get_groups_logic_check_for_update_time_min_greater_than_max": {
        "api_command": "discover.collection.admin.get_groups?tw",
        "req": {
            "offset": 0,
            "limit": 1,
            "update_time_min": 1622510669,
            "update_time_max": 1622510000
        },
        "response_text": {"error_messages": ["update time min should be smaller than max"]},
        "response_status": 10002
    }
}