{
    "get_tasks_logic_check_for_create_time_min_smaller_than_max": {
        "api_command": "discover.collection.admin.get_tasks?tw",
        "req": {
            "offset": 0,
            "limit": 1,
            "rule_id": "3",
            "create_time_min": 1622103198,
            "create_time_max" : 1622105501
        },
        "response_text": {
            "total_count": 2, 
            "tasks": [{
                "status": 1,
                "task_id": "5",
                "collection_group_id": "10",
                "create_time": 1622105501
            }], 
            "limit": 1,
            "offset": 0        
        },
        "response_status": 0
    },
    "get_tasks_logic_check_for_create_time_min_equal_max": {
        "api_command": "discover.collection.admin.get_tasks?tw",
        "req": {
            "offset": 0,
            "limit": 1,
            "rule_id": "3",
            "create_time_min": 1622103198,
            "create_time_max" : 1622103198
        },
        "response_text": {
            "total_count": 1, 
            "tasks": [{
                "status": 1,
                "task_id": "4",
                "collection_group_id": "9",
                "create_time": 1622103198
            }], 
            "limit": 1,
            "offset": 0        
        },
        "response_status": 0
    },
    "get_tasks_logic_check_for_create_time_min_greater_than_max": {
        "api_command": "discover.collection.admin.get_tasks?tw",
        "req": {
            "offset": 0,
            "limit": 1,
            "rule_id": "3",
            "create_time_min": 1622105501,
            "create_time_max" : 1622103198
        },
        "response_text": {
            "error_messages": ["create time min should be smaller than max"]     
        },
        "response_status": 10002
    }
}