{
    "update_task_for_non_existed_rule_id": {
        "api_command": "discover.collection.admin.update_task?tw",
        "req": {
            "rule_id": "8787",
            "task_id": "3",
            "auto_update_end_time": "int_to_be_replaced",
            "operator": "steven.chen@shopee.com"
        },
        "response_text": {
            "error_messages": ["task not found"]
        },
        "response_status": 10013
    }
}