{
    "get_campaign_tags_compulsory_field_check": {
        "api_command": "discover.collection.admin.get_campaign_tags?tw",
        "req": {},
        "response_text": {},
        "response_status": 0
    }
}