{
    "get_product_labels_compulsory_field_check": {
        "api_command": "discover.collection.admin.get_product_labels?tw",
        "req": {},
        "response_text": {
            "product_labels": []
        },
        "response_status": 0
    }
}