{
    "get_tasks_logic_check_for_update_time_min_smaller_than_max": {
        "api_command": "discover.collection.admin.get_tasks?tw",
        "req": {
            "offset": 0,
            "limit": 1,
            "rule_id": "1",
            "update_time_min": 1618206627,
            "update_time_max" : 1622105109
        },
        "response_text": {
            "total_count": 1, 
            "tasks": [{
                "status": 1,
                "task_id": "2",
                "collection_group_id": "7",
                "update_time": 1619685109
            }], 
            "limit": 1,
            "offset": 0        
        },
        "response_status": 0
    },
    "get_tasks_logic_check_for_update_time_min_equal_max": {
        "api_command": "discover.collection.admin.get_tasks?tw",
        "req": {
            "offset": 0,
            "limit": 1,
            "rule_id": "1",
            "update_time_min": 1619685109,
            "update_time_max" : 1619685109
        },
        "response_text": {
            "total_count": 1, 
            "tasks": [{
                "status": 1,
                "task_id": "2",
                "collection_group_id": "7",
                "update_time": 1619685109
            }], 
            "limit": 1,
            "offset": 0        
        },
        "response_status": 0
    },
    "get_tasks_logic_check_for_update_time_min_greater_than_max": {
        "api_command": "discover.collection.admin.get_tasks?tw",
        "req": {
            "offset": 0,
            "limit": 1,
            "rule_id": "1",
            "update_time_min": 1622105109,
            "update_time_max" : 1618206627
        },
        "response_text": {
            "error_messages": ["update time min should be smaller than max"]     
        },
        "response_status": 10002
    }
}