{
    "get_metrics_normal_item_quantity_min_null": {
        "api_command": "discover.collection.admin.get_metrics?tw",
        "req": {
            "normal_item_quantity_min" : null
        },
        "response_text": null,
        "response_status": 105
    },
    "get_metrics_normal_item_quantity_min_string": {
        "api_command": "discover.collection.admin.get_metrics?tw",
        "req": {
            "normal_item_quantity_min" : "steven_test"
        },
        "response_text": null,
        "response_status": 105
    },
    "get_metrics_normal_item_quantity_min_-1": {
        "api_command": "discover.collection.admin.get_metrics?tw",
        "req": {
            "normal_item_quantity_min" : -1
        },
        "response_text": null,
        "response_status": 105
    },
    "get_metrics_exact_normal_item_quantity_min_number": {
        "api_command": "discover.collection.admin.get_metrics?tw",
        "req": {
            "normal_item_quantity_min" : 72
        },
        "response_text": {
            "metrics": [
                {"collection_id": 377}
            ]
        },
        "response_status": 0
    }
}