{
    "get_metrics_logic_check_for_po_item_correct_value" : {
        "api_command": "discover.collection.admin.get_metrics?tw",
        "req": {
            "po_item_min" : 20,
            "po_item_max" : 22
            },
        "response_text": {
                "metrics":[{"collection_id" : 501}]
        },
        "response_status": 0
    },
    "get_metrics_logic_check_for_po_item_value_equal" : {
        "api_command": "discover.collection.admin.get_metrics?tw",
        "req": {
            "po_item_min" : 20,
            "po_item_max" : 20
            },
        "response_text": {
                "metrics":[{"collection_id" : 501}]
        },
        "response_status": 0
    },
    "get_metrics_logic_check_for_po_item_wrong_value" : {
        "api_command": "discover.collection.admin.get_metrics?tw",
        "req": {
            "po_item_min" : 22,
            "po_item_max" : 20
            },
        "response_text": {},
        "response_status": 0
    }
}