{
    "get_metrics_collection_ids_null": {
        "api_command": "discover.collection.admin.get_metrics?tw",
        "req": {
            "collection_ids": null
        },
        "response_text": null,
        "response_status": 105
    },
    "get_metrics_collection_ids_dict": {
        "api_command": "discover.collection.admin.get_metrics?tw",
        "req": {
            "collection_ids": {"test":"test"}
        },
        "response_text": null,
        "response_status": 105
    },
    "get_metrics_collection_ids_list_null": {
        "api_command": "discover.collection.admin.get_metrics?tw",
        "req": {
            "collection_ids": [null]
        },
        "response_text": null,
        "response_status": 105
    },
    "get_metrics_collection_ids_list_string": {
        "api_command": "discover.collection.admin.get_metrics?tw",
        "req": {
            "collection_ids": ["steven_test"]
        },
        "response_text": null,
        "response_status": 105
    },
    "get_metrics_collection_ids_list_boolean": {
        "api_command": "discover.collection.admin.get_metrics?tw",
        "req": {
            "collection_ids": [false]
        },
        "response_text": {},
        "response_status": 0
    },
    "get_metrics_collection_ids_exact_collection_id_in_list": {
        "api_command": "discover.collection.admin.get_metrics?tw",
        "req": {
            "collection_ids": [5110,5094]
        },
        "response_text": {
            "metrics": [
                {"collection_id": 5094},{"collection_id": 5110}
            ]
        },
        "response_status": 0
    }
}