{
    "get_product_labels_successfully": {
        "api_command": "discover.collection.admin.get_product_labels?tw",
        "req": {
            "offset": 0,
            "limit": 5,
            "label_name_contains": "1111_item_2018_tw"
        },
        "response_text": {
            "product_labels": [{"id": 3, "name": "1111_item_2018_tw"}]
        },
        "response_status": 0
    }
}