{
    "delete_rule_compulsory_field_check": {
        "api_command": "discover.collection.admin.delete_rule?tw",
        "req": {},
        "response_text": {"error_messages": ["rule_id is required field", "rule id is not integer"]},
        "response_status": 10002
    }
}