{
    "get_rules_update_time_min_less_than_max": {
        "api_command": "discover.collection.admin.get_rules?tw",
        "req": {
            "offset": 0,
            "limit": 1,
            "update_time_min": 1622103000,
            "update_time_max": 1622103186
        },
        "response_text": {
            "rules": [{
                "last_operator": "steven.chen@shopee.com",
                "source": {
                    "source_type": 2,
                    "product_label_ids": ["29"]},
                "update_time": 1622103186,
                "rule_id": "3"}],
            "total_count": 1,
            "limit": 1,
            "offset": 0
        },
        "response_status": 0
    },
    "get_rules_update_time_min_equal_max": {
        "api_command": "discover.collection.admin.get_rules?tw",
        "req": {
            "offset": 0,
            "limit": 1,
            "update_time_min": 1622103186,
            "update_time_max": 1622103186
        },
        "response_text":{
            "rules": [{
                "last_operator": "steven.chen@shopee.com",
                "source": {
                    "source_type": 2,
                    "product_label_ids": ["29"]},
                "update_time": 1622103186,
                "rule_id": "3"}],
            "total_count": 1,
            "limit": 1,
            "offset": 0
        },
        "response_status": 0
    },
    "get_rules_update_time_min_greater_than_max": {
        "api_command": "discover.collection.admin.get_rules?tw",
        "req": {
            "offset": 0,
            "limit": 1,
            "update_time_min": 1622103186,
            "update_time_max": 1622103000
        },
        "response_text": {"error_messages": ["update time min should be smaller than max"]},
        "response_status": 10002
    }
}