{
    "redo_task_logic_check_task_not_matched_with_rule_id": {
        "api_command": "discover.collection.admin.redo_task?tw",
        "req": {
            "rule_id": "3",
            "task_id": "2",
            "operator": "steven_test_redo"
        },
        "response_text": {
            "error_messages": ["task not found"]
        },
        "response_status": 10013
    }
}