{
    "get_collection_info_audit_logs_offset_null": {
        "api_command": "discover.collection.admin.get_collection_info_audit_logs?tw",
        "req": {
            "collection_id" : 35206,
            "offset": null,
            "limit": 1
        },
        "response_text": null,
        "response_status": 105
    },
    "get_collection_info_audit_logs_offset_string": {
        "api_command": "discover.collection.admin.get_collection_info_audit_logs?tw",
        "req": {
            "collection_id" : 35206,
            "offset": "sam_test",
            "limit": 1
        },
        "response_text": null,
        "response_status": 105
    },
    "get_collection_info_audit_logs_offset_boolean": {
        "api_command": "discover.collection.admin.get_collection_info_audit_logs?tw",
        "req": {
            "collection_id" : 35206,
            "offset": false,
            "limit": 1
        },
        "response_text": {
            "audit_logs": [{
                "event_id": 5270
            }], 
            "limit": 1, 
            "offset": 0
        },
        "response_status": 0
    },
    "get_collection_info_audit_logs_offset_-1": {
        "api_command": "discover.collection.admin.get_collection_info_audit_logs?tw",
        "req": {
            "collection_id" : 35206,
            "offset": -1,
            "limit": 1
        },
        "response_text": null,
        "response_status": 105
    },
    "get_collection_info_audit_logs_exact_offset": {
        "api_command": "discover.collection.admin.get_collection_info_audit_logs?tw",
        "req": {
            "collection_id" : 35206,
            "offset": 1,
            "limit": 1
        },
        "response_text": {
            "audit_logs": [{
                "event_id": 5191}], 
            "limit": 1, 
            "offset": 1
        },
        "response_status": 0
    }
}