Smart Banner Request ID,Banner Type,Start Time,End Time,Visible,Platform Hidden,Title,Description,URL,Banner Bundle,Scope Type,Rule Set ID,User List Mode,Mobile Static Banner,PC Static Banner,Label ID
,Home Carousel,"02/01/2006, 15:04:05","02/01/2035, 15:04:05",FALSE,"[""IOS_WEB"",""ANDROID_WEB"",""PC_MALL""]",This is an example,example description,https://www.shopee.sg,0,No Scope,8,Visible to white listed users,dcb35qwe1235daf87f57db54a47406c5,dcb35qwe1235daf87f57db54a47406c5,[1]
,Home Carousel,"02/01/2006, 15:04:05","02/01/2035, 15:04:05",FALSE,"[""IOS_APP"",""ANDROID_WEB""]",Sample Title,example description,#,3,User List,5,Visible to non-black listed users,dcb35qwe1235daf87f57db54a47406c5,dcb35qwe1235daf87f57db54a47406c5,"[2,3]"
,Home Carousel,"02/01/2006, 15:04:05","02/01/2035, 15:04:05",FALSE,[],This is an example,example description,https://www.shopee.sg,0,Rule Set,0,,dcb35qwe1235daf87f57db54a47406c5,dcb35qwe1235daf87f57db54a47406c5,[]
,Home Carousel,"02/01/2006, 15:04:05","02/01/2035, 15:04:05",FALSE,"[""IOS_WEB"",""ANDROID_WEB"",""PC_MALL""]",This is an example,example description,https://www.shopee.sg,0,No Scope,8,Visible to white listed users,dcb35qwe1235daf87f57db54a47406c5,dcb35qwe1235daf87f57db54a47406c5,[1]
