﻿shopid,rectangle_image_hash
446511,https://cf.shopee.vn/file/e3b2148b5ec828cf377293e6007cd752
446508,https://cf.shopee.vn/file/fe4e299de9132ea34ca14fc0e454f194
446509,https://cf.shopee.vn/file/e464a05429264a51976a7bb3a4a2ee1b
446510,https://cf.shopee.vn/file/94c1cea8880fc48c94540c5edef0e365
443703,https://cf.shopee.vn/file/f10bc0f9882b6aea39e83a1eee04e46e
318213,3b3b104fa1524b07cf0f144e6e3a6425
443674,afa5293e82e6bf96786ec3047d2f5dde
319878,0512838820bb45edb2928f6faaf3dc33
