{
    "cancel_order": {
        "payload": {
            "cancel_reason": 3,
            "item_ids": [],
            "order_id": 0
        },
        "query_string_parameters": {
            "SPC_CDS": "00febaa7-fcb8-486e-8dad-343f3e4408fa",
            "SPC_CDS_VER": "2"
        },
        "response_status": 200,
        "response_text": {
            "code": 0,
            "message": "success",
            "user_message": "success"
        },
        "url": "https://banhang.staging.shopee.vn/api/v3/order/cancel_order/"
    }
}
