{
    "add_aod_to_cart": {
        "url": "https://staging.shopee.vn/api/v4/cart/add_to_cart_batch",
        "headers": {
            "x-csrftoken": "2AzWm32UZWjVkDvuVpf8rTRD9piUKqKu",
            "referer": "https://staging.shopee.vn/main_item_order1-i.175361040.103109580",
            "cookie": "",
            "Content-Type": "application/json"
        },
        "payload": {
            "orders": [
                {
                    "shopid": 201744572,
                    "items": [
                        {
                            "add_on_deal_id": 13448,
							"item_group_id": "5295710374526239668",
                            "donot_add_quantity": true,
                            "checkout": true,
                            "is_add_on_sub_item": false,
                            "shopid": 201744572,
                            "itemid": 900057971,
							"modelid": 14747551,
                            "quantity": 1
                        },
                        {
                            "add_on_deal_id": 13448,
							"item_group_id": "5295710374526239668",
                            "donot_add_quantity": true,
                            "checkout": true,
                            "is_add_on_sub_item": true,
                            "shopid": 201744572,
                            "itemid": 900069195,
							"modelid": 14748869,
                            "quantity": 1
                        },
                        {
                            "add_on_deal_id": 13448,
							"item_group_id": "5295710374526239668",
                            "donot_add_quantity": true,
                            "checkout": true,
                            "is_add_on_sub_item": true,
                            "shopid": 201744572,
                            "itemid": 900069193,
							"modelid": 14748860,
                            "quantity": 1
                        }
                    ]
                }
            ],
            "reset_groups":[
                {
                    "item_group_id": "5295710374526239668",
                    "shop_id": 201744572
                }
            ]
        },
        "response_status": 200
    },
    "add_gwp1_to_cart": {
        "url": "https://staging.shopee.vn/api/v4/cart/add_to_cart_batch",
        "headers": {
            "x-csrftoken": "2AzWm32UZWjVkDvuVpf8rTRD9piUKqKu",
            "referer": "https://staging.shopee.vn/main_item_order1-i.175361040.103109580",
            "cookie": "",
            "Content-Type": "application/json"
        },
        "payload": {
            "orders": [
                {
                    "shopid": 201744572,
                    "items": [
                        {
                            "add_on_deal_id": 13449,
							"item_group_id": "13449",
                            "donot_add_quantity": false,
                            "checkout": true,
                            "is_add_on_sub_item": true,
                            "shopid": 201744572,
                            "itemid": 900058003,
							"modelid": 10009785106,
                            "quantity": 1
                        },
                        {
                            "add_on_deal_id": 13449,
							"item_group_id": "13449",
                            "donot_add_quantity": false,
                            "checkout": true,
                            "is_add_on_sub_item": true,
                            "shopid": 201744572,
                            "itemid": 900057971,
							"modelid": 14747551,
                            "quantity": 1
                        },
                        {
                            "add_on_deal_id": 13449,
							"item_group_id": "13449",
                            "donot_add_quantity": false,
                            "checkout": true,
                            "is_add_on_sub_item": false,
                            "shopid": 201744572,
                            "itemid": 900069195,
							"modelid": 14748869,
                            "quantity": 1
                        },
                        {
                            "add_on_deal_id": 13449,
							"item_group_id": "13449",
                            "donot_add_quantity": false,
                            "checkout": true,
                            "is_add_on_sub_item": false,
                            "shopid": 201744572,
                            "itemid": 900069193,
							"modelid": 14748860,
                            "quantity": 1
                        }
                    ]
                }
            ],
            "reset_groups":[
                {
                    "item_group_id": "13449",
                    "shop_id": 201744572
                }
            ]
        },
        "response_status": 200
    },   
    "add_gwp2_to_cart": {
        "url": "https://staging.shopee.vn/api/v4/cart/add_to_cart_batch",
        "headers": {
            "x-csrftoken": "2AzWm32UZWjVkDvuVpf8rTRD9piUKqKu",
            "referer": "https://staging.shopee.vn/main_item_order1-i.175361040.103109580",
            "cookie": "",
            "Content-Type": "application/json"
        },
        "payload": {
            "orders": [
                {
                    "shopid": 201744572,
                    "items": [
                        {
                            "add_on_deal_id": 13451,
							"item_group_id": "13451",
                            "donot_add_quantity": false,
                            "checkout": true,
                            "is_add_on_sub_item": true,
                            "shopid": 201744572,
                            "itemid": 900069193,
							"modelid": 14748860,
                            "quantity": 1
                        },
                        {
                            "add_on_deal_id": 13451,
							"item_group_id": "13451",
                            "donot_add_quantity": false,
                            "checkout": true,
                            "is_add_on_sub_item": true,
                            "shopid": 201744572,
                            "itemid": 900069195,
							"modelid": 14748869,
                            "quantity": 1
                        },
                        {
                            "add_on_deal_id": 13451,
							"item_group_id": "13451",
                            "donot_add_quantity": false,
                            "checkout": true,
                            "is_add_on_sub_item": false,
                            "shopid": 201744572,
                            "itemid": 900058003,
							"modelid": 10009785106,
                            "quantity": 1
                        }
                    ]
                }
            ],
            "reset_groups":[
                {
                    "item_group_id": "13451",
                    "shop_id": 201744572
                }
            ]
        },
        "response_status": 200
    },       
    "cart_checkout":{
        "url": "https://staging.shopee.vn/api/v4/cart/checkout",
        "headers":{
            "x-csrftoken": "2AzWm32UZWjVkDvuVpf8rTRD9piUKqKu",
            "referer": "https://staging.shopee.vn/",
            "cookie": "",
            "Content-Type": "application/json",
            "x-api-source": "pc"
        },
        "payload":{
            "selected_shop_order_ids": [
              {
                "shopid": 201744572,
                "item_briefs": [
                  {
                    "itemid": 900057971,
                    "modelid": 14747551,
                    "item_group_id": "5295710374526239668",
                    "applied_promotion_id": 0,
                    "offerid": null,
                    "price": 500000000000,
                    "quantity": 1,
                    "is_add_on_sub_item": false,
                    "add_on_deal_id": 13448,
                    "status": 1,
                    "cart_item_change_time": 1652067152,
                    "membership_offer_id": null
                  },
                  {
                    "itemid": 900069195,
                    "modelid": 14748869,
                    "item_group_id": "5295710374526239668",
                    "applied_promotion_id": 13448,
                    "offerid": null,
                    "price": 0,
                    "quantity": 1,
                    "is_add_on_sub_item": true,
                    "add_on_deal_id": 13448,
                    "status": 1,
                    "cart_item_change_time": 1652067152,
                    "membership_offer_id": null
                  },
                  {
                    "itemid": 900069193,
                    "modelid": 14748860,
                    "item_group_id": "5295710374526239668",
                    "applied_promotion_id": 13448,
                    "offerid": null,
                    "price": 10000000,
                    "quantity": 1,
                    "is_add_on_sub_item": true,
                    "add_on_deal_id": 13448,
                    "status": 1,
                    "cart_item_change_time": 1652067152,
                    "membership_offer_id": null
                  },
                  {
                    "itemid": 900058003,
                    "modelid": 10009785106,
                    "item_group_id": "13451",
                    "applied_promotion_id": 0,
                    "offerid": null,
                    "price": 100000000000,
                    "quantity": 1,
                    "is_add_on_sub_item": false,
                    "add_on_deal_id": 13451,
                    "status": 1,
                    "cart_item_change_time": 1652067151,
                    "membership_offer_id": null
                  },
                  {
                    "itemid": 900069195,
                    "modelid": 14748869,
                    "item_group_id": "13449",
                    "applied_promotion_id": 0,
                    "offerid": null,
                    "price": 200000000000,
                    "quantity": 1,
                    "is_add_on_sub_item": false,
                    "add_on_deal_id": 13449,
                    "status": 1,
                    "cart_item_change_time": 1652067149,
                    "membership_offer_id": null
                  },
                  {
                    "itemid": 900069193,
                    "modelid": 14748860,
                    "item_group_id": "13449",
                    "applied_promotion_id": 0,
                    "offerid": null,
                    "price": 100000000000,
                    "quantity": 1,
                    "is_add_on_sub_item": false,
                    "add_on_deal_id": 13449,
                    "status": 1,
                    "cart_item_change_time": 1652067149,
                    "membership_offer_id": null
                  },
                  {
                    "itemid": 900058003,
                    "modelid": 10009785106,
                    "item_group_id": "13449",
                    "applied_promotion_id": 13449,
                    "offerid": null,
                    "price": 0,
                    "quantity": 1,
                    "is_add_on_sub_item": true,
                    "add_on_deal_id": 13449,
                    "status": 1,
                    "cart_item_change_time": 1652067149,
                    "membership_offer_id": null
                  },
                  {
                    "itemid": 900057971,
                    "modelid": 14747551,
                    "item_group_id": "13449",
                    "applied_promotion_id": 13449,
                    "offerid": null,
                    "price": 0,
                    "quantity": 1,
                    "is_add_on_sub_item": true,
                    "add_on_deal_id": 13449,
                    "status": 1,
                    "cart_item_change_time": 1652067149,
                    "membership_offer_id": null
                  },
                  {
                    "itemid": 900069244,
                    "modelid": 14748970,
                    "item_group_id": null,
                    "applied_promotion_id": 0,
                    "offerid": null,
                    "price": 1200000000000,
                    "quantity": 1,
                    "is_add_on_sub_item": null,
                    "add_on_deal_id": null,
                    "status": 1,
                    "cart_item_change_time": 1652067153,
                    "membership_offer_id": null
                  }
                ],
                "shop_vouchers": []
              }
            ],
            "platform_vouchers": [],
            "free_shipping_voucher_info": null,
            "use_coins": false,
            "sz_device_fingerprint": "xDS9IaXNUS1vG6oemfoFcA==|ABC6JGVUFq6lJXlO8D/qRfyu5bYZqStliwpLoRRBmUb+zFVb7blVpys6D7AvfA+t3ZXqSjKkHMUwR1TamNpBkg==|9Iu3ogkVnvtQWWHu|04|3",
            "support_problematic_groups": true,
            "version": 3
          },
        "response_status":200
    },
    "checkout_get": {
        "url": "https://staging.shopee.vn/api/v4/checkout/get",
        "headers":{
            "x-csrftoken": "2AzWm32UZWjVkDvuVpf8rTRD9piUKqKu",
            "referer": "https://staging.shopee.vn/checkout-page",
            "cookie": "",
            "Content-Type": "application/json",
            "x-api-source": "pc"
        },
        "payload": {
            "_cft": [
              1131
            ],
            "timestamp": 1652067049,
            "shoporders": [
              {
                "shop": {
                  "shopid": 201744572
                },
                "items": [
                  {
                    "itemid": 900057971,
                    "modelid": 14747551,
                    "quantity": 1,
                    "add_on_deal_id": 13449,
                    "is_add_on_sub_item": true,
                    "item_group_id": "13449",
                    "insurances": []
                  },
                  {
                    "itemid": 900057971,
                    "modelid": 14747551,
                    "quantity": 1,
                    "add_on_deal_id": 13448,
                    "is_add_on_sub_item": false,
                    "item_group_id": "5295710374526239668",
                    "insurances": []
                  },
                  {
                    "itemid": 900058003,
                    "modelid": 10009785106,
                    "quantity": 1,
                    "add_on_deal_id": 13449,
                    "is_add_on_sub_item": true,
                    "item_group_id": "13449",
                    "insurances": []
                  },
                  {
                    "itemid": 900058003,
                    "modelid": 10009785106,
                    "quantity": 1,
                    "add_on_deal_id": 13451,
                    "is_add_on_sub_item": false,
                    "item_group_id": "13451",
                    "insurances": []
                  },
                  {
                    "itemid": 900069193,
                    "modelid": 14748860,
                    "quantity": 1,
                    "add_on_deal_id": 13449,
                    "is_add_on_sub_item": false,
                    "item_group_id": "13449",
                    "insurances": []
                  },
                  {
                    "itemid": 900069193,
                    "modelid": 14748860,
                    "quantity": 1,
                    "add_on_deal_id": 13448,
                    "is_add_on_sub_item": true,
                    "item_group_id": "5295710374526239668",
                    "insurances": []
                  },
                  {
                    "itemid": 900069195,
                    "modelid": 14748869,
                    "quantity": 1,
                    "add_on_deal_id": 13449,
                    "is_add_on_sub_item": false,
                    "item_group_id": "13449",
                    "insurances": []
                  },
                  {
                    "itemid": 900069195,
                    "modelid": 14748869,
                    "quantity": 1,
                    "add_on_deal_id": 13448,
                    "is_add_on_sub_item": true,
                    "item_group_id": "5295710374526239668",
                    "insurances": []
                  },
                  {
                    "itemid": 900069244,
                    "modelid": 14748970,
                    "quantity": 1,
                    "add_on_deal_id": 0,
                    "is_add_on_sub_item": false,
                    "item_group_id": null,
                    "insurances": []
                  }
                ],
                "shipping_id": 1
              }
            ],
            "selected_payment_channel_data": {
              "payment_channelid": 51000,
              "version": 1
            },
            "promotion_data": {
              "use_coins": false,
              "free_shipping_voucher_info": {
                "free_shipping_voucher_id": 0,
                "free_shipping_voucher_code": "",
                "disabled_reason": null,
                "banner_info": {
                  "msg": "",
                  "learn_more_msg": ""
                }
              },
              "platform_vouchers": [],
              "shop_vouchers": [],
              "check_shop_voucher_entrances": true,
              "auto_apply_shop_voucher": false
            },
            "fsv_selection_infos": [],
            "device_info": {
              "device_id": "",
              "device_fingerprint": "",
              "tongdun_blackbox": "",
              "buyer_payment_info": {}
            },
            "buyer_info": {
              "share_to_friends_info": {
                "display_toggle": false,
                "enable_toggle": false,
                "allow_to_share": false
              },
              "kyc_info": null,
              "checkout_email": ""
            },
            "cart_type": 0,
            "client_id": 0,
            "tax_info": {
              "tax_id": ""
            },
            "shipping_orders": [
              {
                "sync": true,
                "buyer_address_data": {
                  "addressid": 20208,
                  "address_type": 0,
                  "tax_address": ""
                },
                "selected_logistic_channelid": 59999,
                "shipping_id": 1,
                "shoporder_indexes": [
                  0
                ],
                "selected_preferred_delivery_time_slot_id": null
              }
            ],
            "order_update_info": {},
            "checkout_price_data": {
              "merchandise_subtotal": 2100010000000,
              "shipping_subtotal_before_discount": 0,
              "shipping_discount_subtotal": 0,
              "shipping_subtotal": 0,
              "tax_payable": 0,
              "tax_exemption": 0,
              "custom_tax_subtotal": 0,
              "promocode_applied": null,
              "credit_card_promotion": null,
              "shopee_coins_redeemed": null,
              "group_buy_discount": 0,
              "bundle_deals_discount": null,
              "buyer_txn_fee": 0,
              "insurance_subtotal": 0,
              "insurance_before_discount_subtotal": 0,
              "insurance_discount_subtotal": 0,
              "vat_subtotal": 0,
              "total_payable": 2100010000000
            }
          },
        "response_status":200
    },
    "place_order": {
        "url": "https://staging.shopee.vn/api/v4/checkout/place_order",
        "headers":{
            "x-csrftoken": "2AzWm32UZWjVkDvuVpf8rTRD9piUKqKu",
            "referer": "https://staging.shopee.vn/",
            "cookie": "",
            "Content-Type": "application/json",
            "x-api-source": "pc"
        },
        "response_status":200
    },
    "init_forder": {
        "url": "https://oms.staging.shopee.vn/api/forder/init",
        "headers": {
            "request-id": "1606966763218289190",
            "user-agent": "Mozilla/5.0 (Windows NT 10.0; Win64; x64) AppleWebKit/537.36 (KHTML, like Gecko) Chrome/79.0.3945.130 Safari/537.36",
            "content-type": "application/json",
            "jwt-token": "eyJhbGciOiJIUzI1NiIsIm9wdHIiOiJ3c2EiLCJ0eXAiOiJKV1QifQ.eyJleHAiOjE4OTkxODQ5NzF9.pxUYCkWb6z-DVKutfUC-rzy17WLlpt_SuR1h6z6iGes",
            "cache-control": "no-cache"
        },
        "response_text": {
            "header": {
                "retcode": 0
            }
        },
        "payload": {
            "order_id": 0,
            "country": "VN",
            "shop_id": 201744572,
            "user_id": 101766302,
			"ofg_id": 0,
            "channel_id": 59999
        },
        "response_status": 200
    },
    "get_forder_id": {
        "url": "https://oms.staging.shopee.vn/api/forder/get",
        "headers": {
            "request-id": "1606966763218289190",
            "user-agent": "Mozilla/5.0 (Windows NT 10.0; Win64; x64) AppleWebKit/537.36 (KHTML, like Gecko) Chrome/79.0.3945.130 Safari/537.36",
            "content-type": "application/json",
            "jwt-token": "eyJhbGciOiJIUzI1NiIsIm9wdHIiOiJ3c2EiLCJ0eXAiOiJKV1QifQ.eyJleHAiOjE4OTkxODQ5NzF9.pxUYCkWb6z-DVKutfUC-rzy17WLlpt_SuR1h6z6iGes",
            "cache-control": "no-cache"
        },
        "payload": {
            "order_id": 0,
            "country": "VN",
            "shop_id": 201744572,
            "tracking_level": 1
        },
        "response_status": 200
    },
    "pickup_done": {
        "url": "https://oms.staging.shopee.vn/api/sls/update_forder_logistic_log",
        "headers": {
            "request-id": "1606966763218289190",
            "user-agent": "Mozilla/5.0 (Windows NT 10.0; Win64; x64) AppleWebKit/537.36 (KHTML, like Gecko) Chrome/79.0.3945.130 Safari/537.36",
            "content-type": "application/json",
            "jwt-token": "eyJhbGciOiJIUzI1NiIsIm9wdHIiOiJ3c2EiLCJ0eXAiOiJKV1QifQ.eyJleHAiOjE4OTkxODQ5NzF9.pxUYCkWb6z-DVKutfUC-rzy17WLlpt_SuR1h6z6iGes",
            "cache-control": "no-cache"
        },
        "response_text": {
            "header": {
                "retcode": 0
            }
        },
        "payload": {
            "status": 25,
            "channel_description": "ChannelDescription_DOMESTIC_DROPOFF",
            "system_time": "",
            "description": "Description_DOMESTIC_DROPOFF",
            "country": "VN",
            "ignore_status_priority": false,
            "flag": 1,
            "extra_data": "{}",
            "channel_status": "DOMESTIC_DROPOFF",
            "forder_id": 0
        },
        "response_status": 200
    },
    "get_ship_by_date": {
        "url": "https://admin.staging.shopee.vn/system/tools/order_id/",
        "response_status": 200,
        "cookies": {
            "sessionid": ""
        }
    },
    "delivery_done": {
        "url": "https://oms.staging.shopee.vn/api/sls/update_forder_logistic_log",
        "headers": {
            "request-id": "1606966763218289190",
            "user-agent": "Mozilla/5.0 (Windows NT 10.0; Win64; x64) AppleWebKit/537.36 (KHTML, like Gecko) Chrome/79.0.3945.130 Safari/537.36",
            "content-type": "application/json",
            "jwt-token": "eyJhbGciOiJIUzI1NiIsIm9wdHIiOiJ3c2EiLCJ0eXAiOiJKV1QifQ.eyJleHAiOjE4OTkxODQ5NzF9.pxUYCkWb6z-DVKutfUC-rzy17WLlpt_SuR1h6z6iGes",
            "cache-control": "no-cache"
        },
        "response_status": 200,
        "payload": {
            "status": 3,
            "channel_description": "ChannelDescription_DELIVERED",
            "system_time": "",
            "description": "Description_DELIVERED",
            "country": "VN",
            "ignore_status_priority": false,
            "flag": 1,
            "extra_data": "{}",
            "channel_status": "DELIVERED",
            "forder_id": 0
        },
        "response_text": {
            "header": {
                "retcode": 0
            }
        }
    }
}