{
   "save_voucher": {
      "url": "https://staging.shopee.vn/api/v2/voucher_wallet/save_platform_voucher_by_voucher_code",
      "headers": {
         "x-csrftoken": "2AzWm32UZWjVkDvuVpf8rTRD9piUKqKu",
         "referer": "https://staging.shopee.vn/cart",
         "cookie": "",
         "Content-Type": "application/json"
      },
      "payload": {
         "voucher_code":"UIVI0MCN"
      },
      "response_status": 200
   },
   "add_ap_integrated_to_cart": {
      "url": "https://staging.shopee.vn/api/v4/cart/add_to_cart",
      "headers": {
         "x-csrftoken": "2AzWm32UZWjVkDvuVpf8rTRD9piUKqKu",
         "referer": "https://staging.shopee.vn/product-Airpay-Wallet-integrated-i.200009813.100364644",
         "cookie": "",
         "Content-Type": "application/json"
      },
      "payload": {
         "quantity":1,
         "checkout":true,
         "update_checkout_only":false,
         "donot_add_quantity":false,
         "source":"{\"refer_urls\":[]}",
         "client_source":1,
         "shopid":200009813,
         "itemid":100364644,
         "modelid":5029522
      },
      "response_status": 200
   },
   "add_ap_integrated2_to_cart": {
      "url": "https://staging.shopee.vn/api/v4/cart/add_to_cart",
      "headers": {
         "x-csrftoken": "2AzWm32UZWjVkDvuVpf8rTRD9piUKqKu",
         "referer": "https://staging.shopee.vn/product/200009811/100364623",
         "cookie": "",
         "Content-Type": "application/json"
      },
      "payload": {
         "quantity":1,
         "checkout":true,
         "update_checkout_only":false,
         "donot_add_quantity":false,
         "source":"{\"refer_urls\":[]}",
         "client_source":1,
         "shopid":200009813,
         "itemid":100364645,
         "modelid":6408800
      },
      "response_status": 200
   },
   "cart_checkout":{
      "url": "https://staging.shopee.vn/api/v4/cart/checkout",
      "headers":{
         "x-csrftoken": "2AzWm32UZWjVkDvuVpf8rTRD9piUKqKu",
         "referer": "https://staging.shopee.vn/",
         "cookie": "",
         "Content-Type": "application/json",
         "x-api-source": "pc"
      },
      "payload": {
         "selected_shop_order_ids":[
            {
               "shopid":200009813,
               "item_briefs":[
                  {
                     "itemid":100364645,
                     "modelid":6408800,
                     "item_group_id":null,
                     "applied_promotion_id":0,
                     "offerid":null,
                     "price":1000000000,
                     "quantity":1,
                     "is_add_on_sub_item":null,
                     "add_on_deal_id":null,
                     "status":1,
                     "cart_item_change_time":1621439407
                  },
                  {
                     "itemid":100364644,
                     "modelid":5029522,
                     "item_group_id":null,
                     "applied_promotion_id":0,
                     "offerid":null,
                     "price":1000000000,
                     "quantity":1,
                     "is_add_on_sub_item":null,
                     "add_on_deal_id":null,
                     "status":1,
                     "cart_item_change_time":1621439292
                  }
               ],
               "shop_vouchers":[
                  
               ]
            }
         ],
         "platform_vouchers":[
            {
               "shop_id":0,
               "promotionid":234493,
               "voucher_code":"U051UZ17",
               "reward_type":0,
               "is_applied":true,
               "is_claimed_before":true,
               "discount_value":10000000,
               "discount_percentage":50,
               "discount_cap":10000000,
               "min_spend":20000000,
               "current_spend":2000000000,
               "coin_earned":0,
               "coin_percentage":0,
               "collect_time":1621439473,
               "invalid_message_code":0,
               "new_tag":"",
               "new_voucher_available":true
            }
         ],
         "free_shipping_voucher_info":{
            "free_shipping_voucher_id":0
         },
         "use_coins":false,
         "support_problematic_groups":true
      },
      "response_status":200
   },
   "checkout_get": {
      "url": "https://staging.shopee.vn/api/v4/checkout/get",
      "headers":{
            "x-csrftoken": "2AzWm32UZWjVkDvuVpf8rTRD9piUKqKu",
            "referer": "https://staging.shopee.vn/checkout-page",
            "cookie": "",
            "Content-Type": "application/json",
            "x-api-source": "pc"
      },
      "payload": {
         "_cft": [
           23659
         ],
         "timestamp": 1655796166,
         "shoporders": [
           {
             "shop": {
               "shopid": 200009813
             },
             "items": [
               {
                 "itemid": 100364644,
                 "modelid": 5029522,
                 "quantity": 1,
                 "add_on_deal_id": 0,
                 "is_add_on_sub_item": false,
                 "item_group_id": null,
                 "insurances": []
               },
               {
                 "itemid": 100364645,
                 "modelid": 6408800,
                 "quantity": 1,
                 "add_on_deal_id": 0,
                 "is_add_on_sub_item": false,
                 "item_group_id": null,
                 "insurances": []
               }
             ],
             "shipping_id": 1
           }
         ],
         "selected_payment_channel_data": {
           "channel_id": 5000102,
           "channel_item_option_info": {
             "channel_item_id": 839,
             "credit_card_data": {
               "card_number": "400000xxxxxx0002",
               "expiry_date": "05-2026",
               "bank_name": "Citibank",
               "bank_id": 6945
             }
           },
           "version": 2
         },
         "promotion_data": {
           "use_coins": false,
           "free_shipping_voucher_info": {
             "free_shipping_voucher_id": 0,
             "free_shipping_voucher_code": "",
             "disabled_reason": null,
             "banner_info": {
               "msg": "",
               "learn_more_msg": ""
             },
             "required_be_channel_ids": [],
             "required_spm_channels": []
           },
           "platform_vouchers": [
             {
               "voucher_code": "P4RNG7XM",
               "promotionid": 388701981147136
             }
           ],
           "shop_vouchers": [],
           "check_shop_voucher_entrances": true,
           "auto_apply_shop_voucher": false
         },
         "fsv_selection_infos": [],
         "device_info": {
           "device_id": "",
           "device_fingerprint": "",
           "tongdun_blackbox": "",
           "buyer_payment_info": {}
         },
         "buyer_info": {
           "share_to_friends_info": {
             "display_toggle": false,
             "enable_toggle": false,
             "allow_to_share": false
           },
           "kyc_info": null,
           "checkout_email": ""
         },
         "cart_type": 0,
         "client_id": 0,
         "client_event_info": {
           "is_platform_voucher_changed": false,
           "is_fsv_changed": false
         },
         "tax_info": {
           "tax_id": ""
         },
         "shipping_orders": [
           {
             "sync": true,
             "buyer_address_data": {
               "addressid": 11930,
               "address_type": 0,
               "tax_address": ""
             },
             "selected_logistic_channelid": 50018,
             "shipping_id": 1,
             "shoporder_indexes": [
               0
             ],
             "selected_preferred_delivery_time_option_id": 0,
             "selected_preferred_delivery_time_slot_id": null
           }
         ],
         "order_update_info": {},
         "checkout_price_data": {
           "merchandise_subtotal": 2000000000,
           "shipping_subtotal_before_discount": 3459600000,
           "shipping_discount_subtotal": 0,
           "shipping_subtotal": 3459600000,
           "tax_payable": 0,
           "tax_exemption": 0,
           "custom_tax_subtotal": 0,
           "promocode_applied": 10000000,
           "credit_card_promotion": null,
           "shopee_coins_redeemed": null,
           "group_buy_discount": 0,
           "bundle_deals_discount": null,
           "price_adjustment": null,
           "buyer_txn_fee": 0,
           "insurance_subtotal": 0,
           "insurance_before_discount_subtotal": 0,
           "insurance_discount_subtotal": 0,
           "vat_subtotal": 0,
           "total_payable": 5449600000
         }
      },
      "response_status":200
   },
   "place_order": {
      "url": "https://staging.shopee.vn/api/v4/checkout/place_order",
      "headers":{
         "x-csrftoken": "2AzWm32UZWjVkDvuVpf8rTRD9piUKqKu",
         "referer": "https://staging.shopee.vn/",
         "cookie": "",
         "Content-Type": "application/json",
         "x-api-source": "pc"
      },
      "response_status":200
   }
}