{
    "get_csrftoken": {
        "url": "https://admin.staging.shopee.vn/",
        "response_status": 200,
        "cookies": {
            "sessionid": ""
        }
    },
    "add_credit_coin_request": {
        "url": "https://admin.staging.shopee.vn/promotion/manual_coins/add/",
        "headers": {
            "origin": "https: // admin.staging.shopee.vn",
            "referer": "https://admin.staging.shopee.vn/promotion/manual_coins/",
            "user-agent": "Mozilla/5.0 (Windows NT 10.0; Win64; x64) AppleWebKit/537.36 (KHTML, like Gecko) Chrome/88.0.4324.190 Safari/537.36",
            "content-type": "application/json"
        },
        "cookies": {
                "sessionid": ""
        },
        "payload": {
            "amount": "300",
            "description": "",
            "reason": "asd",
            "title": "",
            "userid": "100011176"
        },
        "response_status": 200,
        "response_text": {
            "success": true
        }
    },
    "get_manual_credit_coin_list": {
        "url": "https://admin.staging.shopee.vn/promotion/manual_coins/json/",
        "cookies": {
            "sessionid": ""
        },
        "query_string_parameters": {
            "offset": "0",
            "limit": "1"
        },
        "response_status": 200,
        "response_text": {
            "success": true
        }
    },
    "confirm_credit_coin": {
        "url": "https://admin.staging.shopee.vn/promotion/manual_coins/confirm/",
        "headers": {
            "origin": "https: // admin.staging.shopee.vn",
            "referer": "https://admin.staging.shopee.vn/promotion/manual_coins/",
            "user-agent": "Mozilla/5.0 (Windows NT 10.0; Win64; x64) AppleWebKit/537.36 (KHTML, like Gecko) Chrome/88.0.4324.190 Safari/537.36",
            "content-type": "application/x-www-form-urlencoded; charset=UTF-8"
        },
        "cookies": {
            "sessionid": ""
        },
        "payload": {
            "request_ids": 12109
        },
        "response_status": 200
    }
}