{
    "arrange_shipping": {
        "payload": {
            "forder_id": "",
            "order_id": 0
        },
        "response_status": 200,
        "response_text": {
            "code": 0,
            "message": "success",
            "user_message": "success"
        },
        "url": "https://banhang.staging.shopee.vn/api/v3/shipment/init_order/"
    }
}
