{
    "cart_checkout":{
       "url": "https://staging.shopee.vn/api/v4/cart/checkout",
       "headers":{
          "x-csrftoken": "2AzWm32UZWjVkDvuVpf8rTRD9piUKqKu",
          "referer": "https://staging.shopee.vn/",
          "cookie": "",
          "Content-Type": "application/json",
          "x-api-source": "pc"
       },
       "payload": {
        "selected_shop_order_ids": [
          {
            "shopid": 200001375,
            "item_briefs": [
              {
                "itemid": 100311952,
                "modelid": 10002576892,
                "item_group_id": null,
                "applied_promotion_id": 0,
                "offerid": null,
                "price": 800000000000,
                "quantity": 1,
                "is_add_on_sub_item": null,
                "add_on_deal_id": null,
                "status": 1,
                "cart_item_change_time": 1647842662,
                "membership_offer_id": null
              }
            ],
            "shop_vouchers": []
          },
          {
            "shopid": 200669471,
            "item_briefs": [
              {
                "itemid": 100862895,
                "modelid": 10001075408,
                "item_group_id": null,
                "applied_promotion_id": 0,
                "offerid": null,
                "price": 1000000000000,
                "quantity": 1,
                "is_add_on_sub_item": null,
                "add_on_deal_id": null,
                "status": 1,
                "cart_item_change_time": 1647842655,
                "membership_offer_id": null
              }
            ],
            "shop_vouchers": []
          }
        ]
        },
       "response_status":200
    },
    "checkout_get": {
       "url": "https://staging.shopee.vn/api/v4/checkout/get",
       "headers":{
          "x-csrftoken": "2AzWm32UZWjVkDvuVpf8rTRD9piUKqKu",
          "referer": "https://staging.shopee.vn/checkout-page",
          "cookie": "",
          "Content-Type": "application/json",
          "x-api-source": "pc"
       },
       "payload": {
        "_cft": [
          107
        ],
        "timestamp": 1647842766,
        "shoporders": [
          {
            "shop": {
              "shopid": 200001375
            },
            "items": [
              {
                "itemid": 100311952,
                "modelid": 10002576892,
                "quantity": 1,
                "add_on_deal_id": 0,
                "is_add_on_sub_item": false,
                "item_group_id": null,
                "insurances": []
              }
            ],
            "shipping_id": 1
          },
          {
            "shop": {
              "shopid": 200669471
            },
            "items": [
              {
                "itemid": 100862895,
                "modelid": 10001075408,
                "quantity": 1,
                "add_on_deal_id": 0,
                "is_add_on_sub_item": false,
                "item_group_id": null,
                "insurances": []
              }
            ],
            "shipping_id": 2
          }
        ],
        "selected_payment_channel_data": {
          "channel_id": 5000102,
          "channel_item_option_info": {
            "channel_item_id": 2955,
            "credit_card_data": {
              "card_number": "400000xxxxxx0002",
              "expiry_date": "03-2029",
              "bank_name": "Citibank",
              "bank_id": 6945
            }
          },
          "version": 2
        },
        "promotion_data": {
          "use_coins": false,
          "free_shipping_voucher_info": {
            "free_shipping_voucher_id": 0,
            "free_shipping_voucher_code": "",
            "disabled_reason": null,
            "banner_info": {
              "msg": "",
              "learn_more_msg": ""
            }
          },
          "platform_vouchers": [],
          "shop_vouchers": [],
          "check_shop_voucher_entrances": true,
          "auto_apply_shop_voucher": false
        },
        "fsv_selection_infos": [],
        "device_info": {
          "device_id": "",
          "device_fingerprint": "",
          "tongdun_blackbox": "",
          "buyer_payment_info": {}
        },
        "buyer_info": {
          "share_to_friends_info": {
            "display_toggle": false,
            "enable_toggle": false,
            "allow_to_share": false
          },
          "kyc_info": null,
          "checkout_email": ""
        },
        "cart_type": 0,
        "client_id": 0,
        "tax_info": {
          "tax_id": ""
        },
        "shipping_orders": [
          {
            "sync": true,
            "buyer_address_data": {
              "addressid": 12678,
              "address_type": 0,
              "tax_address": ""
            },
            "selected_logistic_channelid": 50023,
            "shipping_id": 1,
            "shoporder_indexes": [
              0
            ],
            "selected_preferred_delivery_time_option_id": 0,
            "selected_preferred_delivery_time_slot_id": null
          },
          {
            "sync": true,
            "buyer_address_data": {
              "addressid": 12678,
              "address_type": 0,
              "tax_address": ""
            },
            "selected_logistic_channelid": 50023,
            "shipping_id": 2,
            "shoporder_indexes": [
              1
            ],
            "selected_preferred_delivery_time_option_id": 0,
            "selected_preferred_delivery_time_slot_id": null
          }
        ],
        "order_update_info": {},
        "checkout_price_data": {
          "merchandise_subtotal": 1800000000000,
          "shipping_subtotal_before_discount": 3600000000,
          "shipping_discount_subtotal": 0,
          "shipping_subtotal": 3600000000,
          "tax_payable": 0,
          "tax_exemption": 0,
          "custom_tax_subtotal": 0,
          "promocode_applied": null,
          "credit_card_promotion": null,
          "shopee_coins_redeemed": null,
          "group_buy_discount": 0,
          "bundle_deals_discount": null,
          "buyer_txn_fee": 0,
          "insurance_subtotal": 0,
          "insurance_before_discount_subtotal": 0,
          "insurance_discount_subtotal": 0,
          "vat_subtotal": 0,
          "total_payable": 1803600000000
        }
      },
       "response_status":200
    },
    "place_order": {
       "url": "https://staging.shopee.vn/api/v4/checkout/place_order",
          "headers":{
             "x-csrftoken": "2AzWm32UZWjVkDvuVpf8rTRD9piUKqKu",
             "referer": "https://staging.shopee.vn/",
             "cookie": "",
             "Content-Type": "application/json",
             "x-api-source": "pc"
          },
          "response_status":200
    }
}