{
  "Search_with_seller_user_ids": {
    "api_command": "location.user_location.get_shipping_address_combinations",
    "req": {
      "seller_user_ids": [
        100701946,
        100703543
      ]
    },
    "response_status": 0,
    "response_text": {
      "seller_pickup_addresses": [
        {
          "id": 20877,
          "userid": 100701946,
          "name": "sdfsdfaa",
          "phone": "0091911",
          "country": "ID",
          "state": "BALI",
          "city": "KAB. BULELENG",
          "address": "aceh",
          "status": 1,
          "ctime": 1648540027,
          "zipcode": "81155",
          "deftime": 0,
          "full_address": "",
          "district": "GEROKGAK",
          "town": "",
          "logistics_status": 0,
          "icno": "",
          "extinfo": {
            "geoinfo": "{\"region\":{\"latitude\":-8.214645,\"longitude\":114.78553},\"user_verified\":true,\"user_adjusted\":false}",
            "preferred_delivery_option": 0,
            "delivery_instruction": {
              "authorization_to_leave_parcel": false,
              "direction_message": ""
            },
            "label": "",
            "address_instruction": "",
            "delivery_timeslot_id": 0,
            "place_id": "",
            "label_id": 0
          }
        },
        {}
      ]
    }
  }
}