{
    "get_csrftoken": {
        "url": "https://admin.staging.shopee.vn/",
        "response_status": 200,
        "cookies": {
            "sessionid": ""
        }
    },
    "create_free_shipping_voucher": {
        "url": "https://admin.staging.shopee.vn/promotion/new/add/",
        "payload": {
            "status": "1",
            "success_show_message": "",
            "push_existsing_user": "1",
            "registered": "1",
            "email_verified": "0",
            "phone_verified": "0",
            "bankaccount_linked": "0",
            "distributed_count": "",
            "name": "auto fsv Android full rr invalid",
            "prefix": "",
            "length": "0",
            "usage_limit": "1",
            "banner": "",
            "delay_banner": "",
            "including_all": "1",
            "product_labels": "",
            "disable_product_labels": "",
            "scope_of_user": "2",
            "user-scope-error-custom-link": "0",
            "payment-method-type": "0",
            "logistic-promotion-rule": "1",
            "use_custom_link": "0",
            "use_link": "",
            "use_image_upload": "0",
            "image_id": "1",
            "icon_text": "SHOPEE",
            "use_custom_description": "0",
            "title": "",
            "customised_1_ms": "",
            "customised_1_th": "",
            "customised_1_id": "",
            "customised_1_zh_tw": "",
            "customised_1_vn": "",
            "customised_1_en": "",
            "customised_1_zh_cn": "",
            "customised_2_ms": "",
            "customised_2_th": "",
            "customised_2_id": "",
            "customised_2_zh_tw": "",
            "customised_2_vn": "",
            "customised_2_en": "",
            "customised_2_zh_cn": "",
            "customised_product_scope_ms": "",
            "customised_product_scope_th": "",
            "customised_product_scope_id": "",
            "customised_product_scope_zh_tw": "",
            "customised_product_scope_vn": "",
            "customised_product_scope_en": "",
            "customised_product_scope_zh_cn": "",
            "usage_term_product": "",
            "description": "auto test",
            "allow_seller_promotion": "1",
            "is_seller_absorbed": "0",
            "voucher_type": "1",
            "non_claimable": "false",
            "reward": "2",
            "delay_notif": "0",
            "action_content": "",
            "payment_methods": "",
            "bin_numbers": "",
            "card_brand_ids": "",
            "devices": "",
            "trigger_friend": "false",
            "orders_live_operator": "3",
            "orders_cancelled_operator": "3",
            "by_user_tags": "false",
            "user_scope_custom_error_custom_link": "",
            "including_cat[]": "-1",
            "display_labels": "",
            "icon_hash": "f575e7f8cd82f80b6b5a003f464d25c0",
            "valid_duration_type": "1",
            "claim_quota_value": "2000000000",
            "quota_type": "0",
            "usage_limit_per_user": "1",
            "use_type": "0",
            "product_scope_tag": "1",
            "action_trigger": "0",
            "realtime": "0",
            "all_user": "false",
            "by_userids": "true",
            "not_show_product_scope_tag": "true",
            "display_setting_message": "",
            "display_setting_url": "",
            "logistics_channels": "58000,58001,50011,50010,50012,50015,50016,5000,50018,50019,50020,50021,50022,50023,50024,50025,50066,58007,58881",
            "user_scope_custom_error_title_list": "[{\"language\":\"vi\",\"value\":\"\"},{\"language\":\"en\",\"value\":\"\"}]",
            "user_scope_custom_error_content_list": "[{\"language\":\"vi\",\"value\":\"\"},{\"language\":\"en\",\"value\":\"\"}]",
            "user_scope_custom_error_custom_link_text_list": "[{\"language\":\"vi\",\"value\":\"\"},{\"language\":\"en\",\"value\":\"\"}]",
            "shipping_promotion_rules": "23623"
        },
        "headers": {
            "origin": "https://admin.staging.shopee.vn",
            "referer": "https://admin.staging.shopee.vn/promotion/new/"
        },
        "response_status": 200,
        "response_text": {
            "message": "success",
            "code": 0,
            "user_message": "success"
        }
    },
    "upload_dispatch_user": {
        "headers": {
            "referer": "https://admin.staging.shopee.vn/promotion/promotion_id/dispatch_task/",
            "user-agent": "Mozilla/5.0 (Windows NT 10.0; Win64; x64) AppleWebKit/537.36 (KHTML, like Gecko) Chrome/79.0.3945.130 Safari/537.36",
            "x-csrftoken": ""
        },
        "files":{
            "file": "",
            "Content-Type": "application/vnd.ms-excel"
        },
        "response_status": 200,
        "response_text": {
            "code": 0,
            "message": "success",
            "user_message": "success"
        },
        "url": "https://admin.staging.shopee.vn/promotion/promotion_id/dispatch_task/import/"
    },
    "dispatch_free_shipping_voucher": {
        "headers": {
            "referer": "https://admin.staging.shopee.vn/promotion/promotion_id/dispatch_task/",
            "user-agent": "Mozilla/5.0 (Windows NT 10.0; Win64; x64) AppleWebKit/537.36 (KHTML, like Gecko) Chrome/79.0.3945.130 Safari/537.36",
            "x-csrftoken": ""
        },
        "response_status": 200,
        "response_text": {
            "code": 0,
            "message": "success",
            "user_message": "success"
        },
        "url": "https://admin.staging.shopee.vn/promotion/promotion_id/dispatch_task/dispatch/"
    }
}
