{
    "upload_dispatch_user": {
        "headers": {
            "referer": "https://admin.staging.shopee.vn/promotion/promotion_id/dispatch_task/",
            "user-agent": "Mozilla/5.0 (Windows NT 10.0; Win64; x64) AppleWebKit/537.36 (KHTML, like Gecko) Chrome/79.0.3945.130 Safari/537.36",
            "x-csrftoken": ""
        },
        "files":{
            "file": "",
            "Content-Type": "application/vnd.ms-excel"
        },
        "response_status": 200,
        "response_text": {
            "code": 0,
            "message": "success",
            "user_message": "success"
        },
        "url": "https://admin.staging.shopee.vn/promotion/promotion_id/dispatch_task/import/"
    }
}
