{
    "get_csrftoken": {
        "url": "https://admin.staging.shopee.vn/",
        "response_status": 200,
        "cookies": {
            "sessionid": ""
        }
    },
    "disable_voucher": {
        "headers": {
            "referer": "https://admin.staging.shopee.vn/promotion/promotion_id/edit/",
            "user-agent": "Mozilla/5.0 (Windows NT 10.0; Win64; x64) AppleWebKit/537.36 (KHTML, like Gecko) Chrome/79.0.3945.130 Safari/537.36",
            "x-csrftoken": ""
        },
        "response_status": 200,
        "response_text": {
            "success":true
         },
        "url": "https://admin.staging.shopee.vn/promotion/promotion_id/disable/"
    }
}
