{
    "add_to_cart_info": {
        "url": "https://staging.shopee.vn/api/v4/cart/add_to_cart",
        "headers": {
            "x-csrftoken": "2AzWm32UZWjVkDvuVpf8rTRD9piUKqKu",
            "referer": "https://staging.shopee.vn/",
            "cookie": "",
            "Content-Type": "application/json",
            "x-api-source": "pc"
        },
        "payload": {
            "quantity": 1,
            "checkout": true,
            "update_checkout_only": false,
            "donot_add_quantity": false,
            "source": "{\"refer_urls\":[]}",
            "client_source": 1,
            "shopid": 200001021,
            "itemid": 100293844,
            "modelid": 10000959780
        },
        "response_status": 200
    },
    "cart_checkout": {
        "url": "https://staging.shopee.vn/api/v4/cart/checkout",
        "headers": {
            "x-csrftoken": "2AzWm32UZWjVkDvuVpf8rTRD9piUKqKu",
            "referer": "https://staging.shopee.vn/",
            "cookie": "",
            "Content-Type": "application/json",
            "x-api-source": "pc"
        },
        "payload": {
            "selected_shop_order_ids": [
                {
                    "shopid": 200001021,
                    "item_briefs": [
                        {
                            "itemid": 100293844,
                            "modelid": 10000959780,
                            "item_group_id": null,
                            "applied_promotion_id": 0,
                            "offerid": null,
                            "price": 2345600000,
                            "quantity": 1,
                            "is_add_on_sub_item": null,
                            "add_on_deal_id": null,
                            "status": 1,
                            "cart_item_change_time": 1622038211
                        }
                    ],
                    "shop_vouchers": [
                    ]
                }
            ],
            "platform_vouchers": [
            ],
            "free_shipping_voucher_info": {
                "free_shipping_voucher_id": 0
            },
            "use_coins": false,
            "support_problematic_groups": true
        },
        "response_status": 200
    },
    "checkout_get": {
        "url": "https://staging.shopee.vn/api/v4/checkout/get",
        "headers": {
            "x-csrftoken": "2AzWm32UZWjVkDvuVpf8rTRD9piUKqKu",
            "referer": "https://staging.shopee.vn/checkout-page",
            "cookie": "",
            "Content-Type": "application/json",
            "x-api-source": "pc"
        },
        "payload": {
            "shoporders": [
                {
                    "shop": {
                        "shopid": 200001021
                    },
                    "items": [
                        {
                            "itemid": 100293844,
                            "modelid": 10000959780,
                            "quantity": 1,
                            "add_on_deal_id": 0,
                            "is_add_on_sub_item": false,
                            "item_group_id": null,
                            "insurances": []
                        }
                    ],
                    "shipping_id": 1
                }
            ],
            "selected_payment_channel_data": {
                "channel_id": 5000102,
                "channel_item_option_info": {
                    "channel_item_id": 446,
                    "credit_card_data": {
                        "card_number": "400000xxxxxx0002",
                        "expiry_date": "12-2030",
                        "bank_name": "Citibank",
                        "bank_id": 6945
                    }
                },
                "version": 2
            },
            "promotion_data": {
                "use_coins": false,
                "free_shipping_voucher_info": {
                    "free_shipping_voucher_id": 389425993580544,
                    "free_shipping_voucher_code": "FSV-389425993580544",
                    "disabled_reason": null,
                    "banner_info": {
                        "msg": "Free shipping voucher applied",
                        "learn_more_msg": ""
                    },
                    "required_be_channel_ids": [],
                    "required_spm_channels": []
                },
                "platform_vouchers": [],
                "shop_vouchers": [],
                "check_shop_voucher_entrances": true,
                "auto_apply_shop_voucher": false
            },
            "fsv_selection_infos": [
                {
                    "fsv_id": 389425993580544,
                    "selected_shipping_ids": [
                        1
                    ],
                    "potentially_applied_shipping_ids": [
                        1
                    ]
                }
            ],
            "device_info": {
                "device_id": "",
                "device_fingerprint": "",
                "tongdun_blackbox": "",
                "buyer_payment_info": {}
            },
            "buyer_info": {
                "share_to_friends_info": {
                    "display_toggle": false,
                    "enable_toggle": false,
                    "allow_to_share": false
                },
                "kyc_info": null,
                "checkout_email": ""
            },
            "cart_type": 0,
            "client_id": 0,
            "client_event_info": {
                "is_platform_voucher_changed": false,
                "is_fsv_changed": false
            },
            "tax_info": {
                "tax_id": ""
            },
            "shipping_orders": [
                {
                    "sync": true,
                    "buyer_address_data": {
                        "addressid": 11098,
                        "address_type": 0,
                        "tax_address": ""
                    },
                    "selected_logistic_channelid": 50018,
                    "shipping_id": 1,
                    "shoporder_indexes": [
                        0
                    ],
                    "selected_preferred_delivery_time_option_id": 1,
                    "selected_preferred_delivery_time_slot_id": null
                }
            ],
            "order_update_info": {},
            "checkout_price_data": {
                "merchandise_subtotal": 2345600000,
                "shipping_subtotal_before_discount": 3001400000,
                "shipping_discount_subtotal": 3000900000,
                "shipping_subtotal": 500000,
                "tax_payable": 0,
                "tax_exemption": 0,
                "custom_tax_subtotal": 0,
                "promocode_applied": null,
                "credit_card_promotion": null,
                "shopee_coins_redeemed": null,
                "group_buy_discount": 0,
                "bundle_deals_discount": null,
                "price_adjustment": null,
                "buyer_txn_fee": 0,
                "insurance_subtotal": 0,
                "insurance_before_discount_subtotal": 0,
                "insurance_discount_subtotal": 0,
                "vat_subtotal": 0,
                "total_payable": 2346100000
            }
        },
        "response_status": 200
    },
    "place_order": {
        "url": "https://staging.shopee.vn/api/v4/checkout/place_order",
        "headers": {
            "x-csrftoken": "2AzWm32UZWjVkDvuVpf8rTRD9piUKqKu",
            "referer": "https://staging.shopee.vn/",
            "cookie": "",
            "Content-Type": "application/json",
            "x-api-source": "pc"
        },
        "payload": {},
        "response_status": 200
    }
}