{
	"add_to_cart_info":{
		"url": "https://staging.shopee.vn/api/v4/cart/add_to_cart",
		"headers":{
			"x-csrftoken": "2AzWm32UZWjVkDvuVpf8rTRD9piUKqKu",
			"referer": "https://staging.shopee.vn/",
			"cookie": "",
			"Content-Type": "application/json",
			"x-api-source": "pc"
		},
      "payload":{
         "quantity":2,
         "checkout":true,
         "update_checkout_only":false,
         "donot_add_quantity":false,
         "source":"{\"refer_urls\":[]}",
         "client_source":1,
         "shopid":200022466,
         "itemid":100374303,
         "modelid":5046900
      },
		"response_status": 200
	},
	"cart_checkout":{
		"url": "https://staging.shopee.vn/api/v4/cart/checkout",
		"headers":{
			"x-csrftoken": "2AzWm32UZWjVkDvuVpf8rTRD9piUKqKu",
			"referer": "https://staging.shopee.vn/",
			"cookie": "",
			"Content-Type": "application/json",
			"x-api-source": "pc"
		},
      "payload":{
         "selected_shop_order_ids":[
            {
               "shopid":200022466,
               "item_briefs":[
                  {
                     "itemid":100374303,
                     "modelid":5046900,
                     "item_group_id":null,
                     "applied_promotion_id":0,
                     "offerid":null,
                     "price":2345600000,
                     "quantity":2,
                     "is_add_on_sub_item":null,
                     "add_on_deal_id":null,
                     "status":2,
                     "cart_item_change_time":1622040383
                  }
               ],
               "shop_vouchers":[

               ]
            }
         ],
         "platform_vouchers":[

         ],
         "free_shipping_voucher_info":{
            "free_shipping_voucher_id":0
         },
         "use_coins":false,
         "support_problematic_groups":true
      },
		"response_status": 200
	},
	"checkout_get":{
		"url": "https://staging.shopee.vn/api/v4/checkout/get",
		"headers":{
			"x-csrftoken": "2AzWm32UZWjVkDvuVpf8rTRD9piUKqKu",
			"referer": "https://staging.shopee.vn/checkout-page",
			"cookie": "",
			"Content-Type": "application/json",
			"x-api-source": "pc"
		},
		"payload":{
         "timestamp":1622040386,
         "shoporders":[
            {
               "shop":{
                  "shopid":200022466
               },
               "items":[
                  {
                     "itemid":100374303,
                     "modelid":5046900,
                     "add_on_deal_id":0,
                     "is_add_on_sub_item":false,
                     "item_group_id":0,
                     "quantity":2
                  }
               ],
               "logistics":{
                  "recommended_channelids":null
               },
               "buyer_address_data":{
                  "tax_address":"",
                  "address_type":0,
                  "addressid":11350
               },
               "selected_logistic_channelid":50012,
               "shipping_id":1,
               "selected_preferred_delivery_time_option_id":0,
               "selected_preferred_delivery_time_slot_id":0
            }
         ],
         "selected_payment_channel_data":{
            "channel_id":5000102,
            "channel_item_option_info":{
               "credit_card_data":{
                  "bank_name":"Citibank",
                  "expiry_date":"12-2030",
                  "bank_id":6945,
                  "card_number":"400000xxxxxx0002"
               },
               "channel_item_id":437
            },
            "version":2,
            "text_info":{

            }
         },
         "promotion_data":{
            "use_coins":false,
            "free_shipping_voucher_info":{
               "free_shipping_voucher_id":239558,
               "disabled_reason":null,
               "free_shipping_voucher_code":"FSV-239558"
            },
            "platform_vouchers":[

            ],
            "shop_vouchers":[

            ],
            "check_shop_voucher_entrances":true,
            "auto_apply_shop_voucher":false
         },
         "device_info":{
            "device_id":"",
            "device_fingerprint":"",
            "tongdun_blackbox":"",
            "buyer_payment_info":{

            }
         },
         "cart_type":0,
         "client_id":0,
         "tax_info":{
            "tax_id":""
         },
         "shipping_orders":[
            {
               "sync":true,
               "logistics":{
                  "recommended_channelids":[

                  ]
               },
               "buyer_address_data":{
                  "tax_address":"",
                  "address_type":0,
                  "addressid":11350
               },
               "selected_logistic_channelid":50012,
               "shipping_id":1,
               "shoporder_indexes":[
                  0
               ],
               "buyer_ic_number":"",
               "selected_preferred_delivery_time_option_id":0,
               "selected_preferred_delivery_time_slot_id":0
            }
         ],
         "order_update_info":{

         },
         "checkout_price_data":{
            "shipping_subtotal":2875000000,
            "shipping_discount_subtotal":0,
            "shipping_subtotal_before_discount":2875000000,
            "bundle_deals_discount":null,
            "group_buy_discount":0,
            "merchandise_subtotal":4691200000,
            "tax_payable":0,
            "buyer_txn_fee":0,
            "credit_card_promotion":null,
            "promocode_applied":null,
            "shopee_coins_redeemed":null,
            "total_payable":7566200000,
            "tax_exemption":0
         }
      },
		"response_status":200
	},
	"place_order":{
		"url": "https://staging.shopee.vn/api/v4/checkout/place_order",
		"headers":{
			"x-csrftoken": "2AzWm32UZWjVkDvuVpf8rTRD9piUKqKu",
			"referer": "https://staging.shopee.vn/",
			"cookie": "",
			"Content-Type": "application/json",
			"x-api-source": "pc"
		},
        "payload":{},
		"response_status": 200
	}
}