{
    "vn_staging": {
        "url": "https://admin.promotion.staging.shopee.vn/api/gateway/v1/coin_rule/update_earn_rule_default",
        "headers": {
            "origin": "https://admin.promotion.staging.shopee.vn",
            "referer": "https://admin.promotion.staging.shopee.vn/coin-earn-rule",
            "cookie": "",
            "user-agent": "Mozilla/5.0 (Windows NT 10.0; Win64; x64) AppleWebKit/537.36 (KHTML, like Gecko) Chrome/98.0.4758.102 Safari/537.36",
            "content-type": "application/json"
        },
        "payload": {
            "region": "VN",
            "SkipPermissionBD": false,
            "earn_rule_default": {
                "rule_id": 2,
                "rule_name": "Default Rule",
                "rule_status": 2,
                "cash_spend": 10000000000,
                "coin_earn": 10000000,
                "rounding_unit": 10000000000,
                "operator": "terry.tsai@shopee.com"
            }

        },
        "response_status": 200,
        "response_text": {

        }
    },
    "th_staging": {
        "url": "https://admin.promotion.staging.shopee.co.th/api/gateway/v1/coin_rule/update_earn_rule_default",
        "headers": {
            "origin": "https://admin.promotion.staging.shopee.co.th",
            "referer": "https://admin.promotion.staging.shopee.co.th/coin-earn-rule",
            "cookie": "",
            "user-agent": "Mozilla/5.0 (Windows NT 10.0; Win64; x64) AppleWebKit/537.36 (KHTML, like Gecko) Chrome/98.0.4758.102 Safari/537.36",
            "content-type": "application/json"
        },
        "payload": {
            "region": "TH",
            "SkipPermissionBD": false,
            "earn_rule_default": {
                "rule_id": 7,
                "rule_name": "Default Rule",
                "rule_status": 2,
                "cash_spend": 10000000000,
                "coin_earn": 10000000,
                "rounding_unit": 10000000000,
                "operator": "terry.tsai@shopee.com"
            }
        },
        "response_status": 200,
        "response_text": {

        }
    },
    "sg_staging": {
        "url": "https://admin.promotion.staging.shopee.sg/api/gateway/v1/coin_rule/update_earn_rule_default",
        "headers": {
            "origin": "https://admin.promotion.staging.shopee.sg",
            "referer": "https://admin.promotion.staging.shopee.sg/coin-earn-rule",
            "cookie": "",
            "user-agent": "Mozilla/5.0 (Windows NT 10.0; Win64; x64) AppleWebKit/537.36 (KHTML, like Gecko) Chrome/98.0.4758.102 Safari/537.36",
            "content-type": "application/json"
        },
        "payload": {
            "region": "SG",
            "SkipPermissionBD": false,
            "earn_rule_default": {
                "rule_id": 1,
                "rule_name": "Default Rule",
                "rule_status": 2,
                "cash_spend": 10000000000,
                "coin_earn": 10000000,
                "rounding_unit": 10000000000,
                "operator": "terry.tsai@shopee.com"
            }
        },
        "response_status": 200,
        "response_text": {

        }
    },
    "pl_staging": {
        "url": "https://admin.promotion.staging.shopee.pl/api/gateway/v1/coin_rule/update_earn_rule_default",
        "headers": {
            "origin": "https://admin.promotion.staging.shopee.pl",
            "referer": "https://admin.promotion.staging.shopee.pl/coin-earn-rule",
            "cookie": "",
            "user-agent": "Mozilla/5.0 (Windows NT 10.0; Win64; x64) AppleWebKit/537.36 (KHTML, like Gecko) Chrome/98.0.4758.102 Safari/537.36",
            "content-type": "application/json"
        },
        "payload": {
            "region": "PL",
            "SkipPermissionBD": false,
            "earn_rule_default": {
                "rule_id": 14,
                "rule_name": "Default Rule",
                "rule_status": 2,
                "cash_spend": 10000000000,
                "coin_earn": 10000000,
                "rounding_unit": 10000000000,
                "operator": "terry.tsai@shopee.com"
            }
        },
        "response_status": 200,
        "response_text": {

        }
    },
    "ph_staging": {
        "url": "https://admin.promotion.staging.shopee.ph/api/gateway/v1/coin_rule/update_earn_rule_default",
        "headers": {
            "origin": "https://admin.promotion.staging.shopee.ph",
            "referer": "https://admin.promotion.staging.shopee.ph/coin-earn-rule",
            "cookie": "",
            "user-agent": "Mozilla/5.0 (Windows NT 10.0; Win64; x64) AppleWebKit/537.36 (KHTML, like Gecko) Chrome/98.0.4758.102 Safari/537.36",
            "content-type": "application/json"
        },
        "payload": {
            "region": "PH",
            "SkipPermissionBD": false,
            "earn_rule_default": {
                "rule_id": 6,
                "rule_name": "Default Rule",
                "rule_status": 2,
                "cash_spend": 10000000000,
                "coin_earn": 10000000,
                "rounding_unit": 10000000000,
                "operator": "terry.tsai@shopee.com"
            }
        },
        "response_status": 200,
        "response_text": {

        }
    },
    "my_staging": {
        "url": "https://admin.promotion.staging.shopee.com.my/api/gateway/v1/coin_rule/update_earn_rule_default",
        "headers": {
            "origin": "https://admin.promotion.staging.shopee.com.my",
            "referer": "https://admin.promotion.staging.shopee.com.my/coin-earn-rule",
            "cookie": "",
            "user-agent": "Mozilla/5.0 (Windows NT 10.0; Win64; x64) AppleWebKit/537.36 (KHTML, like Gecko) Chrome/98.0.4758.102 Safari/537.36",
            "content-type": "application/json"
        },
        "payload": {
            "region": "MY",
            "SkipPermissionBD": false,
            "earn_rule_default": {
                "rule_id": 4,
                "rule_name": "Default Rule",
                "rule_status": 2,
                "cash_spend": 10000000000,
                "coin_earn": 10000000,
                "rounding_unit": 10000000000,
                "operator": "terry.tsai@shopee.com"
            }
        },
        "response_status": 200,
        "response_text": {

        }
    },
    "mx_staging": {
        "url": "https://admin.promotion.staging.shopee.com.mx/api/gateway/v1/coin_rule/update_earn_rule_default",
        "headers": {
            "origin": "https://admin.promotion.staging.shopee.com.mx",
            "referer": "https://admin.promotion.staging.shopee.com.mx/coin-earn-rule",
            "cookie": "",
            "user-agent": "Mozilla/5.0 (Windows NT 10.0; Win64; x64) AppleWebKit/537.36 (KHTML, like Gecko) Chrome/98.0.4758.102 Safari/537.36",
            "content-type": "application/json"
        },
        "payload": {
            "region": "MX",
            "SkipPermissionBD": false,
            "earn_rule_default": {
                "rule_id": 9,
                "rule_name": "Default Rule",
                "rule_status": 2,
                "cash_spend": 10000000000,
                "coin_earn": 10000000,
                "rounding_unit": 10000000000,
                "operator": "terry.tsai@shopee.com"
            }
        },
        "response_status": 200,
        "response_text": {

        }
    },
    "es_staging": {
        "url": "https://admin.promotion.staging.shopee.es/api/gateway/v1/coin_rule/update_earn_rule_default",
        "headers": {
            "origin": "https://admin.promotion.staging.shopee.es",
            "referer": "https://admin.promotion.staging.shopee.es/coin-earn-rule",
            "cookie": "",
            "user-agent": "Mozilla/5.0 (Windows NT 10.0; Win64; x64) AppleWebKit/537.36 (KHTML, like Gecko) Chrome/98.0.4758.102 Safari/537.36",
            "content-type": "application/json"
        },
        "payload": {
            "region": "ES",
            "SkipPermissionBD": false,
            "earn_rule_default": {
                "rule_id": 12,
                "rule_name": "Default Rule",
                "rule_status": 2,
                "cash_spend": 10000000000,
                "coin_earn": 10000000,
                "rounding_unit": 10000000000,
                "operator": "terry.tsai@shopee.com"
            }
        },
        "response_status": 200,
        "response_text": {

        }
    },
    "co_staging": {
        "url": "https://admin.promotion.staging.shopee.com.co/api/gateway/v1/coin_rule/update_earn_rule_default",
        "headers": {
            "origin": "https://admin.promotion.staging.shopee.com.co",
            "referer": "https://admin.promotion.staging.shopee.com.co/coin-earn-rule",
            "cookie": "",
            "user-agent": "Mozilla/5.0 (Windows NT 10.0; Win64; x64) AppleWebKit/537.36 (KHTML, like Gecko) Chrome/98.0.4758.102 Safari/537.36",
            "content-type": "application/json"
        },
        "payload": {
            "region": "CO",
            "SkipPermissionBD": false,
            "earn_rule_default": {
                "rule_id": 11,
                "rule_name": "Default Rule",
                "rule_status": 2,
                "cash_spend": 10000000000,
                "coin_earn": 10000000,
                "rounding_unit": 10000000000,
                "operator": "terry.tsai@shopee.com"
            }
        },
        "response_status": 200,
        "response_text": {

        }
    },
    "cl_staging": {
        "url": "https://admin.promotion.staging.shopee.cl/api/gateway/v1/coin_rule/update_earn_rule_default",
        "headers": {
            "origin": "https://admin.promotion.staging.shopee.cl",
            "referer": "https://admin.promotion.staging.shopee.cl/coin-earn-rule",
            "cookie": "",
            "user-agent": "Mozilla/5.0 (Windows NT 10.0; Win64; x64) AppleWebKit/537.36 (KHTML, like Gecko) Chrome/98.0.4758.102 Safari/537.36",
            "content-type": "application/json"
        },
        "payload": {
            "region": "CL",
            "SkipPermissionBD": false,
            "earn_rule_default": {
                "rule_id": 10,
                "rule_name": "Default Rule",
                "rule_status": 2,
                "cash_spend": 10000000000,
                "coin_earn": 10000000,
                "rounding_unit": 10000000000,
                "operator": "terry.tsai@shopee.com"
            }
        },
        "response_status": 200,
        "response_text": {

        }
    },
    "br_staging": {
        "url": "https://admin.promotion.staging.shopee.com.br/api/gateway/v1/coin_rule/update_earn_rule_default",
        "headers": {
            "origin": "https://admin.promotion.staging.shopee.com.br",
            "referer": "https://admin.promotion.staging.shopee.com.br/coin-earn-rule",
            "cookie": "",
            "user-agent": "Mozilla/5.0 (Windows NT 10.0; Win64; x64) AppleWebKit/537.36 (KHTML, like Gecko) Chrome/98.0.4758.102 Safari/537.36",
            "content-type": "application/json"
        },
        "payload": {
            "region": "BR",
            "SkipPermissionBD": false,
            "earn_rule_default": {
                "rule_id": 3,
                "rule_name": "Default Rule",
                "rule_status": 2,
                "cash_spend": 10000000000,
                "coin_earn": 10000000,
                "rounding_unit": 10000000000,
                "operator": "terry.tsai@shopee.com"
            }
        },
        "response_status": 200,
        "response_text": {

        }
    },
    "ar_staging": {
        "url": "https://admin.promotion.staging.shopee.com.ar/api/gateway/v1/coin_rule/update_earn_rule_default",
        "headers": {
            "origin": "https://admin.promotion.staging.shopee.com.ar",
            "referer": "https://admin.promotion.staging.shopee.com.ar/coin-earn-rule",
            "cookie": "",
            "user-agent": "Mozilla/5.0 (Windows NT 10.0; Win64; x64) AppleWebKit/537.36 (KHTML, like Gecko) Chrome/98.0.4758.102 Safari/537.36",
            "content-type": "application/json"
        },
        "payload": {
            "region": "AR",
            "SkipPermissionBD": false,
            "earn_rule_default": {
                "rule_id": 13,
                "rule_name": "Default Rule",
                "rule_status": 2,
                "cash_spend": 10000000000,
                "coin_earn": 10000000,
                "rounding_unit": 10000000000,
                "operator": "terry.tsai@shopee.com"
            }
        },
        "response_status": 200,
        "response_text": {

        }
    }
}