{
	"add_to_cart_info":{
		"url": "https://staging.shopee.vn/api/v4/cart/add_to_cart",
		"headers":{
			"x-csrftoken": "2AzWm32UZWjVkDvuVpf8rTRD9piUKqKu",
			"referer": "https://staging.shopee.vn/",
			"cookie": "",
			"Content-Type": "application/json"
		},
        "payload":{
			"checkout": true,
			"client_source": 1,
			"donot_add_quantity": false,
			"itemid": 100847252,
			"modelid": 6035507,
			"quantity": 1,
			"shopid": 200662823,
			"source": "{\"refer_urls\":[]}",
			"update_checkout_only": false
        },
		"response_status": 200
	},
	"add_to_cart_info_sec":{
		"url": "https://staging.shopee.vn/api/v4/cart/add_to_cart",
		"headers":{
			"x-csrftoken": "2AzWm32UZWjVkDvuVpf8rTRD9piUKqKu",
			"referer": "https://staging.shopee.vn/",
			"cookie": "",
			"Content-Type": "application/json"
		},
        "payload":{
			"checkout": true,
			"client_source": 1,
			"donot_add_quantity": false,
			"itemid": 100854879,
			"modelid": 10001060320,
			"quantity": 1,
			"shopid": 200662823,
			"source": "{\"refer_urls\":[]}",
			"update_checkout_only": false
        },
		"response_status": 200
	},
	"cart_checkout":{
		"url": "https://staging.shopee.vn/api/v4/cart/checkout",
		"headers":{
			"x-csrftoken": "2AzWm32UZWjVkDvuVpf8rTRD9piUKqKu",
			"referer": "https://staging.shopee.vn/",
			"cookie": "",
			"Content-Type": "application/json"
		},
        "payload":{
			"free_shipping_voucher_info": {
				"free_shipping_voucher_id": 0
			},
			"platform_vouchers": [
			],
			"selected_shop_order_ids": [
				{
					"item_briefs": [
						{
							"add_on_deal_id": null,
							"applied_promotion_id": 0,
							"cart_item_change_time": 1618222298,
							"is_add_on_sub_item": null,
							"item_group_id": null,
							"itemid": 100847252,
							"modelid": 6035507,
							"offerid": null,
							"price": 2001000000,
							"quantity": 1,
							"status": 1
						},
						{
							"add_on_deal_id": null,
							"applied_promotion_id": 0,
							"cart_item_change_time": 1618222284,
							"is_add_on_sub_item": null,
							"item_group_id": null,
							"itemid": 100854879,
							"modelid": 10001060320,
							"offerid": null,
							"price": 2001000000,
							"quantity": 1,
							"status": 1
						}
					],
					"shop_vouchers": [
					],
					"shopid": 200662823
				}
			],
			"support_problematic_groups": true,
			"use_coins": false
        },
		"response_status": 200
	},
	"checkout_get":{
		"url": "https://staging.shopee.vn/api/v4/checkout/get",
		"headers":{
			"x-csrftoken": "2AzWm32UZWjVkDvuVpf8rTRD9piUKqKu",
			"referer": "https://staging.shopee.vn/checkout-page",
			"cookie": "",
			"Content-Type": "application/json"
		},
		"payload":{
			"cart_type": 0,
			"checkout_price_data": {
				"bundle_deals_discount": null,
				"buyer_txn_fee": 0,
				"credit_card_promotion": null,
				"group_buy_discount": 0,
				"merchandise_subtotal": 4002000000,
				"promocode_applied": null,
				"shipping_discount_subtotal": 0,
				"shipping_subtotal": 2516800000,
				"shipping_subtotal_before_discount": 2516800000,
				"shopee_coins_redeemed": null,
				"tax_exemption": 0,
				"tax_payable": 0,
				"total_payable": 6518800000
			},
			"client_id": 0,
			"device_info": {
				"buyer_payment_info": {
				},
				"device_fingerprint": "",
				"device_id": "",
				"tongdun_blackbox": ""
			},
			"order_update_info": {
			},
			"promotion_data": {
				"auto_apply_shop_voucher": false,
				"check_shop_voucher_entrances": true,
				"free_shipping_voucher_info": {
					"disabled_reason": "",
					"free_shipping_voucher_code": "",
					"free_shipping_voucher_id": 0
				},
				"platform_vouchers": [
				],
				"shop_vouchers": [
				],
				"use_coins": false
			},
			"selected_payment_channel_data": {
				"channel_id": 5001800,
				"text_info": {
				},
				"version": 2
			},
			"shipping_orders": [
				{
					"buyer_address_data": {
						"address_type": 0,
						"addressid": 12963,
						"error_status": "",
						"tax_address": ""
					},
					"buyer_ic_number": "",
					"logistics": {
						"recommended_channelids": [
						]
					},
					"selected_logistic_channelid": 50010,
					"selected_preferred_delivery_instructions": {
					},
					"selected_preferred_delivery_time_option_id": 0,
					"selected_preferred_delivery_time_slot_id": 0,
					"shipping_id": 1,
					"shoporder_indexes": [
						0
					],
					"sync": true
				}
			],
			"shoporders": [
				{
					"buyer_address_data": {
						"address_type": 0,
						"addressid": 12963,
						"error_status": "",
						"tax_address": ""
					},
					"items": [
						{
							"add_on_deal_id": 0,
							"is_add_on_sub_item": false,
							"item_group_id": 0,
							"itemid": 100847252,
							"modelid": 6035507,
							"quantity": 1
						},
						{
							"add_on_deal_id": 0,
							"is_add_on_sub_item": false,
							"item_group_id": 0,
							"itemid": 100854879,
							"modelid": 10001060320,
							"quantity": 1
						}
					],
					"logistics": {
						"recommended_channelids": null
					},
					"selected_logistic_channelid": 50010,
					"selected_preferred_delivery_instructions": {
					},
					"selected_preferred_delivery_time_option_id": 0,
					"selected_preferred_delivery_time_slot_id": 0,
					"shipping_id": 1,
					"shop": {
						"shopid": 200662823
					}
				}
			],
			"tax_info": {
				"tax_id": ""
			},
			"timestamp": 1617517490
		},
		"response_status":200
	},
	"place_order":{
		"url": "https://staging.shopee.vn/api/v4/checkout/place_order",
		"headers":{
			"x-csrftoken": "2AzWm32UZWjVkDvuVpf8rTRD9piUKqKu",
			"referer": "https://staging.shopee.vn/",
			"cookie": "",
			"Content-Type": "application/json"
		},
        "payload":{},
		"response_status": 200
	},
    	"init_forder": {
        "url": "https://oms.staging.shopee.vn/api/forder/init",
        "headers": {
            "request-id": "1606966763218289190",
            "cache-control": "no-cache",
            "content-type": "application/x-www-form-urlencoded",
            "jwt-token": "eyJhbGciOiJIUzI1NiIsIm9wdHIiOiJ3c2EiLCJ0eXAiOiJKV1QifQ.eyJleHAiOjE4OTkxODQ5NzF9.pxUYCkWb6z-DVKutfUC-rzy17WLlpt_SuR1h6z6iGes",
            "user-agent": "Mozilla/5.0 (Windows NT 10.0; Win64; x64) AppleWebKit/537.36 (KHTML, like Gecko) Chrome/79.0.3945.130 Safari/537.36"
        },
        "response_text": {
            "header": {
                "retcode": 0
            }
        },
        "payload": {
            "order_id": 0,
            "country": "VN",
            "shop_id": 200662823,
            "user_id": 100664407,
			"ofg_id": 0,
            "channel_id": 50010
        },
        "response_status": 200
    },
    	"get_forder_id": {
        "url": "https://oms.staging.shopee.vn/api/forder/get",
        "headers": {
            "request-id": "1606966763218289190",
            "cache-control": "no-cache",
            "content-type": "application/x-www-form-urlencoded",
            "jwt-token": "eyJhbGciOiJIUzI1NiIsIm9wdHIiOiJ3c2EiLCJ0eXAiOiJKV1QifQ.eyJleHAiOjE4OTkxODQ5NzF9.pxUYCkWb6z-DVKutfUC-rzy17WLlpt_SuR1h6z6iGes",
            "user-agent": "Mozilla/5.0 (Windows NT 10.0; Win64; x64) AppleWebKit/537.36 (KHTML, like Gecko) Chrome/79.0.3945.130 Safari/537.36"
        },
        "payload": {
            "order_id": 0,
            "country": "VN",
            "shop_id": 200662823,
            "tracking_level": 1
        },
        "response_status": 200
    },
    	"pickup_done": {
        "url": "https://oms.staging.shopee.vn/api/sls/update_forder_logistic_log",
        "headers": {
            "request-id": "1606966763218289190",
            "cache-control": "no-cache",
            "content-type": "application/x-www-form-urlencoded",
            "jwt-token": "eyJhbGciOiJIUzI1NiIsIm9wdHIiOiJ3c2EiLCJ0eXAiOiJKV1QifQ.eyJleHAiOjE4OTkxODQ5NzF9.pxUYCkWb6z-DVKutfUC-rzy17WLlpt_SuR1h6z6iGes",
            "user-agent": "Mozilla/5.0 (Windows NT 10.0; Win64; x64) AppleWebKit/537.36 (KHTML, like Gecko) Chrome/79.0.3945.130 Safari/537.36"
        },
        "response_status": 200,
        "response_text": {
            "header": {
                "retcode": 0
            }
        },
        "payload": {
            "status": 25,
            "channel_description": "ChannelDescription_DOMESTIC_DROPOFF",
            "system_time": "",
            "description": "Description_DOMESTIC_DROPOFF",
            "country": "VN",
            "ignore_status_priority": false,
            "flag": 1,
            "extra_data": "{}",
            "channel_status": "DOMESTIC_DROPOFF",
            "forder_id": 0
        }
    },
    	"delivery_done": {
        "url": "https://oms.staging.shopee.vn/api/sls/update_forder_logistic_log",
        "headers": {
            "request-id": "1606966763218289190",
            "cache-control": "no-cache",
            "content-type": "application/x-www-form-urlencoded",
            "jwt-token": "eyJhbGciOiJIUzI1NiIsIm9wdHIiOiJ3c2EiLCJ0eXAiOiJKV1QifQ.eyJleHAiOjE4OTkxODQ5NzF9.pxUYCkWb6z-DVKutfUC-rzy17WLlpt_SuR1h6z6iGes",
            "user-agent": "Mozilla/5.0 (Windows NT 10.0; Win64; x64) AppleWebKit/537.36 (KHTML, like Gecko) Chrome/79.0.3945.130 Safari/537.36"
        },
        "response_text": {
            "header": {
                "retcode": 0
            }
        },
        "payload": {
            "status": 3,
            "channel_description": "ChannelDescription_DELIVERED",
            "system_time": "",
            "description": "Description_DELIVERED",
            "country": "VN",
            "ignore_status_priority": false,
            "flag": 1,
            "extra_data": "{}",
            "channel_status": "DELIVERED",
            "forder_id": 0
        },
        "response_status": 200
    }
}