{
    "disable_voucher": {
        "url": "https://admin.staging.shopee.vn/promotion/promotion_id/disable/",
        "headers": {
            "user-agent": "Mozilla/5.0 (Windows NT 10.0; Win64; x64) AppleWebKit/537.36 (KHTML, like Gecko) Chrome/79.0.3945.130 Safari/537.36",
            "referer": "https://admin.staging.shopee.vn/promotion/promotion_id/edit/",
            "x-csrftoken": "",
            "x-requested-with": "XMLHttpRequest"
        },
        "response_status": 200,
        "response_text": {
            "message": "success",
            "code": 0,
            "user_message": "success"
        }
    },
    "remove_voucher_from_shopee_mart": {
        "url": "https://dl-admin.staging.shopee.vn/api/gateway/v1/pages/mart/voucher/delete_voucher",
        "headers": {
            "user-agent": "Mozilla/5.0 (Windows NT 10.0; Win64; x64) AppleWebKit/537.36 (KHTML, like Gecko) Chrome/79.0.3945.130 Safari/537.36",
            "referer": "https://dl-admin.staging.shopee.vn/mart-management-voucher?type=voucher",
            "x-csrftoken": "",
            "x-requested-with": "XMLHttpRequest"
        },
        "payload": {
            "promotion_id": 0,
            "hard_delete": false
        },
        "response_status": 200,
        "response_text": {
            "error_messages": null,
            "bff_meta": null,
            "error": null,
            "error_msg": null
        }
    }
}