{
    "enable_seller_voucher_A": {
        "url": "https://dl-admin.staging.shopee.vn/api/gateway/v1/pages/mart/voucher/restore_voucher",
        "headers": {
            "user-agent": "Mozilla/5.0 (Windows NT 10.0; Win64; x64) AppleWebKit/537.36 (KHTML, like Gecko) Chrome/79.0.3945.130 Safari/537.36",
            "x-csrftoken": "",
            "x-requested-with": "XMLHttpRequest"
        },
        "payload": {
            "promotion_id": 259729062445056
        },
        "response_status": 200,
        "response_text": {
            "error_messages": null,
            "bff_meta": null,
            "error": null,
            "error_msg": null
        }

    },
    "enable_seller_voucher_B": {
        "url": "https://dl-admin.staging.shopee.vn/api/gateway/v1/pages/mart/voucher/restore_voucher",
        "headers": {
            "user-agent": "Mozilla/5.0 (Windows NT 10.0; Win64; x64) AppleWebKit/537.36 (KHTML, like Gecko) Chrome/79.0.3945.130 Safari/537.36",
            "x-csrftoken": "",
            "x-requested-with": "XMLHttpRequest"
        },
        "payload": {
            "promotion_id": 259729439916032
        },
        "response_status": 200,
        "response_text": {
            "error_messages": null,
            "bff_meta": null,
            "error": null,
            "error_msg": null
        }
    },
    "enable_seller_voucher_C": {
        "url": "https://dl-admin.staging.shopee.vn/api/gateway/v1/pages/mart/voucher/restore_voucher",
        "headers": {
            "user-agent": "Mozilla/5.0 (Windows NT 10.0; Win64; x64) AppleWebKit/537.36 (KHTML, like Gecko) Chrome/79.0.3945.130 Safari/537.36",
            "x-csrftoken": "",
            "x-requested-with": "XMLHttpRequest"
        },
        "payload": {
            "promotion_id": 259729817468928
        },
        "response_status": 200,
        "response_text": {
            "error_messages": null,
            "bff_meta": null,
            "error": null,
            "error_msg": null
        }
    },
    "enable_seller_voucher_D": {
        "url": "https://dl-admin.staging.shopee.vn/api/gateway/v1/pages/mart/voucher/restore_voucher",
        "headers": {
            "user-agent": "Mozilla/5.0 (Windows NT 10.0; Win64; x64) AppleWebKit/537.36 (KHTML, like Gecko) Chrome/79.0.3945.130 Safari/537.36",
            "x-csrftoken": "",
            "x-requested-with": "XMLHttpRequest"
        },
        "payload": {
            "promotion_id": 259730169806848
        },
        "response_status": 200,
        "response_text": {
            "error_messages": null,
            "bff_meta": null,
            "error": null,
            "error_msg": null
        }
    },
    "enable_seller_voucher_E": {
        "url": "https://dl-admin.staging.shopee.vn/api/gateway/v1/pages/mart/voucher/restore_voucher",
        "headers": {
            "user-agent": "Mozilla/5.0 (Windows NT 10.0; Win64; x64) AppleWebKit/537.36 (KHTML, like Gecko) Chrome/79.0.3945.130 Safari/537.36",
            "x-csrftoken": "",
            "x-requested-with": "XMLHttpRequest"
        },
        "payload": {
            "promotion_id": 259730874335232
        },
        "response_status": 200,
        "response_text": {
            "error_messages": null,
            "bff_meta": null,
            "error": null,
            "error_msg": null
        }
    },
    "enable_seller_voucher_F": {
        "url": "https://dl-admin.staging.shopee.vn/api/gateway/v1/pages/mart/voucher/restore_voucher",
        "headers": {
            "user-agent": "Mozilla/5.0 (Windows NT 10.0; Win64; x64) AppleWebKit/537.36 (KHTML, like Gecko) Chrome/79.0.3945.130 Safari/537.36",
            "x-csrftoken": "",
            "x-requested-with": "XMLHttpRequest"
        },
        "payload": {
            "promotion_id": 259731302187008
        },
        "response_status": 200,
        "response_text": {
            "error_messages": null,
            "bff_meta": null,
            "error": null,
            "error_msg": null
        }
    },
    "enable_seller_voucher_G": {
        "url": "https://dl-admin.staging.shopee.vn/api/gateway/v1/pages/mart/voucher/restore_voucher",
        "headers": {
            "user-agent": "Mozilla/5.0 (Windows NT 10.0; Win64; x64) AppleWebKit/537.36 (KHTML, like Gecko) Chrome/79.0.3945.130 Safari/537.36",
            "x-csrftoken": "",
            "x-requested-with": "XMLHttpRequest"
        },
        "payload": {
            "promotion_id": 259732191313920
        },
        "response_status": 200,
        "response_text": {
            "error_messages": null,
            "bff_meta": null,
            "error": null,
            "error_msg": null
        }
    }
}