{
    "create_shopee_voucher": {
        "url": "https://admin.promotion.staging.shopee.vn/api/gateway/v1/voucher/admin/create_shopee_voucher",
        "headers": {
            "content-type": "application/json",
            "cookie": ""
        },
        "payload": {
            "region": "VN",
            "SkipPermissionBD": false,
            "data": {
                "basic_info": {
                    "name": "ART-49535 PC public SPV in s-mart",
                    "valid_period": {
                        "gte_value": 1655193931,
                        "lte_value": 1655197531
                    },
                    "claim_period": {
                        "gte_value": 1655193931,
                        "lte_value": 1655197531
                    },
                    "non_claimable": false,
                    "non_claimable_by_code": false,
                    "voucher_code": "ZCXPOM",
                    "is_seller_absorbed": false
                },
                "reward_info": {
                    "cashback": {
                        "value": 1000000,
                        "cap": 0
                    },
                    "min_spend": 0
                },
                "quota_info": {
                    "claim_quota": 2000000000,
                    "usage_quota": 10000,
                    "quota_type": 1,
                    "usage_limit_per_user": 1
                },
                "usage_rule": {
                    "user_scope": {
                        "register_time": {
                            "gte_value": 1528963568,
                            "lte_value": 1907654768
                        },
                        "check_deleted_account": false,
                        "disable_auto_dispatch": true
                    },
                    "device_types": [2, 1, 4],
                    "logistic_scope": {
                        "channel_ids": [-1]
                    }
                },
                "display_setting": {
                    "voucher_icon": {
                        "icon_hash": "dd2e1a2b32c2609168ef68b2bdd599df",
                        "icon_text": [{
                            "language": "vi",
                            "value": "SHOPEE"
                        }, {
                            "language": "en",
                            "value": "SHOPEE"
                        }]
                    },
                    "product_scope_tag_option": 1,
                    "voucher_t_and_c_sections": [{
                        "section_title": "More details",
                        "section_content": "TEST",
                        "section_title_key": "label_title_key_more_details"
                    }]
                }
            }
        },
        "response_status": 200,
        "response_text": {
            "message": "success",
            "code": 0,
            "user_message": "success"
        }
    },
    "upload_voucher_to_shopee_mart": {
        "url": "https://dl-admin.staging.shopee.vn/api/gateway/v1/pages/mart/voucher/save_voucher",
        "headers": {
            "user-agent": "Mozilla/5.0 (Windows NT 10.0; Win64; x64) AppleWebKit/537.36 (KHTML, like Gecko) Chrome/79.0.3945.130 Safari/537.36",
            "referer": "https://dl-admin.staging.shopee.vn/mart-form-voucher?type=voucher",
            "x-csrftoken": "",
            "x-requested-with": "XMLHttpRequest"
        },
        "payload": {
            "id": 0,
            "promotion_id": 0,
            "display_settings": [],
            "operator": "demi.hsiao@shopee.com"
        },
        "response_status": 200,
        "response_text": {
            "error_messages": null,
            "bff_meta": null,
            "error": null,
            "error_msg": null
        }
    }
}