{
    "create_shopee_voucher_A": {
        "url": "https://admin.staging.shopee.vn/promotion/new/add/",
        "headers": {
            "referer": "https://admin.staging.shopee.vn/promotion/new/",
            "origin": "https://admin.staging.shopee.vn"
        },
        "payload": {
            "status": "1",
            "reward": "0",
            "value": "10",
            "discount": "0",
            "max_value": "0",
            "min_price": "0",
            "usage_limit": "3",
            "name": "ART-49519 PC SPV in s-mart A",
            "success_show_message": "",
            "push_existsing_user": "1",
            "registered": "1",
            "email_verified": "0",
            "phone_verified": "0",
            "bankaccount_linked": "0",
            "distributed_count": "",
            "length": "0",
            "banner": "",
            "delay_banner": "",
            "including_all": "1",
            "product_labels": "",
            "disable_product_labels": "",
            "scope_of_user": "0",
            "user-scope-error-custom-link": "0",
            "payment-method-type": "0",
            "logistic-promotion-rule": "0",
            "use_custom_link": "0",
            "use_link": "",
            "use_image_upload": "0",
            "image_id": "1",
            "icon_text": "SHOPEE",
            "use_custom_description": "0",
            "title": "",
            "customised_1_ms": "",
            "customised_1_th": "",
            "customised_1_id": "",
            "customised_1_zh_tw": "",
            "customised_1_vn": "",
            "customised_1_en": "",
            "customised_1_zh_cn": "",
            "customised_2_ms": "",
            "customised_2_th": "",
            "customised_2_id": "",
            "customised_2_zh_tw": "",
            "customised_2_vn": "",
            "customised_2_en": "",
            "customised_2_zh_cn": "",
            "customised_product_scope_ms": "",
            "customised_product_scope_th": "",
            "customised_product_scope_id": "",
            "customised_product_scope_zh_tw": "",
            "customised_product_scope_vn": "",
            "customised_product_scope_en": "",
            "customised_product_scope_zh_cn": "",
            "usage_term_product": "",
            "description": "auto test",
            "allow_seller_promotion": "1",
            "is_seller_absorbed": "0",
            "voucher_type": "1",
            "non_claimable": "false",
            "delay_notif": "0",
            "action_content": "",
            "payment_methods": "",
            "bin_numbers": "",
            "card_brand_ids": "",
            "devices": "",
            "trigger_friend": "false",
            "orders_live_operator": "3",
            "orders_cancelled_operator": "3",
            "by_user_tags": "false",
            "user_scope_custom_error_custom_link": "",
            "including_cat[]": "-1",
            "display_labels": "",
            "icon_hash": "f575e7f8cd82f80b6b5a003f464d25c0",
            "use_type": "1",
            "product_scope_tag": "0",
            "action_trigger": "1",
            "realtime": "1",
            "all_user": "true",
            "by_userids": "false",
            "not_show_product_scope_tag": "false",
            "mp_include_fe_categories": "-1",
            "logistics_channels": "58000,58001,50011,50010,50012,50015,50016,5000,50018,50019,50020,50021,50022,50023,50024,50025,50066,58007,58881",
            "user_scope_custom_error_title_list": "[{\"language\":\"vi\",\"value\":\"\"},{\"language\":\"en\",\"value\":\"\"}]",
            "user_scope_custom_error_content_list": "[{\"language\":\"vi\",\"value\":\"\"},{\"language\":\"en\",\"value\":\"\"}]",
            "user_scope_custom_error_custom_link_text_list": "[{\"language\":\"vi\",\"value\":\"\"},{\"language\":\"en\",\"value\":\"\"}]"
        },
        "response_status": 200,
        "response_text": {
            "message": "success",
            "code": 0,
            "user_message": "success"
        }
    },
    "create_shopee_voucher_B": {
        "url": "https://admin.staging.shopee.vn/promotion/new/add/",
        "headers": {
            "referer": "https://admin.staging.shopee.vn/promotion/new/",
            "origin": "https://admin.staging.shopee.vn"
        },
        "payload": {
            "status": "1",
            "reward": "0",
            "value": "20",
            "discount": "0",
            "max_value": "0",
            "min_price": "0",
            "usage_limit": "3",
            "name": "ART-49519 PC SPV in s-mart B",
            "success_show_message": "",
            "push_existsing_user": "1",
            "registered": "1",
            "email_verified": "0",
            "phone_verified": "0",
            "bankaccount_linked": "0",
            "distributed_count": "",
            "length": "0",
            "banner": "",
            "delay_banner": "",
            "including_all": "1",
            "product_labels": "",
            "disable_product_labels": "",
            "scope_of_user": "0",
            "user-scope-error-custom-link": "0",
            "payment-method-type": "0",
            "logistic-promotion-rule": "0",
            "use_custom_link": "0",
            "use_link": "",
            "use_image_upload": "0",
            "image_id": "1",
            "icon_text": "SHOPEE",
            "use_custom_description": "0",
            "title": "",
            "customised_1_ms": "",
            "customised_1_th": "",
            "customised_1_id": "",
            "customised_1_zh_tw": "",
            "customised_1_vn": "",
            "customised_1_en": "",
            "customised_1_zh_cn": "",
            "customised_2_ms": "",
            "customised_2_th": "",
            "customised_2_id": "",
            "customised_2_zh_tw": "",
            "customised_2_vn": "",
            "customised_2_en": "",
            "customised_2_zh_cn": "",
            "customised_product_scope_ms": "",
            "customised_product_scope_th": "",
            "customised_product_scope_id": "",
            "customised_product_scope_zh_tw": "",
            "customised_product_scope_vn": "",
            "customised_product_scope_en": "",
            "customised_product_scope_zh_cn": "",
            "usage_term_product": "",
            "description": "auto test",
            "allow_seller_promotion": "1",
            "is_seller_absorbed": "0",
            "voucher_type": "1",
            "non_claimable": "false",
            "delay_notif": "0",
            "action_content": "",
            "payment_methods": "",
            "bin_numbers": "",
            "card_brand_ids": "",
            "devices": "",
            "trigger_friend": "false",
            "orders_live_operator": "3",
            "orders_cancelled_operator": "3",
            "by_user_tags": "false",
            "user_scope_custom_error_custom_link": "",
            "including_cat[]": "-1",
            "display_labels": "",
            "icon_hash": "f575e7f8cd82f80b6b5a003f464d25c0",
            "use_type": "1",
            "product_scope_tag": "0",
            "action_trigger": "1",
            "realtime": "1",
            "all_user": "true",
            "by_userids": "false",
            "not_show_product_scope_tag": "false",
            "mp_include_fe_categories": "-1",
            "logistics_channels": "58000,58001,50011,50010,50012,50015,50016,5000,50018,50019,50020,50021,50022,50023,50024,50025,50066,58007,58881",
            "user_scope_custom_error_title_list": "[{\"language\":\"vi\",\"value\":\"\"},{\"language\":\"en\",\"value\":\"\"}]",
            "user_scope_custom_error_content_list": "[{\"language\":\"vi\",\"value\":\"\"},{\"language\":\"en\",\"value\":\"\"}]",
            "user_scope_custom_error_custom_link_text_list": "[{\"language\":\"vi\",\"value\":\"\"},{\"language\":\"en\",\"value\":\"\"}]"
        },
        "response_status": 200,
        "response_text": {
            "message": "success",
            "code": 0,
            "user_message": "success"
        }
    },
    "create_shopee_voucher_C": {
        "url": "https://admin.staging.shopee.vn/promotion/new/add/",
        "headers": {
            "referer": "https://admin.staging.shopee.vn/promotion/new/",
            "origin": "https://admin.staging.shopee.vn"
        },
        "payload": {
            "status": "1",
            "success_show_message": "",
            "push_existsing_user": "1",
            "registered": "1",
            "email_verified": "0",
            "phone_verified": "0",
            "bankaccount_linked": "0",
            "distributed_count": "",
            "name": "ART-49519 PC SPV in s-mart C",
            "length": "0",
            "non_claimable": "false",
            "usage_limit": "1",
            "value": "30",
            "discount": "0",
            "max_value": "0",
            "min_price": "0",
            "claim_start_time": "",
            "stop_dispatch_time": "",
            "start_time": "",
            "valid_duration_type": "0",
            "end_time": "",
            "banner": "",
            "delay_banner": "",
            "including_all": "1",
            "product_labels": "",
            "disable_product_labels": "",
            "scope_of_user": "3",
            "days_before_birthday": "",
            "user-scope-error-custom-link": "0",
            "payment-method-type": "0",
            "logistic-promotion-rule": "0",
            "use_custom_link": "0",
            "use_link": "",
            "use_image_upload": "0",
            "image_id": "1",
            "icon_text": "SHOPEE",
            "use_custom_description": "0",
            "title": "",
            "customised_1_ms": "",
            "customised_1_th": "",
            "customised_1_id": "",
            "customised_1_zh_tw": "",
            "customised_1_vn": "",
            "customised_1_en": "",
            "customised_1_zh_cn": "",
            "customised_1_es_mx": "",
            "customised_1_es_co": "",
            "customised_1_es_cl": "",
            "customised_1_pt_br": "",
            "customised_1_pl": "",
            "customised_1_es_es": "",
            "customised_1_fr": "",
            "customised_1_hi": "",
            "customised_2_ms": "",
            "customised_2_th": "",
            "customised_2_id": "",
            "customised_2_zh_tw": "",
            "customised_2_vn": "",
            "customised_2_en": "",
            "customised_2_zh_cn": "",
            "customised_2_es_mx": "",
            "customised_2_es_co": "",
            "customised_2_es_cl": "",
            "customised_2_pt_br": "",
            "customised_2_pl": "",
            "customised_2_es_es": "",
            "customised_2_fr": "",
            "customised_2_hi": "",
            "product_scope_tag": 0,
            "customised_tag_image_id": "",
            "customised_product_scope_ms": "",
            "customised_product_scope_th": "",
            "customised_product_scope_id": "",
            "customised_product_scope_zh_tw": "",
            "customised_product_scope_vn": "",
            "customised_product_scope_en": "",
            "customised_product_scope_zh_cn": "",
            "customised_product_scope_es_mx": "",
            "customised_product_scope_es_co": "",
            "customised_product_scope_es_cl": "",
            "customised_product_scope_pt_br": "",
            "customised_product_scope_pl": "",
            "customised_product_scope_es_es": "",
            "customised_product_scope_fr": "",
            "customised_product_scope_hi": "",
            "usage_term_product": "auto test",
            "description": "auto test",
            "allow_seller_promotion": "1",
            "is_seller_absorbed": "0",
            "voucher_type": "1",
            "use_type": "0",
            "claim_quota_value": "1",
            "quota_type": "0",
            "reward": "0",
            "action_trigger": "0",
            "delay_notif": "0",
            "action_content": "",
            "realtime": "0",
            "logistics_channels": "50010,50011,50012,50015,50016,50018,50019,50020,50021,50022,50023,50024,50025,50066,58007,58010",
            "payment_methods": "",
            "bin_numbers": "",
            "card_brand_ids": "",
            "devices": "",
            "trigger_friend": "false",
            "orders_live_operator": "3",
            "orders_cancelled_operator": "3",
            "all_user": "false",
            "by_user_tags": "true",
            "by_userids": "false",
            "user_scope_custom_error_title_list": "[{\"language\":\"vi\",\"value\":\"\"},{\"language\":\"en\",\"value\":\"\"}]",
            "user_scope_custom_error_content_list": "[{\"language\":\"vi\",\"value\":\"\"},{\"language\":\"en\",\"value\":\"\"}]",
            "user_scope_custom_error_custom_link": "",
            "user_scope_custom_error_custom_link_text_list": "[{\"language\":\"vi\",\"value\":\"\"},{\"language\":\"en\",\"value\":\"\"}]",
            "including_cat[]": "-1",
            "mp_include_fe_categories": "-1",
            "mp_exclude_fe_categories": "",
            "display_labels": "",
            "not_show_product_scope_tag": "false",
            "tag_hash": "",
            "icon_hash": "f575e7f8cd82f80b6b5a003f464d25c0"
        },
        "response_status": 200,
        "response_text": {
            "message": "success",
            "code": 0,
            "user_message": "success"
        }
    },
    "create_shopee_voucher_D": {
        "url": "https://admin.staging.shopee.vn/promotion/new/add/",
        "headers": {
            "referer": "https://admin.staging.shopee.vn/promotion/new/",
            "origin": "https://admin.staging.shopee.vn"
        },
        "payload": {
            "status": "1",
            "success_show_message": "",
            "push_existsing_user": "1",
            "registered": "1",
            "email_verified": "0",
            "phone_verified": "0",
            "bankaccount_linked": "0",
            "distributed_count": "",
            "name": "ART-49519 PC SPV in s-mart D",
            "length": "0",
            "usage_limit": "1",
            "value": "40",
            "discount": "0",
            "max_value": "0",
            "min_price": "0",
            "start_time": "",
            "end_time": "",
            "banner": "",
            "delay_banner": "",
            "including_all": "1",
            "product_labels": "",
            "disable_product_labels": "",
            "scope_of_user": "0",
            "user-scope-error-custom-link": "0",
            "payment-method-type": "0",
            "logistic-promotion-rule": "0",
            "use_custom_link": "0",
            "use_link": "",
            "use_image_upload": "0",
            "image_id": "1",
            "icon_text": "SHOPEE",
            "use_custom_description": "0",
            "title": "",
            "customised_1_ms": "",
            "customised_1_th": "",
            "customised_1_id": "",
            "customised_1_zh_tw": "",
            "customised_1_vn": "",
            "customised_1_en": "",
            "customised_1_zh_cn": "",
            "customised_1_es_mx": "",
            "customised_1_es_co": "",
            "customised_1_es_cl": "",
            "customised_1_pt_br": "",
            "customised_1_pl": "",
            "customised_1_es_es": "",
            "customised_1_fr": "",
            "customised_1_hi": "",
            "customised_2_ms": "",
            "customised_2_th": "",
            "customised_2_id": "",
            "customised_2_zh_tw": "",
            "customised_2_vn": "",
            "customised_2_en": "",
            "customised_2_zh_cn": "",
            "customised_2_es_mx": "",
            "customised_2_es_co": "",
            "customised_2_es_cl": "",
            "customised_2_pt_br": "",
            "customised_2_pl": "",
            "customised_2_es_es": "",
            "customised_2_fr": "",
            "customised_2_hi": "",
            "product_scope_tag": 0,
            "customised_tag_image_id": "",
            "customised_product_scope_ms": "",
            "customised_product_scope_th": "",
            "customised_product_scope_id": "",
            "customised_product_scope_zh_tw": "",
            "customised_product_scope_vn": "",
            "customised_product_scope_en": "",
            "customised_product_scope_zh_cn": "",
            "customised_product_scope_es_mx": "",
            "customised_product_scope_es_co": "",
            "customised_product_scope_es_cl": "",
            "customised_product_scope_pt_br": "",
            "customised_product_scope_pl": "",
            "customised_product_scope_es_es": "",
            "customised_product_scope_fr": "",
            "customised_product_scope_hi": "",
            "usage_term_product": "auto test",
            "description": "auto test",
            "allow_seller_promotion": "1",
            "is_seller_absorbed": "0",
            "voucher_type": "1",
            "use_type": "1",
            "non_claimable": "false",
            "reward": "0",
            "action_trigger": "1",
            "delay_notif": "0",
            "action_content": "",
            "realtime": "1",
            "logistics_channels": "50010,50011,50012,50015,50016,50018,50019,50020,50021,50022,50023,50024,50025,50066,58007,58010",
            "payment_methods": "",
            "bin_numbers": "",
            "card_brand_ids": "",
            "devices": "",
            "trigger_friend": "false",
            "orders_live_operator": "3",
            "orders_cancelled_operator": "3",
            "all_user": "true",
            "by_user_tags": "false",
            "by_userids": "false",
            "user_scope_custom_error_title_list": "[{\"language\":\"vi\",\"value\":\"\"},{\"language\":\"en\",\"value\":\"\"}]",
            "user_scope_custom_error_content_list": "[{\"language\":\"vi\",\"value\":\"\"},{\"language\":\"en\",\"value\":\"\"}]",
            "user_scope_custom_error_custom_link": "",
            "user_scope_custom_error_custom_link_text_list": "[{\"language\":\"vi\",\"value\":\"\"},{\"language\":\"en\",\"value\":\"\"}]",
            "including_cat[]": "-1",
            "mp_include_fe_categories": "-1",
            "mp_exclude_fe_categories": "",
            "display_labels": "",
            "stop_dispatch_time": "",
            "not_show_product_scope_tag": "false",
            "tag_hash": "",
            "icon_hash": "f575e7f8cd82f80b6b5a003f464d25c0"
        },
        "response_status": 200,
        "response_text": {
            "message": "success",
            "code": 0,
            "user_message": "success"
        }
    },
    "create_shopee_voucher_E": {
        "url": "https://admin.staging.shopee.vn/promotion/new/add/",
        "headers": {
            "referer": "https://admin.staging.shopee.vn/promotion/new/",
            "origin": "https://admin.staging.shopee.vn"
        },
        "payload": {
            "status": "1",
            "success_show_message": "",
            "push_existsing_user": "1",
            "registered": "1",
            "email_verified": "0",
            "phone_verified": "0",
            "bankaccount_linked": "0",
            "distributed_count": "",
            "name": "ART-49519 PC SPV in s-mart E",
            "length": "0",
            "usage_limit": "3",
            "value": "50",
            "discount": "0",
            "max_value": "0",
            "min_price": "0",
            "start_time": "",
            "end_time": "",
            "banner": "",
            "delay_banner": "",
            "including_all": "1",
            "product_labels": "",
            "disable_product_labels": "",
            "scope_of_user": "0",
            "user-scope-error-custom-link": "0",
            "payment-method-type": "0",
            "logistic-promotion-rule": "0",
            "use_custom_link": "0",
            "use_link": "",
            "use_image_upload": "0",
            "image_id": "1",
            "icon_text": "SHOPEE",
            "use_custom_description": "0",
            "title": "",
            "customised_1_ms": "",
            "customised_1_th": "",
            "customised_1_id": "",
            "customised_1_zh_tw": "",
            "customised_1_vn": "",
            "customised_1_en": "",
            "customised_1_zh_cn": "",
            "customised_1_es_mx": "",
            "customised_1_es_co": "",
            "customised_1_es_cl": "",
            "customised_1_pt_br": "",
            "customised_1_pl": "",
            "customised_1_es_es": "",
            "customised_1_fr": "",
            "customised_1_hi": "",
            "customised_2_ms": "",
            "customised_2_th": "",
            "customised_2_id": "",
            "customised_2_zh_tw": "",
            "customised_2_vn": "",
            "customised_2_en": "",
            "customised_2_zh_cn": "",
            "customised_2_es_mx": "",
            "customised_2_es_co": "",
            "customised_2_es_cl": "",
            "customised_2_pt_br": "",
            "customised_2_pl": "",
            "customised_2_es_es": "",
            "customised_2_fr": "",
            "customised_2_hi": "",
            "product_scope_tag": 0,
            "customised_tag_image_id": "",
            "customised_product_scope_ms": "",
            "customised_product_scope_th": "",
            "customised_product_scope_id": "",
            "customised_product_scope_zh_tw": "",
            "customised_product_scope_vn": "",
            "customised_product_scope_en": "",
            "customised_product_scope_zh_cn": "",
            "customised_product_scope_es_mx": "",
            "customised_product_scope_es_co": "",
            "customised_product_scope_es_cl": "",
            "customised_product_scope_pt_br": "",
            "customised_product_scope_pl": "",
            "customised_product_scope_es_es": "",
            "customised_product_scope_fr": "",
            "customised_product_scope_hi": "",
            "usage_term_product": "auto test",
            "description": "auto test",
            "allow_seller_promotion": "1",
            "is_seller_absorbed": "0",
            "voucher_type": "1",
            "use_type": "1",
            "non_claimable": "false",
            "reward": "0",
            "action_trigger": "1",
            "delay_notif": "0",
            "action_content": "",
            "realtime": "1",
            "logistics_channels": "50010,50011,50012,50015,50016,50018,50019,50020,50021,50022,50023,50024,50025,50066,58007,58010",
            "payment_methods": "",
            "bin_numbers": "",
            "card_brand_ids": "",
            "devices": "",
            "trigger_friend": "false",
            "orders_live_operator": "3",
            "orders_cancelled_operator": "3",
            "all_user": "true",
            "by_user_tags": "false",
            "by_userids": "false",
            "user_scope_custom_error_title_list": "[{\"language\":\"vi\",\"value\":\"\"},{\"language\":\"en\",\"value\":\"\"}]",
            "user_scope_custom_error_content_list": "[{\"language\":\"vi\",\"value\":\"\"},{\"language\":\"en\",\"value\":\"\"}]",
            "user_scope_custom_error_custom_link": "",
            "user_scope_custom_error_custom_link_text_list": "[{\"language\":\"vi\",\"value\":\"\"},{\"language\":\"en\",\"value\":\"\"}]",
            "including_cat[]": "-1",
            "mp_include_fe_categories": "-1",
            "mp_exclude_fe_categories": "",
            "display_labels": "",
            "stop_dispatch_time": "",
            "not_show_product_scope_tag": "false",
            "tag_hash": "",
            "icon_hash": "f575e7f8cd82f80b6b5a003f464d25c0"
        },
        "response_status": 200,
        "response_text": {
            "message": "success",
            "code": 0,
            "user_message": "success"
        }
    },
    "save_voucher": {
        "url": "https://staging.shopee.vn/api/v2/voucher_wallet/save_platform_voucher_by_voucher_code",
        "headers": {
            "x-csrftoken": "2AzWm32UZWjVkDvuVpf8rTRD9piUKqKu",
            "referer": "https://staging.shopee.vn/cart",
            "cookie": "",
            "Content-Type": "application/json",
            "x-api-source": "pc"
        },
        "payload": {
            "voucher_code": ""
        },
        "response_status": 200
    },
    "cart_checkout": {
        "url": "https://staging.shopee.vn/api/v4/cart/checkout",
        "headers": {
            "x-csrftoken": "2AzWm32UZWjVkDvuVpf8rTRD9piUKqKu",
            "referer": "https://staging.shopee.vn/",
            "cookie": "",
            "Content-Type": "application/json",
            "x-api-source": "pc"
        },
        "payload": {
            "selected_shop_order_ids": [{
                "shopid": 200637968,
                "item_briefs": [{
                    "itemid": 100835737,
                    "modelid": 10001020077,
                    "item_group_id": null,
                    "applied_promotion_id": 0,
                    "offerid": null,
                    "price": 120000000,
                    "quantity": 1,
                    "is_add_on_sub_item": null,
                    "add_on_deal_id": null,
                    "status": 1,
                    "cart_item_change_time": 1638871239,
                    "membership_offer_id": null
                }],
                "shop_vouchers": []
            }],
            "platform_vouchers": [{
                "shop_id": 0,
                "promotionid": 246726057263104,
                "voucher_code": "RXFC400K",
                "reward_type": 0,
                "is_applied": true,
                "is_claimed_before": true,
                "discount_value": 4000000,
                "discount_percentage": 0,
                "discount_cap": 0,
                "min_spend": 0,
                "current_spend": 120000000,
                "coin_earned": 0,
                "coin_percentage": 0,
                "collect_time": 1638871239,
                "invalid_message_code": 0,
                "new_tag": "",
                "new_voucher_available": true
            }],
            "free_shipping_voucher_info": null,
            "use_coins": false,
            "sz_device_fingerprint": "ym1j9NpaiAVryiBL0MnmRQ==|IowANlmGiaCFdnBcDUVfn2xDpMRIEwP06hVVPafbPAGXC/z32M8mVtq/tyALVH98GaoA6mcIeCFrpCjg9ls=|45rYM6e9C6SiGQ+8|03|3",
            "support_problematic_groups": true,
            "version": 3
        },
        "response_status": 200
    },
    "checkout_get": {
        "url": "https://staging.shopee.vn/api/v4/checkout/get",
        "headers": {
            "x-csrftoken": "2AzWm32UZWjVkDvuVpf8rTRD9piUKqKu",
            "referer": "https://staging.shopee.vn/checkout-page",
            "cookie": "",
            "Content-Type": "application/json",
            "x-api-source": "pc"
        },
        "payload": {
            "timestamp": 1656039955,
            "shoporders": [{
                "shop": {
                    "shopid": 200637968
                },
                "items": [{
                    "itemid": 100835737,
                    "modelid": 10001020077,
                    "quantity": 1,
                    "add_on_deal_id": 0,
                    "is_add_on_sub_item": false,
                    "item_group_id": null,
                    "insurances": []
                }],
                "shipping_id": 1
            }],
            "selected_payment_channel_data": {
                "version": 2,
                "option_info": "",
                "channel_id": 5000102,
                "channel_item_option_info": {
                    "channel_item_id": 0,
                    "credit_card_data": {
                        "bank_id": 6945,
                        "bank_name": "Citibank",
                        "card_number": "400000xxxxxx0002",
                        "expiry_date": "12-2030"
                    }
                },
                "text_info": {}
            },
            "promotion_data": {
                "use_coins": false,
                "free_shipping_voucher_info": {
                    "free_shipping_voucher_id": 0,
                    "free_shipping_voucher_code": "",
                    "disabled_reason": null,
                    "banner_info": {
                        "msg": "",
                        "learn_more_msg": ""
                    },
                    "required_be_channel_ids": [],
                    "required_spm_channels": []
                },
                "platform_vouchers": [{
                    "voucher_code": "",
                    "promotionid": 0
                }],
                "shop_vouchers": [],
                "check_shop_voucher_entrances": true,
                "auto_apply_shop_voucher": false
            },
            "fsv_selection_infos": [],
            "device_info": {
                "device_id": "",
                "device_fingerprint": "",
                "tongdun_blackbox": "",
                "buyer_payment_info": {}
            },
            "buyer_info": {
                "share_to_friends_info": {
                    "display_toggle": false,
                    "enable_toggle": false,
                    "allow_to_share": false
                },
                "kyc_info": null,
                "checkout_email": ""
            },
            "cart_type": 0,
            "client_id": 0,
            "client_event_info": {
                "is_platform_voucher_changed": false,
                "is_fsv_changed": false
            },
            "tax_info": {
                "tax_id": ""
            },
            "shipping_orders": [{
                "sync": true,
                "buyer_address_data": {
                    "addressid": 0,
                    "address_type": 0,
                    "tax_address": ""
                },
                "selected_logistic_channelid": 50023,
                "shipping_id": 1,
                "shoporder_indexes": [0],
                "selected_preferred_delivery_time_option_id": 0,
                "selected_preferred_delivery_time_slot_id": null
            }],
            "order_update_info": {},
            "checkout_price_data": {
                "merchandise_subtotal": 120000000,
                "shipping_subtotal_before_discount": 3965390000,
                "shipping_discount_subtotal": 0,
                "shipping_subtotal": 3965390000,
                "tax_payable": 0,
                "tax_exemption": 0,
                "custom_tax_subtotal": 0,
                "promocode_applied": 4000000,
                "credit_card_promotion": null,
                "shopee_coins_redeemed": null,
                "group_buy_discount": 0,
                "bundle_deals_discount": null,
                "price_adjustment": null,
                "buyer_txn_fee": 0,
                "insurance_subtotal": 0,
                "insurance_before_discount_subtotal": 0,
                "insurance_discount_subtotal": 0,
                "vat_subtotal": 0,
                "total_payable": 4081390000
            }
        },
        "response_status": 200
    },
    "place_order": {
        "url": "https://staging.shopee.vn/api/v4/checkout/place_order",
        "headers": {
            "x-csrftoken": "2AzWm32UZWjVkDvuVpf8rTRD9piUKqKu",
            "referer": "https://staging.shopee.vn/",
            "cookie": "",
            "Content-Type": "application/json",
            "x-api-source": "pc"
        },
        "payload": {},
        "response_status": 200
    },
    "dispatch_shopee_voucher": {
        "headers": {
            "referer": "https://admin.staging.shopee.vn/promotion/promotion_id/dispatch_task/",
            "user-agent": "Mozilla/5.0 (Windows NT 10.0; Win64; x64) AppleWebKit/537.36 (KHTML, like Gecko) Chrome/79.0.3945.130 Safari/537.36",
            "x-csrftoken": ""
        },
        "payload": {
            "user_tag_str": "[autovism, 1]"
        },
        "response_status": 200,
        "response_text": {
            "code": 0,
            "message": "success",
            "user_message": "success"
        },
        "url": "https://admin.staging.shopee.vn/promotion/promotion_id/dispatch_task/dispatch_by_user_tag/"
    },
    "upload_voucher_to_shopee_mart": {
        "url": "https://dl-admin.staging.shopee.vn/api/gateway/v1/pages/mart/voucher/save_voucher",
        "headers": {
            "user-agent": "Mozilla/5.0 (Windows NT 10.0; Win64; x64) AppleWebKit/537.36 (KHTML, like Gecko) Chrome/79.0.3945.130 Safari/537.36",
            "referer": "https://dl-admin.staging.shopee.vn/mart-form-voucher?type=voucher",
            "x-csrftoken": "",
            "x-requested-with": "XMLHttpRequest"
        },
        "payload": {
            "id": 0,
            "promotion_id": 0,
            "display_settings": [],
            "operator": "demi.hsiao@shopee.com"
        },
        "response_status": 200,
        "response_text": {
            "error_messages": null,
            "bff_meta": null,
            "error": null,
            "error_msg": null
        }
    }
}