{
    "get_csrftoken": {
        "url": "https://admin.staging.shopee.vn/",
        "response_status": 200,
        "cookies": {
            "sessionid": ""
        }
    },
    "create_free_shipping_voucher": {
        "headers": {
            "origin": "https://admin.staging.shopee.vn",
            "referer": "https://admin.staging.shopee.vn/promotion/new/"
        },
        "payload": {
            "status": "1",
            "success_show_message": "",
            "push_existsing_user": "1",
            "registered": "1",
            "email_verified": "0",
            "phone_verified": "0",
            "bankaccount_linked": "0",
            "distributed_count": "",
            "name": "ART-49544 PC FSV in s-mart",
            "prefix": "",
            "length": "0",
            "non_claimable": "false",
            "start_time": "",
            "end_time": "",
            "valid_duration_type": "0",
            "banner": "",
            "delay_banner": "",
            "user-scope-error-custom-link": "0",
            "scope_of_user": "2",
            "payment-method-type": "0",
            "logistic-promotion-rule": "0",
            "use_custom_link": "0",
            "use_link": "",
            "use_image_upload": "0",
            "image_id": "1",
            "icon_text": "SHOPEE",
            "use_custom_description": "1",
            "title": "FSV Dispatch",
            "customised_1_ms": "",
            "customised_1_th": "",
            "customised_1_id": "",
            "customised_1_zh_tw": "",
            "customised_1_vn": "",
            "customised_1_en": "",
            "customised_1_zh_cn": "",
            "customised_1_es_mx": "",
            "customised_1_es_co": "",
            "customised_1_es_cl": "",
            "customised_1_pt_br": "",
            "customised_1_pl": "",
            "customised_1_es_es": "",
            "customised_2_ms": "",
            "customised_2_th": "",
            "customised_2_id": "",
            "customised_2_zh_tw": "",
            "customised_2_vn": "",
            "customised_2_en": "",
            "customised_2_zh_cn": "",
            "customised_2_es_mx": "",
            "customised_2_es_co": "",
            "customised_2_es_cl": "",
            "customised_2_pt_br": "",
            "customised_2_pl": "",
            "customised_2_es_es": "",
            "product_scope_tag": "1",
            "customised_tag_image_id": "",
            "customised_product_scope_ms": "",
            "customised_product_scope_th": "",
            "customised_product_scope_id": "",
            "customised_product_scope_zh_tw": "",
            "customised_product_scope_vn": "",
            "customised_product_scope_en": "",
            "customised_product_scope_zh_cn": "",
            "customised_product_scope_es_mx": "",
            "customised_product_scope_es_co": "",
            "customised_product_scope_es_cl": "",
            "customised_product_scope_pt_br": "",
            "customised_product_scope_pl": "",
            "customised_product_scope_es_es": "",
            "usage_term_product": "test",
            "description": "test",
            "allow_seller_promotion": "1",
            "is_seller_absorbed": "0",
            "voucher_type": "1",
            "use_type": "0",
            "claim_quota_value": "2000000000",
            "quota_type": "0",
            "usage_limit": "1",
            "usage_limit_per_user": "1",
            "reward": "2",
            "action_trigger": "0",
            "delay_notif": "0",
            "action_content": "",
            "realtime": "0",
            "payment_methods": "",
            "bin_numbers": "",
            "card_brand_ids": "",
            "devices": "",
            "trigger_friend": "false",
            "orders_live_operator": "3",
            "orders_cancelled_operator": "3",
            "all_user": "false",
            "by_user_tags": "false",
            "by_userids": "true",
            "user_scope_custom_error_title_list": "[{\"language\":\"vi\",\"value\":\"\"},{\"language\":\"en\",\"value\":\"\"}]",
            "user_scope_custom_error_content_list": "[{\"language\":\"vi\",\"value\":\"\"},{\"language\":\"en\",\"value\":\"\"}]",
            "user_scope_custom_error_custom_link": "",
            "user_scope_custom_error_custom_link_text_list": "[{\"language\":\"vi\",\"value\":\"\"},{\"language\":\"en\",\"value\":\"\"}]",
            "mp_include_fe_categories": "-1",
            "including_cat[]": "-1",
            "mp_exclude_fe_categories": "",
            "product_labels": "",
            "disable_product_labels": "",
            "display_labels": "",
            "display_setting_message": "",
            "display_setting_url": "",
            "not_show_product_scope_tag": "true",
            "tag_hash":"",
            "shipping_promotion_rules": "-1",
            "icon_hash": "f575e7f8cd82f80b6b5a003f464d25c0"
        },
        "response_status": 200,
        "response_text": {
            "code": 0,
            "message": "success",
            "user_message": "success"
        },
        "url": "https://admin.staging.shopee.vn/promotion/new/add/"
    },
    "upload_voucher_to_shopee_mart": {
        "url": "https://dl-admin.staging.shopee.vn/api/gateway/v1/pages/mart/voucher/save_voucher",
        "headers": {
            "user-agent": "Mozilla/5.0 (Windows NT 10.0; Win64; x64) AppleWebKit/537.36 (KHTML, like Gecko) Chrome/79.0.3945.130 Safari/537.36",
            "referer": "https://dl-admin.staging.shopee.vn/mart-form-voucher?type=voucher",
            "x-csrftoken": "",
            "x-requested-with": "XMLHttpRequest"
        },
        "payload": {
            "id": 0,
            "promotion_id": 0,
            "display_settings": [],
            "operator": "demi.hsiao@shopee.com"
        },
        "response_status": 200,
        "response_text": {
            "error_messages": null,
            "bff_meta": null,
            "error": null,
            "error_msg": null
        }
    }
}