{
    "crm_queue": {
        "url": "https://admin.noti.staging.shopee.io/noti/admin/noti/admin/api/v1/trigger_noti",
        "headers": {
            "authority": "admin.noti.staging.shopee.io",
            "content-type": "application/json;charset=utf-8",
            "country": "VN",
            "accept": "*/*",
            "origin": "https://admin.noti.staging.shopee.io",
            "referer": "https://admin.noti.staging.shopee.io/crm-queue?id=replace_task_id&action=test-send&page=1",
            "cookie": ""
        },
        "payload": {
            "task_id":0,
            "user_noti":{
                "user_id":0,
                "place_holders":"{\" placeholder1\":\" MQ_test1\",\" placeholder2\":\" MQ_test2\"}"
            }
        },
        "response_status": 200
    }
        
}
