{
    "product_100044641": {
        "url": "https://banhang.staging.shopee.vn/api/v3/product/update_product/",
        "headers": {
            "content-type": "application/x-www-form-urlencoded",
            "cache-control": "no-cache",
            "user-agent": "Mozilla/5.0 (Windows NT 10.0; Win64; x64) AppleWebKit/537.36 (KHTML, like Gecko) Chrome/79.0.3945.130 Safari/537.36"
        },
        "query_string_parameters": {
            "SPC_CDS": "5f519cbf-ae8c-4344-92a6-3ced237648b3",
            "SPC_CDS_VER": "2",
            "version": "3.1.0"
        },
        "payload": [{
                "weight": "123",
                "boost_cool_down_seconds": 0,
                "add_on_deal": [],
                "normal_stock": 10,
                "like_count": 0,
                "promotion_source": 0,
                "images": [
                    "d43087d4f4d457f219139a6b09bd0457"
                ],
                "price_before_discount": "0.00",
                "id": 100044641,
                "in_promotion": false,
                "view_count": 0,
                "stock_locked": false,
                "use_wholesale": false,
                "price_min": "-1",
                "days_to_ship": 2,
                "model_list": [],
                "price": "2111000.00",
                "video_list": [],
                "stock": 10,
                "status": 1,
                "price_max": "-1",
                "description": "Ddddddd",
                "pre_order": false,
                "brand": "",
                "wholesale_list": [],
                "flag": "0",
                "stock_info": {
                    "normal_stock": 10,
                    "promotion_stock": 0,
                    "stock_lock_type": 0,
                    "reserved_stock": 0
                },
                "sold": 0,
                "parent_sku": "",
                "condition": 1,
                "category_path": [
                    11872,
                    12018,
                    12250
                ],
                "self_discount_id": 0,
                "use_bundle_sale": false,
                "category_status": 1,
                "name": "PD for delete",
                "tier_variation": [],
                "attribute_model": {
                    "attributes": [],
                    "attribute_model_id": 1457
                },
                "installment_tenures": {
                    "status": 0,
                    "enables": []
                },
                "banned_reason": "",
                "reserved_stock": 0,
                "flash_sale_status": "empty",
                "promotion_stock": 0,
                "size_chart": "",
                "category_recommend": [],
                "price_info": {
                    "price_lock_type": 0,
                    "normal_price": "2111000.00",
                    "promotion_price": "0.00",
                    "input_normal_price": "2111000.00",
                    "input_promotion_price": "0.00"
                },
                "dts_lock": false,
                "dimension": {
                    "width": 0,
                    "length": 0,
                    "height": 0
                }
            }],
        "response_status": 200
    },
    "product_100044642": {
        "url": "https://banhang.staging.shopee.vn/api/v3/product/update_product/",
        "headers": {
            "content-type": "application/x-www-form-urlencoded",
            "cache-control": "no-cache",
            "user-agent": "Mozilla/5.0 (Windows NT 10.0; Win64; x64) AppleWebKit/537.36 (KHTML, like Gecko) Chrome/79.0.3945.130 Safari/537.36"
        },
        "query_string_parameters": {
            "SPC_CDS": "5f519cbf-ae8c-4344-92a6-3ced237648b3",
            "SPC_CDS_VER": "2",
            "version": "3.1.0"
        },
        "payload": [{
                "weight": "111",
                "boost_cool_down_seconds": 0,
                "add_on_deal": [],
                "normal_stock": 150,
                "like_count": 0,
                "promotion_source": 0,
                "images": [
                    "bce7a010f2285b6908f9c62cd173ffc7"
                ],
                "price_before_discount": "0.00",
                "id": 100044642,
                "in_promotion": false,
                "view_count": 0,
                "stock_locked": false,
                "use_wholesale": false,
                "price_min": "-1",
                "days_to_ship": 2,
                "model_list": [],
                "price": "1560000.00",
                "video_list": [],
                "stock": 150,
                "status": 1,
                "price_max": "-1",
                "description": "Sdjeieeoeoe",
                "pre_order": false,
                "brand": "",
                "wholesale_list": [],
                "flag": "0",
                "stock_info": {
                    "normal_stock": 150,
                    "promotion_stock": 0,
                    "stock_lock_type": 0,
                    "reserved_stock": 0
                },
                "sold": 0,
                "parent_sku": "",
                "condition": 1,
                "category_path": [
                    11853,
                    11911,
                    12190
                ],
                "self_discount_id": 0,
                "use_bundle_sale": false,
                "category_status": 1,
                "name": "PD for ban",
                "tier_variation": [],
                "attribute_model": {
                    "attributes": [],
                    "attribute_model_id": 1426
                },
                "installment_tenures": {
                    "status": 0,
                    "enables": []
                },
                "banned_reason": "",
                "reserved_stock": 0,
                "flash_sale_status": "empty",
                "promotion_stock": 0,
                "size_chart": "",
                "category_recommend": [],
                "price_info": {
                    "price_lock_type": 0,
                    "normal_price": "1560000.00",
                    "promotion_price": "0.00",
                    "input_normal_price": "1560000.00",
                    "input_promotion_price": "0.00"
                },
                "dts_lock": false,
                "dimension": {
                    "width": 0,
                    "length": 0,
                    "height": 0
                }
            }],
        "response_status": 200
    }
}
