{
    "add_to_cart_prefer1": {
		"url": "https://staging.shopee.vn/api/v4/cart/add_to_cart",
		"headers": {
			"x-csrftoken": "2AzWm32UZWjVkDvuVpf8rTRD9piUKqKu",
			"referer": "https://staging.shopee.vn/",
			"cookie": "",
			"Content-Type": "application/json",
			"x-api-source": "pc"
		},
		"payload": {
			"checkout": true,
			"client_source": 1,
			"donot_add_quantity": false,
			"itemid": 100326829,
			"modelid": 10000959825,
			"quantity": 1,
			"shopid": 200005351,
			"source": "{'refer_urls':[]}",
			"update_checkout_only": false
		},
		"response_status": 200
	},
	"add_to_cart_prefer2": {
		"url": "https://staging.shopee.vn/api/v4/cart/add_to_cart",
		"headers": {
			"x-csrftoken": "2AzWm32UZWjVkDvuVpf8rTRD9piUKqKu",
			"referer": "https://staging.shopee.vn/",
			"cookie": "",
			"Content-Type": "application/json",
			"x-api-source": "pc"
		},
		"payload": {
			"checkout": true,
			"client_source": 1,
			"donot_add_quantity": false,
			"itemid": 100346511,
			"modelid": 10000959829,
			"quantity": 1,
			"shopid": 200005351,
			"source": "{'refer_urls':[]}",
			"update_checkout_only": false
		},
		"response_status": 200
	},
	"add_to_cart_prefer3": {
		"url": "https://staging.shopee.vn/api/v4/cart/add_to_cart",
		"headers": {
			"x-csrftoken": "2AzWm32UZWjVkDvuVpf8rTRD9piUKqKu",
			"referer": "https://staging.shopee.vn/",
			"cookie": "",
			"Content-Type": "application/json",
			"x-api-source": "pc"
		},
		"payload": {
			"checkout": true,
			"client_source": 1,
			"donot_add_quantity": false,
			"itemid": 100346871,
			"quantity": 1,
			"shopid": 200005351,
			"source": "{'refer_urls':[]}",
			"update_checkout_only": false
		},
		"response_status": 200
	},
	"add_to_cart_normal1": {
		"url": "https://staging.shopee.vn/api/v4/cart/add_to_cart",
		"headers": {
			"x-csrftoken": "2AzWm32UZWjVkDvuVpf8rTRD9piUKqKu",
			"referer": "https://staging.shopee.vn/",
			"cookie": "",
			"Content-Type": "application/json",
			"x-api-source": "pc"
		},
		"payload": {
			"checkout": true,
			"client_source": 1,
			"donot_add_quantity": false,
			"itemid": 100326803,
			"modelid": 10000959818,
			"quantity": 1,
			"shopid": 200005352,
			"source": "{'refer_urls':[]}",
			"update_checkout_only": false
		},
		"response_status": 200
	},
	"add_to_cart_normal2": {
		"url": "https://staging.shopee.vn/api/v4/cart/add_to_cart",
		"headers": {
			"x-csrftoken": "2AzWm32UZWjVkDvuVpf8rTRD9piUKqKu",
			"referer": "https://staging.shopee.vn/",
			"cookie": "",
			"Content-Type": "application/json",
			"x-api-source": "pc"
		},
		"payload": {
			"checkout": true,
			"client_source": 1,
			"donot_add_quantity": false,
			"itemid": 100346512,
			"modelid": 10000959831,
			"quantity": 1,
			"shopid": 200005352,
			"source": "{'refer_urls':[]}",
			"update_checkout_only": false
		},
		"response_status": 200
	},
	"add_to_cart_normal3": {
		"url": "https://staging.shopee.vn/api/v4/cart/add_to_cart",
		"headers": {
			"x-csrftoken": "2AzWm32UZWjVkDvuVpf8rTRD9piUKqKu",
			"referer": "https://staging.shopee.vn/",
			"cookie": "",
			"Content-Type": "application/json",
			"x-api-source": "pc"
		},
		"payload": {
			"checkout": true,
			"client_source": 1,
			"donot_add_quantity": false,
			"itemid": 100346872,
			"quantity": 1,
			"shopid": 200005352,
			"source": "{'refer_urls':[]}",
			"update_checkout_only": false
		},
		"response_status": 200
	},
	"add_to_cart_official1": {
		"url": "https://staging.shopee.vn/api/v4/cart/add_to_cart",
		"headers": {
			"x-csrftoken": "2AzWm32UZWjVkDvuVpf8rTRD9piUKqKu",
			"referer": "https://staging.shopee.vn/",
			"cookie": "",
			"Content-Type": "application/json",
			"x-api-source": "pc"
		},
		"payload": {
			"checkout": true,
			"client_source": 1,
			"donot_add_quantity": false,
			"itemid": 100326830,
			"modelid": 10000959827,
			"quantity": 1,
			"shopid": 200005350,
			"source": "{'refer_urls':[]}",
			"update_checkout_only": false
		},
		"response_status": 200
	},
	"add_to_cart_official2": {
		"url": "https://staging.shopee.vn/api/v4/cart/add_to_cart",
		"headers": {
			"x-csrftoken": "2AzWm32UZWjVkDvuVpf8rTRD9piUKqKu",
			"referer": "https://staging.shopee.vn/",
			"cookie": "",
			"Content-Type": "application/json",
			"x-api-source": "pc"
		},
		"payload": {
			"checkout": true,
			"client_source": 1,
			"donot_add_quantity": false,
			"itemid": 100346510,
			"modelid": 10000959833,
			"quantity": 1,
			"shopid": 200005350,
			"source": "{'refer_urls':[]}",
			"update_checkout_only": false
		},
		"response_status": 200
	},
	"add_to_cart_official3": {
		"url": "https://staging.shopee.vn/api/v4/cart/add_to_cart",
		"headers": {
			"x-csrftoken": "2AzWm32UZWjVkDvuVpf8rTRD9piUKqKu",
			"referer": "https://staging.shopee.vn/",
			"cookie": "",
			"Content-Type": "application/json",
			"x-api-source": "pc"
		},
		"payload": {
			"checkout": true,
			"client_source": 1,
			"donot_add_quantity": false,
			"itemid": 100346868,
			"quantity": 1,
			"shopid": 200005350,
			"source": "{'refer_urls':[]}",
			"update_checkout_only": false
		},
		"response_status": 200
	}
}
