{
	"get_csrftoken": {
        "url": "https://admin.staging.shopee.vn/",
        "response_status": 200,
        "cookies": {
            "sessionid": ""
        }
    },
    "create_shopee_voucher": {
        "url": "https://admin.staging.shopee.vn/promotion/new/add/",
        "headers": {
            "referer": "https://admin.staging.shopee.vn/promotion/new/",
            "origin": "https://admin.staging.shopee.vn"
        },
        "payload":{
            "status": "1",
            "success_show_message": "",
            "push_existsing_user": "1",
            "registered": "1",
            "email_verified": "0",
            "phone_verified": "0",
            "bankaccount_linked": "0",
            "distributed_count": "",
            "name": "auto SPV a partial r/r",
            "prefix": "",
            "length": "0",
            "usage_limit": "1",
            "value": "100",
            "discount": "0",
            "max_value": "0",
            "min_price": "0",
            "start_time": "",
            "end_time": "",
            "banner": "",
            "delay_banner": "",
            "including_all": "0",
            "product_labels": "1000013",
            "disable_product_labels": "",
            "scope_of_user": "0",
            "user-scope-error-custom-link": "0",
            "payment-method-type": "0",
            "logistic-promotion-rule": "0",
            "use_custom_link": "0",
            "use_link": "",
            "use_image_upload": "0",
            "image_id": "1",
            "icon_text": "SHOPEE",
            "use_custom_description": "0",
            "title": "",
            "customised_1_ms": "",
            "customised_1_th": "",
            "customised_1_id": "",
            "customised_1_zh_tw": "",
            "customised_1_vn": "",
            "customised_1_en": "partial r/r",
            "customised_1_zh_cn": "",
            "customised_2_ms": "",
            "customised_2_th": "",
            "customised_2_id": "",
            "customised_2_zh_tw": "",
            "customised_2_vn": "",
            "customised_2_en": "",
            "customised_2_zh_cn": "",
            "product_scope_tag": "0",
            "customised_product_scope_ms": "",
            "customised_product_scope_th": "",
            "customised_product_scope_id": "",
            "customised_product_scope_zh_tw": "",
            "customised_product_scope_vn": "",
            "customised_product_scope_en": "",
            "customised_product_scope_zh_cn": "",
            "usage_term_product": "test",
            "description": "test",
            "allow_seller_promotion": "1",
            "is_seller_absorbed": "0",
            "voucher_type": "0",
            "use_type": "1",
            "non_claimable": "false",
            "reward": "0",
            "action_trigger": "1",
            "delay_notif": "0",
            "action_content": "",
            "realtime": "1",
            "payment_methods": "",
            "bin_numbers": "",
            "card_brand_ids": "",
            "devices": "",
            "trigger_friend": "false",
            "orders_live_operator": "3",
            "orders_cancelled_operator": "3",
            "all_user": "true",
            "by_user_tags": "false",
            "by_userids": "false",
            "logistics_channels": "58000,58001,50011,50010,50012,50015,50016,5000,50018,50019,50020,50021,50022,50023,50024,50025,50066,58007,58881",
            "user_scope_custom_error_title_list": "[{\"language\":\"vi\",\"value\":\"\"},{\"language\":\"en\",\"value\":\"\"}]",
            "user_scope_custom_error_content_list": "[{\"language\":\"vi\",\"value\":\"\"},{\"language\":\"en\",\"value\":\"\"}]",
            "user_scope_custom_error_custom_link_text_list": "[{\"language\":\"vi\",\"value\":\"\"},{\"language\":\"en\",\"value\":\"\"}]",
            "user_scope_custom_error_custom_link": "",
            "including_cat[]": "-1",
            "stop_dispatch_time": "",
            "display_labels": "",
            "not_show_product_scope_tag": "false",
            "mp_include_fe_categories": "-1",
            "icon_hash": "6cf904801bb6a6809d91b0a0e53ef5a3"
		},
        "response_status": 200,
        "response_text": {
            "message": "success",
            "code": 0,
            "user_message": "success"
        }
    },
	"save_voucher": {
		"url": "https://staging.shopee.vn/api/v2/voucher_wallet/save_platform_voucher_by_voucher_code",
		"headers": {
			"x-csrftoken": "2AzWm32UZWjVkDvuVpf8rTRD9piUKqKu",
			"referer": "https://staging.shopee.vn/cart",
			"cookie": "",
			"Content-Type": "application/json",
			"x-api-source": "pc"
		},
		"payload": {
			"voucher_code": ""
		},
		"response_status": 200
	},
	"add_to_cart_info_1": {
		"url": "https://staging.shopee.vn/api/v4/cart/add_to_cart",
		"headers": {
			"x-csrftoken": "2AzWm32UZWjVkDvuVpf8rTRD9piUKqKu",
			"referer": "https://staging.shopee.vn/",
			"cookie": "",
			"Content-Type": "application/json",
			"x-api-source": "pc"
		},
		"payload": {
			"checkout": true,
			"client_source": 1,
			"donot_add_quantity": false,
			"itemid": 100347158,
			"quantity": 1,
			"shopid": 200006361,
			"source": "{'refer_urls':[]}",
			"update_checkout_only": false
		},
		"response_status": 200
	},
    "add_to_cart_info_2": {
		"url": "https://staging.shopee.vn/api/v4/cart/add_to_cart",
		"headers": {
			"x-csrftoken": "2AzWm32UZWjVkDvuVpf8rTRD9piUKqKu",
			"referer": "https://staging.shopee.vn/",
			"cookie": "",
			"Content-Type": "application/json",
			"x-api-source": "pc"
		},
		"payload": {
			"checkout": true,
			"client_source": 1,
			"donot_add_quantity": false,
			"itemid": 100347159,
			"quantity": 1,
			"shopid": 200006361,
			"source": "{'refer_urls':[]}",
			"update_checkout_only": false
		},
		"response_status": 200
	},
	"cart_checkout": {
		"url": "https://staging.shopee.vn/api/v4/cart/checkout",
		"headers": {
			"x-csrftoken": "2AzWm32UZWjVkDvuVpf8rTRD9piUKqKu",
			"referer": "https://staging.shopee.vn/",
			"cookie": "",
			"Content-Type": "application/json",
			"x-api-source": "pc"
		},
		"payload": {
			"platform_vouchers": [],
			"selected_shop_order_ids": [{
				"item_briefs": [{
					"add_on_deal_id": null,
					"applied_promotion_id": 0,
					"cart_item_change_time": 1618471866,
					"is_add_on_sub_item": null,
					"item_group_id": null,
					"itemid": 100347159,
					"modelid": null,
					"offerid": null,
					"price": 2345600000,
					"quantity": 1,
					"status": 1
				},
                {
					"add_on_deal_id": null,
					"applied_promotion_id": 0,
					"cart_item_change_time": 1618471866,
					"is_add_on_sub_item": null,
					"item_group_id": null,
					"itemid": 100347158,
					"modelid": null,
					"offerid": null,
					"price": 2345600000,
					"quantity": 1,
					"status": 1
				}],
				"shop_vouchers": [],
				"shopid": 200006361
			}]
		},
		"response_status": 200
	},
	"checkout_get": {
		"url": "https://staging.shopee.vn/api/v4/checkout/get",
		"headers": {
			"x-csrftoken": "2AzWm32UZWjVkDvuVpf8rTRD9piUKqKu",
			"referer": "https://staging.shopee.vn/checkout-page",
			"cookie": "",
			"Content-Type": "application/json",
			"x-api-source": "pc"
		},
		"payload": {
			"shoporders":[
                {
                   "shop":{
                      "shopid":200006361
                   },
                   "items":[
                      {
                         "itemid":100347158,
                         "modelid":7140342,
                         "add_on_deal_id":0,
                         "is_add_on_sub_item":false,
                         "item_group_id":0,
                         "quantity":1
                      },
                      {
                         "itemid":100347159,
                         "modelid":7141163,
                         "add_on_deal_id":0,
                         "is_add_on_sub_item":false,
                         "item_group_id":0,
                         "quantity":1
                      }
                   ],
                   "logistics":{
                      "recommended_channelids":null
                   },
                   "buyer_address_data":{
                      "tax_address":"",
                      "address_type":0,
                      "addressid":15874
                   },
                   "selected_logistic_channelid":50012,
                   "shipping_id":1,
                   "selected_preferred_delivery_time_option_id":0,
                   "selected_preferred_delivery_time_slot_id":null,
                   "selected_preferred_delivery_instructions":{
                      
                   }
                }
             ],
             "selected_payment_channel_data":{
                "channel_id":5000102,
                "channel_item_option_info":{
                   "credit_card_data":{
                      "bank_name":"Citibank",
                      "expiry_date":"12-2029",
                      "bank_id":6945,
                      "card_number":"400000xxxxxx0002"
                   },
                   "channel_item_id":3199
                },
                "version":2,
                "text_info":{
                   
                }
             },
             "promotion_data":{
                "use_coins":false,
                "free_shipping_voucher_info":{
                   "free_shipping_voucher_id":0,
                   "disabled_reason":null,
                   "banner_info":{
                      "msg":"",
                      "learn_more_msg":""
                   },
                   "free_shipping_voucher_code":""
                },
                "platform_vouchers":[
                   {
                      "voucher_code":"MDFZC5U4",
                      "promotionid":266715
                   }
                ],
                "shop_vouchers":[
                   
                ],
                "check_shop_voucher_entrances":true,
                "auto_apply_shop_voucher":false
             },
             "fsv_selection_infos":[
                
             ],
             "device_info":{
                "device_id":"",
                "device_fingerprint":"",
                "tongdun_blackbox":"",
                "buyer_payment_info":{
                   
                }
             },
             "cart_type":0,
             "client_id":0,
             "tax_info":{
                "tax_id":""
             },
             "shipping_orders":[
                {
                   "sync":true,
                   "logistics":{
                      "recommended_channelids":[
                         
                      ]
                   },
                   "buyer_address_data":{
                      "tax_address":"",
                      "address_type":0,
                      "addressid":15874
                   },
                   "selected_logistic_channelid":50012,
                   "shipping_id":1,
                   "shoporder_indexes":[
                      0
                   ],
                   "buyer_ic_number":"",
                   "selected_preferred_delivery_time_option_id":0,
                   "selected_preferred_delivery_time_slot_id":null,
                   "selected_preferred_delivery_instructions":{
                      
                   }
                }
             ],
             "order_update_info":{
                
             },
             "checkout_price_data":{
                "shipping_subtotal":4620000000,
                "shipping_discount_subtotal":0,
                "shipping_subtotal_before_discount":4620000000,
                "bundle_deals_discount":null,
                "group_buy_discount":0,
                "merchandise_subtotal":4691200000,
                "tax_payable":0,
                "buyer_txn_fee":0,
                "credit_card_promotion":null,
                "promocode_applied":10000000,
                "shopee_coins_redeemed":null,
                "total_payable":9301200000,
                "tax_exemption":0
             }
		},
		"response_status": 200
	},
	"place_order": {
		"url": "https://staging.shopee.vn/api/v4/checkout/place_order",
		"headers": {
			"x-csrftoken": "2AzWm32UZWjVkDvuVpf8rTRD9piUKqKu",
			"referer": "https://staging.shopee.vn/",
			"cookie": "",
			"Content-Type": "application/json",
			"x-api-source": "pc"
		},
		"payload": {},
		"response_status": 200
	},
	"get_forder_id": {
        "url": "https://oms.staging.shopee.vn/api/forder/get",
        "headers": {
            "request-id": "1606966763218289190",
            "user-agent": "Mozilla/5.0 (Windows NT 10.0; Win64; x64) AppleWebKit/537.36 (KHTML, like Gecko) Chrome/79.0.3945.130 Safari/537.36",
            "content-type": "application/x-www-form-urlencoded",
            "jwt-token": "eyJhbGciOiJIUzI1NiIsIm9wdHIiOiJ3c2EiLCJ0eXAiOiJKV1QifQ.eyJleHAiOjE4OTkxODQ5NzF9.pxUYCkWb6z-DVKutfUC-rzy17WLlpt_SuR1h6z6iGes",
            "cache-control": "no-cache"
        },
        "payload": {
            "order_id": 0,
            "country": "VN",
            "shop_id": 200006361,
            "tracking_level": 1
        },
        "response_status": 200
    },
    "pickup_done": {
        "url": "https://oms.staging.shopee.vn/api/sls/update_forder_logistic_log",
        "headers": {
            "request-id": "1606966763218289190",
            "user-agent": "Mozilla/5.0 (Windows NT 10.0; Win64; x64) AppleWebKit/537.36 (KHTML, like Gecko) Chrome/79.0.3945.130 Safari/537.36",
            "content-type": "application/x-www-form-urlencoded",
            "jwt-token": "eyJhbGciOiJIUzI1NiIsIm9wdHIiOiJ3c2EiLCJ0eXAiOiJKV1QifQ.eyJleHAiOjE4OTkxODQ5NzF9.pxUYCkWb6z-DVKutfUC-rzy17WLlpt_SuR1h6z6iGes",
            "cache-control": "no-cache"
        },
        "payload": {
            "status": 25,
            "channel_description": "ChannelDescription_DOMESTIC_DROPOFF",
            "system_time": "",
            "description": "Description_DOMESTIC_DROPOFF",
            "country": "VN",
            "ignore_status_priority": false,
            "flag": 1,
            "extra_data": "{}",
            "channel_status": "DOMESTIC_DROPOFF",
            "forder_id": 0
        },
        "response_text": {
            "header": {
                "retcode": 0
            }
        },
        "response_status": 200
    },
    "init_forder": {
        "url": "https://oms.staging.shopee.vn/api/forder/init",
        "headers": {
            "request-id": "1606966763218289190",
            "user-agent": "Mozilla/5.0 (Windows NT 10.0; Win64; x64) AppleWebKit/537.36 (KHTML, like Gecko) Chrome/79.0.3945.130 Safari/537.36",
            "content-type": "application/json",
            "jwt-token": "eyJhbGciOiJIUzI1NiIsIm9wdHIiOiJ3c2EiLCJ0eXAiOiJKV1QifQ.eyJleHAiOjE4OTkxODQ5NzF9.pxUYCkWb6z-DVKutfUC-rzy17WLlpt_SuR1h6z6iGes",
            "cache-control": "no-cache"
        },
        "response_text": {
            "header": {
                "retcode": 0
            }
        },
        "payload": {
            "ofg_id": 0,
            "order_id": 0,
            "country": "VN",
            "shop_id": 200006361,
            "user_id": 100696752,
            "channel_id": 49001
        },
        "response_status": 200
    },
    "accept_return_refund": {
        "query_string_parameters": {
            "SPC_CDS_VER": "2",
            "SPC_CDS": "174731eb-5793-45c2-aeab-346894cbe5cd"
        },
        "response_status": 200,
        "url": "https://banhang.staging.shopee.vn/api/drc/v1/offers/accept",
        "response_text": {
            "msg": "success",
            "code": 0,
            "user_msg": "",
            "request_id": "5cb8f63276cc66a20e2978388a89b618"
        },
        "payload": {
            "header": {},
            "message": {
                "offer_id": 1,
                "return_id": 57219,
                "user_id": 100006206
            }
        }
    },
    "delivery_done": {
        "url": "https://oms.staging.shopee.vn/api/sls/update_forder_logistic_log",
        "response_text": {
            "header": {
                "retcode": 0
            }
        },
        "response_status": 200,
        "payload": {
            "status": 3,
            "channel_description": "ChannelDescription_DELIVERED",
            "system_time": "",
            "description": "Description_DELIVERED",
            "country": "VN",
            "ignore_status_priority": false,
            "flag": 1,
            "extra_data": "{}",
            "channel_status": "DELIVERED",
            "forder_id": 0
        },
        "headers": {
            "request-id": "1606966763218289190",
            "user-agent": "Mozilla/5.0 (Windows NT 10.0; Win64; x64) AppleWebKit/537.36 (KHTML, like Gecko) Chrome/79.0.3945.130 Safari/537.36",
            "content-type": "application/x-www-form-urlencoded",
            "jwt-token": "eyJhbGciOiJIUzI1NiIsIm9wdHIiOiJ3c2EiLCJ0eXAiOiJKV1QifQ.eyJleHAiOjE4OTkxODQ5NzF9.pxUYCkWb6z-DVKutfUC-rzy17WLlpt_SuR1h6z6iGes",
            "cache-control": "no-cache"
        }
    },
    "get_ship_by_date": {
        "url": "https://admin.staging.shopee.vn/system/tools/order_id/",
        "response_status": 200,
        "cookies": {
            "sessionid": ""
        }
    }
}
