shopid,productid,modelid,rebate_price,promo_price,qty,promo_stock
200511186,100381653,5059456,1,2000,10,0
200511186,100381653,5059453,1,2000,15,2
200511186,100381653,5059454,1,2000,10,3
200511186,100381653,5059455,1,2000,10,6
