{
	"daily_discover":{
		"url":"http://10.129.144.38:15013/admin/contents/",
		"payload":{
            "QorResource.CID": "748082",
            "QorResource.Key": "",
            "QorResource.Value": "",
            "QorResource.Des": "VN_Automation_dailydiscover_Android"
		},
		"response_status":200
	},
	"featured_collection":{
		"url":"http://10.129.144.38:15013/admin/contents/",
		"payload":{
            "QorResource.CID": "748222",
            "QorResource.Key": "",
            "QorResource.Value": "",
            "QorResource.Des": "VN_Automation_FeaturedCollection_Android"
		},
		"response_status":200
	},
	"featured_collection_dd":{
		"url":"http://10.129.144.38:15013/admin/contents/",
		"payload":{
            "QorResource.CID": "748239",
            "QorResource.Key": "",
            "QorResource.Value": "",
            "QorResource.Des": "VN_Automation_FeaturedCollection_dd_Android"
		},
		"response_status":200
	},
	"from_same_shop":{
		"url":"http://10.129.144.38:15013/admin/contents/",
		"payload":{
            "QorResource.CID": "748094",
            "QorResource.Key": "",
            "QorResource.Value": "",
            "QorResource.Des": "VN_Automation_FromSameShop_Android"
		},
		"response_status":200
	},
	"from_same_shop_pdc":{
		"url":"http://10.129.144.38:15013/admin/contents/",
		"payload":{
            "QorResource.CID": "748282",
            "QorResource.Key": "",
            "QorResource.Value": "",
            "QorResource.Des": "VN_Automation_FromSameShop_pdc_Android"
		},
		"response_status":200
	},
	"just_for_you":{
		"url":"http://10.129.144.38:15013/admin/contents/",
		"payload":{
            "QorResource.CID": "748101",
            "QorResource.Key": "",
            "QorResource.Value": "",
            "QorResource.Des": "VN_Automation_JustForYou_Android"
		},
		"response_status":200
	},
	"microsite_item":{
		"url":"http://10.129.144.38:15013/admin/contents/",
		"payload":{
            "QorResource.CID": "78082",
            "QorResource.Key": "",
            "QorResource.Value": "",
            "QorResource.Des": "VN_Automation_MicrositeItem_Android"
		},
		"response_status":200
	},
	"microsite_shop":{
		"url":"http://10.129.144.38:15013/admin/contents/",
		"payload":{
            "QorResource.CID": "78086",
            "QorResource.Key": "",
            "QorResource.Value": "",
            "QorResource.Des": "VN_Automation_MicrositeShop_Android"
		},
		"response_status":200
	},
	"similar_product_cart":{
		"url":"http://10.129.144.38:15013/admin/contents/",
		"payload":{
            "QorResource.CID": "748104",
            "QorResource.Key": "",
            "QorResource.Value": "",
            "QorResource.Des": "VN_Automation_SimilarProduct_cart_Android"
		},
		"response_status":200
	},
	"similar_product_pdc":{
		"url":"http://10.129.144.38:15013/admin/contents/",
		"payload":{
            "QorResource.CID": "748285",
            "QorResource.Key": "",
            "QorResource.Value": "",
            "QorResource.Des": "VN_Automation_SimilarProduct_pdc_Android"
		},
		"response_status":200
	},
	"similar_product_pdp":{
		"url":"http://10.129.144.38:15013/admin/contents/",
		"payload":{
            "QorResource.CID": "748588",
            "QorResource.Key": "",
            "QorResource.Value": "",
            "QorResource.Des": "VN_Automation_SimilarProduct_pdp_Android"
		},
		"response_status":200
	},
	"top_product":{
		"url":"http://10.129.144.38:15013/admin/contents/",
		"payload":{
            "QorResource.CID": "78087",
            "QorResource.Key": "",
            "QorResource.Value": "",
            "QorResource.Des": "VN_Automation_TopProduct_Android"
		},
		"response_status":200
	},
	"trending_searches":{
		"url":"http://10.129.144.38:15013/admin/contents/",
		"payload":{
            "QorResource.CID": "748080",
            "QorResource.Key": "",
            "QorResource.Value": "",
            "QorResource.Des": "VN_Automation_TrendingSearches_Android"
		},
		"response_status":200
	},
	"you_may_also_like_cart":{
		"url":"http://10.129.144.38:15013/admin/contents/",
		"payload":{
            "QorResource.CID": "748098",
            "QorResource.Key": "",
            "QorResource.Value": "",
            "QorResource.Des": "VN_Automation_ymal_cart_Android"
		},
		"response_status":200
	},
	"you_may_also_like_pdc":{
		"url":"http://10.129.144.38:15013/admin/contents/",
		"payload":{
            "QorResource.CID": "748279",
            "QorResource.Key": "",
            "QorResource.Value": "",
            "QorResource.Des": "VN_Automation_ymal_pdc_Android"
		},
		"response_status":200
	},
	"you_may_also_like_pdp":{
		"url":"http://10.129.144.38:15013/admin/contents/",
		"payload":{
            "QorResource.CID": "748091",
            "QorResource.Key": "",
            "QorResource.Value": "",
            "QorResource.Des": "VN_Automation_ymal_pdp_Android"
		},
		"response_status":200
	},
		"cart_voucher":{
		"url":"http://10.129.144.38:15013/admin/contents/",
		"payload":{
            "QorResource.CID": "748938",
            "QorResource.Key": "",
            "QorResource.Value": "",
            "QorResource.Des": "auto_vn_cart_voucher_jocker"
		},
		"response_status":200
	}
}