{
    "get_collection_list_by_filters_compulsory_field_check_for_whole_api": {
        "api_command": "discover.collection.core.get_collection_list_by_filters?tw",
        "req": {
            },
        "response_text": {
            "error_messages":["offset is a required field", "limit is a required field", "filter is required field"]
        },
        "response_status": 19800002
    }
}