{
    "set_collection_collection_id_null": {
        "api_command": "discover.collection.core.set_collection?tw",
        "req": {
            "collection_id": null,
            "name":"api_changed"
            },
            "response_text": null,
        "response_status": 105
    },
    "set_collection_collection_id_string": {
        "api_command": "discover.collection.core.set_collection?tw",
        "req": {
            "collection_id": "steven_test",
            "name":"api_changed"
            },
            "response_text": null,
        "response_status": 105
    },
    "set_collection_collection_id_boolean": {
        "api_command": "discover.collection.core.set_collection?tw",
        "req": {
            "collection_id": true,
            "name":"api_changed"
        },
        "response_text": {
            "error_messages": [
                "collection not found"
            ]
        },
        "response_status": 19800014
    },
    "set_collection_collection_id_int": {
        "api_command": "discover.collection.core.set_collection?tw",
        "req": {
            "collection_id": 28493,
            "name":"api_changed"
            },
            "response_text": {
               
        },
        "response_status": 0
    }
}