{
    "add_collection_country_null": {
        "api_command": "discover.collection.core.add_collection?tw",
        "req": {
            "country": null,
            "collection_status": 1,
            "collection_type": 1,
            "name": "steven_spex_test"
            },
            "response_text": null,
        "response_status": 105
    },
    "add_collection_country_int": {
        "api_command": "discover.collection.core.add_collection?tw",
        "req": {
            "country": 123,
            "collection_status": 1,
            "collection_type": 1,
            "name": "steven_spex_test"
            },
            "response_text": null,
        "response_status": 105
    },
    "add_collection_country_boolean": {
        "api_command": "discover.collection.core.add_collection?tw",
        "req": {
            "country": true,
            "collection_status": 1,
            "collection_type": 1,
            "name": "steven_spex_test"
            },
            "response_text": null,
        "response_status": 105
    },
    "add_collection_country_exact_country": {
        "api_command": "discover.collection.core.add_collection?tw",
        "req": {
            "country": "tw",
            "collection_status": 1,
            "collection_type": 1,
            "name": "steven_spex_test"
            },
            "response_text": {
                "collection_id": "int_to_be_replaced"
        },
        "response_status": 0
    }
}