{
    "get_collection_item_data_collection_item_ids_list_null": {
        "api_command": "discover.collection.core.get_collection_item_data?tw",
        "req": {
            "collection_item_ids": [null],
            "disable_cache": true
            },
            "response_text": null,
        "response_status": 105
    },
    "get_collection_item_data_collection_item_ids_list_null_dict": {
        "api_command": "discover.collection.core.get_collection_item_data?tw",
        "req": {
            "collection_item_ids": [
            {}
            ],
            "disable_cache":true
            },
            "response_text": {
                "error_messages": ["collection ID must be greater than 0", "item ID must be greater than 0", "shop ID must be greater than 0"]
        },
        "response_status": 19800002
    }
}