{
    "set_collection_shop_item_list_null_list": {
        "api_command": "discover.collection.core.set_collection?tw",
        "req": {
            "collection_id": 35203,
            "set_shop_item_list": false,
            "shop_item_list":[null]
            },
            "response_text": null,
        "response_status": 105
    },
    "set_collection_shop_item_list_null_dict": {
        "api_command": "discover.collection.core.set_collection?tw",
        "req": {
            "collection_id": 35203,
            "set_shop_item_list": false,
            "shop_item_list":[{}]
            },
            "response_text": {},
        "response_status": 0
    },
    "set_collection_shop_item_list_exact_shop_item_id": {
        "api_command": "discover.collection.core.set_collection?tw",
        "req": {
            "collection_id": 35118,
            "set_shop_item_list": false,
            "shop_item_list":[{"shop_id":101131379,"item_id":200510319}]
            },
            "response_text": {},
        "response_status": 0
    }
}