{
    "get_collection_by_id_disable_cache_null": {
        "api_command": "discover.collection.core.get_collection_by_id?tw",
        "req": {
            "collection_id": 5092,
            "need_items":false,
            "need_cluster":false,
            "disable_cache":null
        },
        "response_text": null,
        "response_status": 105
    },
    "get_collection_by_id_disable_cache_string": {
        "api_command": "discover.collection.core.get_collection_by_id?tw",
        "req": {
            "collection_id": 5092,
            "need_items":false,
            "need_cluster":false,
            "disable_cache":"steven_test"
        },
        "response_text": null,
        "response_status": 105
    },
    "get_collection_by_id_disable_cache_int": {
        "api_command": "discover.collection.core.get_collection_by_id?tw",
        "req": {
            "collection_id": 5092,
            "need_items":false,
            "need_cluster":false,
            "disable_cache":12345
        },
        "response_text": {
            "collection": {
                "status":1,
                "collection_id":5092
        }
    },
        "response_status": 0
    },
    "get_collection_by_id_disable_cache_boolean": {
        "api_command": "discover.collection.core.get_collection_by_id?tw",
        "req": {
            
            "collection_id": 5092,
            "need_items":false,
            "need_cluster":false,
            "disable_cache":false
        },
        "response_text": {
            "collection": {
                "status":1,
                "collection_id":5092
            }
        },
        "response_status": 0
    }
}