{
    "set_collection_display_transparent_bg_img_null": {
        "api_command": "discover.collection.core.set_collection?tw",
        "req": {
            "collection_id": 35203,
            "display_transparent_bg_img": null
            },
            "response_text": null,
        "response_status": 105
    },
    "set_collection_display_transparent_bg_img_int": {
        "api_command": "discover.collection.core.set_collection?tw",
        "req": {
            "collection_id": 35203,
            "display_transparent_bg_img": 123
            },
            "response_text": {},
        "response_status": 0
    },
    "set_collection_display_transparent_bg_img_string": {
        "api_command": "discover.collection.core.set_collection?tw",
        "req": {
            "collection_id": 35203,
            "display_transparent_bg_img": "steven_test"
            },
            "response_text": null,
        "response_status": 105
    },
    "set_collection_display_transparent_bg_img_boolean": {
        "api_command": "discover.collection.core.set_collection?tw",
        "req": {
            "collection_id": 35118,
            "display_transparent_bg_img": false
            },
            "response_text": {},
        "response_status": 0
    }
}