{
    "get_collection_list_by_filters_compulsory_field_check_for_filter_list_no_data_in_dict": {
        "api_command": "discover.collection.core.get_collection_list_by_filters?tw",
        "req": {
            "offset": 0,
            "limit": 3,
            "filter": {
            },
            "need_items": false,
            "need_cluster": false
            },
        "response_text": {
            "error_messages":["filter is required field"]
        },
        "response_status": 19800002
    },
    "get_collection_list_by_filters_compulsory_field_check_for_filter_list_no_country_field_in_dict": {
        "api_command": "discover.collection.core.get_collection_list_by_filters?tw",
        "req": {
            "offset": 0,
            "limit": 3,
            "filter": {
            "name_contains": "string",
            "description_contains": "string",
            "ctime_min": 0,
            "ctime_max": 0,
            "recommended": false
            },
            "need_items": false,
            "need_cluster": false
            },
        "response_text": {
            "error_messages":["country is required field"]
        },
        "response_status": 19800002
    }
}