{
    "set_collection_page_template_subtitle_null": {
        "api_command": "discover.collection.core.set_collection?tw",
        "req": {
            "collection_id": 35203,
            "page_template_subtitle": null
            },
            "response_text": null,
        "response_status": 105
    },
    "set_collection_page_template_subtitle_int": {
        "api_command": "discover.collection.core.set_collection?tw",
        "req": {
            "collection_id": 35203,
            "page_template_subtitle": 123
            },
            "response_text": null,
        "response_status": 105
    },
    "set_collection_page_template_subtitle_boolean": {
        "api_command": "discover.collection.core.set_collection?tw",
        "req": {
            "collection_id": 35203,
            "page_template_subtitle": true
            },
            "response_text": null,
        "response_status": 105
    },
    "set_collection_page_template_subtitle_string": {
        "api_command": "discover.collection.core.set_collection?tw",
        "req": {
            "collection_id": 35118,
            "page_template_subtitle": "sam_test_page_template_subtitle"
            },
            "response_text": {},
        "response_status": 0
    }
}