shopid,productid,modelid,rebate_price,promo_price,qty,promo_stock
200644092,100838186,6016052,5,16000,10,10
200644092,100838187,6016053,5,16000,10,10
200644092,100838188,6016054,5,16000,10,10
200644092,100838189,6016055,5,16000,10,10
200644092,100838190,6016056,5,16000,10,10
