{
	"sign_up_with_username_and_phone":{
		"api_command": "account.core.sign_up",
		"req":{			
				"username": "howie_test_register_02088",
				"phone":"0088699922124",
				"password": "Qa123456",
				"portrait": "",
				"nickname": "",
				"region": "TW",
				"language": "zh-hant",
					"device": {
						"deviceid": "",
						"machine_code": "",
						"appversion": 0,
						"pn_token": "",
						"user_agent": "PC",
						"is_rooted": true,
						"device_fingerprint": "",
						"is_fingerprint_tempered": true,
						"fingerprint_before_temper": "",
						"gcm_subscription": "",
						"longitude": 0,
						"latitude": 0,
						"os_version": "",
						"source": "",
						"client_ip": "1.1.1.1",
						"token": "nc9xny27hbHkTpYas629cy7fl2AxsNeH",
						"language": "",
						"is_web": true,
						"geo_region": "",
						"from": "",
						"platform": "",
						"app_version_name": "",
						"appid": 0,
						"os": 0,
						"clientid": ""
					}
			},
		"response_status":0,
		"response_text":
		{
			"user":{"username":"howie_test_register_02088"}
		}
	},
	"delete_account":{
		"api_command": "account.core.delete_account",
		"req":{
				"region": "TW",
				"userid": "int_to_be_replaced",
				"audit": {
				  "operator": "howard.huang@shopee.com",
				  "comment": "TEST Deletion"
				}
			},
		"response_status":0,
		"response_text":{}
    }
}