{
	"sign_up_with_duplicated_email":{
		"api_command": "account.core.sign_up",
		"req":{
				"username": "howie_free_username",
				"email":"howie_duplicated_name@shopee.com",
				"password": "Qa123456",
				"portrait": "",
				"nickname": "",
				"region": "TW",
				"language": "zh-hant",
					"device": {
						"deviceid": "",
						"machine_code": "",
						"appversion": 0,
						"pn_token": "",
						"user_agent": "PC",
						"is_rooted": true,
						"device_fingerprint": "",
						"is_fingerprint_tempered": true,
						"fingerprint_before_temper": "",
						"gcm_subscription": "",
						"longitude": 0,
						"latitude": 0,
						"os_version": "",
						"source": "",
						"client_ip": "1.1.1.1",
						"token": "nc9xny27hbHkTpYas629cy7fl2AxsNeH",
						"language": "",
						"is_web": true,
						"geo_region": "",
						"from": "",
						"platform": "",
						"app_version_name": "",
						"appid": 0,
						"os": 0,
						"clientid": ""
					}
			},
		"response_status":10014,
		"response_text":
		{
			"debug_msg": "exist"
		}
	}
}