{
    "create_free_shipping_voucher": {
        "headers": {
            "origin": "https://admin.staging.shopee.vn",
            "referer": "https://admin.staging.shopee.vn/promotion/new/"
        },
        "payload": {
            "status": "1",
            "success_show_message": "",
            "push_existsing_user": "1",
            "registered": "1",
            "email_verified": "0",
            "phone_verified": "0",
            "bankaccount_linked": "0",
            "distributed_count": "",
            "name": "auto pc escrow rebate",
            "prefix": "",
            "length": "0",
            "non_claimable": "false",
            "start_time": "",
            "end_time": "",
            "valid_duration_type": "1",
            "banner": "",
            "delay_banner": "",
            "including_all": "1",
            "user-scope-error-custom-link": "0",
            "scope_of_user": "2",
            "payment-method-type": "0",
            "logistic-promotion-rule": "1",
            "use_custom_link": "0",
            "use_link": "",
            "use_image_upload": "0",
            "image_id": "1",
            "icon_text": "SHOPEE",
            "use_custom_description": "0",
            "title": "",
            "customised_1_ms": "",
            "customised_1_th": "",
            "customised_1_id": "",
            "customised_1_zh_tw": "",
            "customised_1_vn": "",
            "customised_1_en": "",
            "customised_1_zh_cn": "",
            "customised_1_es_mx": "",
            "customised_1_es_co": "",
            "customised_1_es_cl": "",
            "customised_1_pt_br": "",
            "customised_1_pl": "",
            "customised_1_es_es": "",
            "customised_2_ms": "",
            "customised_2_th": "",
            "customised_2_id": "",
            "customised_2_zh_tw": "",
            "customised_2_vn": "",
            "customised_2_en": "",
            "customised_2_zh_cn": "",
            "customised_2_es_mx": "",
            "customised_2_es_co": "",
            "customised_2_es_cl": "",
            "customised_2_pt_br": "",
            "customised_2_pl": "",
            "customised_2_es_es": "",
            "product_scope_tag": "1",
            "customised_tag_image_id": "",
            "customised_product_scope_ms": "",
            "customised_product_scope_th": "",
            "customised_product_scope_id": "",
            "customised_product_scope_zh_tw": "",
            "customised_product_scope_vn": "",
            "customised_product_scope_en": "",
            "customised_product_scope_zh_cn": "",
            "customised_product_scope_es_mx": "",
            "customised_product_scope_es_co": "",
            "customised_product_scope_es_cl": "",
            "customised_product_scope_pt_br": "",
            "customised_product_scope_pl": "",
            "customised_product_scope_es_es": "",
            "usage_term_product": "test",
            "description": "test",
            "allow_seller_promotion": "1",
            "is_seller_absorbed": "0",
            "voucher_type": "1",
            "use_type": "0",
            "claim_quota_value": "2000000000",
            "quota_type": "0",
            "usage_limit": "1",
            "usage_limit_per_user": "1",
            "reward": "2",
            "action_trigger": "0",
            "delay_notif": "0",
            "action_content": "",
            "realtime": "0",
            "payment_methods": "",
            "bin_numbers": "",
            "card_brand_ids": "",
            "devices": "",
            "deences": "",
            "trigger_friend": "false",
            "orders_live_operator": "3",
            "orders_cancelled_operator": "3",
            "all_user": "false",
            "by_user_tags": "false",
            "by_userids": "true",
            "user_scope_custom_error_title_list": "[{\"language\":\"vi\",\"value\":\"\"},{\"language\":\"en\",\"value\":\"\"}]",
            "user_scope_custom_error_content_list": "[{\"language\":\"vi\",\"value\":\"\"},{\"language\":\"en\",\"value\":\"\"}]",
            "user_scope_custom_error_custom_link": "",
            "user_scope_custom_error_custom_link_text_list": "[{\"language\":\"vi\",\"value\":\"\"},{\"language\":\"en\",\"value\":\"\"}]",
            "mp_include_fe_categories": "-1",
            "including_cat[]": "-1",
            "mp_exclude_fe_categories": "",
            "product_labels": "",
            "disable_product_labels": "",
            "display_labels": "",
            "display_setting_message": "",
            "display_setting_url": "",
            "not_show_product_scope_tag": "true",
            "tag_hash":"",
            "shipping_promotion_rules": "14492",
            "icon_hash": "f575e7f8cd82f80b6b5a003f464d25c0"
        },
        "response_status": 200,
        "response_text": {
            "code": 0,
            "message": "success",
            "user_message": "success"
        },
        "url": "https://admin.staging.shopee.vn/promotion/new/add/"
    },
    "upload_dispatch_user": {
        "headers": {
            "referer": "https://admin.staging.shopee.vn/promotion/promotion_id/dispatch_task/",
            "user-agent": "Mozilla/5.0 (Windows NT 10.0; Win64; x64) AppleWebKit/537.36 (KHTML, like Gecko) Chrome/79.0.3945.130 Safari/537.36",
            "x-csrftoken": ""
        },
        "files":{
            "file": "",
            "Content-Type": "application/vnd.ms-excel"
        },
        "response_status": 200,
        "response_text": {
            "code": 0,
            "message": "success",
            "user_message": "success"
        },
        "url": "https://admin.staging.shopee.vn/promotion/promotion_id/dispatch_task/import/"
    },
    "dispatch_free_shipping_voucher": {
        "headers": {
            "referer": "https://admin.staging.shopee.vn/promotion/promotion_id/dispatch_task/",
            "user-agent": "Mozilla/5.0 (Windows NT 10.0; Win64; x64) AppleWebKit/537.36 (KHTML, like Gecko) Chrome/79.0.3945.130 Safari/537.36",
            "x-csrftoken": ""
        },
        "response_status": 200,
        "response_text": {
            "code": 0,
            "message": "success",
            "user_message": "success"
        },
        "url": "https://admin.staging.shopee.vn/promotion/promotion_id/dispatch_task/dispatch/"
    },
    "get_csrftoken": {
        "url": "https://admin.staging.shopee.vn/",
        "response_status": 200,
        "cookies": {
            "sessionid": ""
        }
    },
    "create_seller_voucher_A": {
        "url": "https://admin.staging.shopee.vn/promotion/seller_vouchers/new/add/",
        "headers": {
            "user-agent": "Mozilla/5.0 (Windows NT 10.0; Win64; x64) AppleWebKit/537.36 (KHTML, like Gecko) Chrome/79.0.3945.130 Safari/537.36",
            "referer": "https://admin.staging.shopee.vn/promotion/seller_vouchers/new/",
            "x-csrftoken": "",
            "x-requested-with": "XMLHttpRequest",
            "content-type": "application/x-www-form-urlencoded; charset=UTF-8"
        },
        "payload":{
            "reward": "0",
            "shopid": "200512534",
            "name": "auto pc ART-35586",
            "prefix": "",
            "non_claimable": "false",
            "claim_quota_value": "2000000000",
            "quota_type": "0",
            "value": "70",
            "discount": "0",
            "max_value": "0",
            "coin_cashback_rate": "0",
            "coin_cashback_cap": "0",
            "min_price": "0",
            "start_time": "",
            "end_time": "",
            "is_seller_absorbed": "0",
            "display_settings": "1",
            "user_scope_custom_error_title_list": "[{\"language\":\"pt-BR\",\"value\":\"\"},{\"language\":\"en\",\"value\":\"\"}]",
            "user_scope_custom_error_content_list": "[{\"language\":\"pt-BR\",\"value\":\"\"},{\"language\":\"en\",\"value\":\"\"}]",
            "user_scope_custom_error_custom_link": "",
            "user_scope_custom_error_custom_link_text_list": "[{\"language\":\"pt-BR\",\"value\":\"\"},{\"language\":\"en\",\"value\":\"\"}]",
            "fraud_checks": "",
            "device": "",
            "logistics": "",
            "including_all": "1"
		},
        "response_status": 200,
        "response_text": {
            "message": "success",
            "code": 0,
            "user_message": "success"
        }
    },
    "save_voucher_A": {
        "url": "https://staging.shopee.vn/api/v2/voucher_wallet/save_shop_voucher",
        "headers": {
            "x-csrftoken": "2AzWm32UZWjVkDvuVpf8rTRD9piUKqKu",
            "referer": "https://staging.shopee.vn/cart",
            "cookie": "",
            "Content-Type": "application/json"
        },
        "payload": {
            "promotionid": 0,
            "voucher_code": "",
            "shopid": 200512534
        },
        "response_status": 200
    },
    "create_seller_voucher_B": {
        "url": "https://admin.staging.shopee.vn/promotion/seller_vouchers/new/add/",
        "headers": {
            "user-agent": "Mozilla/5.0 (Windows NT 10.0; Win64; x64) AppleWebKit/537.36 (KHTML, like Gecko) Chrome/79.0.3945.130 Safari/537.36",
            "referer": "https://admin.staging.shopee.vn/promotion/seller_vouchers/new/",
            "x-csrftoken": "",
            "x-requested-with": "XMLHttpRequest",
            "content-type": "application/x-www-form-urlencoded; charset=UTF-8"
        },
        "payload":{
            "reward": "0",
            "shopid": "200512535",
            "name": "auto pc ART-35587",
            "prefix": "",
            "non_claimable": "false",
            "claim_quota_value": "2000000000",
            "quota_type": "0",
            "value": "0",
            "discount": "7",
            "max_value": "0",
            "coin_cashback_rate": "0",
            "coin_cashback_cap": "0",
            "min_price": "0",
            "start_time": "",
            "end_time": "",
            "is_seller_absorbed": "0",
            "display_settings": "1",
            "user_scope_custom_error_title_list": "[{\"language\":\"pt-BR\",\"value\":\"\"},{\"language\":\"en\",\"value\":\"\"}]",
            "user_scope_custom_error_content_list": "[{\"language\":\"pt-BR\",\"value\":\"\"},{\"language\":\"en\",\"value\":\"\"}]",
            "user_scope_custom_error_custom_link": "",
            "user_scope_custom_error_custom_link_text_list": "[{\"language\":\"pt-BR\",\"value\":\"\"},{\"language\":\"en\",\"value\":\"\"}]",
            "fraud_checks": "",
            "device": "",
            "logistics": "",
            "including_all": "1"
		},
        "response_status": 200,
        "response_text": {
            "message": "success",
            "code": 0,
            "user_message": "success"
        }
    },
    "save_voucher_B": {
        "url": "https://staging.shopee.vn/api/v2/voucher_wallet/save_shop_voucher",
        "headers": {
            "x-csrftoken": "2AzWm32UZWjVkDvuVpf8rTRD9piUKqKu",
            "referer": "https://staging.shopee.vn/cart",
            "cookie": "",
            "Content-Type": "application/json"
        },
        "payload": {
            "promotionid": 0,
            "voucher_code": "",
            "shopid": 200512535
        },
        "response_status": 200
    },
    "create_seller_voucher_C": {
        "url": "https://admin.staging.shopee.vn/promotion/seller_vouchers/new/add/",
        "headers": {
            "user-agent": "Mozilla/5.0 (Windows NT 10.0; Win64; x64) AppleWebKit/537.36 (KHTML, like Gecko) Chrome/79.0.3945.130 Safari/537.36",
            "referer": "https://admin.staging.shopee.vn/promotion/seller_vouchers/new/",
            "x-csrftoken": "",
            "x-requested-with": "XMLHttpRequest",
            "content-type": "application/x-www-form-urlencoded; charset=UTF-8"
        },
        "payload":{
            "reward": "1",
            "shopid": "200512536",
            "name": "auto pc ART-35588",
            "prefix": "",
            "claim_quota_value": "2000000000",
            "quota_type": "0",
            "value": "0",
            "discount": "0",
            "max_value": "0",
            "coin_cashback_rate": "7",
            "coin_cashback_cap": "0",
            "min_price": "0",
            "start_time": "",
            "end_time": "",
            "is_seller_absorbed": "1",
            "display_settings": "1",
            "user_scope_custom_error_title_list": "[{\"language\":\"pt-BR\",\"value\":\"\"},{\"language\":\"en\",\"value\":\"\"}]",
            "user_scope_custom_error_content_list": "[{\"language\":\"pt-BR\",\"value\":\"\"},{\"language\":\"en\",\"value\":\"\"}]",
            "user_scope_custom_error_custom_link": "",
            "user_scope_custom_error_custom_link_text_list": "[{\"language\":\"pt-BR\",\"value\":\"\"},{\"language\":\"en\",\"value\":\"\"}]",
            "fraud_checks": "",
            "device": "",
            "logistics": "",
            "including_all": "1"
		},
        "response_status": 200,
        "response_text": {
            "message": "success",
            "code": 0,
            "user_message": "success"
        }
    },
    "save_voucher_C": {
        "url": "https://staging.shopee.vn/api/v2/voucher_wallet/save_shop_voucher",
        "headers": {
            "x-csrftoken": "2AzWm32UZWjVkDvuVpf8rTRD9piUKqKu",
            "referer": "https://staging.shopee.vn/cart",
            "cookie": "",
            "Content-Type": "application/json"
        },
        "payload": {
            "promotionid": 0,
            "voucher_code": "",
            "shopid": 200512536
        },
        "response_status": 200
    },
    "create_shopee_voucher": {
        "url": "https://admin.staging.shopee.vn/promotion/new/add/",
        "headers": {
            "referer": "https://admin.staging.shopee.vn/promotion/new/",
            "origin": "https://admin.staging.shopee.vn"
        },
        "payload":{
            "status": "1",
            "success_show_message": "",
            "push_existsing_user": "1",
            "registered": "1",
            "email_verified": "0",
            "phone_verified": "0",
            "bankaccount_linked": "0",
            "distributed_count": "",
            "name": "auto pc value escrow",
            "prefix": "",
            "length": "0",
            "usage_limit": "1",
            "value": "70.00",
            "discount": "0",
            "max_value": "0",
            "min_price": "0.00",
            "start_time": "",
            "end_time": "",
            "valid_duration_type": "1",
            "banner": "",
            "delay_banner": "",
            "including_all": "1",
            "product_labels": "",
            "disable_product_labels": "",
            "scope_of_user": "0",
            "user-scope-error-custom-link": "0",
            "payment-method-type": "0",
            "logistic-promotion-rule": "0",
            "use_custom_link": "0",
            "use_link": "",
            "use_image_upload": "0",
            "image_id": "1",
            "icon_text": "SHOPEE",
            "use_custom_description": "0",
            "title": "",
            "customised_1_ms": "",
            "customised_1_th": "",
            "customised_1_id": "",
            "customised_1_zh_tw": "",
            "customised_1_vn": "",
            "customised_1_en": "",
            "customised_1_zh_cn": "",
            "customised_2_ms": "",
            "customised_2_th": "",
            "customised_2_id": "",
            "customised_2_zh_tw": "",
            "customised_2_vn": "",
            "customised_2_en": "",
            "customised_2_zh_cn": "",
            "product_scope_tag": "0",
            "customised_product_scope_ms": "",
            "customised_product_scope_th": "",
            "customised_product_scope_id": "",
            "customised_product_scope_zh_tw": "",
            "customised_product_scope_vn": "",
            "customised_product_scope_en": "",
            "customised_product_scope_zh_cn": "",
            "usage_term_product": "test",
            "description": "test",
            "allow_seller_promotion": "1",
            "is_seller_absorbed": "0",
            "voucher_type": "1",
            "use_type": "1",
            "non_claimable": "false",
            "reward": "0",
            "action_trigger": "1",
            "delay_notif": "0",
            "action_content": "",
            "realtime": "1",
            "payment_methods": "",
            "bin_numbers": "",
            "card_brand_ids": "",
            "devices": "",
            "trigger_friend": "false",
            "orders_live_operator": "3",
            "orders_cancelled_operator": "3",
            "all_user": "true",
            "by_user_tags": "false",
            "by_userids": "false",
            "user_scope_custom_error_title_list": "[{\"language\":\"pt-BR\",\"value\":\"\"},{\"language\":\"en\",\"value\":\"\"}]",
            "user_scope_custom_error_content_list": "[{\"language\":\"pt-BR\",\"value\":\"\"},{\"language\":\"en\",\"value\":\"\"}]",
            "user_scope_custom_error_custom_link": "",
            "user_scope_custom_error_custom_link_text_list": "[{\"language\":\"pt-BR\",\"value\":\"\"},{\"language\":\"en\",\"value\":\"\"}]",
            "including_cat[]": "-1",
            "mp_include_fe_categories": "-1",
            "mp_exclude_fe_categories":"",
            "display_labels": "",
            "not_show_product_scope_tag": "false",
            "tag_hash": "",
            "icon_hash": "6cf904801bb6a6809d91b0a0e53ef5a3"
        },
        "response_status": 200,
        "response_text": {
            "message": "success",
            "code": 0,
            "user_message": "success"
        }
    },
    "save_voucher": {
        "url": "https://staging.shopee.vn/api/v2/voucher_wallet/save_platform_voucher_by_voucher_code",
        "headers": {
           "x-csrftoken": "2AzWm32UZWjVkDvuVpf8rTRD9piUKqKu",
           "referer": "https://staging.shopee.vn/cart",
           "cookie": "",
           "Content-Type": "application/json"
        },
        "payload": {
           "voucher_code":""
        },
        "response_status": 200
    },
    "cart_checkout": {
        "url": "https://staging.shopee.vn/api/v4/cart/checkout",
        "headers": {
            "x-csrftoken": "2AzWm32UZWjVkDvuVpf8rTRD9piUKqKu",
            "referer": "https://staging.shopee.vn/",
            "cookie": "",
            "Content-Type": "application/json",
            "x-api-source": "pc"
        },
        "payload": {
            "selected_shop_order_ids": [
                {
                "shopid": 200512536,
                "item_briefs": [
                    {
                    "itemid": 100388628,
                    "modelid": 5075301,
                    "item_group_id": null,
                    "applied_promotion_id": 0,
                    "offerid": null,
                    "price": 2133800000,
                    "quantity": 1,
                    "is_add_on_sub_item": null,
                    "add_on_deal_id": null,
                    "status": 1,
                    "cart_item_change_time": 1636709512,
                    "membership_offer_id": null
                    },
                    {
                    "itemid": 100387449,
                    "modelid": 10000072653,
                    "item_group_id": null,
                    "applied_promotion_id": 0,
                    "offerid": null,
                    "price": 4353800000,
                    "quantity": 1,
                    "is_add_on_sub_item": null,
                    "add_on_deal_id": null,
                    "status": 1,
                    "cart_item_change_time": 1636709512,
                    "membership_offer_id": null
                    }
                ],
                "shop_vouchers": [
                    {
                    "shop_id": 200512536,
                    "promotionid": 228592160079872,
                    "voucher_code": "7XYF8K0S"
                    }
                ]
                },
                {
                "shopid": 200512534,
                "item_briefs": [
                    {
                    "itemid": 100387439,
                    "modelid": 10000072642,
                    "item_group_id": null,
                    "applied_promotion_id": 0,
                    "offerid": null,
                    "price": 1233800000,
                    "quantity": 1,
                    "is_add_on_sub_item": null,
                    "add_on_deal_id": null,
                    "status": 1,
                    "cart_item_change_time": 1636709511,
                    "membership_offer_id": null
                    },
                    {
                    "itemid": 100387441,
                    "modelid": 10000072644,
                    "item_group_id": null,
                    "applied_promotion_id": 0,
                    "offerid": null,
                    "price": 4563800000,
                    "quantity": 1,
                    "is_add_on_sub_item": null,
                    "add_on_deal_id": null,
                    "status": 1,
                    "cart_item_change_time": 1636709511,
                    "membership_offer_id": null
                    }
                ],
                "shop_vouchers": [
                    {
                    "shop_id": 200512534,
                    "promotionid": 158392,
                    "voucher_code": "1LADV700N"
                    }
                ]
                },
                {
                "shopid": 200512535,
                "item_briefs": [
                    {
                    "itemid": 100387443,
                    "modelid": 10000072646,
                    "item_group_id": null,
                    "applied_promotion_id": 0,
                    "offerid": null,
                    "price": 3213800000,
                    "quantity": 1,
                    "is_add_on_sub_item": null,
                    "add_on_deal_id": null,
                    "status": 1,
                    "cart_item_change_time": 1636709511,
                    "membership_offer_id": null
                    },
                    {
                    "itemid": 100387443,
                    "modelid": 10000072647,
                    "item_group_id": null,
                    "applied_promotion_id": 0,
                    "offerid": null,
                    "price": 6543800000,
                    "quantity": 1,
                    "is_add_on_sub_item": null,
                    "add_on_deal_id": null,
                    "status": 1,
                    "cart_item_change_time": 1636709511,
                    "membership_offer_id": null
                    }
                ],
                "shop_vouchers": [
                    {
                    "shop_id": 200512535,
                    "promotionid": 228592151707648,
                    "voucher_code": "57QRP8BG"
                    }
                ]
                }
            ],
            "platform_vouchers": [
                {
                "shop_id": 0,
                "promotionid": 228592168484864,
                "voucher_code": "TIUVBZAD",
                "reward_type": 0,
                "is_applied": true,
                "is_claimed_before": true,
                "discount_value": 7000000,
                "discount_percentage": 0,
                "discount_cap": 0,
                "min_spend": 0,
                "current_spend": 21289700000,
                "coin_earned": 0,
                "coin_percentage": 0,
                "collect_time": 1636709512,
                "invalid_message_code": 0,
                "new_tag": "",
                "new_voucher_available": true
                }
            ],
            "free_shipping_voucher_info": {
                "free_shipping_voucher_id": 228592109764608,
                "free_shipping_voucher_code": "FSV-228592109764608"
            },
            "use_coins": false,
            "sz_device_fingerprint": "bHLGc2cBlP+K2TAnO5FRTQ==|2g5NVEIr9AbI+ZQbCN1DgCjgWtrpktBA5662ARmwjMURHPQII5MEBKZIykeYat3iIK7XYJkFiKmq3HBfU0Fkgw==|5fKulionksmnVBVP|03|3",
            "support_problematic_groups": true,
            "version": 3
        },
        "response_status": 200
    },
    "checkout_get": {
        "url": "https://staging.shopee.vn/api/v4/checkout/get",
        "headers": {
            "x-csrftoken": "2AzWm32UZWjVkDvuVpf8rTRD9piUKqKu",
            "referer": "https://staging.shopee.vn/checkout-page",
            "cookie": "",
            "Content-Type": "application/json",
            "x-api-source": "pc"
        },
        "payload": {
            "_cft": [11],
            "timestamp": 1636709571,
            "shoporders": [
                {
                "shop": { "shopid": 200512534 },
                "items": [
                    {
                    "itemid": 100387439,
                    "modelid": 10000072642,
                    "quantity": 1,
                    "add_on_deal_id": 0,
                    "is_add_on_sub_item": false,
                    "item_group_id": 0,
                    "insurances": []
                    },
                    {
                    "itemid": 100387441,
                    "modelid": 10000072644,
                    "quantity": 1,
                    "add_on_deal_id": 0,
                    "is_add_on_sub_item": false,
                    "item_group_id": 0,
                    "insurances": []
                    }
                ],
                "shipping_id": 1
                },
                {
                "shop": { "shopid": 200512535 },
                "items": [
                    {
                    "itemid": 100387443,
                    "modelid": 10000072646,
                    "quantity": 1,
                    "add_on_deal_id": 0,
                    "is_add_on_sub_item": false,
                    "item_group_id": 0,
                    "insurances": []
                    },
                    {
                    "itemid": 100387443,
                    "modelid": 10000072647,
                    "quantity": 1,
                    "add_on_deal_id": 0,
                    "is_add_on_sub_item": false,
                    "item_group_id": 0,
                    "insurances": []
                    }
                ],
                "shipping_id": 2
                },
                {
                "shop": { "shopid": 200512536 },
                "items": [
                    {
                    "itemid": 100387449,
                    "modelid": 10000072653,
                    "quantity": 1,
                    "add_on_deal_id": 0,
                    "is_add_on_sub_item": false,
                    "item_group_id": 0,
                    "insurances": []
                    },
                    {
                    "itemid": 100388628,
                    "modelid": 5075301,
                    "quantity": 1,
                    "add_on_deal_id": 0,
                    "is_add_on_sub_item": false,
                    "item_group_id": 0,
                    "insurances": []
                    }
                ],
                "shipping_id": 3
                }
            ],
            "selected_payment_channel_data": {
                "version": 2,
                "option_info": "",
                "channel_id": 5000102,
                "channel_item_option_info": {
                "channel_item_id": 3420,
                "credit_card_data": {
                    "bank_id": 6945,
                    "bank_name": "Citibank",
                    "card_number": "400000xxxxxx0002",
                    "expiry_date": "06-2031"
                }
                },
                "text_info": {}
            },
            "promotion_data": {
                "use_coins": false,
                "free_shipping_voucher_info": {
                "free_shipping_voucher_id": 228592109764608,
                "free_shipping_voucher_code": "FSV-228592109764608",
                "disabled_reason": null,
                "banner_info": {
                    "msg": "Đã áp dụng Mã miễn phí vận chuyển",
                    "learn_more_msg": ""
                }
                },
                "platform_vouchers": [
                { "voucher_code": "TIUVBZAD", "promotionid": 228592168484864 }
                ],
                "shop_vouchers": [
                {
                    "shopid": 200512534,
                    "promotionid": 158392,
                    "voucher_code": "1LADV700N"
                },
                {
                    "shopid": 200512535,
                    "promotionid": 228592151707648,
                    "voucher_code": "57QRP8BG"
                },
                {
                    "shopid": 200512536,
                    "promotionid": 228592160079872,
                    "voucher_code": "7XYF8K0S"
                }
                ],
                "check_shop_voucher_entrances": false,
                "auto_apply_shop_voucher": false
            },
            "fsv_selection_infos": [
                {
                "fsv_id": 228592109764608,
                "selected_shipping_ids": [1, 2, 3],
                "potentially_applied_shipping_ids": [1, 2, 3]
                }
            ],
            "device_info": {
                "device_id": "",
                "device_fingerprint": "",
                "tongdun_blackbox": "",
                "buyer_payment_info": {}
            },
            "buyer_info": {
                "share_to_friends_info": {
                "display_toggle": false,
                "enable_toggle": false,
                "allow_to_share": false
                },
                "checkout_email": ""
            },
            "cart_type": 0,
            "client_id": 0,
            "tax_info": { "tax_id": "" },
            "shipping_orders": [
                {
                "sync": true,
                "buyer_address_data": {
                    "addressid": 19435,
                    "address_type": 0,
                    "tax_address": ""
                },
                "selected_logistic_channelid": 50010,
                "shipping_id": 1,
                "shoporder_indexes": [0],
                "buyer_ic_number": "",
                "selected_preferred_delivery_time_option_id": 0,
                "selected_preferred_delivery_time_slot_id": null,
                "selected_preferred_delivery_instructions": {}
                },
                {
                "sync": true,
                "buyer_address_data": {
                    "addressid": 19435,
                    "address_type": 0,
                    "tax_address": ""
                },
                "selected_logistic_channelid": 50010,
                "shipping_id": 2,
                "shoporder_indexes": [1],
                "buyer_ic_number": "",
                "selected_preferred_delivery_time_option_id": 0,
                "selected_preferred_delivery_time_slot_id": null,
                "selected_preferred_delivery_instructions": {}
                },
                {
                "sync": true,
                "buyer_address_data": {
                    "addressid": 19435,
                    "address_type": 0,
                    "tax_address": ""
                },
                "selected_logistic_channelid": 50010,
                "shipping_id": 3,
                "shoporder_indexes": [2],
                "buyer_ic_number": "",
                "selected_preferred_delivery_time_option_id": 0,
                "selected_preferred_delivery_time_slot_id": null,
                "selected_preferred_delivery_instructions": {}
                }
            ],
            "order_update_info": {},
            "checkout_price_data": {
                "merchandise_subtotal": 22042800000,
                "total_payable": 29525250000,
                "shipping_subtotal": 8242550000,
                "shipping_subtotal_before_discount": 16485100000,
                "shipping_discount_subtotal": 8242550000,
                "tax_payable": 0,
                "tax_exemption": 0,
                "custom_tax_subtotal": 0,
                "promocode_applied": 760100000,
                "credit_card_promotion": null,
                "shopee_coins_redeemed": null,
                "group_buy_discount": 0,
                "bundle_deals_discount": null,
                "buyer_txn_fee": 0,
                "insurance_subtotal": 0,
                "insurance_before_discount_subtotal": 0,
                "insurance_discount_subtotal": 0,
                "vat_subtotal": 0
            }
        },
        "response_status": 200
    },
    "place_order": {
        "url": "https://staging.shopee.vn/api/v4/checkout/place_order",
        "headers": {
            "x-csrftoken": "2AzWm32UZWjVkDvuVpf8rTRD9piUKqKu",
            "referer": "https://staging.shopee.vn/",
            "cookie": "",
            "Content-Type": "application/json",
            "x-api-source": "pc"
        },
        "response_status": 200
    }
}