{
    "upload_product": {
        "url": "https://admin.promotion.staging.shopee.vn/api/gateway/v1/seller_discount/set_seller_discount_item_batch",
        "headers": {
            "origin": "https://admin.promotion.staging.shopee.vn",
            "referer": "https://admin.promotion.staging.shopee.vn/sd-seller-discount-create-info",
            "cookie": "",
            "user-agent": "Mozilla/5.0 (Windows NT 10.0; Win64; x64) AppleWebKit/537.36 (KHTML, like Gecko) Chrome/98.0.4758.102 Safari/537.36",
            "content-type": "application/json"
        },
        "payload": {
            "region": "VN",
            "SkipPermissionBD": false,
            "promotion_id": 1000105816,
            "items": [{
                "item_id": 103154868,
                "shop_id": 201342538,
                "model_details": [{
                    "model_id": 10009600052,
                    "status": 1,
                    "promo_price": 800000000,
                    "promo_stock": 0
                }],
                "user_item_limit": 5
            }]
        },
        "response_status": 200,
        "response_text": {
            "items": [{
                "item_id": 103154868,
                "shop_id": 201342538,
                "models": [{
                    "model_id": 10009600052,
                    "error_msg": "",
                    "operation_type": 1
                }],
                "user_item_limit_updated_model_ids": [10009600052]
            }]
        }
    },
    "cart_checkout": {
        "url": "https://staging.shopee.vn/api/v4/cart/checkout",
        "headers": {
            "x-csrftoken": "rsjqxCNAnF7u2oS6S110mWSmPpuKEMdp",
            "referer": "https://staging.shopee.vn/",
            "cookie": "",
            "Content-Type": "application/json"
        },
        "payload": {
            "selected_shop_order_ids": [{
                "shopid": 201342538,
                "item_briefs": [{
                    "itemid": 103154868,
                    "modelid": 10009600052,
                    "item_group_id": null,
                    "applied_promotion_id": 0,
                    "offerid": null,
                    "price": 2000000000,
                    "quantity": 2,
                    "is_add_on_sub_item": null,
                    "add_on_deal_id": null,
                    "status": 1,
                    "cart_item_change_time": 1636530177,
                    "membership_offer_id": null
                }],
                "shop_vouchers": []
            }],
            "platform_vouchers": [],
            "free_shipping_voucher_info": {
                "free_shipping_voucher_id": 0
            },
            "use_coins": false,
            "sz_device_fingerprint": "+VTU7ERRKmvD0hHYJ+sRMQ==|hiJhbQYaiFxCfB3iANJyQYsf4/+bps+unFG2PAXBDsWbxmI3dRjbYz7glfnHx0AwKLf6jO+Me4b29yVe30X5|8ZIwoS1jem9KlheD|03|3",
            "support_problematic_groups": true,
            "version": 3
        },
        "response_status": 200
    },
    "checkout_get": {
        "url": "https://staging.shopee.vn/api/v4/checkout/get",
        "headers": {
            "x-csrftoken": "rsjqxCNAnF7u2oS6S110mWSmPpuKEMdp",
            "referer": "https://staging.shopee.vn/checkout-page",
            "cookie": "",
            "Content-Type": "application/json",
            "x-api-source": "pc"
        },
        "payload": {
            "_cft": [1131],
            "timestamp": 1650533687,
            "shoporders": [{
                "shop": {
                    "shopid": 201342538
                },
                "items": [{
                    "itemid": 103154868,
                    "modelid": 10009600052,
                    "quantity": 2,
                    "add_on_deal_id": 0,
                    "is_add_on_sub_item": false,
                    "item_group_id": null,
                    "insurances": []
                }],
                "shipping_id": 1
            }],
            "selected_payment_channel_data": {
                "version": 1,
                "payment_channelid": 59000,
                "option_info": "",
                "text_info": {}
            },
            "promotion_data": {
                "use_coins": false,
                "free_shipping_voucher_info": {
                    "free_shipping_voucher_id": 0,
                    "free_shipping_voucher_code": "",
                    "disabled_reason": null,
                    "banner_info": {
                        "msg": "",
                        "learn_more_msg": ""
                    }
                },
                "platform_vouchers": [],
                "shop_vouchers": [],
                "check_shop_voucher_entrances": true,
                "auto_apply_shop_voucher": false
            },
            "fsv_selection_infos": [],
            "device_info": {
                "device_id": "",
                "device_fingerprint": "",
                "tongdun_blackbox": "",
                "buyer_payment_info": {}
            },
            "buyer_info": {
                "share_to_friends_info": {
                    "display_toggle": false,
                    "enable_toggle": false,
                    "allow_to_share": false
                },
                "kyc_info": null,
                "checkout_email": ""
            },
            "cart_type": 0,
            "client_id": 0,
            "tax_info": {
                "tax_id": ""
            },
            "shipping_orders": [{
                "sync": true,
                "buyer_address_data": {
                    "addressid": 18451,
                    "address_type": 0,
                    "tax_address": ""
                },
                "selected_logistic_channelid": 50023,
                "shipping_id": 1,
                "shoporder_indexes": [0],
                "selected_preferred_delivery_time_option_id": 0,
                "selected_preferred_delivery_time_slot_id": null
            }],
            "order_update_info": {},
            "checkout_price_data": {
                "merchandise_subtotal": 1600000000,
                "shipping_subtotal_before_discount": 15033750000,
                "shipping_discount_subtotal": 0,
                "shipping_subtotal": 15033750000,
                "tax_payable": 0,
                "tax_exemption": 0,
                "custom_tax_subtotal": 0,
                "promocode_applied": null,
                "credit_card_promotion": null,
                "shopee_coins_redeemed": null,
                "group_buy_discount": 0,
                "bundle_deals_discount": null,
                "buyer_txn_fee": 0,
                "insurance_subtotal": 0,
                "insurance_before_discount_subtotal": 0,
                "insurance_discount_subtotal": 0,
                "vat_subtotal": 0,
                "total_payable": 16633750000
            }
        },
        "response_status": 200
    }, 
    "place_order": {
        "url": "https://staging.shopee.vn/api/v4/checkout/place_order",
        "headers": {
            "x-csrftoken": "rsjqxCNAnF7u2oS6S110mWSmPpuKEMdp",
            "referer": "https://staging.shopee.vn/",
            "cookie": "",
            "Content-Type": "application/json",
            "x-api-source": "pc"
        },
        "response_status": 200
    }
}