{
    "reorder_collection_compulsory_field_check": {
        "api_command": "discover.collection.group.reorder_collection?tw",
        "req": {},
        "response_text": {"error_messages": ["collection id is a required field", "group id is a required field", "order is a required field", "operator is a required field"]},
        "response_status": 10002
    }
}