{
    "create_group_compulsory_field_check": {
        "api_command": "discover.collection.group.create_group?tw",
        "req": {},
        "response_text": {"error_messages": ["group is a required field", "operator is a required field"]},
        "response_status": 10002
    }
}