{
    "update_group_collections_for_non_existed_group_id": {
        "api_command": "discover.collection.group.update_group_collections?tw",
        "req": {
            "group_id": 8787,
            "collection_ids": [24087],
            "operator": "steven_api_test"
        },
        "response_text": {"error_messages": ["group not found"]},
        "response_status": 33300001
    }
}