﻿shop_id,item_id,model_id,promo_price,rebate,purchase_limit,overall_promo_stock,product_display_name,extra_disc_price,extra_disc_stock,extra_disc_rebate,extra_disc_time
200667322,100970176,6419034,15000,3,3,5,flash_sale,,,,
200667322,100970177,6419036,15000,3,2,5,flash_sale,,,,
