{
    "get_pc_category": {
        "url": "https://staging.shopee.vn/api/v4/pages/get_homepage_category_list",
        "headers":{
            "Cache-Control": "no-cache"
        },
        "payload": {},
        "response_status": 200,
        "response_text": {
            "data":{
                "category_list":[
                    {
                        "catid":11000255,
                        "parent_catid":0,
                        "name":"category_banner",
                        "display_name":"category_banner",
                        "image":"915dc63e56cce04f42c0a7dd5ab67c90",
                        "unselected_image":"ee71e3c2f9e6542c95f385c073858afa",
                        "selected_image":"ee71e3c2f9e6542c95f385c073858afa",
                        "level":1
                    }
                ]
            },
            "error_msg": "",
            "error": 0
        }
    }
}