{
    "LUC_title_setting": {
        "url": "https://listingqc.staging.shopee.io/api/proxy/qc/admin/listing_qc/upload_control/api/v1/update_upload_control_rules_for_item",
        "headers": {
            "referer": "https://listingqc.staging.shopee.io/uploadcontrol/local_setting/preferredsellers",
            "cookie": "",
            "region": "VN",
            "Content-Type": "text/plain"
        },
        "payload": {
            "upload_control_rules":{
                "title_length_min":1,
                "title_length_max":120},
            "seller_category":1,
            "seller_type":3
        },
        "response_status": 200
    },
    "LUC_variation_option_setting": {
        "url": "https://listingqc.staging.shopee.io/api/proxy/qc/admin/listing_qc/upload_control/api/v1/update_upload_control_rules_for_item",
        "headers": {
            "referer": "https://listingqc.staging.shopee.io/uploadcontrol/local_setting/preferredsellers",
            "cookie": "",
            "region": "VN",
            "Content-Type": "text/plain"
        },
        "payload": {"upload_control_rules":{"variation_option_length_min":1,"variation_option_length_max":25},"seller_category":1,"seller_type":3},
        "response_status": 200
    },
    "LUC_variation_value_setting": {
        "url": "https://listingqc.staging.shopee.io/api/proxy/qc/admin/listing_qc/upload_control/api/v1/update_upload_control_rules_for_item",
        "headers": {
            "referer": "https://listingqc.staging.shopee.io/uploadcontrol/local_setting/preferredsellers",
            "cookie": "",
            "region": "VN",
            "Content-Type": "text/plain"
        },
        "payload": {"upload_control_rules":{"variation_name_length_min":1,"variation_name_length_max":20},"seller_category":1,"seller_type":3},
        "response_status": 200
    },
    "LUC_description_setting": {
        "url": "https://listingqc.staging.shopee.io/api/proxy/qc/admin/listing_qc/upload_control/api/v1/update_upload_control_rules_for_item",
        "headers": {
            "referer": "https://listingqc.staging.shopee.io/uploadcontrol/local_setting/preferredsellers",
            "cookie": "",
            "region": "VN",
            "Content-Type": "text/plain"
        },
        "payload": {"upload_control_rules":{"description_length_min":25,"description_length_max":5000},"seller_category":1,"seller_type":3},
        "response_status": 200
    },
    "LUC_image_resolution_setting": {
        "url": "https://listingqc.staging.shopee.io/api/proxy/qc/admin/listing_qc/upload_control/api/v1/update_upload_control_rules_for_item",
        "headers": {
            "referer": "https://listingqc.staging.shopee.io/uploadcontrol/local_setting/preferredsellers",
            "cookie": "",
            "region": "VN",
            "Content-Type": "text/plain"
        },
        "payload": {"upload_control_rules":{"image_width_min":1,"image_height_min":1},"seller_category":1,"seller_type":3},
        "response_status": 200
    },
    "LUC_image_quantity_setting": {
        "url": "https://listingqc.staging.shopee.io/api/proxy/qc/admin/listing_qc/upload_control/api/v1/update_upload_control_rules_for_item",
        "headers": {
            "referer": "https://listingqc.staging.shopee.io/uploadcontrol/local_setting/preferredsellers",
            "cookie": "",
            "region": "VN",
            "Content-Type": "text/plain"
        },
        "payload": {"upload_control_rules":{"image_num_min":1,"image_num_max":9},"seller_category":1,"seller_type":3},
        "response_status": 200
    },
    "LUC_price_range_setting": {
        "url": "https://listingqc.staging.shopee.io/api/proxy/qc/admin/listing_qc/upload_control/api/v1/update_upload_control_rules_for_item",
        "headers": {
            "referer": "https://listingqc.staging.shopee.io/uploadcontrol/local_setting/preferredsellers",
            "cookie": "",
            "region": "VN",
            "Content-Type": "text/plain"
        },
        "payload": {"upload_control_rules":{"price_limit_min":1000000,"price_limit_max":1200000000000000},"seller_category":1,"seller_type":3},
        "response_status": 200
    },
    "LUC_price_gap_setting": {
        "url": "https://listingqc.staging.shopee.io/api/proxy/qc/admin/listing_qc/upload_control/api/v1/update_upload_control_rules_for_item",
        "headers": {
            "referer": "https://listingqc.staging.shopee.io/uploadcontrol/local_setting/preferredsellers",
            "cookie": "",
            "region": "VN",
            "Content-Type": "text/plain"
        },
        "payload": {"upload_control_rules":{"price_gap_limit":7},"seller_category":1,"seller_type":3},
        "response_status": 200
    },
    "LUC_price_ratio_setting": {
        "url": "https://listingqc.staging.shopee.io/api/proxy/qc/admin/listing_qc/upload_control/api/v1/update_upload_control_rules_for_item",
        "headers": {
            "referer": "https://listingqc.staging.shopee.io/uploadcontrol/local_setting/preferredsellers",
            "cookie": "",
            "region": "VN",
            "Content-Type": "text/plain"
        },
        "payload": {"upload_control_rules":{"wholesale_price_min_ratio":1},"seller_category":1,"seller_type":3},
        "response_status": 200
    },
    "LUC_dts_global_setting": {
        "url": "https://listingqc.staging.shopee.io/api/proxy/qc/admin/listing_qc/upload_control/api/v1/update_upload_control_rules_for_item",
        "headers": {
            "referer": "https://listingqc.staging.shopee.io/uploadcontrol/local_setting/preferredsellers",
            "cookie": "",
            "region": "VN",
            "Content-Type": "text/plain"
        },
        "payload": {"upload_control_rules":{"cat_non_preorder_dts":3},"seller_category":1,"seller_type":3,"region":"VN"},
        "response_status": 200
    },
    "LUC_prohibited_categories_setting": {
        "url": "https://listingqc.staging.shopee.io/api/proxy/qc/admin/listing_qc/upload_control/api/v1/update_upload_control_rules_for_item",
        "headers": {
            "referer": "https://listingqc.staging.shopee.io/uploadcontrol/local_setting/preferredsellers",
            "cookie": "",
            "region": "VN",
            "Content-Type": "text/plain"
        },
        "payload": {"upload_control_rules":{"cat_blacklist_global":[100448,101306,101142,101147,101233]},"seller_category":1,"seller_type":3,"region":"VN"},
        "response_status": 200
    }
}