{
    "get_csrftoken": {
        "url": "https://admin.staging.shopee.vn/",
        "response_status": 200,
        "cookies": {
            "sessionid": ""
        }
    },
    "create_seller_voucher": {
        "url": "https://admin.staging.shopee.vn/promotion/seller_vouchers/new/add/",
        "headers": {
            "user-agent": "Mozilla/5.0 (Windows NT 10.0; Win64; x64) AppleWebKit/537.36 (KHTML, like Gecko) Chrome/79.0.3945.130 Safari/537.36",
            "referer": "https://admin.staging.shopee.vn/promotion/seller_vouchers/new/",
            "x-csrftoken": "",
            "x-requested-with": "XMLHttpRequest",
            "content-type": "application/x-www-form-urlencoded; charset=UTF-8"
        },
        "payload": {
            "reward": "0",
            "shopid": "200637968",
            "name": "auto SV check use quota",
            "prefix": "",
            "non_claimable": "false",
            "claim_quota_value": "2",
            "usage_quota_value": "1",
            "quota_type": "1",
            "value": "100",
            "discount": "0",
            "max_value": "0",
            "coin_cashback_rate": "0",
            "coin_cashback_cap": "0",
            "min_price": "0",
            "start_time": "",
            "end_time": "",
            "is_seller_absorbed": "1",
            "display_settings": "1",
            "user_scope_custom_error_title_list": "[{\"language\":\"vi\",\"value\":\"\"},{\"language\":\"en\",\"value\":\"\"}]",
            "user_scope_custom_error_content_list": "[{\"language\":\"vi\",\"value\":\"\"},{\"language\":\"en\",\"value\":\"\"}]",
            "user_scope_custom_error_custom_link": "",
            "user_scope_custom_error_custom_link_text_list": "[{\"language\":\"vi\",\"value\":\"\"},{\"language\":\"en\",\"value\":\"\"}]",
            "fraud_checks": "",
            "device": "",
            "logistics": "58000,58001,50011,50010,50012,50015,50016,5000,50018,50019,50020,50021,50022,50023,50024,50025,50066,58007,58881",
            "including_all": "1"
        },
        "response_status": 200,
        "response_text": {
            "message": "success",
            "code": 0,
            "user_message": "success"
        }
    },
    "save_voucher": {
        "url": "https://staging.shopee.vn/api/v2/voucher_wallet/save_shop_voucher",
        "headers": {
            "x-csrftoken": "2AzWm32UZWjVkDvuVpf8rTRD9piUKqKu",
            "referer": "https://staging.shopee.vn/cart",
            "cookie": "",
            "Content-Type": "application/json",
            "x-api-source": "pc"
        },
        "payload": {
            "promotionid": 0,
            "voucher_code": "",
            "shopid": 200637968
        },
        "response_status": 200
    },
    "add_to_cart_info": {
        "url": "https://staging.shopee.vn/api/v4/cart/add_to_cart",
        "headers": {
            "x-csrftoken": "2AzWm32UZWjVkDvuVpf8rTRD9piUKqKu",
            "referer": "https://staging.shopee.vn/",
            "cookie": "",
            "Content-Type": "application/json",
            "x-api-source": "pc"
        },
        "payload": {
            "quantity": 1,
            "checkout": true,
            "update_checkout_only": false,
            "donot_add_quantity": false,
            "source": "{\"refer_urls\":[]}",
            "client_source": 1,
            "shopid": 200637968,
            "itemid": 100835737,
            "modelid": 10001020077
        },
        "response_status": 200
    },
    "cart_checkout": {
        "url": "https://staging.shopee.vn/api/v4/cart/checkout",
        "headers": {
            "x-csrftoken": "2AzWm32UZWjVkDvuVpf8rTRD9piUKqKu",
            "referer": "https://staging.shopee.vn/",
            "cookie": "",
            "Content-Type": "application/json",
            "x-api-source": "pc"
        },
        "payload": {
            "selected_shop_order_ids": [{
                "shopid": 200637968,
                "item_briefs": [{
                    "itemid": 100835737,
                    "modelid": 10001020077,
                    "item_group_id": null,
                    "applied_promotion_id": 0,
                    "offerid": null,
                    "price": 120000000,
                    "quantity": 1,
                    "is_add_on_sub_item": null,
                    "add_on_deal_id": null,
                    "status": 2,
                    "cart_item_change_time": 1638260040,
                    "membership_offer_id": null
                }],
                "shop_vouchers": [{
                    "shop_id": 200637968,
                    "promotionid": 241600148013056,
                    "voucher_code": "HDIWOQ"
                }]
            }],
            "platform_vouchers": [],
            "free_shipping_voucher_info": {
                "free_shipping_voucher_id": 0
            },
            "use_coins": false,
            "sz_device_fingerprint": "mIM7DnTR4fXVpEBBuFkbgQ==|HaSm8KMa8ImyQd3wifTC5y8vundmGlZs4cOr3Hva29oBiSkj4gA0rQoeSnA+yG/HQroFeqY47qzsgU14+I8=|/hvAQkXCxlrpbg2v|03|3",
            "support_problematic_groups": true,
            "version": 3
        },
        "response_status": 200
    },
    "checkout_get": {
        "url": "https://staging.shopee.vn/api/v4/checkout/get",
        "headers": {
            "x-csrftoken": "2AzWm32UZWjVkDvuVpf8rTRD9piUKqKu",
            "referer": "https://staging.shopee.vn/checkout-page",
            "cookie": "",
            "Content-Type": "application/json",
            "x-api-source": "pc"
        },
        "payload": {
            "_cft": [11],
            "timestamp": 1638260249,
            "shoporders": [{
                "shop": {
                    "shopid": 200637968
                },
                "items": [{
                    "itemid": 100835737,
                    "modelid": 10001020077,
                    "quantity": 1,
                    "add_on_deal_id": 0,
                    "is_add_on_sub_item": false,
                    "item_group_id": 0,
                    "insurances": []
                }],
                "shipping_id": 1
            }],
            "selected_payment_channel_data": {
                "version": 2,
                "option_info": "",
                "channel_id": 5000102,
                "channel_item_option_info": {
                    "channel_item_id": 2401,
                    "credit_card_data": {
                        "bank_id": 6945,
                        "bank_name": "Citibank",
                        "card_number": "400000xxxxxx0002",
                        "expiry_date": "12-2030"
                    }
                },
                "text_info": {}
            },
            "promotion_data": {
                "use_coins": false,
                "free_shipping_voucher_info": {
                    "free_shipping_voucher_id": 0,
                    "free_shipping_voucher_code": "",
                    "disabled_reason": null,
                    "banner_info": {
                        "msg": "",
                        "learn_more_msg": ""
                    }
                },
                "platform_vouchers": [],
                "shop_vouchers": [{
                    "shopid": 200637968,
                    "promotionid": 241600148013056,
                    "voucher_code": "HDIWOQ"
                }],
                "check_shop_voucher_entrances": false,
                "auto_apply_shop_voucher": false
            },
            "fsv_selection_infos": [],
            "device_info": {
                "device_id": "",
                "device_fingerprint": "",
                "tongdun_blackbox": "",
                "buyer_payment_info": {}
            },
            "buyer_info": {
                "share_to_friends_info": {
                    "display_toggle": false,
                    "enable_toggle": false,
                    "allow_to_share": false
                },
                "checkout_email": ""
            },
            "cart_type": 0,
            "client_id": 0,
            "tax_info": {
                "tax_id": ""
            },
            "shipping_orders": [{
                "sync": true,
                "buyer_address_data": {
                    "addressid": 14077,
                    "address_type": 0,
                    "tax_address": ""
                },
                "selected_logistic_channelid": 50010,
                "shipping_id": 1,
                "shoporder_indexes": [0],
                "buyer_ic_number": "",
                "selected_preferred_delivery_time_option_id": 0,
                "selected_preferred_delivery_time_slot_id": null
            }],
            "order_update_info": {},
            "checkout_price_data": {
                "merchandise_subtotal": 120000000,
                "total_payable": 1652800000,
                "shipping_subtotal": 1542800000,
                "shipping_subtotal_before_discount": 1542800000,
                "shipping_discount_subtotal": 0,
                "tax_payable": 0,
                "tax_exemption": 0,
                "custom_tax_subtotal": 0,
                "promocode_applied": 10000000,
                "credit_card_promotion": null,
                "shopee_coins_redeemed": null,
                "group_buy_discount": 0,
                "bundle_deals_discount": null,
                "buyer_txn_fee": 0,
                "insurance_subtotal": 0,
                "insurance_before_discount_subtotal": 0,
                "insurance_discount_subtotal": 0,
                "vat_subtotal": 0
            }
        },
        "response_status": 200
    },
    "place_order": {
        "url": "https://staging.shopee.vn/api/v4/checkout/place_order",
        "headers": {
            "x-csrftoken": "2AzWm32UZWjVkDvuVpf8rTRD9piUKqKu",
            "referer": "https://staging.shopee.vn/",
            "cookie": "",
            "Content-Type": "application/json",
            "x-api-source": "pc"
        },
        "payload": {},
        "response_status": 200
    }
}