{
    "disable_voucher": {
        "url": "https://admin.staging.shopee.vn/promotion/promotion_id/disable/",
        "headers": {
            "user-agent": "Mozilla/5.0 (Windows NT 10.0; Win64; x64) AppleWebKit/537.36 (KHTML, like Gecko) Chrome/79.0.3945.130 Safari/537.36",
            "referer": "https://admin.staging.shopee.vn/promotion/seller_vouchers/promotion_id/detail/",
            "x-csrftoken": "",
            "x-requested-with": "XMLHttpRequest"
        },
        "response_status": 200,
        "response_text": {
            "message": "success",
            "code": 0,
            "user_message": "success"
        }
    }
}