{
    "get_csrftoken": {
        "url": "https://admin.staging.shopee.vn/",
        "response_status": 200,
        "cookies": {
            "sessionid": ""
        }
    },
    "create_seller_voucher": {
        "url": "https://admin.staging.shopee.vn/promotion/seller_vouchers/new/add/",
        "headers": {
            "user-agent": "Mozilla/5.0 (Windows NT 10.0; Win64; x64) AppleWebKit/537.36 (KHTML, like Gecko) Chrome/79.0.3945.130 Safari/537.36",
            "referer": "https://admin.staging.shopee.vn/promotion/seller_vouchers/new/",
            "x-csrftoken": "",
            "x-requested-with": "XMLHttpRequest",
            "content-type": "application/x-www-form-urlencoded; charset=UTF-8"
        },
        "payload":{
            "reward": "0",
            "shopid": "200699854",
            "name": "auto SV check redirection",
            "prefix": "",
            "claim_quota_value": "2000000000",
            "quota_type": "0",
            "value": "100",
            "discount": "0",
            "max_value": "0",
            "coin_cashback_rate": "0",
            "coin_cashback_cap": "0",
            "min_price": "0",
            "start_time": "",
            "end_time": "",
            "is_seller_absorbed": "1",
            "display_settings": "1",
            "user_scope_custom_error_title_list": "[{\"language\":\"vi\",\"value\":\"\"},{\"language\":\"en\",\"value\":\"\"}]",
            "user_scope_custom_error_content_list": "[{\"language\":\"vi\",\"value\":\"\"},{\"language\":\"en\",\"value\":\"\"}]",
            "user_scope_custom_error_custom_link": "",
            "user_scope_custom_error_custom_link_text_list": "[{\"language\":\"vi\",\"value\":\"\"},{\"language\":\"en\",\"value\":\"\"}]",
            "fraud_checks": "",
            "device": "",
            "logistics": "58000,58001,50011,50010,50012,50015,50016,5000,50018,50019,50020,50021,50022,50023,50024,50025,50066,58007,58881",
            "including_all": "1"
		},
        "response_status": 200,
        "response_text": {
            "message": "success",
            "code": 0,
            "user_message": "success"
        }
    }
}