{
	"vn_staging":{
		"url":"https://mkt-admin.staging.shopee.vn/mkt/fscmt/adminapi/product/review/extra_discount/approve",
		"headers":{
			"cache-control": "no-cache",
			"content-type": "application/json;charset=UTF-8",
			"user-agent": "Mozilla/5.0 (Windows NT 10.0; Win64; x64) AppleWebKit/537.36 (KHTML, like Gecko) Chrome/97.0.4692.99 Safari/537.36",
			"cookie": ""
		},
		"payload":{
			"ids": [],
			"session_id": 0
		},
		"response_status": 200
	},
	"th_staging":{
		"url":"https://mkt-admin.staging.shopee.co.th/mkt/fscmt/adminapi/product/review/extra_discount/approve",
		"headers":{
			"cache-control": "no-cache",
			"content-type": "application/json;charset=UTF-8",
			"user-agent": "Mozilla/5.0 (Windows NT 10.0; Win64; x64) AppleWebKit/537.36 (KHTML, like Gecko) Chrome/97.0.4692.99 Safari/537.36",
			"cookie": ""
		},
		"payload":{
			"ids": [],
			"session_id": 0
		},
		"response_status": 200
	},
	"id_staging":{
		"url":"https://mkt-admin.staging.shopee.co.id/mkt/fscmt/adminapi/product/review/extra_discount/approve",
		"headers":{
			"cache-control": "no-cache",
			"content-type": "application/json;charset=UTF-8",
			"user-agent": "Mozilla/5.0 (Windows NT 10.0; Win64; x64) AppleWebKit/537.36 (KHTML, like Gecko) Chrome/97.0.4692.99 Safari/537.36",
			"cookie": ""
		},
		"payload":{
			"ids": [],
			"session_id": 0
		},
		"response_status": 200
	},
	"sg_staging":{
		"url":"https://mkt-admin.staging.shopee.sg/mkt/fscmt/adminapi/product/review/extra_discount/approve",
		"headers":{
			"cache-control": "no-cache",
			"content-type": "application/json;charset=UTF-8",
			"user-agent": "Mozilla/5.0 (Windows NT 10.0; Win64; x64) AppleWebKit/537.36 (KHTML, like Gecko) Chrome/97.0.4692.99 Safari/537.36",
			"cookie": ""
		},
		"payload":{
			"ids": [],
			"session_id": 0
		},
		"response_status": 200
	},
	"pl_staging":{
		"url":"https://mkt-admin.staging.shopee.pl/mkt/fscmt/adminapi/product/review/extra_discount/approve",
		"headers":{
			"cache-control": "no-cache",
			"content-type": "application/json;charset=UTF-8",
			"user-agent": "Mozilla/5.0 (Windows NT 10.0; Win64; x64) AppleWebKit/537.36 (KHTML, like Gecko) Chrome/97.0.4692.99 Safari/537.36",
			"cookie": ""
		},
		"payload":{
			"ids": [],
			"session_id": 0
		},
		"response_status": 200
	},
	"ph_staging":{
		"url":"https://mkt-admin.staging.shopee.ph/mkt/fscmt/adminapi/product/review/extra_discount/approve",
		"headers":{
			"cache-control": "no-cache",
			"content-type": "application/json;charset=UTF-8",
			"user-agent": "Mozilla/5.0 (Windows NT 10.0; Win64; x64) AppleWebKit/537.36 (KHTML, like Gecko) Chrome/97.0.4692.99 Safari/537.36",
			"cookie": ""
		},
		"payload":{
			"ids": [],
			"session_id": 0
		},
		"response_status": 200
	},
	"my_staging":{
		"url":"https://mkt-admin.staging.shopee.com.my/mkt/fscmt/adminapi/product/review/extra_discount/approve",
		"headers":{
			"cache-control": "no-cache",
			"content-type": "application/json;charset=UTF-8",
			"user-agent": "Mozilla/5.0 (Windows NT 10.0; Win64; x64) AppleWebKit/537.36 (KHTML, like Gecko) Chrome/97.0.4692.99 Safari/537.36",
			"cookie": ""
		},
		"payload":{
			"ids": [],
			"session_id": 0
		},
		"response_status": 200
	},
	"mx_staging":{
		"url":"https://mkt-admin.staging.shopee.com.mx/mkt/fscmt/adminapi/product/review/extra_discount/approve",
		"headers":{
			"cache-control": "no-cache",
			"content-type": "application/json;charset=UTF-8",
			"user-agent": "Mozilla/5.0 (Windows NT 10.0; Win64; x64) AppleWebKit/537.36 (KHTML, like Gecko) Chrome/97.0.4692.99 Safari/537.36",
			"cookie": ""
		},
		"payload":{
			"ids": [],
			"session_id": 0
		},
		"response_status": 200
	},
	"in_staging":{
		"url":"https://mkt-admin.staging.shopee.in/mkt/fscmt/adminapi/product/review/extra_discount/approve",
		"headers":{
			"cache-control": "no-cache",
			"content-type": "application/json;charset=UTF-8",
			"user-agent": "Mozilla/5.0 (Windows NT 10.0; Win64; x64) AppleWebKit/537.36 (KHTML, like Gecko) Chrome/97.0.4692.99 Safari/537.36",
			"cookie": ""
		},
		"payload":{
			"ids": [],
			"session_id": 0
		},
		"response_status": 200
	},
	"fr_staging":{
		"url":"https://mkt-admin.staging.shopee.fr/mkt/fscmt/adminapi/product/review/extra_discount/approve",
		"headers":{
			"cache-control": "no-cache",
			"content-type": "application/json;charset=UTF-8",
			"user-agent": "Mozilla/5.0 (Windows NT 10.0; Win64; x64) AppleWebKit/537.36 (KHTML, like Gecko) Chrome/97.0.4692.99 Safari/537.36",
			"cookie": ""
		},
		"payload":{
			"ids": [],
			"session_id": 0
		},
		"response_status": 200
	},
	"es_staging":{
		"url":"https://mkt-admin.staging.shopee.es/mkt/fscmt/adminapi/product/review/extra_discount/approve",
		"headers":{
			"cache-control": "no-cache",
			"content-type": "application/json;charset=UTF-8",
			"user-agent": "Mozilla/5.0 (Windows NT 10.0; Win64; x64) AppleWebKit/537.36 (KHTML, like Gecko) Chrome/97.0.4692.99 Safari/537.36",
			"cookie": ""
		},
		"payload":{
			"ids": [],
			"session_id": 0
		},
		"response_status": 200
	},
	"co_staging":{
		"url":"https://mkt-admin.staging.shopee.com.co/mkt/fscmt/adminapi/product/review/extra_discount/approve",
		"headers":{
			"cache-control": "no-cache",
			"content-type": "application/json;charset=UTF-8",
			"user-agent": "Mozilla/5.0 (Windows NT 10.0; Win64; x64) AppleWebKit/537.36 (KHTML, like Gecko) Chrome/97.0.4692.99 Safari/537.36",
			"cookie": ""
		},
		"payload":{
			"ids": [],
			"session_id": 0
		},
		"response_status": 200
	},
	"cl_staging":{
		"url":"https://mkt-admin.staging.shopee.cl/mkt/fscmt/adminapi/product/review/extra_discount/approve",
		"headers":{
			"cache-control": "no-cache",
			"content-type": "application/json;charset=UTF-8",
			"user-agent": "Mozilla/5.0 (Windows NT 10.0; Win64; x64) AppleWebKit/537.36 (KHTML, like Gecko) Chrome/97.0.4692.99 Safari/537.36",
			"cookie": ""
		},
		"payload":{
			"ids": [],
			"session_id": 0
		},
		"response_status": 200
	},
	"br_staging":{
		"url":"https://mkt-admin.staging.shopee.com.br/mkt/fscmt/adminapi/product/review/extra_discount/approve",
		"headers":{
			"cache-control": "no-cache",
			"content-type": "application/json;charset=UTF-8",
			"user-agent": "Mozilla/5.0 (Windows NT 10.0; Win64; x64) AppleWebKit/537.36 (KHTML, like Gecko) Chrome/97.0.4692.99 Safari/537.36",
			"cookie": ""
		},
		"payload":{
			"ids": [],
			"session_id": 0
		},
		"response_status": 200
	},
	"ar_staging":{
		"url":"https://mkt-admin.staging.shopee.com.ar/mkt/fscmt/adminapi/product/review/extra_discount/approve",
		"headers":{
			"cache-control": "no-cache",
			"content-type": "application/json;charset=UTF-8",
			"user-agent": "Mozilla/5.0 (Windows NT 10.0; Win64; x64) AppleWebKit/537.36 (KHTML, like Gecko) Chrome/97.0.4692.99 Safari/537.36",
			"cookie": ""
		},
		"payload":{
			"ids": [],
			"session_id": 0
		},
		"response_status": 200
	},
	"tw_staging":{
		"url":"https://mkt-admin.staging.shopee.tw/mkt/fscmt/adminapi/product/review/extra_discount/approve",
		"headers":{
			"cache-control": "no-cache",
			"content-type": "application/json;charset=UTF-8",
			"user-agent": "Mozilla/5.0 (Windows NT 10.0; Win64; x64) AppleWebKit/537.36 (KHTML, like Gecko) Chrome/97.0.4692.99 Safari/537.36",
			"cookie": ""
		},
		"payload":{
			"ids": [],
			"session_id": 0
		},
		"response_status": 200
	}
}